{
    "builds": {
        "24D3cEMP3zViecZnB4JJoroKY31": {
            "build_name": "",
            "client_token": "74db29b0-0cfa-41de-b01f-a7829338c01e",
            "download_url": "https://builds.tuxbuild.com/24D3cEMP3zViecZnB4JJoroKY31/",
            "environment": {},
            "errors_count": 0,
            "finished_time": null,
            "git_ref": "v5.15-rc7",
            "git_repo": "https://git.kernel.org/pub/scm/linux/kernel/git/torvalds/linux.git",
            "git_sha": "3906fe9bb7f1a2c8667ae54e967dc8690824f4ea",
            "image_sha": "",
            "kconfig": [
                "defconfig"
            ],
            "kernel_image": "",
            "kernel_patch_file": "",
            "make_variables": {},
            "no_cache": false,
            "plan": "24D3cA7aXw471bQ5447CtETIDrE",
            "project": "linaro/anders",
            "provisioning_time": "2022-01-25T22:56:47.637596",
            "result": "unknown",
            "running_time": null,
            "state": "provisioning",
            "target_arch": "arm64",
            "targets": [],
            "toolchain": "gcc-11",
            "uid": "24D3cEMP3zViecZnB4JJoroKY31",
            "user": "anders.roxell@linaro.org",
            "user_agent": "tuxsuite/0.42.3",
            "waited_by": [],
            "warnings_count": 0
        },
        "24D3cESVvMzSNt5PrSNpiz0Q5TX": {
            "build_name": "",
            "client_token": "1c74b602-7609-4c2c-a12d-bbce6abffbb0",
            "download_url": "https://builds.tuxbuild.com/24D3cESVvMzSNt5PrSNpiz0Q5TX/",
            "environment": {},
            "errors_count": 0,
            "finished_time": null,
            "git_ref": "v5.15-rc7",
            "git_repo": "https://git.kernel.org/pub/scm/linux/kernel/git/torvalds/linux.git",
            "git_sha": "3906fe9bb7f1a2c8667ae54e967dc8690824f4ea",
            "image_sha": "",
            "kconfig": [
                "defconfig"
            ],
            "kernel_image": "",
            "kernel_patch_file": "",
            "make_variables": {
                "LLVM": "1",
                "LLVM_IAS": "1"
            },
            "no_cache": false,
            "plan": "24D3cA7aXw471bQ5447CtETIDrE",
            "project": "linaro/anders",
            "provisioning_time": "2022-01-25T22:56:47.852762",
            "result": "unknown",
            "running_time": null,
            "state": "provisioning",
            "target_arch": "arm64",
            "targets": [],
            "toolchain": "clang-nightly",
            "uid": "24D3cESVvMzSNt5PrSNpiz0Q5TX",
            "user": "anders.roxell@linaro.org",
            "user_agent": "tuxsuite/0.42.3",
            "waited_by": [],
            "warnings_count": 0
        },
        "24D3cETVFzFg671GPpgs0kG56rO": {
            "build_name": "",
            "client_token": "cb03f9ec-d283-42c1-bd39-82395b5a7cc7",
            "download_url": "https://builds.tuxbuild.com/24D3cETVFzFg671GPpgs0kG56rO/",
            "environment": {},
            "errors_count": 0,
            "finished_time": null,
            "git_ref": "v5.15-rc7",
            "git_repo": "https://git.kernel.org/pub/scm/linux/kernel/git/torvalds/linux.git",
            "git_sha": "3906fe9bb7f1a2c8667ae54e967dc8690824f4ea",
            "image_sha": "",
            "kconfig": [
                "defconfig"
            ],
            "kernel_image": "",
            "kernel_patch_file": "",
            "make_variables": {},
            "no_cache": false,
            "plan": "24D3cA7aXw471bQ5447CtETIDrE",
            "project": "linaro/anders",
            "provisioning_time": "2022-01-25T22:56:47.700932",
            "result": "unknown",
            "running_time": null,
            "state": "provisioning",
            "target_arch": "arm64",
            "targets": [],
            "toolchain": "gcc-10",
            "uid": "24D3cETVFzFg671GPpgs0kG56rO",
            "user": "anders.roxell@linaro.org",
            "user_agent": "tuxsuite/0.42.3",
            "waited_by": [],
            "warnings_count": 0
        },
        "24D3cEhOUiEEo0yGuo6kWlrRUM4": {
            "build_name": "",
            "client_token": "9481496b-3436-4182-ba1e-c323c5b36c4b",
            "download_url": "https://builds.tuxbuild.com/24D3cEhOUiEEo0yGuo6kWlrRUM4/",
            "environment": {},
            "errors_count": 0,
            "finished_time": null,
            "git_ref": "v5.15-rc7",
            "git_repo": "https://git.kernel.org/pub/scm/linux/kernel/git/torvalds/linux.git",
            "git_sha": "3906fe9bb7f1a2c8667ae54e967dc8690824f4ea",
            "image_sha": "",
            "kconfig": [
                "tinyconfig"
            ],
            "kernel_image": "",
            "kernel_patch_file": "",
            "make_variables": {
                "LLVM": "1",
                "LLVM_IAS": "1"
            },
            "no_cache": false,
            "plan": "24D3cA7aXw471bQ5447CtETIDrE",
            "project": "linaro/anders",
            "provisioning_time": "2022-01-25T22:56:47.507352",
            "result": "unknown",
            "running_time": null,
            "state": "provisioning",
            "target_arch": "arm64",
            "targets": [],
            "toolchain": "clang-nightly",
            "uid": "24D3cEhOUiEEo0yGuo6kWlrRUM4",
            "user": "anders.roxell@linaro.org",
            "user_agent": "tuxsuite/0.42.3",
            "waited_by": [],
            "warnings_count": 0
        },
        "24D3cFW0LhoSYiTgtqgh3ywLJDg": {
            "build_name": "",
            "client_token": "3917ca67-4886-4b14-8be6-9f3170dd953a",
            "download_url": "https://builds.tuxbuild.com/24D3cFW0LhoSYiTgtqgh3ywLJDg/",
            "environment": {},
            "errors_count": 0,
            "finished_time": null,
            "git_ref": "v5.15-rc7",
            "git_repo": "https://git.kernel.org/pub/scm/linux/kernel/git/torvalds/linux.git",
            "git_sha": "3906fe9bb7f1a2c8667ae54e967dc8690824f4ea",
            "image_sha": "",
            "kconfig": [
                "tinyconfig"
            ],
            "kernel_image": "",
            "kernel_patch_file": "",
            "make_variables": {
                "LLVM": "1",
                "LLVM_IAS": "1"
            },
            "no_cache": false,
            "plan": "24D3cA7aXw471bQ5447CtETIDrE",
            "project": "linaro/anders",
            "provisioning_time": "2022-01-25T22:56:47.592992",
            "result": "unknown",
            "running_time": null,
            "state": "provisioning",
            "target_arch": "arm64",
            "targets": [],
            "toolchain": "clang-nightly",
            "uid": "24D3cFW0LhoSYiTgtqgh3ywLJDg",
            "user": "anders.roxell@linaro.org",
            "user_agent": "tuxsuite/0.42.3",
            "waited_by": [],
            "warnings_count": 0
        },
        "24D3cGHTx8i98mTtjNcXYhj0WNn": {
            "build_name": "",
            "client_token": "644d6dae-d3f2-4973-be6f-2da6450222be",
            "download_url": "https://builds.tuxbuild.com/24D3cGHTx8i98mTtjNcXYhj0WNn/",
            "environment": {},
            "errors_count": 0,
            "finished_time": null,
            "git_ref": "v5.15-rc7",
            "git_repo": "https://git.kernel.org/pub/scm/linux/kernel/git/torvalds/linux.git",
            "git_sha": "3906fe9bb7f1a2c8667ae54e967dc8690824f4ea",
            "image_sha": "",
            "kconfig": [
                "defconfig"
            ],
            "kernel_image": "",
            "kernel_patch_file": "",
            "make_variables": {
                "LLVM": "1",
                "LLVM_IAS": "1"
            },
            "no_cache": false,
            "plan": "24D3cA7aXw471bQ5447CtETIDrE",
            "project": "linaro/anders",
            "provisioning_time": "2022-01-25T22:56:47.680004",
            "result": "unknown",
            "running_time": null,
            "state": "provisioning",
            "target_arch": "arm64",
            "targets": [],
            "toolchain": "clang-nightly",
            "uid": "24D3cGHTx8i98mTtjNcXYhj0WNn",
            "user": "anders.roxell@linaro.org",
            "user_agent": "tuxsuite/0.42.3",
            "waited_by": [],
            "warnings_count": 0
        },
        "24D3cGTVVb7HnTYts4otjBPJoir": {
            "build_name": "",
            "client_token": "6b376325-17de-4ec9-87c0-b133df16f6c6",
            "download_url": "https://builds.tuxbuild.com/24D3cGTVVb7HnTYts4otjBPJoir/",
            "environment": {},
            "errors_count": 0,
            "finished_time": null,
            "git_ref": "v5.15-rc7",
            "git_repo": "https://git.kernel.org/pub/scm/linux/kernel/git/torvalds/linux.git",
            "git_sha": "3906fe9bb7f1a2c8667ae54e967dc8690824f4ea",
            "image_sha": "",
            "kconfig": [
                "tinyconfig"
            ],
            "kernel_image": "",
            "kernel_patch_file": "",
            "make_variables": {
                "LLVM": "1",
                "LLVM_IAS": "1"
            },
            "no_cache": false,
            "plan": "24D3cA7aXw471bQ5447CtETIDrE",
            "project": "linaro/anders",
            "provisioning_time": "2022-01-25T22:56:47.400686",
            "result": "unknown",
            "running_time": null,
            "state": "provisioning",
            "target_arch": "arm64",
            "targets": [],
            "toolchain": "clang-13",
            "uid": "24D3cGTVVb7HnTYts4otjBPJoir",
            "user": "anders.roxell@linaro.org",
            "user_agent": "tuxsuite/0.42.3",
            "waited_by": [],
            "warnings_count": 0
        },
        "24D3cGU0rJLnx9dZKmd1oTRo6LD": {
            "build_name": "",
            "client_token": "84464f37-86d0-4716-8b95-47a4b65f2b15",
            "download_url": "https://builds.tuxbuild.com/24D3cGU0rJLnx9dZKmd1oTRo6LD/",
            "environment": {},
            "errors_count": 0,
            "finished_time": null,
            "git_ref": "v5.15-rc7",
            "git_repo": "https://git.kernel.org/pub/scm/linux/kernel/git/torvalds/linux.git",
            "git_sha": "3906fe9bb7f1a2c8667ae54e967dc8690824f4ea",
            "image_sha": "",
            "kconfig": [
                "tinyconfig"
            ],
            "kernel_image": "",
            "kernel_patch_file": "",
            "make_variables": {
                "LLVM": "1",
                "LLVM_IAS": "1"
            },
            "no_cache": false,
            "plan": "24D3cA7aXw471bQ5447CtETIDrE",
            "project": "linaro/anders",
            "provisioning_time": "2022-01-25T22:56:47.421630",
            "result": "unknown",
            "running_time": null,
            "state": "provisioning",
            "target_arch": "arm64",
            "targets": [],
            "toolchain": "clang-nightly",
            "uid": "24D3cGU0rJLnx9dZKmd1oTRo6LD",
            "user": "anders.roxell@linaro.org",
            "user_agent": "tuxsuite/0.42.3",
            "waited_by": [],
            "warnings_count": 0
        },
        "24D3cGlzIvesYqsxOoVP7ImI7JF": {
            "build_name": "",
            "client_token": "94ac932c-ccb9-4b43-8abf-11ea11bf75ce",
            "download_url": "https://builds.tuxbuild.com/24D3cGlzIvesYqsxOoVP7ImI7JF/",
            "environment": {},
            "errors_count": 0,
            "finished_time": null,
            "git_ref": "v5.15-rc7",
            "git_repo": "https://git.kernel.org/pub/scm/linux/kernel/git/torvalds/linux.git",
            "git_sha": "3906fe9bb7f1a2c8667ae54e967dc8690824f4ea",
            "image_sha": "",
            "kconfig": [
                "defconfig"
            ],
            "kernel_image": "",
            "kernel_patch_file": "",
            "make_variables": {},
            "no_cache": false,
            "plan": "24D3cA7aXw471bQ5447CtETIDrE",
            "project": "linaro/anders",
            "provisioning_time": "2022-01-25T22:56:47.960976",
            "result": "unknown",
            "running_time": null,
            "state": "provisioning",
            "target_arch": "arm64",
            "targets": [],
            "toolchain": "gcc-10",
            "uid": "24D3cGlzIvesYqsxOoVP7ImI7JF",
            "user": "anders.roxell@linaro.org",
            "user_agent": "tuxsuite/0.42.3",
            "waited_by": [],
            "warnings_count": 0
        },
        "24D3cH305SAVkhoVfKMtNTRvcYE": {
            "build_name": "",
            "client_token": "a20c01f3-5552-4079-812e-819adb147506",
            "download_url": "https://builds.tuxbuild.com/24D3cH305SAVkhoVfKMtNTRvcYE/",
            "environment": {},
            "errors_count": 0,
            "finished_time": null,
            "git_ref": "v5.15-rc7",
            "git_repo": "https://git.kernel.org/pub/scm/linux/kernel/git/torvalds/linux.git",
            "git_sha": "3906fe9bb7f1a2c8667ae54e967dc8690824f4ea",
            "image_sha": "",
            "kconfig": [
                "defconfig"
            ],
            "kernel_image": "",
            "kernel_patch_file": "",
            "make_variables": {
                "LLVM": "1",
                "LLVM_IAS": "1"
            },
            "no_cache": false,
            "plan": "24D3cA7aXw471bQ5447CtETIDrE",
            "project": "linaro/anders",
            "provisioning_time": "2022-01-25T22:56:47.658805",
            "result": "unknown",
            "running_time": null,
            "state": "provisioning",
            "target_arch": "arm64",
            "targets": [],
            "toolchain": "clang-13",
            "uid": "24D3cH305SAVkhoVfKMtNTRvcYE",
            "user": "anders.roxell@linaro.org",
            "user_agent": "tuxsuite/0.42.3",
            "waited_by": [],
            "warnings_count": 0
        },
        "24D3cH3WKQJKQs6PzJAFU0VUElN": {
            "build_name": "",
            "client_token": "cfb1f898-28c1-4c48-b6a5-3253fe7674db",
            "download_url": "https://builds.tuxbuild.com/24D3cH3WKQJKQs6PzJAFU0VUElN/",
            "environment": {},
            "errors_count": 0,
            "finished_time": null,
            "git_ref": "v5.15-rc7",
            "git_repo": "https://git.kernel.org/pub/scm/linux/kernel/git/torvalds/linux.git",
            "git_sha": "3906fe9bb7f1a2c8667ae54e967dc8690824f4ea",
            "image_sha": "",
            "kconfig": [
                "defconfig"
            ],
            "kernel_image": "",
            "kernel_patch_file": "",
            "make_variables": {},
            "no_cache": false,
            "plan": "24D3cA7aXw471bQ5447CtETIDrE",
            "project": "linaro/anders",
            "provisioning_time": "2022-01-25T22:56:47.787474",
            "result": "unknown",
            "running_time": null,
            "state": "provisioning",
            "target_arch": "arm64",
            "targets": [],
            "toolchain": "gcc-10",
            "uid": "24D3cH3WKQJKQs6PzJAFU0VUElN",
            "user": "anders.roxell@linaro.org",
            "user_agent": "tuxsuite/0.42.3",
            "waited_by": [],
            "warnings_count": 0
        },
        "24D3cH3fkgXnggxVSUEp8uZPk1t": {
            "build_name": "",
            "client_token": "05bba51b-a2da-45b2-b9ff-eb4c4fa214b4",
            "download_url": "https://builds.tuxbuild.com/24D3cH3fkgXnggxVSUEp8uZPk1t/",
            "environment": {},
            "errors_count": 0,
            "finished_time": null,
            "git_ref": "v5.15-rc7",
            "git_repo": "https://git.kernel.org/pub/scm/linux/kernel/git/torvalds/linux.git",
            "git_sha": "3906fe9bb7f1a2c8667ae54e967dc8690824f4ea",
            "image_sha": "",
            "kconfig": [
                "defconfig"
            ],
            "kernel_image": "",
            "kernel_patch_file": "",
            "make_variables": {
                "LLVM": "1",
                "LLVM_IAS": "1"
            },
            "no_cache": false,
            "plan": "24D3cA7aXw471bQ5447CtETIDrE",
            "project": "linaro/anders",
            "provisioning_time": "2022-01-25T22:56:47.766242",
            "result": "unknown",
            "running_time": null,
            "state": "provisioning",
            "target_arch": "arm64",
            "targets": [],
            "toolchain": "clang-nightly",
            "uid": "24D3cH3fkgXnggxVSUEp8uZPk1t",
            "user": "anders.roxell@linaro.org",
            "user_agent": "tuxsuite/0.42.3",
            "waited_by": [],
            "warnings_count": 0
        },
        "24D3cHOhMZ31w6i2btQpuLrVkNA": {
            "build_name": "",
            "client_token": "0563cc82-e993-4ee2-9797-3296d6e66f24",
            "download_url": "https://builds.tuxbuild.com/24D3cHOhMZ31w6i2btQpuLrVkNA/",
            "environment": {},
            "errors_count": 0,
            "finished_time": null,
            "git_ref": "v5.15-rc7",
            "git_repo": "https://git.kernel.org/pub/scm/linux/kernel/git/torvalds/linux.git",
            "git_sha": "3906fe9bb7f1a2c8667ae54e967dc8690824f4ea",
            "image_sha": "",
            "kconfig": [
                "defconfig"
            ],
            "kernel_image": "",
            "kernel_patch_file": "",
            "make_variables": {
                "LLVM": "1",
                "LLVM_IAS": "1"
            },
            "no_cache": false,
            "plan": "24D3cA7aXw471bQ5447CtETIDrE",
            "project": "linaro/anders",
            "provisioning_time": "2022-01-25T22:56:47.831316",
            "result": "unknown",
            "running_time": null,
            "state": "provisioning",
            "target_arch": "arm64",
            "targets": [],
            "toolchain": "clang-13",
            "uid": "24D3cHOhMZ31w6i2btQpuLrVkNA",
            "user": "anders.roxell@linaro.org",
            "user_agent": "tuxsuite/0.42.3",
            "waited_by": [],
            "warnings_count": 0
        },
        "24D3cHcPiamtI6PRZAn404OSZNC": {
            "build_name": "",
            "client_token": "48728abc-4207-498d-aac2-0e64ebbe0955",
            "download_url": "https://builds.tuxbuild.com/24D3cHcPiamtI6PRZAn404OSZNC/",
            "environment": {},
            "errors_count": 0,
            "finished_time": null,
            "git_ref": "v5.15-rc7",
            "git_repo": "https://git.kernel.org/pub/scm/linux/kernel/git/torvalds/linux.git",
            "git_sha": "3906fe9bb7f1a2c8667ae54e967dc8690824f4ea",
            "image_sha": "",
            "kconfig": [
                "tinyconfig"
            ],
            "kernel_image": "",
            "kernel_patch_file": "",
            "make_variables": {
                "LLVM": "1",
                "LLVM_IAS": "1"
            },
            "no_cache": false,
            "plan": "24D3cA7aXw471bQ5447CtETIDrE",
            "project": "linaro/anders",
            "provisioning_time": "2022-01-25T22:56:47.571939",
            "result": "unknown",
            "running_time": null,
            "state": "provisioning",
            "target_arch": "arm64",
            "targets": [],
            "toolchain": "clang-13",
            "uid": "24D3cHcPiamtI6PRZAn404OSZNC",
            "user": "anders.roxell@linaro.org",
            "user_agent": "tuxsuite/0.42.3",
            "waited_by": [],
            "warnings_count": 0
        },
        "24D3cHiyCQNRWquCtP3qPs8k3CL": {
            "build_name": "",
            "client_token": "f524d353-6c49-4b88-af73-46e7e08a9e09",
            "download_url": "https://builds.tuxbuild.com/24D3cHiyCQNRWquCtP3qPs8k3CL/",
            "environment": {},
            "errors_count": 0,
            "finished_time": null,
            "git_ref": "v5.15-rc7",
            "git_repo": "https://git.kernel.org/pub/scm/linux/kernel/git/torvalds/linux.git",
            "git_sha": "3906fe9bb7f1a2c8667ae54e967dc8690824f4ea",
            "image_sha": "",
            "kconfig": [
                "tinyconfig"
            ],
            "kernel_image": "",
            "kernel_patch_file": "",
            "make_variables": {
                "LLVM": "1",
                "LLVM_IAS": "1"
            },
            "no_cache": false,
            "plan": "24D3cA7aXw471bQ5447CtETIDrE",
            "project": "linaro/anders",
            "provisioning_time": "2022-01-25T22:56:47.315011",
            "result": "unknown",
            "running_time": null,
            "state": "provisioning",
            "target_arch": "arm64",
            "targets": [],
            "toolchain": "clang-13",
            "uid": "24D3cHiyCQNRWquCtP3qPs8k3CL",
            "user": "anders.roxell@linaro.org",
            "user_agent": "tuxsuite/0.42.3",
            "waited_by": [],
            "warnings_count": 0
        },
        "24D3cHnhV8rpUbZInzvjlPATOkF": {
            "build_name": "",
            "client_token": "a1967109-49bb-4ca2-a9ac-9571d5fc526c",
            "download_url": "https://builds.tuxbuild.com/24D3cHnhV8rpUbZInzvjlPATOkF/",
            "environment": {},
            "errors_count": 0,
            "finished_time": null,
            "git_ref": "v5.15-rc7",
            "git_repo": "https://git.kernel.org/pub/scm/linux/kernel/git/torvalds/linux.git",
            "git_sha": "3906fe9bb7f1a2c8667ae54e967dc8690824f4ea",
            "image_sha": "",
            "kconfig": [
                "tinyconfig"
            ],
            "kernel_image": "",
            "kernel_patch_file": "",
            "make_variables": {
                "LLVM": "1",
                "LLVM_IAS": "1"
            },
            "no_cache": false,
            "plan": "24D3cA7aXw471bQ5447CtETIDrE",
            "project": "linaro/anders",
            "provisioning_time": "2022-01-25T22:56:47.486257",
            "result": "unknown",
            "running_time": null,
            "state": "provisioning",
            "target_arch": "arm64",
            "targets": [],
            "toolchain": "clang-13",
            "uid": "24D3cHnhV8rpUbZInzvjlPATOkF",
            "user": "anders.roxell@linaro.org",
            "user_agent": "tuxsuite/0.42.3",
            "waited_by": [],
            "warnings_count": 0
        },
        "24D3cI1cjTtQGTq6b1EQDXemE7O": {
            "build_name": "",
            "client_token": "adde2c04-7e02-4541-8a17-baf9a439fc1a",
            "download_url": "https://builds.tuxbuild.com/24D3cI1cjTtQGTq6b1EQDXemE7O/",
            "environment": {},
            "errors_count": 0,
            "finished_time": null,
            "git_ref": "v5.15-rc7",
            "git_repo": "https://git.kernel.org/pub/scm/linux/kernel/git/torvalds/linux.git",
            "git_sha": "3906fe9bb7f1a2c8667ae54e967dc8690824f4ea",
            "image_sha": "",
            "kconfig": [
                "tinyconfig"
            ],
            "kernel_image": "",
            "kernel_patch_file": "",
            "make_variables": {},
            "no_cache": false,
            "plan": "24D3cA7aXw471bQ5447CtETIDrE",
            "project": "linaro/anders",
            "provisioning_time": "2022-01-25T22:56:47.186604",
            "result": "unknown",
            "running_time": null,
            "state": "provisioning",
            "target_arch": "arm64",
            "targets": [],
            "toolchain": "gcc-10",
            "uid": "24D3cI1cjTtQGTq6b1EQDXemE7O",
            "user": "anders.roxell@linaro.org",
            "user_agent": "tuxsuite/0.42.3",
            "waited_by": [],
            "warnings_count": 0
        },
        "24D3cIMT8tBwRhrRMfs9Q3xOvXw": {
            "build_name": "",
            "client_token": "a9891585-9752-43a3-b729-72a2b8e8195f",
            "download_url": "https://builds.tuxbuild.com/24D3cIMT8tBwRhrRMfs9Q3xOvXw/",
            "environment": {},
            "errors_count": 0,
            "finished_time": null,
            "git_ref": "v5.15-rc7",
            "git_repo": "https://git.kernel.org/pub/scm/linux/kernel/git/torvalds/linux.git",
            "git_sha": "3906fe9bb7f1a2c8667ae54e967dc8690824f4ea",
            "image_sha": "",
            "kconfig": [
                "defconfig"
            ],
            "kernel_image": "",
            "kernel_patch_file": "",
            "make_variables": {},
            "no_cache": false,
            "plan": "24D3cA7aXw471bQ5447CtETIDrE",
            "project": "linaro/anders",
            "provisioning_time": "2022-01-25T22:56:47.873723",
            "result": "unknown",
            "running_time": null,
            "state": "provisioning",
            "target_arch": "arm64",
            "targets": [],
            "toolchain": "gcc-10",
            "uid": "24D3cIMT8tBwRhrRMfs9Q3xOvXw",
            "user": "anders.roxell@linaro.org",
            "user_agent": "tuxsuite/0.42.3",
            "waited_by": [],
            "warnings_count": 0
        },
        "24D3cIPUrw42qLQDBCnC6Mgr49u": {
            "build_name": "",
            "client_token": "ce398359-d61d-49ea-a086-7ced449ba230",
            "download_url": "https://builds.tuxbuild.com/24D3cIPUrw42qLQDBCnC6Mgr49u/",
            "environment": {},
            "errors_count": 0,
            "finished_time": null,
            "git_ref": "v5.15-rc7",
            "git_repo": "https://git.kernel.org/pub/scm/linux/kernel/git/torvalds/linux.git",
            "git_sha": "3906fe9bb7f1a2c8667ae54e967dc8690824f4ea",
            "image_sha": "",
            "kconfig": [
                "tinyconfig"
            ],
            "kernel_image": "",
            "kernel_patch_file": "",
            "make_variables": {},
            "no_cache": false,
            "plan": "24D3cA7aXw471bQ5447CtETIDrE",
            "project": "linaro/anders",
            "provisioning_time": "2022-01-25T22:56:47.273074",
            "result": "unknown",
            "running_time": null,
            "state": "provisioning",
            "target_arch": "arm64",
            "targets": [],
            "toolchain": "gcc-10",
            "uid": "24D3cIPUrw42qLQDBCnC6Mgr49u",
            "user": "anders.roxell@linaro.org",
            "user_agent": "tuxsuite/0.42.3",
            "waited_by": [],
            "warnings_count": 0
        },
        "24D3cIWpB9K2GHWjfOV0Oen5rqr": {
            "build_name": "",
            "client_token": "476edd5a-ccbe-4681-9a11-b7dd4b656bbc",
            "download_url": "https://builds.tuxbuild.com/24D3cIWpB9K2GHWjfOV0Oen5rqr/",
            "environment": {},
            "errors_count": 0,
            "finished_time": null,
            "git_ref": "v5.15-rc7",
            "git_repo": "https://git.kernel.org/pub/scm/linux/kernel/git/torvalds/linux.git",
            "git_sha": "3906fe9bb7f1a2c8667ae54e967dc8690824f4ea",
            "image_sha": "",
            "kconfig": [
                "tinyconfig"
            ],
            "kernel_image": "",
            "kernel_patch_file": "",
            "make_variables": {
                "LLVM": "1",
                "LLVM_IAS": "1"
            },
            "no_cache": false,
            "plan": "24D3cA7aXw471bQ5447CtETIDrE",
            "project": "linaro/anders",
            "provisioning_time": "2022-01-25T22:56:47.228900",
            "result": "unknown",
            "running_time": null,
            "state": "provisioning",
            "target_arch": "arm64",
            "targets": [],
            "toolchain": "clang-13",
            "uid": "24D3cIWpB9K2GHWjfOV0Oen5rqr",
            "user": "anders.roxell@linaro.org",
            "user_agent": "tuxsuite/0.42.3",
            "waited_by": [],
            "warnings_count": 0
        },
        "24D3cIoVbS4wt67NxvSOFKw61Cs": {
            "build_name": "",
            "client_token": "a745582a-f7a2-423c-afb3-5aabb0667d6d",
            "download_url": "https://builds.tuxbuild.com/24D3cIoVbS4wt67NxvSOFKw61Cs/",
            "environment": {},
            "errors_count": 0,
            "finished_time": null,
            "git_ref": "v5.15-rc7",
            "git_repo": "https://git.kernel.org/pub/scm/linux/kernel/git/torvalds/linux.git",
            "git_sha": "3906fe9bb7f1a2c8667ae54e967dc8690824f4ea",
            "image_sha": "",
            "kconfig": [
                "defconfig"
            ],
            "kernel_image": "",
            "kernel_patch_file": "",
            "make_variables": {},
            "no_cache": false,
            "plan": "24D3cA7aXw471bQ5447CtETIDrE",
            "project": "linaro/anders",
            "provisioning_time": "2022-01-25T22:56:47.614407",
            "result": "unknown",
            "running_time": null,
            "state": "provisioning",
            "target_arch": "arm64",
            "targets": [],
            "toolchain": "gcc-10",
            "uid": "24D3cIoVbS4wt67NxvSOFKw61Cs",
            "user": "anders.roxell@linaro.org",
            "user_agent": "tuxsuite/0.42.3",
            "waited_by": [],
            "warnings_count": 0
        },
        "24D3cIz3U9e3UN9P17u5L55H9CC": {
            "build_name": "",
            "client_token": "017579bb-39c9-415c-a1b6-e9bb7eed89dc",
            "download_url": "https://builds.tuxbuild.com/24D3cIz3U9e3UN9P17u5L55H9CC/",
            "environment": {},
            "errors_count": 0,
            "finished_time": null,
            "git_ref": "v5.15-rc7",
            "git_repo": "https://git.kernel.org/pub/scm/linux/kernel/git/torvalds/linux.git",
            "git_sha": "3906fe9bb7f1a2c8667ae54e967dc8690824f4ea",
            "image_sha": "",
            "kconfig": [
                "tinyconfig"
            ],
            "kernel_image": "",
            "kernel_patch_file": "",
            "make_variables": {},
            "no_cache": false,
            "plan": "24D3cA7aXw471bQ5447CtETIDrE",
            "project": "linaro/anders",
            "provisioning_time": "2022-01-25T22:56:47.442520",
            "result": "unknown",
            "running_time": null,
            "state": "provisioning",
            "target_arch": "arm64",
            "targets": [],
            "toolchain": "gcc-10",
            "uid": "24D3cIz3U9e3UN9P17u5L55H9CC",
            "user": "anders.roxell@linaro.org",
            "user_agent": "tuxsuite/0.42.3",
            "waited_by": [],
            "warnings_count": 0
        },
        "24D3cJ4Nl73unQ01XiR22usar1U": {
            "build_name": "",
            "client_token": "97d10a39-c124-40b8-a688-afab79399b78",
            "download_url": "https://builds.tuxbuild.com/24D3cJ4Nl73unQ01XiR22usar1U/",
            "environment": {},
            "errors_count": 0,
            "finished_time": null,
            "git_ref": "v5.15-rc7",
            "git_repo": "https://git.kernel.org/pub/scm/linux/kernel/git/torvalds/linux.git",
            "git_sha": "3906fe9bb7f1a2c8667ae54e967dc8690824f4ea",
            "image_sha": "",
            "kconfig": [
                "tinyconfig"
            ],
            "kernel_image": "",
            "kernel_patch_file": "",
            "make_variables": {},
            "no_cache": false,
            "plan": "24D3cA7aXw471bQ5447CtETIDrE",
            "project": "linaro/anders",
            "provisioning_time": "2022-01-25T22:56:47.550925",
            "result": "unknown",
            "running_time": null,
            "state": "provisioning",
            "target_arch": "arm64",
            "targets": [],
            "toolchain": "gcc-11",
            "uid": "24D3cJ4Nl73unQ01XiR22usar1U",
            "user": "anders.roxell@linaro.org",
            "user_agent": "tuxsuite/0.42.3",
            "waited_by": [],
            "warnings_count": 0
        },
        "24D3cKPLP2sZVza0EfMAxV3BvQk": {
            "build_name": "",
            "client_token": "1884ee78-59aa-4048-8612-3f2f90102f86",
            "download_url": "https://builds.tuxbuild.com/24D3cKPLP2sZVza0EfMAxV3BvQk/",
            "environment": {},
            "errors_count": 0,
            "finished_time": null,
            "git_ref": "v5.15-rc7",
            "git_repo": "https://git.kernel.org/pub/scm/linux/kernel/git/torvalds/linux.git",
            "git_sha": "3906fe9bb7f1a2c8667ae54e967dc8690824f4ea",
            "image_sha": "",
            "kconfig": [
                "tinyconfig"
            ],
            "kernel_image": "",
            "kernel_patch_file": "",
            "make_variables": {},
            "no_cache": false,
            "plan": "24D3cA7aXw471bQ5447CtETIDrE",
            "project": "linaro/anders",
            "provisioning_time": "2022-01-25T22:56:47.379738",
            "result": "unknown",
            "running_time": null,
            "state": "provisioning",
            "target_arch": "arm64",
            "targets": [],
            "toolchain": "gcc-11",
            "uid": "24D3cKPLP2sZVza0EfMAxV3BvQk",
            "user": "anders.roxell@linaro.org",
            "user_agent": "tuxsuite/0.42.3",
            "waited_by": [],
            "warnings_count": 0
        },
        "24D3cKeANPS3XgdCqzHKb4H8c3n": {
            "build_name": "",
            "client_token": "abdd1b16-aaa7-4a3d-a681-5ed2bc036cba",
            "download_url": "https://builds.tuxbuild.com/24D3cKeANPS3XgdCqzHKb4H8c3n/",
            "environment": {},
            "errors_count": 0,
            "finished_time": null,
            "git_ref": "v5.15-rc7",
            "git_repo": "https://git.kernel.org/pub/scm/linux/kernel/git/torvalds/linux.git",
            "git_sha": "3906fe9bb7f1a2c8667ae54e967dc8690824f4ea",
            "image_sha": "",
            "kconfig": [
                "defconfig"
            ],
            "kernel_image": "",
            "kernel_patch_file": "",
            "make_variables": {
                "LLVM": "1",
                "LLVM_IAS": "1"
            },
            "no_cache": false,
            "plan": "24D3cA7aXw471bQ5447CtETIDrE",
            "project": "linaro/anders",
            "provisioning_time": "2022-01-25T22:56:47.940210",
            "result": "unknown",
            "running_time": null,
            "state": "provisioning",
            "target_arch": "arm64",
            "targets": [],
            "toolchain": "clang-nightly",
            "uid": "24D3cKeANPS3XgdCqzHKb4H8c3n",
            "user": "anders.roxell@linaro.org",
            "user_agent": "tuxsuite/0.42.3",
            "waited_by": [],
            "warnings_count": 0
        },
        "24D3cKftIK9Qv0zubEecAOdTQkZ": {
            "build_name": "",
            "client_token": "f16c9dbc-7a29-4947-9c4d-70fa4124d355",
            "download_url": "https://builds.tuxbuild.com/24D3cKftIK9Qv0zubEecAOdTQkZ/",
            "environment": {},
            "errors_count": 0,
            "finished_time": null,
            "git_ref": "v5.15-rc7",
            "git_repo": "https://git.kernel.org/pub/scm/linux/kernel/git/torvalds/linux.git",
            "git_sha": "3906fe9bb7f1a2c8667ae54e967dc8690824f4ea",
            "image_sha": "",
            "kconfig": [
                "defconfig"
            ],
            "kernel_image": "",
            "kernel_patch_file": "",
            "make_variables": {},
            "no_cache": false,
            "plan": "24D3cA7aXw471bQ5447CtETIDrE",
            "project": "linaro/anders",
            "provisioning_time": "2022-01-25T22:56:47.808722",
            "result": "unknown",
            "running_time": null,
            "state": "provisioning",
            "target_arch": "arm64",
            "targets": [],
            "toolchain": "gcc-11",
            "uid": "24D3cKftIK9Qv0zubEecAOdTQkZ",
            "user": "anders.roxell@linaro.org",
            "user_agent": "tuxsuite/0.42.3",
            "waited_by": [],
            "warnings_count": 0
        },
        "24D3cKiYLXpxFQMpOd3qTs7XcvB": {
            "build_name": "",
            "client_token": "f299fbae-9e35-4881-b166-bf0ad9585ff4",
            "download_url": "https://builds.tuxbuild.com/24D3cKiYLXpxFQMpOd3qTs7XcvB/",
            "environment": {},
            "errors_count": 0,
            "finished_time": null,
            "git_ref": "v5.15-rc7",
            "git_repo": "https://git.kernel.org/pub/scm/linux/kernel/git/torvalds/linux.git",
            "git_sha": "3906fe9bb7f1a2c8667ae54e967dc8690824f4ea",
            "image_sha": "",
            "kconfig": [
                "tinyconfig"
            ],
            "kernel_image": "",
            "kernel_patch_file": "",
            "make_variables": {},
            "no_cache": false,
            "plan": "24D3cA7aXw471bQ5447CtETIDrE",
            "project": "linaro/anders",
            "provisioning_time": "2022-01-25T22:56:47.528222",
            "result": "unknown",
            "running_time": null,
            "state": "provisioning",
            "target_arch": "arm64",
            "targets": [],
            "toolchain": "gcc-10",
            "uid": "24D3cKiYLXpxFQMpOd3qTs7XcvB",
            "user": "anders.roxell@linaro.org",
            "user_agent": "tuxsuite/0.42.3",
            "waited_by": [],
            "warnings_count": 0
        },
        "24D3cKjDvgHAbEXPz6rQpaToeHa": {
            "build_name": "",
            "client_token": "cd6868fa-c24e-4e79-9102-3ea78cdf63bb",
            "download_url": "https://builds.tuxbuild.com/24D3cKjDvgHAbEXPz6rQpaToeHa/",
            "environment": {},
            "errors_count": 0,
            "finished_time": null,
            "git_ref": "v5.15-rc7",
            "git_repo": "https://git.kernel.org/pub/scm/linux/kernel/git/torvalds/linux.git",
            "git_sha": "3906fe9bb7f1a2c8667ae54e967dc8690824f4ea",
            "image_sha": "",
            "kconfig": [
                "tinyconfig"
            ],
            "kernel_image": "",
            "kernel_patch_file": "",
            "make_variables": {},
            "no_cache": false,
            "plan": "24D3cA7aXw471bQ5447CtETIDrE",
            "project": "linaro/anders",
            "provisioning_time": "2022-01-25T22:56:47.207772",
            "result": "unknown",
            "running_time": null,
            "state": "provisioning",
            "target_arch": "arm64",
            "targets": [],
            "toolchain": "gcc-11",
            "uid": "24D3cKjDvgHAbEXPz6rQpaToeHa",
            "user": "anders.roxell@linaro.org",
            "user_agent": "tuxsuite/0.42.3",
            "waited_by": [],
            "warnings_count": 0
        },
        "24D3cKocx0TSDzVBXtpRh6pkzEV": {
            "build_name": "",
            "client_token": "a93bed56-586b-4bea-a07e-1ade8ee06b38",
            "download_url": "https://builds.tuxbuild.com/24D3cKocx0TSDzVBXtpRh6pkzEV/",
            "environment": {},
            "errors_count": 0,
            "finished_time": null,
            "git_ref": "v5.15-rc7",
            "git_repo": "https://git.kernel.org/pub/scm/linux/kernel/git/torvalds/linux.git",
            "git_sha": "3906fe9bb7f1a2c8667ae54e967dc8690824f4ea",
            "image_sha": "",
            "kconfig": [
                "defconfig"
            ],
            "kernel_image": "",
            "kernel_patch_file": "",
            "make_variables": {},
            "no_cache": false,
            "plan": "24D3cA7aXw471bQ5447CtETIDrE",
            "project": "linaro/anders",
            "provisioning_time": "2022-01-25T22:56:47.982013",
            "result": "unknown",
            "running_time": null,
            "state": "provisioning",
            "target_arch": "arm64",
            "targets": [],
            "toolchain": "gcc-11",
            "uid": "24D3cKocx0TSDzVBXtpRh6pkzEV",
            "user": "anders.roxell@linaro.org",
            "user_agent": "tuxsuite/0.42.3",
            "waited_by": [],
            "warnings_count": 0
        },
        "24D3cL1QP6NzzKJk0tmz04tXp9F": {
            "build_name": "",
            "client_token": "7b1850db-79f4-45cd-8e75-23809e4a8980",
            "download_url": "https://builds.tuxbuild.com/24D3cL1QP6NzzKJk0tmz04tXp9F/",
            "environment": {},
            "errors_count": 0,
            "finished_time": null,
            "git_ref": "v5.15-rc7",
            "git_repo": "https://git.kernel.org/pub/scm/linux/kernel/git/torvalds/linux.git",
            "git_sha": "3906fe9bb7f1a2c8667ae54e967dc8690824f4ea",
            "image_sha": "",
            "kconfig": [
                "defconfig"
            ],
            "kernel_image": "",
            "kernel_patch_file": "",
            "make_variables": {
                "LLVM": "1",
                "LLVM_IAS": "1"
            },
            "no_cache": false,
            "plan": "24D3cA7aXw471bQ5447CtETIDrE",
            "project": "linaro/anders",
            "provisioning_time": "2022-01-25T22:56:47.744833",
            "result": "unknown",
            "running_time": null,
            "state": "provisioning",
            "target_arch": "arm64",
            "targets": [],
            "toolchain": "clang-13",
            "uid": "24D3cL1QP6NzzKJk0tmz04tXp9F",
            "user": "anders.roxell@linaro.org",
            "user_agent": "tuxsuite/0.42.3",
            "waited_by": [],
            "warnings_count": 0
        },
        "24D3cL3MlkiUmDrjKnNA2gHrQki": {
            "build_name": "",
            "client_token": "8fd3b638-75a7-44d5-85b1-c8c3317bd562",
            "download_url": "https://builds.tuxbuild.com/24D3cL3MlkiUmDrjKnNA2gHrQki/",
            "environment": {},
            "errors_count": 0,
            "finished_time": null,
            "git_ref": "v5.15-rc7",
            "git_repo": "https://git.kernel.org/pub/scm/linux/kernel/git/torvalds/linux.git",
            "git_sha": "3906fe9bb7f1a2c8667ae54e967dc8690824f4ea",
            "image_sha": "",
            "kconfig": [
                "tinyconfig"
            ],
            "kernel_image": "",
            "kernel_patch_file": "",
            "make_variables": {},
            "no_cache": false,
            "plan": "24D3cA7aXw471bQ5447CtETIDrE",
            "project": "linaro/anders",
            "provisioning_time": "2022-01-25T22:56:47.465045",
            "result": "unknown",
            "running_time": null,
            "state": "provisioning",
            "target_arch": "arm64",
            "targets": [],
            "toolchain": "gcc-11",
            "uid": "24D3cL3MlkiUmDrjKnNA2gHrQki",
            "user": "anders.roxell@linaro.org",
            "user_agent": "tuxsuite/0.42.3",
            "waited_by": [],
            "warnings_count": 0
        },
        "24D3cLHl18owhAnNTFDN0groFVv": {
            "build_name": "",
            "client_token": "61021288-00fa-445f-adaa-ab94eac6207e",
            "download_url": "https://builds.tuxbuild.com/24D3cLHl18owhAnNTFDN0groFVv/",
            "environment": {},
            "errors_count": 0,
            "finished_time": null,
            "git_ref": "v5.15-rc7",
            "git_repo": "https://git.kernel.org/pub/scm/linux/kernel/git/torvalds/linux.git",
            "git_sha": "3906fe9bb7f1a2c8667ae54e967dc8690824f4ea",
            "image_sha": "",
            "kconfig": [
                "tinyconfig"
            ],
            "kernel_image": "",
            "kernel_patch_file": "",
            "make_variables": {},
            "no_cache": false,
            "plan": "24D3cA7aXw471bQ5447CtETIDrE",
            "project": "linaro/anders",
            "provisioning_time": "2022-01-25T22:56:47.294328",
            "result": "unknown",
            "running_time": null,
            "state": "provisioning",
            "target_arch": "arm64",
            "targets": [],
            "toolchain": "gcc-11",
            "uid": "24D3cLHl18owhAnNTFDN0groFVv",
            "user": "anders.roxell@linaro.org",
            "user_agent": "tuxsuite/0.42.3",
            "waited_by": [],
            "warnings_count": 0
        },
        "24D3cLbDWREE5W9B8RWFhQoGUzW": {
            "build_name": "",
            "client_token": "5a9b1f55-9e91-4a69-af74-31eafd8f0d9d",
            "download_url": "https://builds.tuxbuild.com/24D3cLbDWREE5W9B8RWFhQoGUzW/",
            "environment": {},
            "errors_count": 0,
            "finished_time": null,
            "git_ref": "v5.15-rc7",
            "git_repo": "https://git.kernel.org/pub/scm/linux/kernel/git/torvalds/linux.git",
            "git_sha": "3906fe9bb7f1a2c8667ae54e967dc8690824f4ea",
            "image_sha": "",
            "kconfig": [
                "tinyconfig"
            ],
            "kernel_image": "",
            "kernel_patch_file": "",
            "make_variables": {
                "LLVM": "1",
                "LLVM_IAS": "1"
            },
            "no_cache": false,
            "plan": "24D3cA7aXw471bQ5447CtETIDrE",
            "project": "linaro/anders",
            "provisioning_time": "2022-01-25T22:56:47.250084",
            "result": "unknown",
            "running_time": null,
            "state": "provisioning",
            "target_arch": "arm64",
            "targets": [],
            "toolchain": "clang-nightly",
            "uid": "24D3cLbDWREE5W9B8RWFhQoGUzW",
            "user": "anders.roxell@linaro.org",
            "user_agent": "tuxsuite/0.42.3",
            "waited_by": [],
            "warnings_count": 0
        },
        "24D3cLc5KxW2cWXfgdk7dbHVq2h": {
            "build_name": "",
            "client_token": "ddca494c-70c3-43cd-ae5b-ad7565503348",
            "download_url": "https://builds.tuxbuild.com/24D3cLc5KxW2cWXfgdk7dbHVq2h/",
            "environment": {},
            "errors_count": 0,
            "finished_time": null,
            "git_ref": "v5.15-rc7",
            "git_repo": "https://git.kernel.org/pub/scm/linux/kernel/git/torvalds/linux.git",
            "git_sha": "3906fe9bb7f1a2c8667ae54e967dc8690824f4ea",
            "image_sha": "",
            "kconfig": [
                "tinyconfig"
            ],
            "kernel_image": "",
            "kernel_patch_file": "",
            "make_variables": {},
            "no_cache": false,
            "plan": "24D3cA7aXw471bQ5447CtETIDrE",
            "project": "linaro/anders",
            "provisioning_time": "2022-01-25T22:56:47.356876",
            "result": "unknown",
            "running_time": null,
            "state": "provisioning",
            "target_arch": "arm64",
            "targets": [],
            "toolchain": "gcc-10",
            "uid": "24D3cLc5KxW2cWXfgdk7dbHVq2h",
            "user": "anders.roxell@linaro.org",
            "user_agent": "tuxsuite/0.42.3",
            "waited_by": [],
            "warnings_count": 0
        },
        "24D3cLefGjd0upvyyC8zdgVPb5m": {
            "build_name": "",
            "client_token": "5a24cd57-15cd-43d7-8245-b75f70d087d3",
            "download_url": "https://builds.tuxbuild.com/24D3cLefGjd0upvyyC8zdgVPb5m/",
            "environment": {},
            "errors_count": 0,
            "finished_time": null,
            "git_ref": "v5.15-rc7",
            "git_repo": "https://git.kernel.org/pub/scm/linux/kernel/git/torvalds/linux.git",
            "git_sha": "3906fe9bb7f1a2c8667ae54e967dc8690824f4ea",
            "image_sha": "",
            "kconfig": [
                "defconfig"
            ],
            "kernel_image": "",
            "kernel_patch_file": "",
            "make_variables": {},
            "no_cache": false,
            "plan": "24D3cA7aXw471bQ5447CtETIDrE",
            "project": "linaro/anders",
            "provisioning_time": "2022-01-25T22:56:47.722181",
            "result": "unknown",
            "running_time": null,
            "state": "provisioning",
            "target_arch": "arm64",
            "targets": [],
            "toolchain": "gcc-11",
            "uid": "24D3cLefGjd0upvyyC8zdgVPb5m",
            "user": "anders.roxell@linaro.org",
            "user_agent": "tuxsuite/0.42.3",
            "waited_by": [],
            "warnings_count": 0
        },
        "24D3cLsOprH9RGs99llAWNkF5WK": {
            "build_name": "",
            "client_token": "cd0ed6f9-d623-48fb-94d9-32844e5460f8",
            "download_url": "https://builds.tuxbuild.com/24D3cLsOprH9RGs99llAWNkF5WK/",
            "environment": {},
            "errors_count": 0,
            "finished_time": null,
            "git_ref": "v5.15-rc7",
            "git_repo": "https://git.kernel.org/pub/scm/linux/kernel/git/torvalds/linux.git",
            "git_sha": "3906fe9bb7f1a2c8667ae54e967dc8690824f4ea",
            "image_sha": "",
            "kconfig": [
                "defconfig"
            ],
            "kernel_image": "",
            "kernel_patch_file": "",
            "make_variables": {
                "LLVM": "1",
                "LLVM_IAS": "1"
            },
            "no_cache": false,
            "plan": "24D3cA7aXw471bQ5447CtETIDrE",
            "project": "linaro/anders",
            "provisioning_time": "2022-01-25T22:56:47.917765",
            "result": "unknown",
            "running_time": null,
            "state": "provisioning",
            "target_arch": "arm64",
            "targets": [],
            "toolchain": "clang-13",
            "uid": "24D3cLsOprH9RGs99llAWNkF5WK",
            "user": "anders.roxell@linaro.org",
            "user_agent": "tuxsuite/0.42.3",
            "waited_by": [],
            "warnings_count": 0
        },
        "24D3cLtub2xde3CXquV13VP21nX": {
            "build_name": "",
            "client_token": "dbfbb6a2-c32b-44a6-849f-f975b6a43884",
            "download_url": "https://builds.tuxbuild.com/24D3cLtub2xde3CXquV13VP21nX/",
            "environment": {},
            "errors_count": 0,
            "finished_time": null,
            "git_ref": "v5.15-rc7",
            "git_repo": "https://git.kernel.org/pub/scm/linux/kernel/git/torvalds/linux.git",
            "git_sha": "3906fe9bb7f1a2c8667ae54e967dc8690824f4ea",
            "image_sha": "",
            "kconfig": [
                "defconfig"
            ],
            "kernel_image": "",
            "kernel_patch_file": "",
            "make_variables": {},
            "no_cache": false,
            "plan": "24D3cA7aXw471bQ5447CtETIDrE",
            "project": "linaro/anders",
            "provisioning_time": "2022-01-25T22:56:47.894814",
            "result": "unknown",
            "running_time": null,
            "state": "provisioning",
            "target_arch": "arm64",
            "targets": [],
            "toolchain": "gcc-11",
            "uid": "24D3cLtub2xde3CXquV13VP21nX",
            "user": "anders.roxell@linaro.org",
            "user_agent": "tuxsuite/0.42.3",
            "waited_by": [],
            "warnings_count": 0
        },
        "24D3cLxIlnfrIPot4VxwvZ1INNO": {
            "build_name": "",
            "client_token": "c3e63130-b8ea-47c6-8c81-4df8aaa3e4c4",
            "download_url": "https://builds.tuxbuild.com/24D3cLxIlnfrIPot4VxwvZ1INNO/",
            "environment": {},
            "errors_count": 0,
            "finished_time": null,
            "git_ref": "v5.15-rc7",
            "git_repo": "https://git.kernel.org/pub/scm/linux/kernel/git/torvalds/linux.git",
            "git_sha": "3906fe9bb7f1a2c8667ae54e967dc8690824f4ea",
            "image_sha": "",
            "kconfig": [
                "tinyconfig"
            ],
            "kernel_image": "",
            "kernel_patch_file": "",
            "make_variables": {
                "LLVM": "1",
                "LLVM_IAS": "1"
            },
            "no_cache": false,
            "plan": "24D3cA7aXw471bQ5447CtETIDrE",
            "project": "linaro/anders",
            "provisioning_time": "2022-01-25T22:56:47.335730",
            "result": "unknown",
            "running_time": null,
            "state": "provisioning",
            "target_arch": "arm64",
            "targets": [],
            "toolchain": "clang-nightly",
            "uid": "24D3cLxIlnfrIPot4VxwvZ1INNO",
            "user": "anders.roxell@linaro.org",
            "user_agent": "tuxsuite/0.42.3",
            "waited_by": [],
            "warnings_count": 0
        },
        "24D3cNxK2KRV03nhaoch59XlX30": {
            "build_name": "",
            "client_token": "05d86bc1-5be7-4a4b-9ef2-873f811453a4",
            "download_url": "https://builds.tuxbuild.com/24D3cNxK2KRV03nhaoch59XlX30/",
            "environment": {},
            "errors_count": 0,
            "finished_time": null,
            "git_ref": "v5.15-rc7",
            "git_repo": "https://git.kernel.org/pub/scm/linux/kernel/git/torvalds/linux.git",
            "git_sha": "3906fe9bb7f1a2c8667ae54e967dc8690824f4ea",
            "image_sha": "",
            "kconfig": [
                "defconfig"
            ],
            "kernel_image": "",
            "kernel_patch_file": "",
            "make_variables": {
                "LLVM": "1",
                "LLVM_IAS": "1"
            },
            "no_cache": false,
            "plan": "24D3cA7aXw471bQ5447CtETIDrE",
            "project": "linaro/anders",
            "provisioning_time": "2022-01-25T22:56:48.071639",
            "result": "unknown",
            "running_time": null,
            "state": "provisioning",
            "target_arch": "arm64",
            "targets": [],
            "toolchain": "clang-nightly",
            "uid": "24D3cNxK2KRV03nhaoch59XlX30",
            "user": "anders.roxell@linaro.org",
            "user_agent": "tuxsuite/0.42.3",
            "waited_by": [],
            "warnings_count": 0
        },
        "24D3cS8R6SflNO62fYyJXdlystZ": {
            "build_name": "",
            "client_token": "ffada592-cc59-4e8c-8e1f-cbbe0acdcfab",
            "download_url": "https://builds.tuxbuild.com/24D3cS8R6SflNO62fYyJXdlystZ/",
            "environment": {},
            "errors_count": 0,
            "finished_time": null,
            "git_ref": "v5.15-rc7",
            "git_repo": "https://git.kernel.org/pub/scm/linux/kernel/git/torvalds/linux.git",
            "git_sha": "3906fe9bb7f1a2c8667ae54e967dc8690824f4ea",
            "image_sha": "",
            "kconfig": [
                "defconfig"
            ],
            "kernel_image": "",
            "kernel_patch_file": "",
            "make_variables": {
                "LLVM": "1",
                "LLVM_IAS": "1"
            },
            "no_cache": false,
            "plan": "24D3cA7aXw471bQ5447CtETIDrE",
            "project": "linaro/anders",
            "provisioning_time": "2022-01-25T22:56:48.005278",
            "result": "unknown",
            "running_time": null,
            "state": "provisioning",
            "target_arch": "arm64",
            "targets": [],
            "toolchain": "clang-13",
            "uid": "24D3cS8R6SflNO62fYyJXdlystZ",
            "user": "anders.roxell@linaro.org",
            "user_agent": "tuxsuite/0.42.3",
            "waited_by": [],
            "warnings_count": 0
        }
    },
    "tests": {
        "24D3cU0ojrnW5DI3SWTY25K5RCG": {
            "ap_romfw": null,
            "boot_args": null,
            "device": "qemu-arm64",
            "finished_time": null,
            "fip": null,
            "kernel": null,
            "mcp_fw": null,
            "mcp_romfw": null,
            "modules": null,
            "parameters": [],
            "plan": "24D3cA7aXw471bQ5447CtETIDrE",
            "project": "linaro/anders",
            "provisioning_time": null,
            "result": "unknown",
            "results": {},
            "retries": 0,
            "retries_messages": [],
            "rootfs": null,
            "running_time": null,
            "scp_fw": null,
            "scp_romfw": null,
            "state": "waiting",
            "tests": [
                "boot"
            ],
            "uid": "24D3cU0ojrnW5DI3SWTY25K5RCG",
            "user": "anders.roxell@linaro.org",
            "user_agent": "tuxsuite/0.42.3",
            "waiting_for": "24D3cEMP3zViecZnB4JJoroKY31"
        },
        "24D3cUJ1c6hhlwoYpHoHAAXEmEo": {
            "ap_romfw": null,
            "boot_args": null,
            "device": "qemu-arm64",
            "finished_time": null,
            "fip": null,
            "kernel": null,
            "mcp_fw": null,
            "mcp_romfw": null,
            "modules": null,
            "parameters": [],
            "plan": "24D3cA7aXw471bQ5447CtETIDrE",
            "project": "linaro/anders",
            "provisioning_time": null,
            "result": "unknown",
            "results": {},
            "retries": 0,
            "retries_messages": [],
            "rootfs": null,
            "running_time": null,
            "scp_fw": null,
            "scp_romfw": null,
            "state": "waiting",
            "tests": [
                "boot"
            ],
            "uid": "24D3cUJ1c6hhlwoYpHoHAAXEmEo",
            "user": "anders.roxell@linaro.org",
            "user_agent": "tuxsuite/0.42.3",
            "waiting_for": "24D3cH3WKQJKQs6PzJAFU0VUElN"
        },
        "24D3cUkzNKBK41Y7kJYWUtefIzb": {
            "ap_romfw": null,
            "boot_args": null,
            "device": "qemu-arm64",
            "finished_time": null,
            "fip": null,
            "kernel": null,
            "mcp_fw": null,
            "mcp_romfw": null,
            "modules": null,
            "parameters": [],
            "plan": "24D3cA7aXw471bQ5447CtETIDrE",
            "project": "linaro/anders",
            "provisioning_time": null,
            "result": "unknown",
            "results": {},
            "retries": 0,
            "retries_messages": [],
            "rootfs": null,
            "running_time": null,
            "scp_fw": null,
            "scp_romfw": null,
            "state": "waiting",
            "tests": [
                "boot"
            ],
            "uid": "24D3cUkzNKBK41Y7kJYWUtefIzb",
            "user": "anders.roxell@linaro.org",
            "user_agent": "tuxsuite/0.42.3",
            "waiting_for": "24D3cKftIK9Qv0zubEecAOdTQkZ"
        },
        "24D3cUstpiuu6nyRb79LyUN2umN": {
            "ap_romfw": null,
            "boot_args": null,
            "device": "qemu-arm64",
            "finished_time": null,
            "fip": null,
            "kernel": null,
            "mcp_fw": null,
            "mcp_romfw": null,
            "modules": null,
            "parameters": [],
            "plan": "24D3cA7aXw471bQ5447CtETIDrE",
            "project": "linaro/anders",
            "provisioning_time": null,
            "result": "unknown",
            "results": {},
            "retries": 0,
            "retries_messages": [],
            "rootfs": null,
            "running_time": null,
            "scp_fw": null,
            "scp_romfw": null,
            "state": "waiting",
            "tests": [
                "boot"
            ],
            "uid": "24D3cUstpiuu6nyRb79LyUN2umN",
            "user": "anders.roxell@linaro.org",
            "user_agent": "tuxsuite/0.42.3",
            "waiting_for": "24D3cIMT8tBwRhrRMfs9Q3xOvXw"
        },
        "24D3cV5XOmUyRXx2acZw3IktULU": {
            "ap_romfw": null,
            "boot_args": null,
            "device": "qemu-arm64",
            "finished_time": null,
            "fip": null,
            "kernel": null,
            "mcp_fw": null,
            "mcp_romfw": null,
            "modules": null,
            "parameters": [],
            "plan": "24D3cA7aXw471bQ5447CtETIDrE",
            "project": "linaro/anders",
            "provisioning_time": null,
            "result": "unknown",
            "results": {},
            "retries": 0,
            "retries_messages": [],
            "rootfs": null,
            "running_time": null,
            "scp_fw": null,
            "scp_romfw": null,
            "state": "waiting",
            "tests": [
                "boot"
            ],
            "uid": "24D3cV5XOmUyRXx2acZw3IktULU",
            "user": "anders.roxell@linaro.org",
            "user_agent": "tuxsuite/0.42.3",
            "waiting_for": "24D3cIoVbS4wt67NxvSOFKw61Cs"
        },
        "24D3cVKpCGrS37zSvc6PYnnSC6q": {
            "ap_romfw": null,
            "boot_args": null,
            "device": "qemu-arm64",
            "finished_time": null,
            "fip": null,
            "kernel": null,
            "mcp_fw": null,
            "mcp_romfw": null,
            "modules": null,
            "parameters": [],
            "plan": "24D3cA7aXw471bQ5447CtETIDrE",
            "project": "linaro/anders",
            "provisioning_time": null,
            "result": "unknown",
            "results": {},
            "retries": 0,
            "retries_messages": [],
            "rootfs": null,
            "running_time": null,
            "scp_fw": null,
            "scp_romfw": null,
            "state": "waiting",
            "tests": [
                "boot"
            ],
            "uid": "24D3cVKpCGrS37zSvc6PYnnSC6q",
            "user": "anders.roxell@linaro.org",
            "user_agent": "tuxsuite/0.42.3",
            "waiting_for": "24D3cL1QP6NzzKJk0tmz04tXp9F"
        },
        "24D3cWXMwoBW5SD4a4NQGYHktC0": {
            "ap_romfw": null,
            "boot_args": null,
            "device": "qemu-arm64",
            "finished_time": null,
            "fip": null,
            "kernel": null,
            "mcp_fw": null,
            "mcp_romfw": null,
            "modules": null,
            "parameters": [],
            "plan": "24D3cA7aXw471bQ5447CtETIDrE",
            "project": "linaro/anders",
            "provisioning_time": null,
            "result": "unknown",
            "results": {},
            "retries": 0,
            "retries_messages": [],
            "rootfs": null,
            "running_time": null,
            "scp_fw": null,
            "scp_romfw": null,
            "state": "waiting",
            "tests": [
                "boot"
            ],
            "uid": "24D3cWXMwoBW5SD4a4NQGYHktC0",
            "user": "anders.roxell@linaro.org",
            "user_agent": "tuxsuite/0.42.3",
            "waiting_for": "24D3cKocx0TSDzVBXtpRh6pkzEV"
        },
        "24D3cX050ag0mtuZX2jSVoGNJNU": {
            "ap_romfw": null,
            "boot_args": null,
            "device": "qemu-arm64",
            "finished_time": null,
            "fip": null,
            "kernel": null,
            "mcp_fw": null,
            "mcp_romfw": null,
            "modules": null,
            "parameters": [],
            "plan": "24D3cA7aXw471bQ5447CtETIDrE",
            "project": "linaro/anders",
            "provisioning_time": null,
            "result": "unknown",
            "results": {},
            "retries": 0,
            "retries_messages": [],
            "rootfs": null,
            "running_time": null,
            "scp_fw": null,
            "scp_romfw": null,
            "state": "waiting",
            "tests": [
                "boot"
            ],
            "uid": "24D3cX050ag0mtuZX2jSVoGNJNU",
            "user": "anders.roxell@linaro.org",
            "user_agent": "tuxsuite/0.42.3",
            "waiting_for": "24D3cKeANPS3XgdCqzHKb4H8c3n"
        },
        "24D3cXSGkKwTGrn8uCmoSw4vg59": {
            "ap_romfw": null,
            "boot_args": null,
            "device": "qemu-arm64",
            "finished_time": null,
            "fip": null,
            "kernel": null,
            "mcp_fw": null,
            "mcp_romfw": null,
            "modules": null,
            "parameters": [],
            "plan": "24D3cA7aXw471bQ5447CtETIDrE",
            "project": "linaro/anders",
            "provisioning_time": null,
            "result": "unknown",
            "results": {},
            "retries": 0,
            "retries_messages": [],
            "rootfs": null,
            "running_time": null,
            "scp_fw": null,
            "scp_romfw": null,
            "state": "waiting",
            "tests": [
                "boot"
            ],
            "uid": "24D3cXSGkKwTGrn8uCmoSw4vg59",
            "user": "anders.roxell@linaro.org",
            "user_agent": "tuxsuite/0.42.3",
            "waiting_for": "24D3cH3fkgXnggxVSUEp8uZPk1t"
        },
        "24D3cXTULd4z2uQVfs9CXwUwrlb": {
            "ap_romfw": null,
            "boot_args": null,
            "device": "qemu-arm64",
            "finished_time": null,
            "fip": null,
            "kernel": null,
            "mcp_fw": null,
            "mcp_romfw": null,
            "modules": null,
            "parameters": [],
            "plan": "24D3cA7aXw471bQ5447CtETIDrE",
            "project": "linaro/anders",
            "provisioning_time": null,
            "result": "unknown",
            "results": {},
            "retries": 0,
            "retries_messages": [],
            "rootfs": null,
            "running_time": null,
            "scp_fw": null,
            "scp_romfw": null,
            "state": "waiting",
            "tests": [
                "boot"
            ],
            "uid": "24D3cXTULd4z2uQVfs9CXwUwrlb",
            "user": "anders.roxell@linaro.org",
            "user_agent": "tuxsuite/0.42.3",
            "waiting_for": "24D3cHOhMZ31w6i2btQpuLrVkNA"
        },
        "24D3cXbvmqqoiHmgd1NpJtO8yEr": {
            "ap_romfw": null,
            "boot_args": null,
            "device": "qemu-arm64",
            "finished_time": null,
            "fip": null,
            "kernel": null,
            "mcp_fw": null,
            "mcp_romfw": null,
            "modules": null,
            "parameters": [],
            "plan": "24D3cA7aXw471bQ5447CtETIDrE",
            "project": "linaro/anders",
            "provisioning_time": null,
            "result": "unknown",
            "results": {},
            "retries": 0,
            "retries_messages": [],
            "rootfs": null,
            "running_time": null,
            "scp_fw": null,
            "scp_romfw": null,
            "state": "waiting",
            "tests": [
                "boot"
            ],
            "uid": "24D3cXbvmqqoiHmgd1NpJtO8yEr",
            "user": "anders.roxell@linaro.org",
            "user_agent": "tuxsuite/0.42.3",
            "waiting_for": "24D3cS8R6SflNO62fYyJXdlystZ"
        },
        "24D3cY5FWOrMpsBlGmuPv6YtcrJ": {
            "ap_romfw": null,
            "boot_args": null,
            "device": "qemu-arm64",
            "finished_time": null,
            "fip": null,
            "kernel": null,
            "mcp_fw": null,
            "mcp_romfw": null,
            "modules": null,
            "parameters": [],
            "plan": "24D3cA7aXw471bQ5447CtETIDrE",
            "project": "linaro/anders",
            "provisioning_time": null,
            "result": "unknown",
            "results": {},
            "retries": 0,
            "retries_messages": [],
            "rootfs": null,
            "running_time": null,
            "scp_fw": null,
            "scp_romfw": null,
            "state": "waiting",
            "tests": [
                "boot"
            ],
            "uid": "24D3cY5FWOrMpsBlGmuPv6YtcrJ",
            "user": "anders.roxell@linaro.org",
            "user_agent": "tuxsuite/0.42.3",
            "waiting_for": "24D3cLefGjd0upvyyC8zdgVPb5m"
        },
        "24D3cYdP7WHuBMLheEQJszj7wRK": {
            "ap_romfw": null,
            "boot_args": null,
            "device": "qemu-arm64",
            "finished_time": null,
            "fip": null,
            "kernel": null,
            "mcp_fw": null,
            "mcp_romfw": null,
            "modules": null,
            "parameters": [],
            "plan": "24D3cA7aXw471bQ5447CtETIDrE",
            "project": "linaro/anders",
            "provisioning_time": null,
            "result": "unknown",
            "results": {},
            "retries": 0,
            "retries_messages": [],
            "rootfs": null,
            "running_time": null,
            "scp_fw": null,
            "scp_romfw": null,
            "state": "waiting",
            "tests": [
                "boot"
            ],
            "uid": "24D3cYdP7WHuBMLheEQJszj7wRK",
            "user": "anders.roxell@linaro.org",
            "user_agent": "tuxsuite/0.42.3",
            "waiting_for": "24D3cLtub2xde3CXquV13VP21nX"
        },
        "24D3cYiV8ghMdDdFtEaMGxxqoQA": {
            "ap_romfw": null,
            "boot_args": null,
            "device": "qemu-arm64",
            "finished_time": null,
            "fip": null,
            "kernel": null,
            "mcp_fw": null,
            "mcp_romfw": null,
            "modules": null,
            "parameters": [],
            "plan": "24D3cA7aXw471bQ5447CtETIDrE",
            "project": "linaro/anders",
            "provisioning_time": null,
            "result": "unknown",
            "results": {},
            "retries": 0,
            "retries_messages": [],
            "rootfs": null,
            "running_time": null,
            "scp_fw": null,
            "scp_romfw": null,
            "state": "waiting",
            "tests": [
                "boot"
            ],
            "uid": "24D3cYiV8ghMdDdFtEaMGxxqoQA",
            "user": "anders.roxell@linaro.org",
            "user_agent": "tuxsuite/0.42.3",
            "waiting_for": "24D3cESVvMzSNt5PrSNpiz0Q5TX"
        },
        "24D3cZzS9fNiT0B6n4SCNGJYwOm": {
            "ap_romfw": null,
            "boot_args": null,
            "device": "qemu-arm64",
            "finished_time": null,
            "fip": null,
            "kernel": null,
            "mcp_fw": null,
            "mcp_romfw": null,
            "modules": null,
            "parameters": [],
            "plan": "24D3cA7aXw471bQ5447CtETIDrE",
            "project": "linaro/anders",
            "provisioning_time": null,
            "result": "unknown",
            "results": {},
            "retries": 0,
            "retries_messages": [],
            "rootfs": null,
            "running_time": null,
            "scp_fw": null,
            "scp_romfw": null,
            "state": "waiting",
            "tests": [
                "boot"
            ],
            "uid": "24D3cZzS9fNiT0B6n4SCNGJYwOm",
            "user": "anders.roxell@linaro.org",
            "user_agent": "tuxsuite/0.42.3",
            "waiting_for": "24D3cGHTx8i98mTtjNcXYhj0WNn"
        },
        "24D3ca3jAkfaELVY93QODkvg8zK": {
            "ap_romfw": null,
            "boot_args": null,
            "device": "qemu-arm64",
            "finished_time": null,
            "fip": null,
            "kernel": null,
            "mcp_fw": null,
            "mcp_romfw": null,
            "modules": null,
            "parameters": [],
            "plan": "24D3cA7aXw471bQ5447CtETIDrE",
            "project": "linaro/anders",
            "provisioning_time": null,
            "result": "unknown",
            "results": {},
            "retries": 0,
            "retries_messages": [],
            "rootfs": null,
            "running_time": null,
            "scp_fw": null,
            "scp_romfw": null,
            "state": "waiting",
            "tests": [
                "boot"
            ],
            "uid": "24D3ca3jAkfaELVY93QODkvg8zK",
            "user": "anders.roxell@linaro.org",
            "user_agent": "tuxsuite/0.42.3",
            "waiting_for": "24D3cGlzIvesYqsxOoVP7ImI7JF"
        },
        "24D3caOHhVbtMxJvwNUzpwtnEoj": {
            "ap_romfw": null,
            "boot_args": null,
            "device": "qemu-arm64",
            "finished_time": null,
            "fip": null,
            "kernel": null,
            "mcp_fw": null,
            "mcp_romfw": null,
            "modules": null,
            "parameters": [],
            "plan": "24D3cA7aXw471bQ5447CtETIDrE",
            "project": "linaro/anders",
            "provisioning_time": null,
            "result": "unknown",
            "results": {},
            "retries": 0,
            "retries_messages": [],
            "rootfs": null,
            "running_time": null,
            "scp_fw": null,
            "scp_romfw": null,
            "state": "waiting",
            "tests": [
                "boot"
            ],
            "uid": "24D3caOHhVbtMxJvwNUzpwtnEoj",
            "user": "anders.roxell@linaro.org",
            "user_agent": "tuxsuite/0.42.3",
            "waiting_for": "24D3cH305SAVkhoVfKMtNTRvcYE"
        },
        "24D3casEBVqyrm4mOrPKwttMmrc": {
            "ap_romfw": null,
            "boot_args": null,
            "device": "qemu-arm64",
            "finished_time": null,
            "fip": null,
            "kernel": null,
            "mcp_fw": null,
            "mcp_romfw": null,
            "modules": null,
            "parameters": [],
            "plan": "24D3cA7aXw471bQ5447CtETIDrE",
            "project": "linaro/anders",
            "provisioning_time": null,
            "result": "unknown",
            "results": {},
            "retries": 0,
            "retries_messages": [],
            "rootfs": null,
            "running_time": null,
            "scp_fw": null,
            "scp_romfw": null,
            "state": "waiting",
            "tests": [
                "boot"
            ],
            "uid": "24D3casEBVqyrm4mOrPKwttMmrc",
            "user": "anders.roxell@linaro.org",
            "user_agent": "tuxsuite/0.42.3",
            "waiting_for": "24D3cETVFzFg671GPpgs0kG56rO"
        },
        "24D3cbJvTGPcgiA4z42OBwfeNWz": {
            "ap_romfw": null,
            "boot_args": null,
            "device": "qemu-arm64",
            "finished_time": null,
            "fip": null,
            "kernel": null,
            "mcp_fw": null,
            "mcp_romfw": null,
            "modules": null,
            "parameters": [],
            "plan": "24D3cA7aXw471bQ5447CtETIDrE",
            "project": "linaro/anders",
            "provisioning_time": null,
            "result": "unknown",
            "results": {},
            "retries": 0,
            "retries_messages": [],
            "rootfs": null,
            "running_time": null,
            "scp_fw": null,
            "scp_romfw": null,
            "state": "waiting",
            "tests": [
                "boot"
            ],
            "uid": "24D3cbJvTGPcgiA4z42OBwfeNWz",
            "user": "anders.roxell@linaro.org",
            "user_agent": "tuxsuite/0.42.3",
            "waiting_for": "24D3cLsOprH9RGs99llAWNkF5WK"
        },
        "24D3cbdL3XHuEzKeUdKG5vDsamp": {
            "ap_romfw": null,
            "boot_args": null,
            "device": "qemu-arm64",
            "finished_time": null,
            "fip": null,
            "kernel": null,
            "mcp_fw": null,
            "mcp_romfw": null,
            "modules": null,
            "parameters": [],
            "plan": "24D3cA7aXw471bQ5447CtETIDrE",
            "project": "linaro/anders",
            "provisioning_time": null,
            "result": "unknown",
            "results": {},
            "retries": 0,
            "retries_messages": [],
            "rootfs": null,
            "running_time": null,
            "scp_fw": null,
            "scp_romfw": null,
            "state": "waiting",
            "tests": [
                "boot"
            ],
            "uid": "24D3cbdL3XHuEzKeUdKG5vDsamp",
            "user": "anders.roxell@linaro.org",
            "user_agent": "tuxsuite/0.42.3",
            "waiting_for": "24D3cNxK2KRV03nhaoch59XlX30"
        }
    }
}