{
    "builds": {
        "24D3Wr8HxsQVHARbmvMEJXh46ty": {
            "build_name": "",
            "client_token": "0359d7dc-4b89-4dae-bcad-3827434def43",
            "download_url": "https://builds.tuxbuild.com/24D3Wr8HxsQVHARbmvMEJXh46ty/",
            "environment": {},
            "errors_count": 0,
            "finished_time": null,
            "git_ref": "v5.14-rc3",
            "git_repo": "https://git.kernel.org/pub/scm/linux/kernel/git/torvalds/linux.git",
            "git_sha": "ff1176468d368232b684f75e82563369208bc371",
            "image_sha": "",
            "kconfig": [
                "tinyconfig"
            ],
            "kernel_image": "",
            "kernel_patch_file": "",
            "make_variables": {
                "LLVM": "1",
                "LLVM_IAS": "1"
            },
            "no_cache": false,
            "plan": "24D3WmzkB7UxztFkzWhb8MVtsls",
            "project": "linaro/anders",
            "provisioning_time": "2022-01-25T22:56:04.819175",
            "result": "unknown",
            "running_time": null,
            "state": "provisioning",
            "target_arch": "arm64",
            "targets": [],
            "toolchain": "clang-13",
            "uid": "24D3Wr8HxsQVHARbmvMEJXh46ty",
            "user": "anders.roxell@linaro.org",
            "user_agent": "tuxsuite/0.42.3",
            "waited_by": [],
            "warnings_count": 0
        },
        "24D3WrQA9fUibMRMzoCceKyzySZ": {
            "build_name": "",
            "client_token": "672a3538-272b-4664-8199-05cca6eb6375",
            "download_url": "https://builds.tuxbuild.com/24D3WrQA9fUibMRMzoCceKyzySZ/",
            "environment": {},
            "errors_count": 0,
            "finished_time": null,
            "git_ref": "v5.14-rc3",
            "git_repo": "https://git.kernel.org/pub/scm/linux/kernel/git/torvalds/linux.git",
            "git_sha": "ff1176468d368232b684f75e82563369208bc371",
            "image_sha": "",
            "kconfig": [
                "tinyconfig"
            ],
            "kernel_image": "",
            "kernel_patch_file": "",
            "make_variables": {},
            "no_cache": false,
            "plan": "24D3WmzkB7UxztFkzWhb8MVtsls",
            "project": "linaro/anders",
            "provisioning_time": "2022-01-25T22:56:04.966148",
            "result": "unknown",
            "running_time": null,
            "state": "provisioning",
            "target_arch": "arm64",
            "targets": [],
            "toolchain": "gcc-11",
            "uid": "24D3WrQA9fUibMRMzoCceKyzySZ",
            "user": "anders.roxell@linaro.org",
            "user_agent": "tuxsuite/0.42.3",
            "waited_by": [],
            "warnings_count": 0
        },
        "24D3WrYnW2kLoEJGdBmMt4MWrwH": {
            "build_name": "",
            "client_token": "e245e758-71b3-4855-955a-5456599315f7",
            "download_url": "https://builds.tuxbuild.com/24D3WrYnW2kLoEJGdBmMt4MWrwH/",
            "environment": {},
            "errors_count": 0,
            "finished_time": null,
            "git_ref": "v5.14-rc3",
            "git_repo": "https://git.kernel.org/pub/scm/linux/kernel/git/torvalds/linux.git",
            "git_sha": "ff1176468d368232b684f75e82563369208bc371",
            "image_sha": "",
            "kconfig": [
                "tinyconfig"
            ],
            "kernel_image": "",
            "kernel_patch_file": "",
            "make_variables": {},
            "no_cache": false,
            "plan": "24D3WmzkB7UxztFkzWhb8MVtsls",
            "project": "linaro/anders",
            "provisioning_time": "2022-01-25T22:56:04.710037",
            "result": "unknown",
            "running_time": null,
            "state": "provisioning",
            "target_arch": "arm64",
            "targets": [],
            "toolchain": "gcc-11",
            "uid": "24D3WrYnW2kLoEJGdBmMt4MWrwH",
            "user": "anders.roxell@linaro.org",
            "user_agent": "tuxsuite/0.42.3",
            "waited_by": [],
            "warnings_count": 0
        },
        "24D3Wrh2oNoNyAlqXUmlVTyt5xs": {
            "build_name": "",
            "client_token": "da15c1bb-0639-42da-97fa-a7d0ebe1940e",
            "download_url": "https://builds.tuxbuild.com/24D3Wrh2oNoNyAlqXUmlVTyt5xs/",
            "environment": {},
            "errors_count": 0,
            "finished_time": null,
            "git_ref": "v5.14-rc3",
            "git_repo": "https://git.kernel.org/pub/scm/linux/kernel/git/torvalds/linux.git",
            "git_sha": "ff1176468d368232b684f75e82563369208bc371",
            "image_sha": "",
            "kconfig": [
                "tinyconfig"
            ],
            "kernel_image": "",
            "kernel_patch_file": "",
            "make_variables": {},
            "no_cache": false,
            "plan": "24D3WmzkB7UxztFkzWhb8MVtsls",
            "project": "linaro/anders",
            "provisioning_time": "2022-01-25T22:56:04.601105",
            "result": "unknown",
            "running_time": null,
            "state": "provisioning",
            "target_arch": "arm64",
            "targets": [],
            "toolchain": "gcc-10",
            "uid": "24D3Wrh2oNoNyAlqXUmlVTyt5xs",
            "user": "anders.roxell@linaro.org",
            "user_agent": "tuxsuite/0.42.3",
            "waited_by": [],
            "warnings_count": 0
        },
        "24D3WsMKXTzvQxkEOvVSzt5Grq5": {
            "build_name": "",
            "client_token": "1b280887-f71b-436f-85b5-4568e2845f5e",
            "download_url": "https://builds.tuxbuild.com/24D3WsMKXTzvQxkEOvVSzt5Grq5/",
            "environment": {},
            "errors_count": 0,
            "finished_time": null,
            "git_ref": "v5.14-rc3",
            "git_repo": "https://git.kernel.org/pub/scm/linux/kernel/git/torvalds/linux.git",
            "git_sha": "ff1176468d368232b684f75e82563369208bc371",
            "image_sha": "",
            "kconfig": [
                "tinyconfig"
            ],
            "kernel_image": "",
            "kernel_patch_file": "",
            "make_variables": {},
            "no_cache": false,
            "plan": "24D3WmzkB7UxztFkzWhb8MVtsls",
            "project": "linaro/anders",
            "provisioning_time": "2022-01-25T22:56:04.945116",
            "result": "unknown",
            "running_time": null,
            "state": "provisioning",
            "target_arch": "arm64",
            "targets": [],
            "toolchain": "gcc-10",
            "uid": "24D3WsMKXTzvQxkEOvVSzt5Grq5",
            "user": "anders.roxell@linaro.org",
            "user_agent": "tuxsuite/0.42.3",
            "waited_by": [],
            "warnings_count": 0
        },
        "24D3WtXd7JxWDHpYBL1lSi1jxTo": {
            "build_name": "",
            "client_token": "ddae36f8-a9d6-4176-abbb-810ebede36e1",
            "download_url": "https://builds.tuxbuild.com/24D3WtXd7JxWDHpYBL1lSi1jxTo/",
            "environment": {},
            "errors_count": 0,
            "finished_time": null,
            "git_ref": "v5.14-rc3",
            "git_repo": "https://git.kernel.org/pub/scm/linux/kernel/git/torvalds/linux.git",
            "git_sha": "ff1176468d368232b684f75e82563369208bc371",
            "image_sha": "",
            "kconfig": [
                "tinyconfig"
            ],
            "kernel_image": "",
            "kernel_patch_file": "",
            "make_variables": {},
            "no_cache": false,
            "plan": "24D3WmzkB7UxztFkzWhb8MVtsls",
            "project": "linaro/anders",
            "provisioning_time": "2022-01-25T22:56:04.883103",
            "result": "unknown",
            "running_time": null,
            "state": "provisioning",
            "target_arch": "arm64",
            "targets": [],
            "toolchain": "gcc-11",
            "uid": "24D3WtXd7JxWDHpYBL1lSi1jxTo",
            "user": "anders.roxell@linaro.org",
            "user_agent": "tuxsuite/0.42.3",
            "waited_by": [],
            "warnings_count": 0
        },
        "24D3Wu8vzeAalUvWxn9pe1QRSyd": {
            "build_name": "",
            "client_token": "611c4141-561f-42ae-bead-2d2f68c0981d",
            "download_url": "https://builds.tuxbuild.com/24D3Wu8vzeAalUvWxn9pe1QRSyd/",
            "environment": {},
            "errors_count": 0,
            "finished_time": null,
            "git_ref": "v5.14-rc3",
            "git_repo": "https://git.kernel.org/pub/scm/linux/kernel/git/torvalds/linux.git",
            "git_sha": "ff1176468d368232b684f75e82563369208bc371",
            "image_sha": "",
            "kconfig": [
                "tinyconfig"
            ],
            "kernel_image": "",
            "kernel_patch_file": "",
            "make_variables": {},
            "no_cache": false,
            "plan": "24D3WmzkB7UxztFkzWhb8MVtsls",
            "project": "linaro/anders",
            "provisioning_time": "2022-01-25T22:56:04.623282",
            "result": "unknown",
            "running_time": null,
            "state": "provisioning",
            "target_arch": "arm64",
            "targets": [],
            "toolchain": "gcc-11",
            "uid": "24D3Wu8vzeAalUvWxn9pe1QRSyd",
            "user": "anders.roxell@linaro.org",
            "user_agent": "tuxsuite/0.42.3",
            "waited_by": [],
            "warnings_count": 0
        },
        "24D3WuBfjnT71oFwpHQOBbQATm1": {
            "build_name": "",
            "client_token": "b661a9bb-4bc5-4104-916d-4a4a6543c728",
            "download_url": "https://builds.tuxbuild.com/24D3WuBfjnT71oFwpHQOBbQATm1/",
            "environment": {},
            "errors_count": 0,
            "finished_time": null,
            "git_ref": "v5.14-rc3",
            "git_repo": "https://git.kernel.org/pub/scm/linux/kernel/git/torvalds/linux.git",
            "git_sha": "ff1176468d368232b684f75e82563369208bc371",
            "image_sha": "",
            "kconfig": [
                "tinyconfig"
            ],
            "kernel_image": "",
            "kernel_patch_file": "",
            "make_variables": {
                "LLVM": "1",
                "LLVM_IAS": "1"
            },
            "no_cache": false,
            "plan": "24D3WmzkB7UxztFkzWhb8MVtsls",
            "project": "linaro/anders",
            "provisioning_time": "2022-01-25T22:56:04.839493",
            "result": "unknown",
            "running_time": null,
            "state": "provisioning",
            "target_arch": "arm64",
            "targets": [],
            "toolchain": "clang-nightly",
            "uid": "24D3WuBfjnT71oFwpHQOBbQATm1",
            "user": "anders.roxell@linaro.org",
            "user_agent": "tuxsuite/0.42.3",
            "waited_by": [],
            "warnings_count": 0
        },
        "24D3WuDsyu3ka5pJ5dQFm9FvFmJ": {
            "build_name": "",
            "client_token": "21e57514-8178-41f3-a62c-75ca51549b04",
            "download_url": "https://builds.tuxbuild.com/24D3WuDsyu3ka5pJ5dQFm9FvFmJ/",
            "environment": {},
            "errors_count": 0,
            "finished_time": null,
            "git_ref": "v5.14-rc3",
            "git_repo": "https://git.kernel.org/pub/scm/linux/kernel/git/torvalds/linux.git",
            "git_sha": "ff1176468d368232b684f75e82563369208bc371",
            "image_sha": "",
            "kconfig": [
                "tinyconfig"
            ],
            "kernel_image": "",
            "kernel_patch_file": "",
            "make_variables": {
                "LLVM": "1",
                "LLVM_IAS": "1"
            },
            "no_cache": false,
            "plan": "24D3WmzkB7UxztFkzWhb8MVtsls",
            "project": "linaro/anders",
            "provisioning_time": "2022-01-25T22:56:04.988064",
            "result": "unknown",
            "running_time": null,
            "state": "provisioning",
            "target_arch": "arm64",
            "targets": [],
            "toolchain": "clang-13",
            "uid": "24D3WuDsyu3ka5pJ5dQFm9FvFmJ",
            "user": "anders.roxell@linaro.org",
            "user_agent": "tuxsuite/0.42.3",
            "waited_by": [],
            "warnings_count": 0
        },
        "24D3WuHaVNJqs4BlxjMVcQIjmYA": {
            "build_name": "",
            "client_token": "63fdde8f-af9a-4a03-b4b0-ae01e07d4a3e",
            "download_url": "https://builds.tuxbuild.com/24D3WuHaVNJqs4BlxjMVcQIjmYA/",
            "environment": {},
            "errors_count": 0,
            "finished_time": null,
            "git_ref": "v5.14-rc3",
            "git_repo": "https://git.kernel.org/pub/scm/linux/kernel/git/torvalds/linux.git",
            "git_sha": "ff1176468d368232b684f75e82563369208bc371",
            "image_sha": "",
            "kconfig": [
                "tinyconfig"
            ],
            "kernel_image": "",
            "kernel_patch_file": "",
            "make_variables": {},
            "no_cache": false,
            "plan": "24D3WmzkB7UxztFkzWhb8MVtsls",
            "project": "linaro/anders",
            "provisioning_time": "2022-01-25T22:56:04.773825",
            "result": "unknown",
            "running_time": null,
            "state": "provisioning",
            "target_arch": "arm64",
            "targets": [],
            "toolchain": "gcc-10",
            "uid": "24D3WuHaVNJqs4BlxjMVcQIjmYA",
            "user": "anders.roxell@linaro.org",
            "user_agent": "tuxsuite/0.42.3",
            "waited_by": [],
            "warnings_count": 0
        },
        "24D3WuUU8AMMGyhw5OJJI1msHYT": {
            "build_name": "",
            "client_token": "9c0e59d1-a9a1-4470-9916-ab1d48e1966f",
            "download_url": "https://builds.tuxbuild.com/24D3WuUU8AMMGyhw5OJJI1msHYT/",
            "environment": {},
            "errors_count": 0,
            "finished_time": null,
            "git_ref": "v5.14-rc3",
            "git_repo": "https://git.kernel.org/pub/scm/linux/kernel/git/torvalds/linux.git",
            "git_sha": "ff1176468d368232b684f75e82563369208bc371",
            "image_sha": "",
            "kconfig": [
                "tinyconfig"
            ],
            "kernel_image": "",
            "kernel_patch_file": "",
            "make_variables": {},
            "no_cache": false,
            "plan": "24D3WmzkB7UxztFkzWhb8MVtsls",
            "project": "linaro/anders",
            "provisioning_time": "2022-01-25T22:56:04.798304",
            "result": "unknown",
            "running_time": null,
            "state": "provisioning",
            "target_arch": "arm64",
            "targets": [],
            "toolchain": "gcc-11",
            "uid": "24D3WuUU8AMMGyhw5OJJI1msHYT",
            "user": "anders.roxell@linaro.org",
            "user_agent": "tuxsuite/0.42.3",
            "waited_by": [],
            "warnings_count": 0
        },
        "24D3WuvrHzcZfCqw385IvnCUx7R": {
            "build_name": "",
            "client_token": "4f0a3dc5-58e2-4fef-9725-501595ce40f6",
            "download_url": "https://builds.tuxbuild.com/24D3WuvrHzcZfCqw385IvnCUx7R/",
            "environment": {},
            "errors_count": 0,
            "finished_time": null,
            "git_ref": "v5.14-rc3",
            "git_repo": "https://git.kernel.org/pub/scm/linux/kernel/git/torvalds/linux.git",
            "git_sha": "ff1176468d368232b684f75e82563369208bc371",
            "image_sha": "",
            "kconfig": [
                "tinyconfig"
            ],
            "kernel_image": "",
            "kernel_patch_file": "",
            "make_variables": {
                "LLVM": "1",
                "LLVM_IAS": "1"
            },
            "no_cache": false,
            "plan": "24D3WmzkB7UxztFkzWhb8MVtsls",
            "project": "linaro/anders",
            "provisioning_time": "2022-01-25T22:56:04.731017",
            "result": "unknown",
            "running_time": null,
            "state": "provisioning",
            "target_arch": "arm64",
            "targets": [],
            "toolchain": "clang-13",
            "uid": "24D3WuvrHzcZfCqw385IvnCUx7R",
            "user": "anders.roxell@linaro.org",
            "user_agent": "tuxsuite/0.42.3",
            "waited_by": [],
            "warnings_count": 0
        },
        "24D3WvAFvzhYf7cdW7yTtUP8xjR": {
            "build_name": "",
            "client_token": "b8f386cc-78f8-4f66-90be-d69ea391ec0c",
            "download_url": "https://builds.tuxbuild.com/24D3WvAFvzhYf7cdW7yTtUP8xjR/",
            "environment": {},
            "errors_count": 0,
            "finished_time": null,
            "git_ref": "v5.14-rc3",
            "git_repo": "https://git.kernel.org/pub/scm/linux/kernel/git/torvalds/linux.git",
            "git_sha": "ff1176468d368232b684f75e82563369208bc371",
            "image_sha": "",
            "kconfig": [
                "tinyconfig"
            ],
            "kernel_image": "",
            "kernel_patch_file": "",
            "make_variables": {
                "LLVM": "1",
                "LLVM_IAS": "1"
            },
            "no_cache": false,
            "plan": "24D3WmzkB7UxztFkzWhb8MVtsls",
            "project": "linaro/anders",
            "provisioning_time": "2022-01-25T22:56:04.645320",
            "result": "unknown",
            "running_time": null,
            "state": "provisioning",
            "target_arch": "arm64",
            "targets": [],
            "toolchain": "clang-13",
            "uid": "24D3WvAFvzhYf7cdW7yTtUP8xjR",
            "user": "anders.roxell@linaro.org",
            "user_agent": "tuxsuite/0.42.3",
            "waited_by": [],
            "warnings_count": 0
        },
        "24D3Wvjs5nVkLGM17AXGwaYb7MA": {
            "build_name": "",
            "client_token": "88d89d51-73a4-42d5-8b1f-7a8adab5fb1a",
            "download_url": "https://builds.tuxbuild.com/24D3Wvjs5nVkLGM17AXGwaYb7MA/",
            "environment": {},
            "errors_count": 0,
            "finished_time": null,
            "git_ref": "v5.14-rc3",
            "git_repo": "https://git.kernel.org/pub/scm/linux/kernel/git/torvalds/linux.git",
            "git_sha": "ff1176468d368232b684f75e82563369208bc371",
            "image_sha": "",
            "kconfig": [
                "tinyconfig"
            ],
            "kernel_image": "",
            "kernel_patch_file": "",
            "make_variables": {
                "LLVM": "1",
                "LLVM_IAS": "1"
            },
            "no_cache": false,
            "plan": "24D3WmzkB7UxztFkzWhb8MVtsls",
            "project": "linaro/anders",
            "provisioning_time": "2022-01-25T22:56:04.923976",
            "result": "unknown",
            "running_time": null,
            "state": "provisioning",
            "target_arch": "arm64",
            "targets": [],
            "toolchain": "clang-nightly",
            "uid": "24D3Wvjs5nVkLGM17AXGwaYb7MA",
            "user": "anders.roxell@linaro.org",
            "user_agent": "tuxsuite/0.42.3",
            "waited_by": [],
            "warnings_count": 0
        },
        "24D3Wvp6MkNRvvlzi5wCWJvNR55": {
            "build_name": "",
            "client_token": "57089c78-e021-4d52-b394-f89c94954486",
            "download_url": "https://builds.tuxbuild.com/24D3Wvp6MkNRvvlzi5wCWJvNR55/",
            "environment": {},
            "errors_count": 0,
            "finished_time": null,
            "git_ref": "v5.14-rc3",
            "git_repo": "https://git.kernel.org/pub/scm/linux/kernel/git/torvalds/linux.git",
            "git_sha": "ff1176468d368232b684f75e82563369208bc371",
            "image_sha": "",
            "kconfig": [
                "tinyconfig"
            ],
            "kernel_image": "",
            "kernel_patch_file": "",
            "make_variables": {},
            "no_cache": false,
            "plan": "24D3WmzkB7UxztFkzWhb8MVtsls",
            "project": "linaro/anders",
            "provisioning_time": "2022-01-25T22:56:04.687862",
            "result": "unknown",
            "running_time": null,
            "state": "provisioning",
            "target_arch": "arm64",
            "targets": [],
            "toolchain": "gcc-10",
            "uid": "24D3Wvp6MkNRvvlzi5wCWJvNR55",
            "user": "anders.roxell@linaro.org",
            "user_agent": "tuxsuite/0.42.3",
            "waited_by": [],
            "warnings_count": 0
        },
        "24D3WvtgRZcflCF4JxghBbbZn0b": {
            "build_name": "",
            "client_token": "adb2efb5-98ea-4eb7-b44d-17150e946a40",
            "download_url": "https://builds.tuxbuild.com/24D3WvtgRZcflCF4JxghBbbZn0b/",
            "environment": {},
            "errors_count": 0,
            "finished_time": null,
            "git_ref": "v5.14-rc3",
            "git_repo": "https://git.kernel.org/pub/scm/linux/kernel/git/torvalds/linux.git",
            "git_sha": "ff1176468d368232b684f75e82563369208bc371",
            "image_sha": "",
            "kconfig": [
                "tinyconfig"
            ],
            "kernel_image": "",
            "kernel_patch_file": "",
            "make_variables": {
                "LLVM": "1",
                "LLVM_IAS": "1"
            },
            "no_cache": false,
            "plan": "24D3WmzkB7UxztFkzWhb8MVtsls",
            "project": "linaro/anders",
            "provisioning_time": "2022-01-25T22:56:04.752305",
            "result": "unknown",
            "running_time": null,
            "state": "provisioning",
            "target_arch": "arm64",
            "targets": [],
            "toolchain": "clang-nightly",
            "uid": "24D3WvtgRZcflCF4JxghBbbZn0b",
            "user": "anders.roxell@linaro.org",
            "user_agent": "tuxsuite/0.42.3",
            "waited_by": [],
            "warnings_count": 0
        },
        "24D3WvuVoB2dcaAQKgFKUdYzvmN": {
            "build_name": "",
            "client_token": "6d1e5c90-9e65-4f51-a614-b69dfe16e98e",
            "download_url": "https://builds.tuxbuild.com/24D3WvuVoB2dcaAQKgFKUdYzvmN/",
            "environment": {},
            "errors_count": 0,
            "finished_time": null,
            "git_ref": "v5.14-rc3",
            "git_repo": "https://git.kernel.org/pub/scm/linux/kernel/git/torvalds/linux.git",
            "git_sha": "ff1176468d368232b684f75e82563369208bc371",
            "image_sha": "",
            "kconfig": [
                "tinyconfig"
            ],
            "kernel_image": "",
            "kernel_patch_file": "",
            "make_variables": {
                "LLVM": "1",
                "LLVM_IAS": "1"
            },
            "no_cache": false,
            "plan": "24D3WmzkB7UxztFkzWhb8MVtsls",
            "project": "linaro/anders",
            "provisioning_time": "2022-01-25T22:56:04.903391",
            "result": "unknown",
            "running_time": null,
            "state": "provisioning",
            "target_arch": "arm64",
            "targets": [],
            "toolchain": "clang-13",
            "uid": "24D3WvuVoB2dcaAQKgFKUdYzvmN",
            "user": "anders.roxell@linaro.org",
            "user_agent": "tuxsuite/0.42.3",
            "waited_by": [],
            "warnings_count": 0
        },
        "24D3WvzgS2aPcKcTASVjsINHDhH": {
            "build_name": "",
            "client_token": "9466e42e-447a-4bc8-9b8f-101f8f48390f",
            "download_url": "https://builds.tuxbuild.com/24D3WvzgS2aPcKcTASVjsINHDhH/",
            "environment": {},
            "errors_count": 0,
            "finished_time": null,
            "git_ref": "v5.14-rc3",
            "git_repo": "https://git.kernel.org/pub/scm/linux/kernel/git/torvalds/linux.git",
            "git_sha": "ff1176468d368232b684f75e82563369208bc371",
            "image_sha": "",
            "kconfig": [
                "tinyconfig"
            ],
            "kernel_image": "",
            "kernel_patch_file": "",
            "make_variables": {},
            "no_cache": false,
            "plan": "24D3WmzkB7UxztFkzWhb8MVtsls",
            "project": "linaro/anders",
            "provisioning_time": "2022-01-25T22:56:04.860574",
            "result": "unknown",
            "running_time": null,
            "state": "provisioning",
            "target_arch": "arm64",
            "targets": [],
            "toolchain": "gcc-10",
            "uid": "24D3WvzgS2aPcKcTASVjsINHDhH",
            "user": "anders.roxell@linaro.org",
            "user_agent": "tuxsuite/0.42.3",
            "waited_by": [],
            "warnings_count": 0
        },
        "24D3WwKD5JyRL3mNw9Rftki1ewY": {
            "build_name": "",
            "client_token": "ff0de773-880d-4cf0-b027-edd3b6a68def",
            "download_url": "https://builds.tuxbuild.com/24D3WwKD5JyRL3mNw9Rftki1ewY/",
            "environment": {},
            "errors_count": 0,
            "finished_time": null,
            "git_ref": "v5.14-rc3",
            "git_repo": "https://git.kernel.org/pub/scm/linux/kernel/git/torvalds/linux.git",
            "git_sha": "ff1176468d368232b684f75e82563369208bc371",
            "image_sha": "",
            "kconfig": [
                "tinyconfig"
            ],
            "kernel_image": "",
            "kernel_patch_file": "",
            "make_variables": {
                "LLVM": "1",
                "LLVM_IAS": "1"
            },
            "no_cache": false,
            "plan": "24D3WmzkB7UxztFkzWhb8MVtsls",
            "project": "linaro/anders",
            "provisioning_time": "2022-01-25T22:56:04.666662",
            "result": "unknown",
            "running_time": null,
            "state": "provisioning",
            "target_arch": "arm64",
            "targets": [],
            "toolchain": "clang-nightly",
            "uid": "24D3WwKD5JyRL3mNw9Rftki1ewY",
            "user": "anders.roxell@linaro.org",
            "user_agent": "tuxsuite/0.42.3",
            "waited_by": [],
            "warnings_count": 0
        },
        "24D3WzFyPIRRfwMgHX1FzKrdfwR": {
            "build_name": "",
            "client_token": "e9e3d9fd-c664-4802-9042-6d1cade7943a",
            "download_url": "https://builds.tuxbuild.com/24D3WzFyPIRRfwMgHX1FzKrdfwR/",
            "environment": {},
            "errors_count": 0,
            "finished_time": null,
            "git_ref": "v5.14-rc3",
            "git_repo": "https://git.kernel.org/pub/scm/linux/kernel/git/torvalds/linux.git",
            "git_sha": "ff1176468d368232b684f75e82563369208bc371",
            "image_sha": "",
            "kconfig": [
                "defconfig"
            ],
            "kernel_image": "",
            "kernel_patch_file": "",
            "make_variables": {
                "LLVM": "1",
                "LLVM_IAS": "1"
            },
            "no_cache": false,
            "plan": "24D3WmzkB7UxztFkzWhb8MVtsls",
            "project": "linaro/anders",
            "provisioning_time": "2022-01-25T22:56:05.349345",
            "result": "unknown",
            "running_time": null,
            "state": "provisioning",
            "target_arch": "arm64",
            "targets": [],
            "toolchain": "clang-nightly",
            "uid": "24D3WzFyPIRRfwMgHX1FzKrdfwR",
            "user": "anders.roxell@linaro.org",
            "user_agent": "tuxsuite/0.42.3",
            "waited_by": [],
            "warnings_count": 0
        },
        "24D3WzJ4V1EFd7377QVOuKLletu": {
            "build_name": "",
            "client_token": "2428940d-bdeb-4eaa-ae86-74c338d26803",
            "download_url": "https://builds.tuxbuild.com/24D3WzJ4V1EFd7377QVOuKLletu/",
            "environment": {},
            "errors_count": 0,
            "finished_time": null,
            "git_ref": "v5.14-rc3",
            "git_repo": "https://git.kernel.org/pub/scm/linux/kernel/git/torvalds/linux.git",
            "git_sha": "ff1176468d368232b684f75e82563369208bc371",
            "image_sha": "",
            "kconfig": [
                "defconfig"
            ],
            "kernel_image": "",
            "kernel_patch_file": "",
            "make_variables": {},
            "no_cache": false,
            "plan": "24D3WmzkB7UxztFkzWhb8MVtsls",
            "project": "linaro/anders",
            "provisioning_time": "2022-01-25T22:56:05.049596",
            "result": "unknown",
            "running_time": null,
            "state": "provisioning",
            "target_arch": "arm64",
            "targets": [],
            "toolchain": "gcc-11",
            "uid": "24D3WzJ4V1EFd7377QVOuKLletu",
            "user": "anders.roxell@linaro.org",
            "user_agent": "tuxsuite/0.42.3",
            "waited_by": [],
            "warnings_count": 0
        },
        "24D3WzkBTV9n4dKLujINnnhcU9D": {
            "build_name": "",
            "client_token": "9b9c8db6-f241-4924-81b4-a594df0ab629",
            "download_url": "https://builds.tuxbuild.com/24D3WzkBTV9n4dKLujINnnhcU9D/",
            "environment": {},
            "errors_count": 0,
            "finished_time": null,
            "git_ref": "v5.14-rc3",
            "git_repo": "https://git.kernel.org/pub/scm/linux/kernel/git/torvalds/linux.git",
            "git_sha": "ff1176468d368232b684f75e82563369208bc371",
            "image_sha": "",
            "kconfig": [
                "defconfig"
            ],
            "kernel_image": "",
            "kernel_patch_file": "",
            "make_variables": {},
            "no_cache": false,
            "plan": "24D3WmzkB7UxztFkzWhb8MVtsls",
            "project": "linaro/anders",
            "provisioning_time": "2022-01-25T22:56:05.136167",
            "result": "unknown",
            "running_time": null,
            "state": "provisioning",
            "target_arch": "arm64",
            "targets": [],
            "toolchain": "gcc-11",
            "uid": "24D3WzkBTV9n4dKLujINnnhcU9D",
            "user": "anders.roxell@linaro.org",
            "user_agent": "tuxsuite/0.42.3",
            "waited_by": [],
            "warnings_count": 0
        },
        "24D3Wzs7HuAt7MzL89TJ862TAsS": {
            "build_name": "",
            "client_token": "10de951e-7350-4780-8aae-6f22e1205401",
            "download_url": "https://builds.tuxbuild.com/24D3Wzs7HuAt7MzL89TJ862TAsS/",
            "environment": {},
            "errors_count": 0,
            "finished_time": null,
            "git_ref": "v5.14-rc3",
            "git_repo": "https://git.kernel.org/pub/scm/linux/kernel/git/torvalds/linux.git",
            "git_sha": "ff1176468d368232b684f75e82563369208bc371",
            "image_sha": "",
            "kconfig": [
                "defconfig"
            ],
            "kernel_image": "",
            "kernel_patch_file": "",
            "make_variables": {
                "LLVM": "1",
                "LLVM_IAS": "1"
            },
            "no_cache": false,
            "plan": "24D3WmzkB7UxztFkzWhb8MVtsls",
            "project": "linaro/anders",
            "provisioning_time": "2022-01-25T22:56:05.179006",
            "result": "unknown",
            "running_time": null,
            "state": "provisioning",
            "target_arch": "arm64",
            "targets": [],
            "toolchain": "clang-nightly",
            "uid": "24D3Wzs7HuAt7MzL89TJ862TAsS",
            "user": "anders.roxell@linaro.org",
            "user_agent": "tuxsuite/0.42.3",
            "waited_by": [],
            "warnings_count": 0
        },
        "24D3X01qCgC7tEDrkD7cT89YCEf": {
            "build_name": "",
            "client_token": "b000813f-0327-4a14-aa64-e926d2ffb220",
            "download_url": "https://builds.tuxbuild.com/24D3X01qCgC7tEDrkD7cT89YCEf/",
            "environment": {},
            "errors_count": 0,
            "finished_time": null,
            "git_ref": "v5.14-rc3",
            "git_repo": "https://git.kernel.org/pub/scm/linux/kernel/git/torvalds/linux.git",
            "git_sha": "ff1176468d368232b684f75e82563369208bc371",
            "image_sha": "",
            "kconfig": [
                "defconfig"
            ],
            "kernel_image": "",
            "kernel_patch_file": "",
            "make_variables": {
                "LLVM": "1",
                "LLVM_IAS": "1"
            },
            "no_cache": false,
            "plan": "24D3WmzkB7UxztFkzWhb8MVtsls",
            "project": "linaro/anders",
            "provisioning_time": "2022-01-25T22:56:05.071287",
            "result": "unknown",
            "running_time": null,
            "state": "provisioning",
            "target_arch": "arm64",
            "targets": [],
            "toolchain": "clang-13",
            "uid": "24D3X01qCgC7tEDrkD7cT89YCEf",
            "user": "anders.roxell@linaro.org",
            "user_agent": "tuxsuite/0.42.3",
            "waited_by": [],
            "warnings_count": 0
        },
        "24D3X11Wc4Y2Wz1uCSWXqcF1MOA": {
            "build_name": "",
            "client_token": "270962fb-93a3-4997-bb97-dc78b544a1c8",
            "download_url": "https://builds.tuxbuild.com/24D3X11Wc4Y2Wz1uCSWXqcF1MOA/",
            "environment": {},
            "errors_count": 0,
            "finished_time": null,
            "git_ref": "v5.14-rc3",
            "git_repo": "https://git.kernel.org/pub/scm/linux/kernel/git/torvalds/linux.git",
            "git_sha": "ff1176468d368232b684f75e82563369208bc371",
            "image_sha": "",
            "kconfig": [
                "defconfig"
            ],
            "kernel_image": "",
            "kernel_patch_file": "",
            "make_variables": {},
            "no_cache": false,
            "plan": "24D3WmzkB7UxztFkzWhb8MVtsls",
            "project": "linaro/anders",
            "provisioning_time": "2022-01-25T22:56:05.305907",
            "result": "unknown",
            "running_time": null,
            "state": "provisioning",
            "target_arch": "arm64",
            "targets": [],
            "toolchain": "gcc-11",
            "uid": "24D3X11Wc4Y2Wz1uCSWXqcF1MOA",
            "user": "anders.roxell@linaro.org",
            "user_agent": "tuxsuite/0.42.3",
            "waited_by": [],
            "warnings_count": 0
        },
        "24D3X1FMAPUIrPchJJ78WtOkKrh": {
            "build_name": "",
            "client_token": "c1023ebb-b2b1-4804-95af-20f8f2ab8e10",
            "download_url": "https://builds.tuxbuild.com/24D3X1FMAPUIrPchJJ78WtOkKrh/",
            "environment": {},
            "errors_count": 0,
            "finished_time": null,
            "git_ref": "v5.14-rc3",
            "git_repo": "https://git.kernel.org/pub/scm/linux/kernel/git/torvalds/linux.git",
            "git_sha": "ff1176468d368232b684f75e82563369208bc371",
            "image_sha": "",
            "kconfig": [
                "defconfig"
            ],
            "kernel_image": "",
            "kernel_patch_file": "",
            "make_variables": {},
            "no_cache": false,
            "plan": "24D3WmzkB7UxztFkzWhb8MVtsls",
            "project": "linaro/anders",
            "provisioning_time": "2022-01-25T22:56:05.369845",
            "result": "unknown",
            "running_time": null,
            "state": "provisioning",
            "target_arch": "arm64",
            "targets": [],
            "toolchain": "gcc-10",
            "uid": "24D3X1FMAPUIrPchJJ78WtOkKrh",
            "user": "anders.roxell@linaro.org",
            "user_agent": "tuxsuite/0.42.3",
            "waited_by": [],
            "warnings_count": 0
        },
        "24D3X1by2Hjc4udCFOA4jgO7CCu": {
            "build_name": "",
            "client_token": "d7681e04-a1b2-43ef-b05e-1113aa3ffeb2",
            "download_url": "https://builds.tuxbuild.com/24D3X1by2Hjc4udCFOA4jgO7CCu/",
            "environment": {},
            "errors_count": 0,
            "finished_time": null,
            "git_ref": "v5.14-rc3",
            "git_repo": "https://git.kernel.org/pub/scm/linux/kernel/git/torvalds/linux.git",
            "git_sha": "ff1176468d368232b684f75e82563369208bc371",
            "image_sha": "",
            "kconfig": [
                "defconfig"
            ],
            "kernel_image": "",
            "kernel_patch_file": "",
            "make_variables": {},
            "no_cache": false,
            "plan": "24D3WmzkB7UxztFkzWhb8MVtsls",
            "project": "linaro/anders",
            "provisioning_time": "2022-01-25T22:56:05.390681",
            "result": "unknown",
            "running_time": null,
            "state": "provisioning",
            "target_arch": "arm64",
            "targets": [],
            "toolchain": "gcc-11",
            "uid": "24D3X1by2Hjc4udCFOA4jgO7CCu",
            "user": "anders.roxell@linaro.org",
            "user_agent": "tuxsuite/0.42.3",
            "waited_by": [],
            "warnings_count": 0
        },
        "24D3X1f7r19Pz7NJmxokApFwGMx": {
            "build_name": "",
            "client_token": "39b81f04-1faf-4ab8-a846-d1e20fcd7528",
            "download_url": "https://builds.tuxbuild.com/24D3X1f7r19Pz7NJmxokApFwGMx/",
            "environment": {},
            "errors_count": 0,
            "finished_time": null,
            "git_ref": "v5.14-rc3",
            "git_repo": "https://git.kernel.org/pub/scm/linux/kernel/git/torvalds/linux.git",
            "git_sha": "ff1176468d368232b684f75e82563369208bc371",
            "image_sha": "",
            "kconfig": [
                "defconfig"
            ],
            "kernel_image": "",
            "kernel_patch_file": "",
            "make_variables": {},
            "no_cache": false,
            "plan": "24D3WmzkB7UxztFkzWhb8MVtsls",
            "project": "linaro/anders",
            "provisioning_time": "2022-01-25T22:56:05.114255",
            "result": "unknown",
            "running_time": null,
            "state": "provisioning",
            "target_arch": "arm64",
            "targets": [],
            "toolchain": "gcc-10",
            "uid": "24D3X1f7r19Pz7NJmxokApFwGMx",
            "user": "anders.roxell@linaro.org",
            "user_agent": "tuxsuite/0.42.3",
            "waited_by": [],
            "warnings_count": 0
        },
        "24D3X1hEmYaiyEh1nXPRhNAfHaE": {
            "build_name": "",
            "client_token": "3ff63f5e-2794-4cde-ad08-2fa4b653a1b5",
            "download_url": "https://builds.tuxbuild.com/24D3X1hEmYaiyEh1nXPRhNAfHaE/",
            "environment": {},
            "errors_count": 0,
            "finished_time": null,
            "git_ref": "v5.14-rc3",
            "git_repo": "https://git.kernel.org/pub/scm/linux/kernel/git/torvalds/linux.git",
            "git_sha": "ff1176468d368232b684f75e82563369208bc371",
            "image_sha": "",
            "kconfig": [
                "defconfig"
            ],
            "kernel_image": "",
            "kernel_patch_file": "",
            "make_variables": {},
            "no_cache": false,
            "plan": "24D3WmzkB7UxztFkzWhb8MVtsls",
            "project": "linaro/anders",
            "provisioning_time": "2022-01-25T22:56:05.199652",
            "result": "unknown",
            "running_time": null,
            "state": "provisioning",
            "target_arch": "arm64",
            "targets": [],
            "toolchain": "gcc-10",
            "uid": "24D3X1hEmYaiyEh1nXPRhNAfHaE",
            "user": "anders.roxell@linaro.org",
            "user_agent": "tuxsuite/0.42.3",
            "waited_by": [],
            "warnings_count": 0
        },
        "24D3X1i4LqgY2OknIAXDjJRc1df": {
            "build_name": "",
            "client_token": "211ff687-d311-400b-88b1-299d3ed5c875",
            "download_url": "https://builds.tuxbuild.com/24D3X1i4LqgY2OknIAXDjJRc1df/",
            "environment": {},
            "errors_count": 0,
            "finished_time": null,
            "git_ref": "v5.14-rc3",
            "git_repo": "https://git.kernel.org/pub/scm/linux/kernel/git/torvalds/linux.git",
            "git_sha": "ff1176468d368232b684f75e82563369208bc371",
            "image_sha": "",
            "kconfig": [
                "defconfig"
            ],
            "kernel_image": "",
            "kernel_patch_file": "",
            "make_variables": {
                "LLVM": "1",
                "LLVM_IAS": "1"
            },
            "no_cache": false,
            "plan": "24D3WmzkB7UxztFkzWhb8MVtsls",
            "project": "linaro/anders",
            "provisioning_time": "2022-01-25T22:56:05.243534",
            "result": "unknown",
            "running_time": null,
            "state": "provisioning",
            "target_arch": "arm64",
            "targets": [],
            "toolchain": "clang-13",
            "uid": "24D3X1i4LqgY2OknIAXDjJRc1df",
            "user": "anders.roxell@linaro.org",
            "user_agent": "tuxsuite/0.42.3",
            "waited_by": [],
            "warnings_count": 0
        },
        "24D3X1iTAGhq6VpIObRlgsky4Ec": {
            "build_name": "",
            "client_token": "43f60773-6ce8-4542-8230-dc9d156a3d83",
            "download_url": "https://builds.tuxbuild.com/24D3X1iTAGhq6VpIObRlgsky4Ec/",
            "environment": {},
            "errors_count": 0,
            "finished_time": null,
            "git_ref": "v5.14-rc3",
            "git_repo": "https://git.kernel.org/pub/scm/linux/kernel/git/torvalds/linux.git",
            "git_sha": "ff1176468d368232b684f75e82563369208bc371",
            "image_sha": "",
            "kconfig": [
                "defconfig"
            ],
            "kernel_image": "",
            "kernel_patch_file": "",
            "make_variables": {},
            "no_cache": false,
            "plan": "24D3WmzkB7UxztFkzWhb8MVtsls",
            "project": "linaro/anders",
            "provisioning_time": "2022-01-25T22:56:05.221035",
            "result": "unknown",
            "running_time": null,
            "state": "provisioning",
            "target_arch": "arm64",
            "targets": [],
            "toolchain": "gcc-11",
            "uid": "24D3X1iTAGhq6VpIObRlgsky4Ec",
            "user": "anders.roxell@linaro.org",
            "user_agent": "tuxsuite/0.42.3",
            "waited_by": [],
            "warnings_count": 0
        },
        "24D3X1puPS3fYCkosirZscgve9Z": {
            "build_name": "",
            "client_token": "be6f5e79-7f04-4608-b2f5-25d948c534d3",
            "download_url": "https://builds.tuxbuild.com/24D3X1puPS3fYCkosirZscgve9Z/",
            "environment": {},
            "errors_count": 0,
            "finished_time": null,
            "git_ref": "v5.14-rc3",
            "git_repo": "https://git.kernel.org/pub/scm/linux/kernel/git/torvalds/linux.git",
            "git_sha": "ff1176468d368232b684f75e82563369208bc371",
            "image_sha": "",
            "kconfig": [
                "defconfig"
            ],
            "kernel_image": "",
            "kernel_patch_file": "",
            "make_variables": {
                "LLVM": "1",
                "LLVM_IAS": "1"
            },
            "no_cache": false,
            "plan": "24D3WmzkB7UxztFkzWhb8MVtsls",
            "project": "linaro/anders",
            "provisioning_time": "2022-01-25T22:56:05.327109",
            "result": "unknown",
            "running_time": null,
            "state": "provisioning",
            "target_arch": "arm64",
            "targets": [],
            "toolchain": "clang-13",
            "uid": "24D3X1puPS3fYCkosirZscgve9Z",
            "user": "anders.roxell@linaro.org",
            "user_agent": "tuxsuite/0.42.3",
            "waited_by": [],
            "warnings_count": 0
        },
        "24D3X1xmhzwyNX3hXZaFnxesXEF": {
            "build_name": "",
            "client_token": "527775ca-43a5-4ec0-8a21-971e7ce98a01",
            "download_url": "https://builds.tuxbuild.com/24D3X1xmhzwyNX3hXZaFnxesXEF/",
            "environment": {},
            "errors_count": 0,
            "finished_time": null,
            "git_ref": "v5.14-rc3",
            "git_repo": "https://git.kernel.org/pub/scm/linux/kernel/git/torvalds/linux.git",
            "git_sha": "ff1176468d368232b684f75e82563369208bc371",
            "image_sha": "",
            "kconfig": [
                "defconfig"
            ],
            "kernel_image": "",
            "kernel_patch_file": "",
            "make_variables": {
                "LLVM": "1",
                "LLVM_IAS": "1"
            },
            "no_cache": false,
            "plan": "24D3WmzkB7UxztFkzWhb8MVtsls",
            "project": "linaro/anders",
            "provisioning_time": "2022-01-25T22:56:05.093688",
            "result": "unknown",
            "running_time": null,
            "state": "provisioning",
            "target_arch": "arm64",
            "targets": [],
            "toolchain": "clang-nightly",
            "uid": "24D3X1xmhzwyNX3hXZaFnxesXEF",
            "user": "anders.roxell@linaro.org",
            "user_agent": "tuxsuite/0.42.3",
            "waited_by": [],
            "warnings_count": 0
        },
        "24D3X24GXmHqbKkOOXV2SfwpRSR": {
            "build_name": "",
            "client_token": "007c75e1-9e73-48ba-b451-d9d52b56447d",
            "download_url": "https://builds.tuxbuild.com/24D3X24GXmHqbKkOOXV2SfwpRSR/",
            "environment": {},
            "errors_count": 0,
            "finished_time": null,
            "git_ref": "v5.14-rc3",
            "git_repo": "https://git.kernel.org/pub/scm/linux/kernel/git/torvalds/linux.git",
            "git_sha": "ff1176468d368232b684f75e82563369208bc371",
            "image_sha": "",
            "kconfig": [
                "tinyconfig"
            ],
            "kernel_image": "",
            "kernel_patch_file": "",
            "make_variables": {
                "LLVM": "1",
                "LLVM_IAS": "1"
            },
            "no_cache": false,
            "plan": "24D3WmzkB7UxztFkzWhb8MVtsls",
            "project": "linaro/anders",
            "provisioning_time": "2022-01-25T22:56:05.008460",
            "result": "unknown",
            "running_time": null,
            "state": "provisioning",
            "target_arch": "arm64",
            "targets": [],
            "toolchain": "clang-nightly",
            "uid": "24D3X24GXmHqbKkOOXV2SfwpRSR",
            "user": "anders.roxell@linaro.org",
            "user_agent": "tuxsuite/0.42.3",
            "waited_by": [],
            "warnings_count": 0
        },
        "24D3X2AxsGUYLs43eXbqQaCZFxp": {
            "build_name": "",
            "client_token": "b4cd89a5-868d-4001-a3fd-844997bc5114",
            "download_url": "https://builds.tuxbuild.com/24D3X2AxsGUYLs43eXbqQaCZFxp/",
            "environment": {},
            "errors_count": 0,
            "finished_time": null,
            "git_ref": "v5.14-rc3",
            "git_repo": "https://git.kernel.org/pub/scm/linux/kernel/git/torvalds/linux.git",
            "git_sha": "ff1176468d368232b684f75e82563369208bc371",
            "image_sha": "",
            "kconfig": [
                "defconfig"
            ],
            "kernel_image": "",
            "kernel_patch_file": "",
            "make_variables": {},
            "no_cache": false,
            "plan": "24D3WmzkB7UxztFkzWhb8MVtsls",
            "project": "linaro/anders",
            "provisioning_time": "2022-01-25T22:56:05.284815",
            "result": "unknown",
            "running_time": null,
            "state": "provisioning",
            "target_arch": "arm64",
            "targets": [],
            "toolchain": "gcc-10",
            "uid": "24D3X2AxsGUYLs43eXbqQaCZFxp",
            "user": "anders.roxell@linaro.org",
            "user_agent": "tuxsuite/0.42.3",
            "waited_by": [],
            "warnings_count": 0
        },
        "24D3X2DAgqjWCkkBJbgQxaPC6wN": {
            "build_name": "",
            "client_token": "5a7fe106-6b37-4bc9-85a3-d58a35534846",
            "download_url": "https://builds.tuxbuild.com/24D3X2DAgqjWCkkBJbgQxaPC6wN/",
            "environment": {},
            "errors_count": 0,
            "finished_time": null,
            "git_ref": "v5.14-rc3",
            "git_repo": "https://git.kernel.org/pub/scm/linux/kernel/git/torvalds/linux.git",
            "git_sha": "ff1176468d368232b684f75e82563369208bc371",
            "image_sha": "",
            "kconfig": [
                "defconfig"
            ],
            "kernel_image": "",
            "kernel_patch_file": "",
            "make_variables": {
                "LLVM": "1",
                "LLVM_IAS": "1"
            },
            "no_cache": false,
            "plan": "24D3WmzkB7UxztFkzWhb8MVtsls",
            "project": "linaro/anders",
            "provisioning_time": "2022-01-25T22:56:05.411789",
            "result": "unknown",
            "running_time": null,
            "state": "provisioning",
            "target_arch": "arm64",
            "targets": [],
            "toolchain": "clang-13",
            "uid": "24D3X2DAgqjWCkkBJbgQxaPC6wN",
            "user": "anders.roxell@linaro.org",
            "user_agent": "tuxsuite/0.42.3",
            "waited_by": [],
            "warnings_count": 0
        },
        "24D3X2YTs5oOrunogfkYSBofYBh": {
            "build_name": "",
            "client_token": "d493cbc8-3c69-4aed-b6fb-f5559a020c47",
            "download_url": "https://builds.tuxbuild.com/24D3X2YTs5oOrunogfkYSBofYBh/",
            "environment": {},
            "errors_count": 0,
            "finished_time": null,
            "git_ref": "v5.14-rc3",
            "git_repo": "https://git.kernel.org/pub/scm/linux/kernel/git/torvalds/linux.git",
            "git_sha": "ff1176468d368232b684f75e82563369208bc371",
            "image_sha": "",
            "kconfig": [
                "defconfig"
            ],
            "kernel_image": "",
            "kernel_patch_file": "",
            "make_variables": {
                "LLVM": "1",
                "LLVM_IAS": "1"
            },
            "no_cache": false,
            "plan": "24D3WmzkB7UxztFkzWhb8MVtsls",
            "project": "linaro/anders",
            "provisioning_time": "2022-01-25T22:56:05.264081",
            "result": "unknown",
            "running_time": null,
            "state": "provisioning",
            "target_arch": "arm64",
            "targets": [],
            "toolchain": "clang-nightly",
            "uid": "24D3X2YTs5oOrunogfkYSBofYBh",
            "user": "anders.roxell@linaro.org",
            "user_agent": "tuxsuite/0.42.3",
            "waited_by": [],
            "warnings_count": 0
        },
        "24D3X46JSvaMFihJz1gv4pFJCMg": {
            "build_name": "",
            "client_token": "0587e619-59bf-40eb-88fd-3e4c44f42c5e",
            "download_url": "https://builds.tuxbuild.com/24D3X46JSvaMFihJz1gv4pFJCMg/",
            "environment": {},
            "errors_count": 0,
            "finished_time": null,
            "git_ref": "v5.14-rc3",
            "git_repo": "https://git.kernel.org/pub/scm/linux/kernel/git/torvalds/linux.git",
            "git_sha": "ff1176468d368232b684f75e82563369208bc371",
            "image_sha": "",
            "kconfig": [
                "defconfig"
            ],
            "kernel_image": "",
            "kernel_patch_file": "",
            "make_variables": {
                "LLVM": "1",
                "LLVM_IAS": "1"
            },
            "no_cache": false,
            "plan": "24D3WmzkB7UxztFkzWhb8MVtsls",
            "project": "linaro/anders",
            "provisioning_time": "2022-01-25T22:56:05.433903",
            "result": "unknown",
            "running_time": null,
            "state": "provisioning",
            "target_arch": "arm64",
            "targets": [],
            "toolchain": "clang-nightly",
            "uid": "24D3X46JSvaMFihJz1gv4pFJCMg",
            "user": "anders.roxell@linaro.org",
            "user_agent": "tuxsuite/0.42.3",
            "waited_by": [],
            "warnings_count": 0
        },
        "24D3X4lcUi2P8a4amxFnCN01RFs": {
            "build_name": "",
            "client_token": "f4a1ad5f-4e59-48f7-98de-587f88048b0d",
            "download_url": "https://builds.tuxbuild.com/24D3X4lcUi2P8a4amxFnCN01RFs/",
            "environment": {},
            "errors_count": 0,
            "finished_time": null,
            "git_ref": "v5.14-rc3",
            "git_repo": "https://git.kernel.org/pub/scm/linux/kernel/git/torvalds/linux.git",
            "git_sha": "ff1176468d368232b684f75e82563369208bc371",
            "image_sha": "",
            "kconfig": [
                "defconfig"
            ],
            "kernel_image": "",
            "kernel_patch_file": "",
            "make_variables": {
                "LLVM": "1",
                "LLVM_IAS": "1"
            },
            "no_cache": false,
            "plan": "24D3WmzkB7UxztFkzWhb8MVtsls",
            "project": "linaro/anders",
            "provisioning_time": "2022-01-25T22:56:05.158298",
            "result": "unknown",
            "running_time": null,
            "state": "provisioning",
            "target_arch": "arm64",
            "targets": [],
            "toolchain": "clang-13",
            "uid": "24D3X4lcUi2P8a4amxFnCN01RFs",
            "user": "anders.roxell@linaro.org",
            "user_agent": "tuxsuite/0.42.3",
            "waited_by": [],
            "warnings_count": 0
        },
        "24D3X4rylSp1lJRUgX6MTqI5cg7": {
            "build_name": "",
            "client_token": "63ed5b93-1e68-4aae-a49e-89a11f510a45",
            "download_url": "https://builds.tuxbuild.com/24D3X4rylSp1lJRUgX6MTqI5cg7/",
            "environment": {},
            "errors_count": 0,
            "finished_time": null,
            "git_ref": "v5.14-rc3",
            "git_repo": "https://git.kernel.org/pub/scm/linux/kernel/git/torvalds/linux.git",
            "git_sha": "ff1176468d368232b684f75e82563369208bc371",
            "image_sha": "",
            "kconfig": [
                "defconfig"
            ],
            "kernel_image": "",
            "kernel_patch_file": "",
            "make_variables": {},
            "no_cache": false,
            "plan": "24D3WmzkB7UxztFkzWhb8MVtsls",
            "project": "linaro/anders",
            "provisioning_time": "2022-01-25T22:56:05.028870",
            "result": "unknown",
            "running_time": null,
            "state": "provisioning",
            "target_arch": "arm64",
            "targets": [],
            "toolchain": "gcc-10",
            "uid": "24D3X4rylSp1lJRUgX6MTqI5cg7",
            "user": "anders.roxell@linaro.org",
            "user_agent": "tuxsuite/0.42.3",
            "waited_by": [],
            "warnings_count": 0
        }
    },
    "tests": {
        "24D3X53CUInrOTBRoNSg6j4tUq5": {
            "ap_romfw": null,
            "boot_args": null,
            "device": "qemu-arm64",
            "finished_time": null,
            "fip": null,
            "kernel": null,
            "mcp_fw": null,
            "mcp_romfw": null,
            "modules": null,
            "parameters": [],
            "plan": "24D3WmzkB7UxztFkzWhb8MVtsls",
            "project": "linaro/anders",
            "provisioning_time": null,
            "result": "unknown",
            "results": {},
            "retries": 0,
            "retries_messages": [],
            "rootfs": null,
            "running_time": null,
            "scp_fw": null,
            "scp_romfw": null,
            "state": "waiting",
            "tests": [
                "boot"
            ],
            "uid": "24D3X53CUInrOTBRoNSg6j4tUq5",
            "user": "anders.roxell@linaro.org",
            "user_agent": "tuxsuite/0.42.3",
            "waiting_for": "24D3X1FMAPUIrPchJJ78WtOkKrh"
        },
        "24D3X5K0T9dfW7W3QqlC0xGl0CQ": {
            "ap_romfw": null,
            "boot_args": null,
            "device": "qemu-arm64",
            "finished_time": null,
            "fip": null,
            "kernel": null,
            "mcp_fw": null,
            "mcp_romfw": null,
            "modules": null,
            "parameters": [],
            "plan": "24D3WmzkB7UxztFkzWhb8MVtsls",
            "project": "linaro/anders",
            "provisioning_time": null,
            "result": "unknown",
            "results": {},
            "retries": 0,
            "retries_messages": [],
            "rootfs": null,
            "running_time": null,
            "scp_fw": null,
            "scp_romfw": null,
            "state": "waiting",
            "tests": [
                "boot"
            ],
            "uid": "24D3X5K0T9dfW7W3QqlC0xGl0CQ",
            "user": "anders.roxell@linaro.org",
            "user_agent": "tuxsuite/0.42.3",
            "waiting_for": "24D3WzJ4V1EFd7377QVOuKLletu"
        },
        "24D3X5MqEK705KRKkhGslc4UZzy": {
            "ap_romfw": null,
            "boot_args": null,
            "device": "qemu-arm64",
            "finished_time": null,
            "fip": null,
            "kernel": null,
            "mcp_fw": null,
            "mcp_romfw": null,
            "modules": null,
            "parameters": [],
            "plan": "24D3WmzkB7UxztFkzWhb8MVtsls",
            "project": "linaro/anders",
            "provisioning_time": null,
            "result": "unknown",
            "results": {},
            "retries": 0,
            "retries_messages": [],
            "rootfs": null,
            "running_time": null,
            "scp_fw": null,
            "scp_romfw": null,
            "state": "waiting",
            "tests": [
                "boot"
            ],
            "uid": "24D3X5MqEK705KRKkhGslc4UZzy",
            "user": "anders.roxell@linaro.org",
            "user_agent": "tuxsuite/0.42.3",
            "waiting_for": "24D3X1i4LqgY2OknIAXDjJRc1df"
        },
        "24D3X5XQ9Sf7G2JAEMnIBdfLTyW": {
            "ap_romfw": null,
            "boot_args": null,
            "device": "qemu-arm64",
            "finished_time": null,
            "fip": null,
            "kernel": null,
            "mcp_fw": null,
            "mcp_romfw": null,
            "modules": null,
            "parameters": [],
            "plan": "24D3WmzkB7UxztFkzWhb8MVtsls",
            "project": "linaro/anders",
            "provisioning_time": null,
            "result": "unknown",
            "results": {},
            "retries": 0,
            "retries_messages": [],
            "rootfs": null,
            "running_time": null,
            "scp_fw": null,
            "scp_romfw": null,
            "state": "waiting",
            "tests": [
                "boot"
            ],
            "uid": "24D3X5XQ9Sf7G2JAEMnIBdfLTyW",
            "user": "anders.roxell@linaro.org",
            "user_agent": "tuxsuite/0.42.3",
            "waiting_for": "24D3X2AxsGUYLs43eXbqQaCZFxp"
        },
        "24D3X5k40GXdT8RwFUKFyDu0cL1": {
            "ap_romfw": null,
            "boot_args": null,
            "device": "qemu-arm64",
            "finished_time": null,
            "fip": null,
            "kernel": null,
            "mcp_fw": null,
            "mcp_romfw": null,
            "modules": null,
            "parameters": [],
            "plan": "24D3WmzkB7UxztFkzWhb8MVtsls",
            "project": "linaro/anders",
            "provisioning_time": null,
            "result": "unknown",
            "results": {},
            "retries": 0,
            "retries_messages": [],
            "rootfs": null,
            "running_time": null,
            "scp_fw": null,
            "scp_romfw": null,
            "state": "waiting",
            "tests": [
                "boot"
            ],
            "uid": "24D3X5k40GXdT8RwFUKFyDu0cL1",
            "user": "anders.roxell@linaro.org",
            "user_agent": "tuxsuite/0.42.3",
            "waiting_for": "24D3X1puPS3fYCkosirZscgve9Z"
        },
        "24D3X6LPcjWifeoErVKeVUnE2h0": {
            "ap_romfw": null,
            "boot_args": null,
            "device": "qemu-arm64",
            "finished_time": null,
            "fip": null,
            "kernel": null,
            "mcp_fw": null,
            "mcp_romfw": null,
            "modules": null,
            "parameters": [],
            "plan": "24D3WmzkB7UxztFkzWhb8MVtsls",
            "project": "linaro/anders",
            "provisioning_time": null,
            "result": "unknown",
            "results": {},
            "retries": 0,
            "retries_messages": [],
            "rootfs": null,
            "running_time": null,
            "scp_fw": null,
            "scp_romfw": null,
            "state": "waiting",
            "tests": [
                "boot"
            ],
            "uid": "24D3X6LPcjWifeoErVKeVUnE2h0",
            "user": "anders.roxell@linaro.org",
            "user_agent": "tuxsuite/0.42.3",
            "waiting_for": "24D3X1xmhzwyNX3hXZaFnxesXEF"
        },
        "24D3X75pBhG6PYrmkyOGg7W7vx6": {
            "ap_romfw": null,
            "boot_args": null,
            "device": "qemu-arm64",
            "finished_time": null,
            "fip": null,
            "kernel": null,
            "mcp_fw": null,
            "mcp_romfw": null,
            "modules": null,
            "parameters": [],
            "plan": "24D3WmzkB7UxztFkzWhb8MVtsls",
            "project": "linaro/anders",
            "provisioning_time": null,
            "result": "unknown",
            "results": {},
            "retries": 0,
            "retries_messages": [],
            "rootfs": null,
            "running_time": null,
            "scp_fw": null,
            "scp_romfw": null,
            "state": "waiting",
            "tests": [
                "boot"
            ],
            "uid": "24D3X75pBhG6PYrmkyOGg7W7vx6",
            "user": "anders.roxell@linaro.org",
            "user_agent": "tuxsuite/0.42.3",
            "waiting_for": "24D3Wzs7HuAt7MzL89TJ862TAsS"
        },
        "24D3X7Dsc2vkvYvWL7jXkKMrSP4": {
            "ap_romfw": null,
            "boot_args": null,
            "device": "qemu-arm64",
            "finished_time": null,
            "fip": null,
            "kernel": null,
            "mcp_fw": null,
            "mcp_romfw": null,
            "modules": null,
            "parameters": [],
            "plan": "24D3WmzkB7UxztFkzWhb8MVtsls",
            "project": "linaro/anders",
            "provisioning_time": null,
            "result": "unknown",
            "results": {},
            "retries": 0,
            "retries_messages": [],
            "rootfs": null,
            "running_time": null,
            "scp_fw": null,
            "scp_romfw": null,
            "state": "waiting",
            "tests": [
                "boot"
            ],
            "uid": "24D3X7Dsc2vkvYvWL7jXkKMrSP4",
            "user": "anders.roxell@linaro.org",
            "user_agent": "tuxsuite/0.42.3",
            "waiting_for": "24D3X2DAgqjWCkkBJbgQxaPC6wN"
        },
        "24D3X7T01ExIwWSRnRYsVBZa7i9": {
            "ap_romfw": null,
            "boot_args": null,
            "device": "qemu-arm64",
            "finished_time": null,
            "fip": null,
            "kernel": null,
            "mcp_fw": null,
            "mcp_romfw": null,
            "modules": null,
            "parameters": [],
            "plan": "24D3WmzkB7UxztFkzWhb8MVtsls",
            "project": "linaro/anders",
            "provisioning_time": null,
            "result": "unknown",
            "results": {},
            "retries": 0,
            "retries_messages": [],
            "rootfs": null,
            "running_time": null,
            "scp_fw": null,
            "scp_romfw": null,
            "state": "waiting",
            "tests": [
                "boot"
            ],
            "uid": "24D3X7T01ExIwWSRnRYsVBZa7i9",
            "user": "anders.roxell@linaro.org",
            "user_agent": "tuxsuite/0.42.3",
            "waiting_for": "24D3X11Wc4Y2Wz1uCSWXqcF1MOA"
        },
        "24D3X7hTMiiRD9CZtTE30gkg2rO": {
            "ap_romfw": null,
            "boot_args": null,
            "device": "qemu-arm64",
            "finished_time": null,
            "fip": null,
            "kernel": null,
            "mcp_fw": null,
            "mcp_romfw": null,
            "modules": null,
            "parameters": [],
            "plan": "24D3WmzkB7UxztFkzWhb8MVtsls",
            "project": "linaro/anders",
            "provisioning_time": null,
            "result": "unknown",
            "results": {},
            "retries": 0,
            "retries_messages": [],
            "rootfs": null,
            "running_time": null,
            "scp_fw": null,
            "scp_romfw": null,
            "state": "waiting",
            "tests": [
                "boot"
            ],
            "uid": "24D3X7hTMiiRD9CZtTE30gkg2rO",
            "user": "anders.roxell@linaro.org",
            "user_agent": "tuxsuite/0.42.3",
            "waiting_for": "24D3X1by2Hjc4udCFOA4jgO7CCu"
        },
        "24D3X7mZ2Mp82ZX9DhCaMYVeeBc": {
            "ap_romfw": null,
            "boot_args": null,
            "device": "qemu-arm64",
            "finished_time": null,
            "fip": null,
            "kernel": null,
            "mcp_fw": null,
            "mcp_romfw": null,
            "modules": null,
            "parameters": [],
            "plan": "24D3WmzkB7UxztFkzWhb8MVtsls",
            "project": "linaro/anders",
            "provisioning_time": null,
            "result": "unknown",
            "results": {},
            "retries": 0,
            "retries_messages": [],
            "rootfs": null,
            "running_time": null,
            "scp_fw": null,
            "scp_romfw": null,
            "state": "waiting",
            "tests": [
                "boot"
            ],
            "uid": "24D3X7mZ2Mp82ZX9DhCaMYVeeBc",
            "user": "anders.roxell@linaro.org",
            "user_agent": "tuxsuite/0.42.3",
            "waiting_for": "24D3X4lcUi2P8a4amxFnCN01RFs"
        },
        "24D3X8Dec83UpHe1LrsG3ZkdmQ0": {
            "ap_romfw": null,
            "boot_args": null,
            "device": "qemu-arm64",
            "finished_time": null,
            "fip": null,
            "kernel": null,
            "mcp_fw": null,
            "mcp_romfw": null,
            "modules": null,
            "parameters": [],
            "plan": "24D3WmzkB7UxztFkzWhb8MVtsls",
            "project": "linaro/anders",
            "provisioning_time": null,
            "result": "unknown",
            "results": {},
            "retries": 0,
            "retries_messages": [],
            "rootfs": null,
            "running_time": null,
            "scp_fw": null,
            "scp_romfw": null,
            "state": "waiting",
            "tests": [
                "boot"
            ],
            "uid": "24D3X8Dec83UpHe1LrsG3ZkdmQ0",
            "user": "anders.roxell@linaro.org",
            "user_agent": "tuxsuite/0.42.3",
            "waiting_for": "24D3X1iTAGhq6VpIObRlgsky4Ec"
        },
        "24D3X8KC0pTJbFhnNoAMOrHkrGg": {
            "ap_romfw": null,
            "boot_args": null,
            "device": "qemu-arm64",
            "finished_time": null,
            "fip": null,
            "kernel": null,
            "mcp_fw": null,
            "mcp_romfw": null,
            "modules": null,
            "parameters": [],
            "plan": "24D3WmzkB7UxztFkzWhb8MVtsls",
            "project": "linaro/anders",
            "provisioning_time": null,
            "result": "unknown",
            "results": {},
            "retries": 0,
            "retries_messages": [],
            "rootfs": null,
            "running_time": null,
            "scp_fw": null,
            "scp_romfw": null,
            "state": "waiting",
            "tests": [
                "boot"
            ],
            "uid": "24D3X8KC0pTJbFhnNoAMOrHkrGg",
            "user": "anders.roxell@linaro.org",
            "user_agent": "tuxsuite/0.42.3",
            "waiting_for": "24D3X4rylSp1lJRUgX6MTqI5cg7"
        },
        "24D3X8Z9Crf0otzem8sk2BBiwsR": {
            "ap_romfw": null,
            "boot_args": null,
            "device": "qemu-arm64",
            "finished_time": null,
            "fip": null,
            "kernel": null,
            "mcp_fw": null,
            "mcp_romfw": null,
            "modules": null,
            "parameters": [],
            "plan": "24D3WmzkB7UxztFkzWhb8MVtsls",
            "project": "linaro/anders",
            "provisioning_time": null,
            "result": "unknown",
            "results": {},
            "retries": 0,
            "retries_messages": [],
            "rootfs": null,
            "running_time": null,
            "scp_fw": null,
            "scp_romfw": null,
            "state": "waiting",
            "tests": [
                "boot"
            ],
            "uid": "24D3X8Z9Crf0otzem8sk2BBiwsR",
            "user": "anders.roxell@linaro.org",
            "user_agent": "tuxsuite/0.42.3",
            "waiting_for": "24D3X01qCgC7tEDrkD7cT89YCEf"
        },
        "24D3X9c3tMaHrC3GNn0Lmp18TPS": {
            "ap_romfw": null,
            "boot_args": null,
            "device": "qemu-arm64",
            "finished_time": null,
            "fip": null,
            "kernel": null,
            "mcp_fw": null,
            "mcp_romfw": null,
            "modules": null,
            "parameters": [],
            "plan": "24D3WmzkB7UxztFkzWhb8MVtsls",
            "project": "linaro/anders",
            "provisioning_time": null,
            "result": "unknown",
            "results": {},
            "retries": 0,
            "retries_messages": [],
            "rootfs": null,
            "running_time": null,
            "scp_fw": null,
            "scp_romfw": null,
            "state": "waiting",
            "tests": [
                "boot"
            ],
            "uid": "24D3X9c3tMaHrC3GNn0Lmp18TPS",
            "user": "anders.roxell@linaro.org",
            "user_agent": "tuxsuite/0.42.3",
            "waiting_for": "24D3WzFyPIRRfwMgHX1FzKrdfwR"
        },
        "24D3X9loKSkSdDK6adsD7Oq02D8": {
            "ap_romfw": null,
            "boot_args": null,
            "device": "qemu-arm64",
            "finished_time": null,
            "fip": null,
            "kernel": null,
            "mcp_fw": null,
            "mcp_romfw": null,
            "modules": null,
            "parameters": [],
            "plan": "24D3WmzkB7UxztFkzWhb8MVtsls",
            "project": "linaro/anders",
            "provisioning_time": null,
            "result": "unknown",
            "results": {},
            "retries": 0,
            "retries_messages": [],
            "rootfs": null,
            "running_time": null,
            "scp_fw": null,
            "scp_romfw": null,
            "state": "waiting",
            "tests": [
                "boot"
            ],
            "uid": "24D3X9loKSkSdDK6adsD7Oq02D8",
            "user": "anders.roxell@linaro.org",
            "user_agent": "tuxsuite/0.42.3",
            "waiting_for": "24D3X2YTs5oOrunogfkYSBofYBh"
        },
        "24D3XA3K0JTNEfmquxqxe0H6gw2": {
            "ap_romfw": null,
            "boot_args": null,
            "device": "qemu-arm64",
            "finished_time": null,
            "fip": null,
            "kernel": null,
            "mcp_fw": null,
            "mcp_romfw": null,
            "modules": null,
            "parameters": [],
            "plan": "24D3WmzkB7UxztFkzWhb8MVtsls",
            "project": "linaro/anders",
            "provisioning_time": null,
            "result": "unknown",
            "results": {},
            "retries": 0,
            "retries_messages": [],
            "rootfs": null,
            "running_time": null,
            "scp_fw": null,
            "scp_romfw": null,
            "state": "waiting",
            "tests": [
                "boot"
            ],
            "uid": "24D3XA3K0JTNEfmquxqxe0H6gw2",
            "user": "anders.roxell@linaro.org",
            "user_agent": "tuxsuite/0.42.3",
            "waiting_for": "24D3WzkBTV9n4dKLujINnnhcU9D"
        },
        "24D3XA4klz5qlcBCyMQp8V47DSn": {
            "ap_romfw": null,
            "boot_args": null,
            "device": "qemu-arm64",
            "finished_time": null,
            "fip": null,
            "kernel": null,
            "mcp_fw": null,
            "mcp_romfw": null,
            "modules": null,
            "parameters": [],
            "plan": "24D3WmzkB7UxztFkzWhb8MVtsls",
            "project": "linaro/anders",
            "provisioning_time": null,
            "result": "unknown",
            "results": {},
            "retries": 0,
            "retries_messages": [],
            "rootfs": null,
            "running_time": null,
            "scp_fw": null,
            "scp_romfw": null,
            "state": "waiting",
            "tests": [
                "boot"
            ],
            "uid": "24D3XA4klz5qlcBCyMQp8V47DSn",
            "user": "anders.roxell@linaro.org",
            "user_agent": "tuxsuite/0.42.3",
            "waiting_for": "24D3X1hEmYaiyEh1nXPRhNAfHaE"
        },
        "24D3XANgrlgsvKu1t0YSxgopxvv": {
            "ap_romfw": null,
            "boot_args": null,
            "device": "qemu-arm64",
            "finished_time": null,
            "fip": null,
            "kernel": null,
            "mcp_fw": null,
            "mcp_romfw": null,
            "modules": null,
            "parameters": [],
            "plan": "24D3WmzkB7UxztFkzWhb8MVtsls",
            "project": "linaro/anders",
            "provisioning_time": null,
            "result": "unknown",
            "results": {},
            "retries": 0,
            "retries_messages": [],
            "rootfs": null,
            "running_time": null,
            "scp_fw": null,
            "scp_romfw": null,
            "state": "waiting",
            "tests": [
                "boot"
            ],
            "uid": "24D3XANgrlgsvKu1t0YSxgopxvv",
            "user": "anders.roxell@linaro.org",
            "user_agent": "tuxsuite/0.42.3",
            "waiting_for": "24D3X1f7r19Pz7NJmxokApFwGMx"
        },
        "24D3XAuxDhjTc6HRT3QwmcIYiAl": {
            "ap_romfw": null,
            "boot_args": null,
            "device": "qemu-arm64",
            "finished_time": null,
            "fip": null,
            "kernel": null,
            "mcp_fw": null,
            "mcp_romfw": null,
            "modules": null,
            "parameters": [],
            "plan": "24D3WmzkB7UxztFkzWhb8MVtsls",
            "project": "linaro/anders",
            "provisioning_time": null,
            "result": "unknown",
            "results": {},
            "retries": 0,
            "retries_messages": [],
            "rootfs": null,
            "running_time": null,
            "scp_fw": null,
            "scp_romfw": null,
            "state": "waiting",
            "tests": [
                "boot"
            ],
            "uid": "24D3XAuxDhjTc6HRT3QwmcIYiAl",
            "user": "anders.roxell@linaro.org",
            "user_agent": "tuxsuite/0.42.3",
            "waiting_for": "24D3X46JSvaMFihJz1gv4pFJCMg"
        }
    }
}