{
    "builds": {
        "24D3Z5iSFAcTIFiwBtiWZo8OGRJ": {
            "build_name": "",
            "client_token": "f9e3828a-e677-4e24-8e2a-f32e6052c8ec",
            "download_url": "https://builds.tuxbuild.com/24D3Z5iSFAcTIFiwBtiWZo8OGRJ/",
            "environment": {},
            "errors_count": 0,
            "finished_time": null,
            "git_ref": "v5.14",
            "git_repo": "https://git.kernel.org/pub/scm/linux/kernel/git/torvalds/linux.git",
            "git_sha": "7d2a07b769330c34b4deabeed939325c77a7ec2f",
            "image_sha": "",
            "kconfig": [
                "defconfig"
            ],
            "kernel_image": "",
            "kernel_patch_file": "",
            "make_variables": {
                "LLVM": "1",
                "LLVM_IAS": "1"
            },
            "no_cache": false,
            "plan": "24D3Yyw67BIzlvfe46068FsTl1l",
            "project": "linaro/anders",
            "provisioning_time": "2022-01-25T22:56:22.764220",
            "result": "unknown",
            "running_time": null,
            "state": "provisioning",
            "target_arch": "arm64",
            "targets": [],
            "toolchain": "clang-nightly",
            "uid": "24D3Z5iSFAcTIFiwBtiWZo8OGRJ",
            "user": "anders.roxell@linaro.org",
            "user_agent": "tuxsuite/0.42.3",
            "waited_by": [],
            "warnings_count": 0
        },
        "24D3Z5wzWXGP630TAQlJgKo6XdV": {
            "build_name": "",
            "client_token": "f04092e0-53fb-4667-afc8-8c20310873fb",
            "download_url": "https://builds.tuxbuild.com/24D3Z5wzWXGP630TAQlJgKo6XdV/",
            "environment": {},
            "errors_count": 0,
            "finished_time": null,
            "git_ref": "v5.14",
            "git_repo": "https://git.kernel.org/pub/scm/linux/kernel/git/torvalds/linux.git",
            "git_sha": "7d2a07b769330c34b4deabeed939325c77a7ec2f",
            "image_sha": "",
            "kconfig": [
                "defconfig"
            ],
            "kernel_image": "",
            "kernel_patch_file": "",
            "make_variables": {
                "LLVM": "1",
                "LLVM_IAS": "1"
            },
            "no_cache": false,
            "plan": "24D3Yyw67BIzlvfe46068FsTl1l",
            "project": "linaro/anders",
            "provisioning_time": "2022-01-25T22:56:22.659683",
            "result": "unknown",
            "running_time": null,
            "state": "provisioning",
            "target_arch": "arm64",
            "targets": [],
            "toolchain": "clang-13",
            "uid": "24D3Z5wzWXGP630TAQlJgKo6XdV",
            "user": "anders.roxell@linaro.org",
            "user_agent": "tuxsuite/0.42.3",
            "waited_by": [],
            "warnings_count": 0
        },
        "24D3Z5ySU1I3dgRuuW2IjY6Jfqh": {
            "build_name": "",
            "client_token": "6ed00d7e-9236-4dc7-a547-37caf7cce9c9",
            "download_url": "https://builds.tuxbuild.com/24D3Z5ySU1I3dgRuuW2IjY6Jfqh/",
            "environment": {},
            "errors_count": 0,
            "finished_time": null,
            "git_ref": "v5.14",
            "git_repo": "https://git.kernel.org/pub/scm/linux/kernel/git/torvalds/linux.git",
            "git_sha": "7d2a07b769330c34b4deabeed939325c77a7ec2f",
            "image_sha": "",
            "kconfig": [
                "tinyconfig"
            ],
            "kernel_image": "",
            "kernel_patch_file": "",
            "make_variables": {
                "LLVM": "1",
                "LLVM_IAS": "1"
            },
            "no_cache": false,
            "plan": "24D3Yyw67BIzlvfe46068FsTl1l",
            "project": "linaro/anders",
            "provisioning_time": "2022-01-25T22:56:22.405530",
            "result": "unknown",
            "running_time": null,
            "state": "provisioning",
            "target_arch": "arm64",
            "targets": [],
            "toolchain": "clang-13",
            "uid": "24D3Z5ySU1I3dgRuuW2IjY6Jfqh",
            "user": "anders.roxell@linaro.org",
            "user_agent": "tuxsuite/0.42.3",
            "waited_by": [],
            "warnings_count": 0
        },
        "24D3Z5z2AOjxNMKYB13169hiU6x": {
            "build_name": "",
            "client_token": "cf1bd5a8-1a22-4b34-9985-43006c71f83c",
            "download_url": "https://builds.tuxbuild.com/24D3Z5z2AOjxNMKYB13169hiU6x/",
            "environment": {},
            "errors_count": 0,
            "finished_time": null,
            "git_ref": "v5.14",
            "git_repo": "https://git.kernel.org/pub/scm/linux/kernel/git/torvalds/linux.git",
            "git_sha": "7d2a07b769330c34b4deabeed939325c77a7ec2f",
            "image_sha": "",
            "kconfig": [
                "defconfig"
            ],
            "kernel_image": "",
            "kernel_patch_file": "",
            "make_variables": {
                "LLVM": "1",
                "LLVM_IAS": "1"
            },
            "no_cache": false,
            "plan": "24D3Yyw67BIzlvfe46068FsTl1l",
            "project": "linaro/anders",
            "provisioning_time": "2022-01-25T22:56:22.680099",
            "result": "unknown",
            "running_time": null,
            "state": "provisioning",
            "target_arch": "arm64",
            "targets": [],
            "toolchain": "clang-nightly",
            "uid": "24D3Z5z2AOjxNMKYB13169hiU6x",
            "user": "anders.roxell@linaro.org",
            "user_agent": "tuxsuite/0.42.3",
            "waited_by": [],
            "warnings_count": 0
        },
        "24D3Z66MSZCSdRzPnADCVQEvqqN": {
            "build_name": "",
            "client_token": "dba94d0d-515c-4506-b445-d6c00b8720cb",
            "download_url": "https://builds.tuxbuild.com/24D3Z66MSZCSdRzPnADCVQEvqqN/",
            "environment": {},
            "errors_count": 0,
            "finished_time": null,
            "git_ref": "v5.14",
            "git_repo": "https://git.kernel.org/pub/scm/linux/kernel/git/torvalds/linux.git",
            "git_sha": "7d2a07b769330c34b4deabeed939325c77a7ec2f",
            "image_sha": "",
            "kconfig": [
                "tinyconfig"
            ],
            "kernel_image": "",
            "kernel_patch_file": "",
            "make_variables": {},
            "no_cache": false,
            "plan": "24D3Yyw67BIzlvfe46068FsTl1l",
            "project": "linaro/anders",
            "provisioning_time": "2022-01-25T22:56:22.363105",
            "result": "unknown",
            "running_time": null,
            "state": "provisioning",
            "target_arch": "arm64",
            "targets": [],
            "toolchain": "gcc-10",
            "uid": "24D3Z66MSZCSdRzPnADCVQEvqqN",
            "user": "anders.roxell@linaro.org",
            "user_agent": "tuxsuite/0.42.3",
            "waited_by": [],
            "warnings_count": 0
        },
        "24D3Z6XWHO0jsetJBT8xENrzCsy": {
            "build_name": "",
            "client_token": "739e9cda-1a98-40df-b016-1d72a8c08696",
            "download_url": "https://builds.tuxbuild.com/24D3Z6XWHO0jsetJBT8xENrzCsy/",
            "environment": {},
            "errors_count": 0,
            "finished_time": null,
            "git_ref": "v5.14",
            "git_repo": "https://git.kernel.org/pub/scm/linux/kernel/git/torvalds/linux.git",
            "git_sha": "7d2a07b769330c34b4deabeed939325c77a7ec2f",
            "image_sha": "",
            "kconfig": [
                "defconfig"
            ],
            "kernel_image": "",
            "kernel_patch_file": "",
            "make_variables": {
                "LLVM": "1",
                "LLVM_IAS": "1"
            },
            "no_cache": false,
            "plan": "24D3Yyw67BIzlvfe46068FsTl1l",
            "project": "linaro/anders",
            "provisioning_time": "2022-01-25T22:56:22.933181",
            "result": "unknown",
            "running_time": null,
            "state": "provisioning",
            "target_arch": "arm64",
            "targets": [],
            "toolchain": "clang-nightly",
            "uid": "24D3Z6XWHO0jsetJBT8xENrzCsy",
            "user": "anders.roxell@linaro.org",
            "user_agent": "tuxsuite/0.42.3",
            "waited_by": [],
            "warnings_count": 0
        },
        "24D3Z6YnCEWtmtfyr5JuR6PkiYZ": {
            "build_name": "",
            "client_token": "38ea3070-9bd6-47ad-bd0d-91348d8de1dd",
            "download_url": "https://builds.tuxbuild.com/24D3Z6YnCEWtmtfyr5JuR6PkiYZ/",
            "environment": {},
            "errors_count": 0,
            "finished_time": null,
            "git_ref": "v5.14",
            "git_repo": "https://git.kernel.org/pub/scm/linux/kernel/git/torvalds/linux.git",
            "git_sha": "7d2a07b769330c34b4deabeed939325c77a7ec2f",
            "image_sha": "",
            "kconfig": [
                "defconfig"
            ],
            "kernel_image": "",
            "kernel_patch_file": "",
            "make_variables": {},
            "no_cache": false,
            "plan": "24D3Yyw67BIzlvfe46068FsTl1l",
            "project": "linaro/anders",
            "provisioning_time": "2022-01-25T22:56:22.700500",
            "result": "unknown",
            "running_time": null,
            "state": "provisioning",
            "target_arch": "arm64",
            "targets": [],
            "toolchain": "gcc-10",
            "uid": "24D3Z6YnCEWtmtfyr5JuR6PkiYZ",
            "user": "anders.roxell@linaro.org",
            "user_agent": "tuxsuite/0.42.3",
            "waited_by": [],
            "warnings_count": 0
        },
        "24D3Z77hBGo5LL55BqdZcf28EO9": {
            "build_name": "",
            "client_token": "f53edd96-71d5-499d-99dc-92ef968a22d4",
            "download_url": "https://builds.tuxbuild.com/24D3Z77hBGo5LL55BqdZcf28EO9/",
            "environment": {},
            "errors_count": 0,
            "finished_time": null,
            "git_ref": "v5.14",
            "git_repo": "https://git.kernel.org/pub/scm/linux/kernel/git/torvalds/linux.git",
            "git_sha": "7d2a07b769330c34b4deabeed939325c77a7ec2f",
            "image_sha": "",
            "kconfig": [
                "tinyconfig"
            ],
            "kernel_image": "",
            "kernel_patch_file": "",
            "make_variables": {},
            "no_cache": false,
            "plan": "24D3Yyw67BIzlvfe46068FsTl1l",
            "project": "linaro/anders",
            "provisioning_time": "2022-01-25T22:56:22.076603",
            "result": "unknown",
            "running_time": null,
            "state": "provisioning",
            "target_arch": "arm64",
            "targets": [],
            "toolchain": "gcc-10",
            "uid": "24D3Z77hBGo5LL55BqdZcf28EO9",
            "user": "anders.roxell@linaro.org",
            "user_agent": "tuxsuite/0.42.3",
            "waited_by": [],
            "warnings_count": 0
        },
        "24D3Z7AAUE7PExYLW4AaaPodDbg": {
            "build_name": "",
            "client_token": "5d06f0e9-0b52-4203-9a36-dc92a272883c",
            "download_url": "https://builds.tuxbuild.com/24D3Z7AAUE7PExYLW4AaaPodDbg/",
            "environment": {},
            "errors_count": 0,
            "finished_time": null,
            "git_ref": "v5.14",
            "git_repo": "https://git.kernel.org/pub/scm/linux/kernel/git/torvalds/linux.git",
            "git_sha": "7d2a07b769330c34b4deabeed939325c77a7ec2f",
            "image_sha": "",
            "kconfig": [
                "tinyconfig"
            ],
            "kernel_image": "",
            "kernel_patch_file": "",
            "make_variables": {},
            "no_cache": false,
            "plan": "24D3Yyw67BIzlvfe46068FsTl1l",
            "project": "linaro/anders",
            "provisioning_time": "2022-01-25T22:56:22.446548",
            "result": "unknown",
            "running_time": null,
            "state": "provisioning",
            "target_arch": "arm64",
            "targets": [],
            "toolchain": "gcc-10",
            "uid": "24D3Z7AAUE7PExYLW4AaaPodDbg",
            "user": "anders.roxell@linaro.org",
            "user_agent": "tuxsuite/0.42.3",
            "waited_by": [],
            "warnings_count": 0
        },
        "24D3Z7GyLylTddEHvszZy1y1rpV": {
            "build_name": "",
            "client_token": "b85a4041-8ecb-42d1-8f9d-dfc4f4da9c92",
            "download_url": "https://builds.tuxbuild.com/24D3Z7GyLylTddEHvszZy1y1rpV/",
            "environment": {},
            "errors_count": 0,
            "finished_time": null,
            "git_ref": "v5.14",
            "git_repo": "https://git.kernel.org/pub/scm/linux/kernel/git/torvalds/linux.git",
            "git_sha": "7d2a07b769330c34b4deabeed939325c77a7ec2f",
            "image_sha": "",
            "kconfig": [
                "defconfig"
            ],
            "kernel_image": "",
            "kernel_patch_file": "",
            "make_variables": {},
            "no_cache": false,
            "plan": "24D3Yyw67BIzlvfe46068FsTl1l",
            "project": "linaro/anders",
            "provisioning_time": "2022-01-25T22:56:22.806549",
            "result": "unknown",
            "running_time": null,
            "state": "provisioning",
            "target_arch": "arm64",
            "targets": [],
            "toolchain": "gcc-11",
            "uid": "24D3Z7GyLylTddEHvszZy1y1rpV",
            "user": "anders.roxell@linaro.org",
            "user_agent": "tuxsuite/0.42.3",
            "waited_by": [],
            "warnings_count": 0
        },
        "24D3Z7OcN5XMrLA3JfHRtnL2BJB": {
            "build_name": "",
            "client_token": "ba96a31a-106e-4dc6-8bdd-9a1ec5763af8",
            "download_url": "https://builds.tuxbuild.com/24D3Z7OcN5XMrLA3JfHRtnL2BJB/",
            "environment": {},
            "errors_count": 0,
            "finished_time": null,
            "git_ref": "v5.14",
            "git_repo": "https://git.kernel.org/pub/scm/linux/kernel/git/torvalds/linux.git",
            "git_sha": "7d2a07b769330c34b4deabeed939325c77a7ec2f",
            "image_sha": "",
            "kconfig": [
                "tinyconfig"
            ],
            "kernel_image": "",
            "kernel_patch_file": "",
            "make_variables": {
                "LLVM": "1",
                "LLVM_IAS": "1"
            },
            "no_cache": false,
            "plan": "24D3Yyw67BIzlvfe46068FsTl1l",
            "project": "linaro/anders",
            "provisioning_time": "2022-01-25T22:56:22.342234",
            "result": "unknown",
            "running_time": null,
            "state": "provisioning",
            "target_arch": "arm64",
            "targets": [],
            "toolchain": "clang-nightly",
            "uid": "24D3Z7OcN5XMrLA3JfHRtnL2BJB",
            "user": "anders.roxell@linaro.org",
            "user_agent": "tuxsuite/0.42.3",
            "waited_by": [],
            "warnings_count": 0
        },
        "24D3Z7VbZ5jK71X5FVbXGahaq9f": {
            "build_name": "",
            "client_token": "4be9020d-64fe-4e63-80cb-3fe81b4bef7b",
            "download_url": "https://builds.tuxbuild.com/24D3Z7VbZ5jK71X5FVbXGahaq9f/",
            "environment": {},
            "errors_count": 0,
            "finished_time": null,
            "git_ref": "v5.14",
            "git_repo": "https://git.kernel.org/pub/scm/linux/kernel/git/torvalds/linux.git",
            "git_sha": "7d2a07b769330c34b4deabeed939325c77a7ec2f",
            "image_sha": "",
            "kconfig": [
                "defconfig"
            ],
            "kernel_image": "",
            "kernel_patch_file": "",
            "make_variables": {
                "LLVM": "1",
                "LLVM_IAS": "1"
            },
            "no_cache": false,
            "plan": "24D3Yyw67BIzlvfe46068FsTl1l",
            "project": "linaro/anders",
            "provisioning_time": "2022-01-25T22:56:22.743614",
            "result": "unknown",
            "running_time": null,
            "state": "provisioning",
            "target_arch": "arm64",
            "targets": [],
            "toolchain": "clang-13",
            "uid": "24D3Z7VbZ5jK71X5FVbXGahaq9f",
            "user": "anders.roxell@linaro.org",
            "user_agent": "tuxsuite/0.42.3",
            "waited_by": [],
            "warnings_count": 0
        },
        "24D3Z85Bn0In9MmQ1GTa2uqDqw2": {
            "build_name": "",
            "client_token": "a2250b53-d04e-4758-afe1-af5bf1d96dec",
            "download_url": "https://builds.tuxbuild.com/24D3Z85Bn0In9MmQ1GTa2uqDqw2/",
            "environment": {},
            "errors_count": 0,
            "finished_time": null,
            "git_ref": "v5.14",
            "git_repo": "https://git.kernel.org/pub/scm/linux/kernel/git/torvalds/linux.git",
            "git_sha": "7d2a07b769330c34b4deabeed939325c77a7ec2f",
            "image_sha": "",
            "kconfig": [
                "tinyconfig"
            ],
            "kernel_image": "",
            "kernel_patch_file": "",
            "make_variables": {},
            "no_cache": false,
            "plan": "24D3Yyw67BIzlvfe46068FsTl1l",
            "project": "linaro/anders",
            "provisioning_time": "2022-01-25T22:56:22.468855",
            "result": "unknown",
            "running_time": null,
            "state": "provisioning",
            "target_arch": "arm64",
            "targets": [],
            "toolchain": "gcc-11",
            "uid": "24D3Z85Bn0In9MmQ1GTa2uqDqw2",
            "user": "anders.roxell@linaro.org",
            "user_agent": "tuxsuite/0.42.3",
            "waited_by": [],
            "warnings_count": 0
        },
        "24D3Z8GhV9y2IrSWgZiLW6xZ2eX": {
            "build_name": "",
            "client_token": "cd49494a-5dae-425c-a239-9fc1e69c07fd",
            "download_url": "https://builds.tuxbuild.com/24D3Z8GhV9y2IrSWgZiLW6xZ2eX/",
            "environment": {},
            "errors_count": 0,
            "finished_time": null,
            "git_ref": "v5.14",
            "git_repo": "https://git.kernel.org/pub/scm/linux/kernel/git/torvalds/linux.git",
            "git_sha": "7d2a07b769330c34b4deabeed939325c77a7ec2f",
            "image_sha": "",
            "kconfig": [
                "defconfig"
            ],
            "kernel_image": "",
            "kernel_patch_file": "",
            "make_variables": {
                "LLVM": "1",
                "LLVM_IAS": "1"
            },
            "no_cache": false,
            "plan": "24D3Yyw67BIzlvfe46068FsTl1l",
            "project": "linaro/anders",
            "provisioning_time": "2022-01-25T22:56:22.910697",
            "result": "unknown",
            "running_time": null,
            "state": "provisioning",
            "target_arch": "arm64",
            "targets": [],
            "toolchain": "clang-13",
            "uid": "24D3Z8GhV9y2IrSWgZiLW6xZ2eX",
            "user": "anders.roxell@linaro.org",
            "user_agent": "tuxsuite/0.42.3",
            "waited_by": [],
            "warnings_count": 0
        },
        "24D3Z8MNcCUy12iCDCdwMG4E3DG": {
            "build_name": "",
            "client_token": "f33da655-bdd8-492a-9344-82be0e6b5cda",
            "download_url": "https://builds.tuxbuild.com/24D3Z8MNcCUy12iCDCdwMG4E3DG/",
            "environment": {},
            "errors_count": 0,
            "finished_time": null,
            "git_ref": "v5.14",
            "git_repo": "https://git.kernel.org/pub/scm/linux/kernel/git/torvalds/linux.git",
            "git_sha": "7d2a07b769330c34b4deabeed939325c77a7ec2f",
            "image_sha": "",
            "kconfig": [
                "defconfig"
            ],
            "kernel_image": "",
            "kernel_patch_file": "",
            "make_variables": {
                "LLVM": "1",
                "LLVM_IAS": "1"
            },
            "no_cache": false,
            "plan": "24D3Yyw67BIzlvfe46068FsTl1l",
            "project": "linaro/anders",
            "provisioning_time": "2022-01-25T22:56:22.849554",
            "result": "unknown",
            "running_time": null,
            "state": "provisioning",
            "target_arch": "arm64",
            "targets": [],
            "toolchain": "clang-nightly",
            "uid": "24D3Z8MNcCUy12iCDCdwMG4E3DG",
            "user": "anders.roxell@linaro.org",
            "user_agent": "tuxsuite/0.42.3",
            "waited_by": [],
            "warnings_count": 0
        },
        "24D3Z8iQ37Ex0oXbaC5x6cw3hrV": {
            "build_name": "",
            "client_token": "d139cb25-b902-4ede-80b2-0a2c7c0c9c35",
            "download_url": "https://builds.tuxbuild.com/24D3Z8iQ37Ex0oXbaC5x6cw3hrV/",
            "environment": {},
            "errors_count": 0,
            "finished_time": null,
            "git_ref": "v5.14",
            "git_repo": "https://git.kernel.org/pub/scm/linux/kernel/git/torvalds/linux.git",
            "git_sha": "7d2a07b769330c34b4deabeed939325c77a7ec2f",
            "image_sha": "",
            "kconfig": [
                "defconfig"
            ],
            "kernel_image": "",
            "kernel_patch_file": "",
            "make_variables": {},
            "no_cache": false,
            "plan": "24D3Yyw67BIzlvfe46068FsTl1l",
            "project": "linaro/anders",
            "provisioning_time": "2022-01-25T22:56:22.552249",
            "result": "unknown",
            "running_time": null,
            "state": "provisioning",
            "target_arch": "arm64",
            "targets": [],
            "toolchain": "gcc-11",
            "uid": "24D3Z8iQ37Ex0oXbaC5x6cw3hrV",
            "user": "anders.roxell@linaro.org",
            "user_agent": "tuxsuite/0.42.3",
            "waited_by": [],
            "warnings_count": 0
        },
        "24D3Z8itEmD1RylwWG8sql7548s": {
            "build_name": "",
            "client_token": "8d26e162-5f9e-4e56-91b0-f5a87cc03682",
            "download_url": "https://builds.tuxbuild.com/24D3Z8itEmD1RylwWG8sql7548s/",
            "environment": {},
            "errors_count": 0,
            "finished_time": null,
            "git_ref": "v5.14",
            "git_repo": "https://git.kernel.org/pub/scm/linux/kernel/git/torvalds/linux.git",
            "git_sha": "7d2a07b769330c34b4deabeed939325c77a7ec2f",
            "image_sha": "",
            "kconfig": [
                "defconfig"
            ],
            "kernel_image": "",
            "kernel_patch_file": "",
            "make_variables": {},
            "no_cache": false,
            "plan": "24D3Yyw67BIzlvfe46068FsTl1l",
            "project": "linaro/anders",
            "provisioning_time": "2022-01-25T22:56:22.784546",
            "result": "unknown",
            "running_time": null,
            "state": "provisioning",
            "target_arch": "arm64",
            "targets": [],
            "toolchain": "gcc-10",
            "uid": "24D3Z8itEmD1RylwWG8sql7548s",
            "user": "anders.roxell@linaro.org",
            "user_agent": "tuxsuite/0.42.3",
            "waited_by": [],
            "warnings_count": 0
        },
        "24D3Z8o2WT59rTcO1oOYBydJ1PH": {
            "build_name": "",
            "client_token": "82f47357-a08d-4c16-a030-f0ff57932ba6",
            "download_url": "https://builds.tuxbuild.com/24D3Z8o2WT59rTcO1oOYBydJ1PH/",
            "environment": {},
            "errors_count": 0,
            "finished_time": null,
            "git_ref": "v5.14",
            "git_repo": "https://git.kernel.org/pub/scm/linux/kernel/git/torvalds/linux.git",
            "git_sha": "7d2a07b769330c34b4deabeed939325c77a7ec2f",
            "image_sha": "",
            "kconfig": [
                "defconfig"
            ],
            "kernel_image": "",
            "kernel_patch_file": "",
            "make_variables": {},
            "no_cache": false,
            "plan": "24D3Yyw67BIzlvfe46068FsTl1l",
            "project": "linaro/anders",
            "provisioning_time": "2022-01-25T22:56:22.869896",
            "result": "unknown",
            "running_time": null,
            "state": "provisioning",
            "target_arch": "arm64",
            "targets": [],
            "toolchain": "gcc-10",
            "uid": "24D3Z8o2WT59rTcO1oOYBydJ1PH",
            "user": "anders.roxell@linaro.org",
            "user_agent": "tuxsuite/0.42.3",
            "waited_by": [],
            "warnings_count": 0
        },
        "24D3Z943rNRKM7hne7lUgTE43LI": {
            "build_name": "",
            "client_token": "873f43d5-80b0-4cec-9e20-282783dfd7ac",
            "download_url": "https://builds.tuxbuild.com/24D3Z943rNRKM7hne7lUgTE43LI/",
            "environment": {},
            "errors_count": 0,
            "finished_time": null,
            "git_ref": "v5.14",
            "git_repo": "https://git.kernel.org/pub/scm/linux/kernel/git/torvalds/linux.git",
            "git_sha": "7d2a07b769330c34b4deabeed939325c77a7ec2f",
            "image_sha": "",
            "kconfig": [
                "tinyconfig"
            ],
            "kernel_image": "",
            "kernel_patch_file": "",
            "make_variables": {},
            "no_cache": false,
            "plan": "24D3Yyw67BIzlvfe46068FsTl1l",
            "project": "linaro/anders",
            "provisioning_time": "2022-01-25T22:56:22.097036",
            "result": "unknown",
            "running_time": null,
            "state": "provisioning",
            "target_arch": "arm64",
            "targets": [],
            "toolchain": "gcc-11",
            "uid": "24D3Z943rNRKM7hne7lUgTE43LI",
            "user": "anders.roxell@linaro.org",
            "user_agent": "tuxsuite/0.42.3",
            "waited_by": [],
            "warnings_count": 0
        },
        "24D3Z9lxQFiFGPJ9qQxsbYjhB4y": {
            "build_name": "",
            "client_token": "105fac94-6401-4b6d-9974-a428567b9b22",
            "download_url": "https://builds.tuxbuild.com/24D3Z9lxQFiFGPJ9qQxsbYjhB4y/",
            "environment": {},
            "errors_count": 0,
            "finished_time": null,
            "git_ref": "v5.14",
            "git_repo": "https://git.kernel.org/pub/scm/linux/kernel/git/torvalds/linux.git",
            "git_sha": "7d2a07b769330c34b4deabeed939325c77a7ec2f",
            "image_sha": "",
            "kconfig": [
                "defconfig"
            ],
            "kernel_image": "",
            "kernel_patch_file": "",
            "make_variables": {},
            "no_cache": false,
            "plan": "24D3Yyw67BIzlvfe46068FsTl1l",
            "project": "linaro/anders",
            "provisioning_time": "2022-01-25T22:56:22.637548",
            "result": "unknown",
            "running_time": null,
            "state": "provisioning",
            "target_arch": "arm64",
            "targets": [],
            "toolchain": "gcc-11",
            "uid": "24D3Z9lxQFiFGPJ9qQxsbYjhB4y",
            "user": "anders.roxell@linaro.org",
            "user_agent": "tuxsuite/0.42.3",
            "waited_by": [],
            "warnings_count": 0
        },
        "24D3Z9qcvnxeIXy4JxJEbHQG90L": {
            "build_name": "",
            "client_token": "76f83c1e-9e70-437a-b12e-107f4efd2bd4",
            "download_url": "https://builds.tuxbuild.com/24D3Z9qcvnxeIXy4JxJEbHQG90L/",
            "environment": {},
            "errors_count": 0,
            "finished_time": null,
            "git_ref": "v5.14",
            "git_repo": "https://git.kernel.org/pub/scm/linux/kernel/git/torvalds/linux.git",
            "git_sha": "7d2a07b769330c34b4deabeed939325c77a7ec2f",
            "image_sha": "",
            "kconfig": [
                "defconfig"
            ],
            "kernel_image": "",
            "kernel_patch_file": "",
            "make_variables": {
                "LLVM": "1",
                "LLVM_IAS": "1"
            },
            "no_cache": false,
            "plan": "24D3Yyw67BIzlvfe46068FsTl1l",
            "project": "linaro/anders",
            "provisioning_time": "2022-01-25T22:56:22.575042",
            "result": "unknown",
            "running_time": null,
            "state": "provisioning",
            "target_arch": "arm64",
            "targets": [],
            "toolchain": "clang-13",
            "uid": "24D3Z9qcvnxeIXy4JxJEbHQG90L",
            "user": "anders.roxell@linaro.org",
            "user_agent": "tuxsuite/0.42.3",
            "waited_by": [],
            "warnings_count": 0
        },
        "24D3Z9tTfRk1m8eroeO4ktF5PSN": {
            "build_name": "",
            "client_token": "f6dcbb9b-57d0-4780-86f1-41d2f160b52a",
            "download_url": "https://builds.tuxbuild.com/24D3Z9tTfRk1m8eroeO4ktF5PSN/",
            "environment": {},
            "errors_count": 0,
            "finished_time": null,
            "git_ref": "v5.14",
            "git_repo": "https://git.kernel.org/pub/scm/linux/kernel/git/torvalds/linux.git",
            "git_sha": "7d2a07b769330c34b4deabeed939325c77a7ec2f",
            "image_sha": "",
            "kconfig": [
                "defconfig"
            ],
            "kernel_image": "",
            "kernel_patch_file": "",
            "make_variables": {},
            "no_cache": false,
            "plan": "24D3Yyw67BIzlvfe46068FsTl1l",
            "project": "linaro/anders",
            "provisioning_time": "2022-01-25T22:56:22.890242",
            "result": "unknown",
            "running_time": null,
            "state": "provisioning",
            "target_arch": "arm64",
            "targets": [],
            "toolchain": "gcc-11",
            "uid": "24D3Z9tTfRk1m8eroeO4ktF5PSN",
            "user": "anders.roxell@linaro.org",
            "user_agent": "tuxsuite/0.42.3",
            "waited_by": [],
            "warnings_count": 0
        },
        "24D3ZAMylxxd3RxNLRflYSDRyFq": {
            "build_name": "",
            "client_token": "184c9cff-0ecf-4d25-acba-2148f8265989",
            "download_url": "https://builds.tuxbuild.com/24D3ZAMylxxd3RxNLRflYSDRyFq/",
            "environment": {},
            "errors_count": 0,
            "finished_time": null,
            "git_ref": "v5.14",
            "git_repo": "https://git.kernel.org/pub/scm/linux/kernel/git/torvalds/linux.git",
            "git_sha": "7d2a07b769330c34b4deabeed939325c77a7ec2f",
            "image_sha": "",
            "kconfig": [
                "tinyconfig"
            ],
            "kernel_image": "",
            "kernel_patch_file": "",
            "make_variables": {
                "LLVM": "1",
                "LLVM_IAS": "1"
            },
            "no_cache": false,
            "plan": "24D3Yyw67BIzlvfe46068FsTl1l",
            "project": "linaro/anders",
            "provisioning_time": "2022-01-25T22:56:22.426252",
            "result": "unknown",
            "running_time": null,
            "state": "provisioning",
            "target_arch": "arm64",
            "targets": [],
            "toolchain": "clang-nightly",
            "uid": "24D3ZAMylxxd3RxNLRflYSDRyFq",
            "user": "anders.roxell@linaro.org",
            "user_agent": "tuxsuite/0.42.3",
            "waited_by": [],
            "warnings_count": 0
        },
        "24D3ZAYIyRbPq70qt2qtmBygNJG": {
            "build_name": "",
            "client_token": "1b7d868d-8d13-4bf9-bc86-552a44eb7790",
            "download_url": "https://builds.tuxbuild.com/24D3ZAYIyRbPq70qt2qtmBygNJG/",
            "environment": {},
            "errors_count": 0,
            "finished_time": null,
            "git_ref": "v5.14",
            "git_repo": "https://git.kernel.org/pub/scm/linux/kernel/git/torvalds/linux.git",
            "git_sha": "7d2a07b769330c34b4deabeed939325c77a7ec2f",
            "image_sha": "",
            "kconfig": [
                "defconfig"
            ],
            "kernel_image": "",
            "kernel_patch_file": "",
            "make_variables": {},
            "no_cache": false,
            "plan": "24D3Yyw67BIzlvfe46068FsTl1l",
            "project": "linaro/anders",
            "provisioning_time": "2022-01-25T22:56:22.531368",
            "result": "unknown",
            "running_time": null,
            "state": "provisioning",
            "target_arch": "arm64",
            "targets": [],
            "toolchain": "gcc-10",
            "uid": "24D3ZAYIyRbPq70qt2qtmBygNJG",
            "user": "anders.roxell@linaro.org",
            "user_agent": "tuxsuite/0.42.3",
            "waited_by": [],
            "warnings_count": 0
        },
        "24D3ZAqRHdteN1OKQyL25gpA5fx": {
            "build_name": "",
            "client_token": "b77fc97d-19e7-4499-a03b-5dc05c2c5bc7",
            "download_url": "https://builds.tuxbuild.com/24D3ZAqRHdteN1OKQyL25gpA5fx/",
            "environment": {},
            "errors_count": 0,
            "finished_time": null,
            "git_ref": "v5.14",
            "git_repo": "https://git.kernel.org/pub/scm/linux/kernel/git/torvalds/linux.git",
            "git_sha": "7d2a07b769330c34b4deabeed939325c77a7ec2f",
            "image_sha": "",
            "kconfig": [
                "defconfig"
            ],
            "kernel_image": "",
            "kernel_patch_file": "",
            "make_variables": {
                "LLVM": "1",
                "LLVM_IAS": "1"
            },
            "no_cache": false,
            "plan": "24D3Yyw67BIzlvfe46068FsTl1l",
            "project": "linaro/anders",
            "provisioning_time": "2022-01-25T22:56:22.596648",
            "result": "unknown",
            "running_time": null,
            "state": "provisioning",
            "target_arch": "arm64",
            "targets": [],
            "toolchain": "clang-nightly",
            "uid": "24D3ZAqRHdteN1OKQyL25gpA5fx",
            "user": "anders.roxell@linaro.org",
            "user_agent": "tuxsuite/0.42.3",
            "waited_by": [],
            "warnings_count": 0
        },
        "24D3ZAw2X0jjHPxa2W8EZ88dvcY": {
            "build_name": "",
            "client_token": "ffe9b77c-9286-430e-be09-38b4689e5efa",
            "download_url": "https://builds.tuxbuild.com/24D3ZAw2X0jjHPxa2W8EZ88dvcY/",
            "environment": {},
            "errors_count": 0,
            "finished_time": null,
            "git_ref": "v5.14",
            "git_repo": "https://git.kernel.org/pub/scm/linux/kernel/git/torvalds/linux.git",
            "git_sha": "7d2a07b769330c34b4deabeed939325c77a7ec2f",
            "image_sha": "",
            "kconfig": [
                "defconfig"
            ],
            "kernel_image": "",
            "kernel_patch_file": "",
            "make_variables": {},
            "no_cache": false,
            "plan": "24D3Yyw67BIzlvfe46068FsTl1l",
            "project": "linaro/anders",
            "provisioning_time": "2022-01-25T22:56:22.617080",
            "result": "unknown",
            "running_time": null,
            "state": "provisioning",
            "target_arch": "arm64",
            "targets": [],
            "toolchain": "gcc-10",
            "uid": "24D3ZAw2X0jjHPxa2W8EZ88dvcY",
            "user": "anders.roxell@linaro.org",
            "user_agent": "tuxsuite/0.42.3",
            "waited_by": [],
            "warnings_count": 0
        },
        "24D3ZAwCB570xmnUqn4M7eciQPw": {
            "build_name": "",
            "client_token": "58802cbf-4054-4adb-be90-560a55f4eeb0",
            "download_url": "https://builds.tuxbuild.com/24D3ZAwCB570xmnUqn4M7eciQPw/",
            "environment": {},
            "errors_count": 0,
            "finished_time": null,
            "git_ref": "v5.14",
            "git_repo": "https://git.kernel.org/pub/scm/linux/kernel/git/torvalds/linux.git",
            "git_sha": "7d2a07b769330c34b4deabeed939325c77a7ec2f",
            "image_sha": "",
            "kconfig": [
                "tinyconfig"
            ],
            "kernel_image": "",
            "kernel_patch_file": "",
            "make_variables": {
                "LLVM": "1",
                "LLVM_IAS": "1"
            },
            "no_cache": false,
            "plan": "24D3Yyw67BIzlvfe46068FsTl1l",
            "project": "linaro/anders",
            "provisioning_time": "2022-01-25T22:56:22.258928",
            "result": "unknown",
            "running_time": null,
            "state": "provisioning",
            "target_arch": "arm64",
            "targets": [],
            "toolchain": "clang-nightly",
            "uid": "24D3ZAwCB570xmnUqn4M7eciQPw",
            "user": "anders.roxell@linaro.org",
            "user_agent": "tuxsuite/0.42.3",
            "waited_by": [],
            "warnings_count": 0
        },
        "24D3ZB1jcgAF6exr0T39NkuCnYS": {
            "build_name": "",
            "client_token": "ec6cf425-f0ca-4547-81e6-1bff47a20a02",
            "download_url": "https://builds.tuxbuild.com/24D3ZB1jcgAF6exr0T39NkuCnYS/",
            "environment": {},
            "errors_count": 0,
            "finished_time": null,
            "git_ref": "v5.14",
            "git_repo": "https://git.kernel.org/pub/scm/linux/kernel/git/torvalds/linux.git",
            "git_sha": "7d2a07b769330c34b4deabeed939325c77a7ec2f",
            "image_sha": "",
            "kconfig": [
                "tinyconfig"
            ],
            "kernel_image": "",
            "kernel_patch_file": "",
            "make_variables": {},
            "no_cache": false,
            "plan": "24D3Yyw67BIzlvfe46068FsTl1l",
            "project": "linaro/anders",
            "provisioning_time": "2022-01-25T22:56:22.279349",
            "result": "unknown",
            "running_time": null,
            "state": "provisioning",
            "target_arch": "arm64",
            "targets": [],
            "toolchain": "gcc-10",
            "uid": "24D3ZB1jcgAF6exr0T39NkuCnYS",
            "user": "anders.roxell@linaro.org",
            "user_agent": "tuxsuite/0.42.3",
            "waited_by": [],
            "warnings_count": 0
        },
        "24D3ZBIabWOe2Gxv0FV1lnsDGJe": {
            "build_name": "",
            "client_token": "59ef7d3d-e5c8-4150-a008-f7de0140b7ee",
            "download_url": "https://builds.tuxbuild.com/24D3ZBIabWOe2Gxv0FV1lnsDGJe/",
            "environment": {},
            "errors_count": 0,
            "finished_time": null,
            "git_ref": "v5.14",
            "git_repo": "https://git.kernel.org/pub/scm/linux/kernel/git/torvalds/linux.git",
            "git_sha": "7d2a07b769330c34b4deabeed939325c77a7ec2f",
            "image_sha": "",
            "kconfig": [
                "tinyconfig"
            ],
            "kernel_image": "",
            "kernel_patch_file": "",
            "make_variables": {},
            "no_cache": false,
            "plan": "24D3Yyw67BIzlvfe46068FsTl1l",
            "project": "linaro/anders",
            "provisioning_time": "2022-01-25T22:56:22.218109",
            "result": "unknown",
            "running_time": null,
            "state": "provisioning",
            "target_arch": "arm64",
            "targets": [],
            "toolchain": "gcc-11",
            "uid": "24D3ZBIabWOe2Gxv0FV1lnsDGJe",
            "user": "anders.roxell@linaro.org",
            "user_agent": "tuxsuite/0.42.3",
            "waited_by": [],
            "warnings_count": 0
        },
        "24D3ZBOkBlJUxzwzwv6joX5AM0a": {
            "build_name": "",
            "client_token": "31bbbcda-2cc1-484a-a3ca-8e318f444450",
            "download_url": "https://builds.tuxbuild.com/24D3ZBOkBlJUxzwzwv6joX5AM0a/",
            "environment": {},
            "errors_count": 0,
            "finished_time": null,
            "git_ref": "v5.14",
            "git_repo": "https://git.kernel.org/pub/scm/linux/kernel/git/torvalds/linux.git",
            "git_sha": "7d2a07b769330c34b4deabeed939325c77a7ec2f",
            "image_sha": "",
            "kconfig": [
                "tinyconfig"
            ],
            "kernel_image": "",
            "kernel_patch_file": "",
            "make_variables": {
                "LLVM": "1",
                "LLVM_IAS": "1"
            },
            "no_cache": false,
            "plan": "24D3Yyw67BIzlvfe46068FsTl1l",
            "project": "linaro/anders",
            "provisioning_time": "2022-01-25T22:56:22.321880",
            "result": "unknown",
            "running_time": null,
            "state": "provisioning",
            "target_arch": "arm64",
            "targets": [],
            "toolchain": "clang-13",
            "uid": "24D3ZBOkBlJUxzwzwv6joX5AM0a",
            "user": "anders.roxell@linaro.org",
            "user_agent": "tuxsuite/0.42.3",
            "waited_by": [],
            "warnings_count": 0
        },
        "24D3ZBPQ5FCP5F0Cci9NE2xZhwr": {
            "build_name": "",
            "client_token": "f5ad3a66-004d-4579-8681-cb383381b6bf",
            "download_url": "https://builds.tuxbuild.com/24D3ZBPQ5FCP5F0Cci9NE2xZhwr/",
            "environment": {},
            "errors_count": 0,
            "finished_time": null,
            "git_ref": "v5.14",
            "git_repo": "https://git.kernel.org/pub/scm/linux/kernel/git/torvalds/linux.git",
            "git_sha": "7d2a07b769330c34b4deabeed939325c77a7ec2f",
            "image_sha": "",
            "kconfig": [
                "tinyconfig"
            ],
            "kernel_image": "",
            "kernel_patch_file": "",
            "make_variables": {
                "LLVM": "1",
                "LLVM_IAS": "1"
            },
            "no_cache": false,
            "plan": "24D3Yyw67BIzlvfe46068FsTl1l",
            "project": "linaro/anders",
            "provisioning_time": "2022-01-25T22:56:22.238396",
            "result": "unknown",
            "running_time": null,
            "state": "provisioning",
            "target_arch": "arm64",
            "targets": [],
            "toolchain": "clang-13",
            "uid": "24D3ZBPQ5FCP5F0Cci9NE2xZhwr",
            "user": "anders.roxell@linaro.org",
            "user_agent": "tuxsuite/0.42.3",
            "waited_by": [],
            "warnings_count": 0
        },
        "24D3ZBcluzhQK5RgsNGfwTzcsIk": {
            "build_name": "",
            "client_token": "97c093ef-d224-474d-8af0-216d71f150bd",
            "download_url": "https://builds.tuxbuild.com/24D3ZBcluzhQK5RgsNGfwTzcsIk/",
            "environment": {},
            "errors_count": 0,
            "finished_time": null,
            "git_ref": "v5.14",
            "git_repo": "https://git.kernel.org/pub/scm/linux/kernel/git/torvalds/linux.git",
            "git_sha": "7d2a07b769330c34b4deabeed939325c77a7ec2f",
            "image_sha": "",
            "kconfig": [
                "tinyconfig"
            ],
            "kernel_image": "",
            "kernel_patch_file": "",
            "make_variables": {},
            "no_cache": false,
            "plan": "24D3Yyw67BIzlvfe46068FsTl1l",
            "project": "linaro/anders",
            "provisioning_time": "2022-01-25T22:56:22.301486",
            "result": "unknown",
            "running_time": null,
            "state": "provisioning",
            "target_arch": "arm64",
            "targets": [],
            "toolchain": "gcc-11",
            "uid": "24D3ZBcluzhQK5RgsNGfwTzcsIk",
            "user": "anders.roxell@linaro.org",
            "user_agent": "tuxsuite/0.42.3",
            "waited_by": [],
            "warnings_count": 0
        },
        "24D3ZBgW1P524rCMVgP7LWiIN9H": {
            "build_name": "",
            "client_token": "7ab82eb6-8555-4255-83fd-d829e1835a3f",
            "download_url": "https://builds.tuxbuild.com/24D3ZBgW1P524rCMVgP7LWiIN9H/",
            "environment": {},
            "errors_count": 0,
            "finished_time": null,
            "git_ref": "v5.14",
            "git_repo": "https://git.kernel.org/pub/scm/linux/kernel/git/torvalds/linux.git",
            "git_sha": "7d2a07b769330c34b4deabeed939325c77a7ec2f",
            "image_sha": "",
            "kconfig": [
                "tinyconfig"
            ],
            "kernel_image": "",
            "kernel_patch_file": "",
            "make_variables": {
                "LLVM": "1",
                "LLVM_IAS": "1"
            },
            "no_cache": false,
            "plan": "24D3Yyw67BIzlvfe46068FsTl1l",
            "project": "linaro/anders",
            "provisioning_time": "2022-01-25T22:56:22.117726",
            "result": "unknown",
            "running_time": null,
            "state": "provisioning",
            "target_arch": "arm64",
            "targets": [],
            "toolchain": "clang-13",
            "uid": "24D3ZBgW1P524rCMVgP7LWiIN9H",
            "user": "anders.roxell@linaro.org",
            "user_agent": "tuxsuite/0.42.3",
            "waited_by": [],
            "warnings_count": 0
        },
        "24D3ZBhIElWvgtCQjk7Qr8R36ZQ": {
            "build_name": "",
            "client_token": "648781ca-8de0-48f6-9578-8655de89c19e",
            "download_url": "https://builds.tuxbuild.com/24D3ZBhIElWvgtCQjk7Qr8R36ZQ/",
            "environment": {},
            "errors_count": 0,
            "finished_time": null,
            "git_ref": "v5.14",
            "git_repo": "https://git.kernel.org/pub/scm/linux/kernel/git/torvalds/linux.git",
            "git_sha": "7d2a07b769330c34b4deabeed939325c77a7ec2f",
            "image_sha": "",
            "kconfig": [
                "defconfig"
            ],
            "kernel_image": "",
            "kernel_patch_file": "",
            "make_variables": {
                "LLVM": "1",
                "LLVM_IAS": "1"
            },
            "no_cache": false,
            "plan": "24D3Yyw67BIzlvfe46068FsTl1l",
            "project": "linaro/anders",
            "provisioning_time": "2022-01-25T22:56:22.829010",
            "result": "unknown",
            "running_time": null,
            "state": "provisioning",
            "target_arch": "arm64",
            "targets": [],
            "toolchain": "clang-13",
            "uid": "24D3ZBhIElWvgtCQjk7Qr8R36ZQ",
            "user": "anders.roxell@linaro.org",
            "user_agent": "tuxsuite/0.42.3",
            "waited_by": [],
            "warnings_count": 0
        },
        "24D3ZBtb4apPeUR8290tGWU7ypY": {
            "build_name": "",
            "client_token": "b7c41a8e-d7d1-4d47-807d-30dc09e3f1c8",
            "download_url": "https://builds.tuxbuild.com/24D3ZBtb4apPeUR8290tGWU7ypY/",
            "environment": {},
            "errors_count": 0,
            "finished_time": null,
            "git_ref": "v5.14",
            "git_repo": "https://git.kernel.org/pub/scm/linux/kernel/git/torvalds/linux.git",
            "git_sha": "7d2a07b769330c34b4deabeed939325c77a7ec2f",
            "image_sha": "",
            "kconfig": [
                "tinyconfig"
            ],
            "kernel_image": "",
            "kernel_patch_file": "",
            "make_variables": {
                "LLVM": "1",
                "LLVM_IAS": "1"
            },
            "no_cache": false,
            "plan": "24D3Yyw67BIzlvfe46068FsTl1l",
            "project": "linaro/anders",
            "provisioning_time": "2022-01-25T22:56:22.510551",
            "result": "unknown",
            "running_time": null,
            "state": "provisioning",
            "target_arch": "arm64",
            "targets": [],
            "toolchain": "clang-nightly",
            "uid": "24D3ZBtb4apPeUR8290tGWU7ypY",
            "user": "anders.roxell@linaro.org",
            "user_agent": "tuxsuite/0.42.3",
            "waited_by": [],
            "warnings_count": 0
        },
        "24D3ZCHmcARkqLgK99WHKvvM5Ey": {
            "build_name": "",
            "client_token": "92ccc12f-c099-4576-b6d7-e980652de6a4",
            "download_url": "https://builds.tuxbuild.com/24D3ZCHmcARkqLgK99WHKvvM5Ey/",
            "environment": {},
            "errors_count": 0,
            "finished_time": null,
            "git_ref": "v5.14",
            "git_repo": "https://git.kernel.org/pub/scm/linux/kernel/git/torvalds/linux.git",
            "git_sha": "7d2a07b769330c34b4deabeed939325c77a7ec2f",
            "image_sha": "",
            "kconfig": [
                "tinyconfig"
            ],
            "kernel_image": "",
            "kernel_patch_file": "",
            "make_variables": {},
            "no_cache": false,
            "plan": "24D3Yyw67BIzlvfe46068FsTl1l",
            "project": "linaro/anders",
            "provisioning_time": "2022-01-25T22:56:22.161333",
            "result": "unknown",
            "running_time": null,
            "state": "provisioning",
            "target_arch": "arm64",
            "targets": [],
            "toolchain": "gcc-10",
            "uid": "24D3ZCHmcARkqLgK99WHKvvM5Ey",
            "user": "anders.roxell@linaro.org",
            "user_agent": "tuxsuite/0.42.3",
            "waited_by": [],
            "warnings_count": 0
        },
        "24D3ZCXGaZTG0U1coirSnvMbSIX": {
            "build_name": "",
            "client_token": "770f0f26-076a-4fda-992d-bcbfb74924ab",
            "download_url": "https://builds.tuxbuild.com/24D3ZCXGaZTG0U1coirSnvMbSIX/",
            "environment": {},
            "errors_count": 0,
            "finished_time": null,
            "git_ref": "v5.14",
            "git_repo": "https://git.kernel.org/pub/scm/linux/kernel/git/torvalds/linux.git",
            "git_sha": "7d2a07b769330c34b4deabeed939325c77a7ec2f",
            "image_sha": "",
            "kconfig": [
                "tinyconfig"
            ],
            "kernel_image": "",
            "kernel_patch_file": "",
            "make_variables": {
                "LLVM": "1",
                "LLVM_IAS": "1"
            },
            "no_cache": false,
            "plan": "24D3Yyw67BIzlvfe46068FsTl1l",
            "project": "linaro/anders",
            "provisioning_time": "2022-01-25T22:56:22.489635",
            "result": "unknown",
            "running_time": null,
            "state": "provisioning",
            "target_arch": "arm64",
            "targets": [],
            "toolchain": "clang-13",
            "uid": "24D3ZCXGaZTG0U1coirSnvMbSIX",
            "user": "anders.roxell@linaro.org",
            "user_agent": "tuxsuite/0.42.3",
            "waited_by": [],
            "warnings_count": 0
        },
        "24D3ZCnATlyCyaoGS0Pb73bHy5O": {
            "build_name": "",
            "client_token": "8e121dde-e8c0-4544-a26c-18d4bde0dd5b",
            "download_url": "https://builds.tuxbuild.com/24D3ZCnATlyCyaoGS0Pb73bHy5O/",
            "environment": {},
            "errors_count": 0,
            "finished_time": null,
            "git_ref": "v5.14",
            "git_repo": "https://git.kernel.org/pub/scm/linux/kernel/git/torvalds/linux.git",
            "git_sha": "7d2a07b769330c34b4deabeed939325c77a7ec2f",
            "image_sha": "",
            "kconfig": [
                "tinyconfig"
            ],
            "kernel_image": "",
            "kernel_patch_file": "",
            "make_variables": {
                "LLVM": "1",
                "LLVM_IAS": "1"
            },
            "no_cache": false,
            "plan": "24D3Yyw67BIzlvfe46068FsTl1l",
            "project": "linaro/anders",
            "provisioning_time": "2022-01-25T22:56:22.138945",
            "result": "unknown",
            "running_time": null,
            "state": "provisioning",
            "target_arch": "arm64",
            "targets": [],
            "toolchain": "clang-nightly",
            "uid": "24D3ZCnATlyCyaoGS0Pb73bHy5O",
            "user": "anders.roxell@linaro.org",
            "user_agent": "tuxsuite/0.42.3",
            "waited_by": [],
            "warnings_count": 0
        },
        "24D3ZD1xJWu4SIdLS3vIttJ2nKH": {
            "build_name": "",
            "client_token": "af19e705-2dae-47ce-bca3-0b357ecf9fd5",
            "download_url": "https://builds.tuxbuild.com/24D3ZD1xJWu4SIdLS3vIttJ2nKH/",
            "environment": {},
            "errors_count": 0,
            "finished_time": null,
            "git_ref": "v5.14",
            "git_repo": "https://git.kernel.org/pub/scm/linux/kernel/git/torvalds/linux.git",
            "git_sha": "7d2a07b769330c34b4deabeed939325c77a7ec2f",
            "image_sha": "",
            "kconfig": [
                "tinyconfig"
            ],
            "kernel_image": "",
            "kernel_patch_file": "",
            "make_variables": {},
            "no_cache": false,
            "plan": "24D3Yyw67BIzlvfe46068FsTl1l",
            "project": "linaro/anders",
            "provisioning_time": "2022-01-25T22:56:22.385189",
            "result": "unknown",
            "running_time": null,
            "state": "provisioning",
            "target_arch": "arm64",
            "targets": [],
            "toolchain": "gcc-11",
            "uid": "24D3ZD1xJWu4SIdLS3vIttJ2nKH",
            "user": "anders.roxell@linaro.org",
            "user_agent": "tuxsuite/0.42.3",
            "waited_by": [],
            "warnings_count": 0
        },
        "24D3ZDDECPsV1YKVQy8vA1G7CLA": {
            "build_name": "",
            "client_token": "349729fe-bf51-4ec6-8334-e106cfca623b",
            "download_url": "https://builds.tuxbuild.com/24D3ZDDECPsV1YKVQy8vA1G7CLA/",
            "environment": {},
            "errors_count": 0,
            "finished_time": null,
            "git_ref": "v5.14",
            "git_repo": "https://git.kernel.org/pub/scm/linux/kernel/git/torvalds/linux.git",
            "git_sha": "7d2a07b769330c34b4deabeed939325c77a7ec2f",
            "image_sha": "",
            "kconfig": [
                "defconfig"
            ],
            "kernel_image": "",
            "kernel_patch_file": "",
            "make_variables": {},
            "no_cache": false,
            "plan": "24D3Yyw67BIzlvfe46068FsTl1l",
            "project": "linaro/anders",
            "provisioning_time": "2022-01-25T22:56:22.721483",
            "result": "unknown",
            "running_time": null,
            "state": "provisioning",
            "target_arch": "arm64",
            "targets": [],
            "toolchain": "gcc-11",
            "uid": "24D3ZDDECPsV1YKVQy8vA1G7CLA",
            "user": "anders.roxell@linaro.org",
            "user_agent": "tuxsuite/0.42.3",
            "waited_by": [],
            "warnings_count": 0
        }
    },
    "tests": {
        "24D3ZE6oJ9LGMzxsHIGVFCZFLj4": {
            "ap_romfw": null,
            "boot_args": null,
            "device": "qemu-arm64",
            "finished_time": null,
            "fip": null,
            "kernel": null,
            "mcp_fw": null,
            "mcp_romfw": null,
            "modules": null,
            "parameters": [],
            "plan": "24D3Yyw67BIzlvfe46068FsTl1l",
            "project": "linaro/anders",
            "provisioning_time": null,
            "result": "unknown",
            "results": {},
            "retries": 0,
            "retries_messages": [],
            "rootfs": null,
            "running_time": null,
            "scp_fw": null,
            "scp_romfw": null,
            "state": "waiting",
            "tests": [
                "boot"
            ],
            "uid": "24D3ZE6oJ9LGMzxsHIGVFCZFLj4",
            "user": "anders.roxell@linaro.org",
            "user_agent": "tuxsuite/0.42.3",
            "waiting_for": "24D3Z5wzWXGP630TAQlJgKo6XdV"
        },
        "24D3ZEAQYseiyyrSOibASAU8Kgs": {
            "ap_romfw": null,
            "boot_args": null,
            "device": "qemu-arm64",
            "finished_time": null,
            "fip": null,
            "kernel": null,
            "mcp_fw": null,
            "mcp_romfw": null,
            "modules": null,
            "parameters": [],
            "plan": "24D3Yyw67BIzlvfe46068FsTl1l",
            "project": "linaro/anders",
            "provisioning_time": null,
            "result": "unknown",
            "results": {},
            "retries": 0,
            "retries_messages": [],
            "rootfs": null,
            "running_time": null,
            "scp_fw": null,
            "scp_romfw": null,
            "state": "waiting",
            "tests": [
                "boot"
            ],
            "uid": "24D3ZEAQYseiyyrSOibASAU8Kgs",
            "user": "anders.roxell@linaro.org",
            "user_agent": "tuxsuite/0.42.3",
            "waiting_for": "24D3Z8iQ37Ex0oXbaC5x6cw3hrV"
        },
        "24D3ZEUgoswql6QhUIKr4Eh5bYu": {
            "ap_romfw": null,
            "boot_args": null,
            "device": "qemu-arm64",
            "finished_time": null,
            "fip": null,
            "kernel": null,
            "mcp_fw": null,
            "mcp_romfw": null,
            "modules": null,
            "parameters": [],
            "plan": "24D3Yyw67BIzlvfe46068FsTl1l",
            "project": "linaro/anders",
            "provisioning_time": null,
            "result": "unknown",
            "results": {},
            "retries": 0,
            "retries_messages": [],
            "rootfs": null,
            "running_time": null,
            "scp_fw": null,
            "scp_romfw": null,
            "state": "waiting",
            "tests": [
                "boot"
            ],
            "uid": "24D3ZEUgoswql6QhUIKr4Eh5bYu",
            "user": "anders.roxell@linaro.org",
            "user_agent": "tuxsuite/0.42.3",
            "waiting_for": "24D3Z8MNcCUy12iCDCdwMG4E3DG"
        },
        "24D3ZEWahxZg2pMw50y0fSazg1O": {
            "ap_romfw": null,
            "boot_args": null,
            "device": "qemu-arm64",
            "finished_time": null,
            "fip": null,
            "kernel": null,
            "mcp_fw": null,
            "mcp_romfw": null,
            "modules": null,
            "parameters": [],
            "plan": "24D3Yyw67BIzlvfe46068FsTl1l",
            "project": "linaro/anders",
            "provisioning_time": null,
            "result": "unknown",
            "results": {},
            "retries": 0,
            "retries_messages": [],
            "rootfs": null,
            "running_time": null,
            "scp_fw": null,
            "scp_romfw": null,
            "state": "waiting",
            "tests": [
                "boot"
            ],
            "uid": "24D3ZEWahxZg2pMw50y0fSazg1O",
            "user": "anders.roxell@linaro.org",
            "user_agent": "tuxsuite/0.42.3",
            "waiting_for": "24D3ZAw2X0jjHPxa2W8EZ88dvcY"
        },
        "24D3ZF6RtBphxDAAkk01nY2TLSV": {
            "ap_romfw": null,
            "boot_args": null,
            "device": "qemu-arm64",
            "finished_time": null,
            "fip": null,
            "kernel": null,
            "mcp_fw": null,
            "mcp_romfw": null,
            "modules": null,
            "parameters": [],
            "plan": "24D3Yyw67BIzlvfe46068FsTl1l",
            "project": "linaro/anders",
            "provisioning_time": null,
            "result": "unknown",
            "results": {},
            "retries": 0,
            "retries_messages": [],
            "rootfs": null,
            "running_time": null,
            "scp_fw": null,
            "scp_romfw": null,
            "state": "waiting",
            "tests": [
                "boot"
            ],
            "uid": "24D3ZF6RtBphxDAAkk01nY2TLSV",
            "user": "anders.roxell@linaro.org",
            "user_agent": "tuxsuite/0.42.3",
            "waiting_for": "24D3Z9lxQFiFGPJ9qQxsbYjhB4y"
        },
        "24D3ZF76JuN5GTZJsnBN9az1UZH": {
            "ap_romfw": null,
            "boot_args": null,
            "device": "qemu-arm64",
            "finished_time": null,
            "fip": null,
            "kernel": null,
            "mcp_fw": null,
            "mcp_romfw": null,
            "modules": null,
            "parameters": [],
            "plan": "24D3Yyw67BIzlvfe46068FsTl1l",
            "project": "linaro/anders",
            "provisioning_time": null,
            "result": "unknown",
            "results": {},
            "retries": 0,
            "retries_messages": [],
            "rootfs": null,
            "running_time": null,
            "scp_fw": null,
            "scp_romfw": null,
            "state": "waiting",
            "tests": [
                "boot"
            ],
            "uid": "24D3ZF76JuN5GTZJsnBN9az1UZH",
            "user": "anders.roxell@linaro.org",
            "user_agent": "tuxsuite/0.42.3",
            "waiting_for": "24D3Z9tTfRk1m8eroeO4ktF5PSN"
        },
        "24D3ZFNapqiQBgz6K1Aq9ZKQonJ": {
            "ap_romfw": null,
            "boot_args": null,
            "device": "qemu-arm64",
            "finished_time": null,
            "fip": null,
            "kernel": null,
            "mcp_fw": null,
            "mcp_romfw": null,
            "modules": null,
            "parameters": [],
            "plan": "24D3Yyw67BIzlvfe46068FsTl1l",
            "project": "linaro/anders",
            "provisioning_time": null,
            "result": "unknown",
            "results": {},
            "retries": 0,
            "retries_messages": [],
            "rootfs": null,
            "running_time": null,
            "scp_fw": null,
            "scp_romfw": null,
            "state": "waiting",
            "tests": [
                "boot"
            ],
            "uid": "24D3ZFNapqiQBgz6K1Aq9ZKQonJ",
            "user": "anders.roxell@linaro.org",
            "user_agent": "tuxsuite/0.42.3",
            "waiting_for": "24D3Z8GhV9y2IrSWgZiLW6xZ2eX"
        },
        "24D3ZFuCZ3aaNmwYH6DHekrUoFL": {
            "ap_romfw": null,
            "boot_args": null,
            "device": "qemu-arm64",
            "finished_time": null,
            "fip": null,
            "kernel": null,
            "mcp_fw": null,
            "mcp_romfw": null,
            "modules": null,
            "parameters": [],
            "plan": "24D3Yyw67BIzlvfe46068FsTl1l",
            "project": "linaro/anders",
            "provisioning_time": null,
            "result": "unknown",
            "results": {},
            "retries": 0,
            "retries_messages": [],
            "rootfs": null,
            "running_time": null,
            "scp_fw": null,
            "scp_romfw": null,
            "state": "waiting",
            "tests": [
                "boot"
            ],
            "uid": "24D3ZFuCZ3aaNmwYH6DHekrUoFL",
            "user": "anders.roxell@linaro.org",
            "user_agent": "tuxsuite/0.42.3",
            "waiting_for": "24D3Z9qcvnxeIXy4JxJEbHQG90L"
        },
        "24D3ZGJSXlubx63cldPRdMghusf": {
            "ap_romfw": null,
            "boot_args": null,
            "device": "qemu-arm64",
            "finished_time": null,
            "fip": null,
            "kernel": null,
            "mcp_fw": null,
            "mcp_romfw": null,
            "modules": null,
            "parameters": [],
            "plan": "24D3Yyw67BIzlvfe46068FsTl1l",
            "project": "linaro/anders",
            "provisioning_time": null,
            "result": "unknown",
            "results": {},
            "retries": 0,
            "retries_messages": [],
            "rootfs": null,
            "running_time": null,
            "scp_fw": null,
            "scp_romfw": null,
            "state": "waiting",
            "tests": [
                "boot"
            ],
            "uid": "24D3ZGJSXlubx63cldPRdMghusf",
            "user": "anders.roxell@linaro.org",
            "user_agent": "tuxsuite/0.42.3",
            "waiting_for": "24D3Z6YnCEWtmtfyr5JuR6PkiYZ"
        },
        "24D3ZGosuxsTh0IYZ67SsF2doJB": {
            "ap_romfw": null,
            "boot_args": null,
            "device": "qemu-arm64",
            "finished_time": null,
            "fip": null,
            "kernel": null,
            "mcp_fw": null,
            "mcp_romfw": null,
            "modules": null,
            "parameters": [],
            "plan": "24D3Yyw67BIzlvfe46068FsTl1l",
            "project": "linaro/anders",
            "provisioning_time": null,
            "result": "unknown",
            "results": {},
            "retries": 0,
            "retries_messages": [],
            "rootfs": null,
            "running_time": null,
            "scp_fw": null,
            "scp_romfw": null,
            "state": "waiting",
            "tests": [
                "boot"
            ],
            "uid": "24D3ZGosuxsTh0IYZ67SsF2doJB",
            "user": "anders.roxell@linaro.org",
            "user_agent": "tuxsuite/0.42.3",
            "waiting_for": "24D3Z7VbZ5jK71X5FVbXGahaq9f"
        },
        "24D3ZGtYtofZQlPWzxfWUWBQLLx": {
            "ap_romfw": null,
            "boot_args": null,
            "device": "qemu-arm64",
            "finished_time": null,
            "fip": null,
            "kernel": null,
            "mcp_fw": null,
            "mcp_romfw": null,
            "modules": null,
            "parameters": [],
            "plan": "24D3Yyw67BIzlvfe46068FsTl1l",
            "project": "linaro/anders",
            "provisioning_time": null,
            "result": "unknown",
            "results": {},
            "retries": 0,
            "retries_messages": [],
            "rootfs": null,
            "running_time": null,
            "scp_fw": null,
            "scp_romfw": null,
            "state": "waiting",
            "tests": [
                "boot"
            ],
            "uid": "24D3ZGtYtofZQlPWzxfWUWBQLLx",
            "user": "anders.roxell@linaro.org",
            "user_agent": "tuxsuite/0.42.3",
            "waiting_for": "24D3Z8o2WT59rTcO1oOYBydJ1PH"
        },
        "24D3ZH9xNwMPFqIuOyTbIgr1V6m": {
            "ap_romfw": null,
            "boot_args": null,
            "device": "qemu-arm64",
            "finished_time": null,
            "fip": null,
            "kernel": null,
            "mcp_fw": null,
            "mcp_romfw": null,
            "modules": null,
            "parameters": [],
            "plan": "24D3Yyw67BIzlvfe46068FsTl1l",
            "project": "linaro/anders",
            "provisioning_time": null,
            "result": "unknown",
            "results": {},
            "retries": 0,
            "retries_messages": [],
            "rootfs": null,
            "running_time": null,
            "scp_fw": null,
            "scp_romfw": null,
            "state": "waiting",
            "tests": [
                "boot"
            ],
            "uid": "24D3ZH9xNwMPFqIuOyTbIgr1V6m",
            "user": "anders.roxell@linaro.org",
            "user_agent": "tuxsuite/0.42.3",
            "waiting_for": "24D3ZBhIElWvgtCQjk7Qr8R36ZQ"
        },
        "24D3ZHknFSporI2luZxEZHKEjSP": {
            "ap_romfw": null,
            "boot_args": null,
            "device": "qemu-arm64",
            "finished_time": null,
            "fip": null,
            "kernel": null,
            "mcp_fw": null,
            "mcp_romfw": null,
            "modules": null,
            "parameters": [],
            "plan": "24D3Yyw67BIzlvfe46068FsTl1l",
            "project": "linaro/anders",
            "provisioning_time": null,
            "result": "unknown",
            "results": {},
            "retries": 0,
            "retries_messages": [],
            "rootfs": null,
            "running_time": null,
            "scp_fw": null,
            "scp_romfw": null,
            "state": "waiting",
            "tests": [
                "boot"
            ],
            "uid": "24D3ZHknFSporI2luZxEZHKEjSP",
            "user": "anders.roxell@linaro.org",
            "user_agent": "tuxsuite/0.42.3",
            "waiting_for": "24D3Z5z2AOjxNMKYB13169hiU6x"
        },
        "24D3ZIUrXT5HxSgvWi4SZQQ4d9x": {
            "ap_romfw": null,
            "boot_args": null,
            "device": "qemu-arm64",
            "finished_time": null,
            "fip": null,
            "kernel": null,
            "mcp_fw": null,
            "mcp_romfw": null,
            "modules": null,
            "parameters": [],
            "plan": "24D3Yyw67BIzlvfe46068FsTl1l",
            "project": "linaro/anders",
            "provisioning_time": null,
            "result": "unknown",
            "results": {},
            "retries": 0,
            "retries_messages": [],
            "rootfs": null,
            "running_time": null,
            "scp_fw": null,
            "scp_romfw": null,
            "state": "waiting",
            "tests": [
                "boot"
            ],
            "uid": "24D3ZIUrXT5HxSgvWi4SZQQ4d9x",
            "user": "anders.roxell@linaro.org",
            "user_agent": "tuxsuite/0.42.3",
            "waiting_for": "24D3Z5iSFAcTIFiwBtiWZo8OGRJ"
        },
        "24D3ZJOzwzPUbtuerrJ2Q9jguPE": {
            "ap_romfw": null,
            "boot_args": null,
            "device": "qemu-arm64",
            "finished_time": null,
            "fip": null,
            "kernel": null,
            "mcp_fw": null,
            "mcp_romfw": null,
            "modules": null,
            "parameters": [],
            "plan": "24D3Yyw67BIzlvfe46068FsTl1l",
            "project": "linaro/anders",
            "provisioning_time": null,
            "result": "unknown",
            "results": {},
            "retries": 0,
            "retries_messages": [],
            "rootfs": null,
            "running_time": null,
            "scp_fw": null,
            "scp_romfw": null,
            "state": "waiting",
            "tests": [
                "boot"
            ],
            "uid": "24D3ZJOzwzPUbtuerrJ2Q9jguPE",
            "user": "anders.roxell@linaro.org",
            "user_agent": "tuxsuite/0.42.3",
            "waiting_for": "24D3ZAqRHdteN1OKQyL25gpA5fx"
        },
        "24D3ZKYNgHr0bVrjaSVd2orVcGA": {
            "ap_romfw": null,
            "boot_args": null,
            "device": "qemu-arm64",
            "finished_time": null,
            "fip": null,
            "kernel": null,
            "mcp_fw": null,
            "mcp_romfw": null,
            "modules": null,
            "parameters": [],
            "plan": "24D3Yyw67BIzlvfe46068FsTl1l",
            "project": "linaro/anders",
            "provisioning_time": null,
            "result": "unknown",
            "results": {},
            "retries": 0,
            "retries_messages": [],
            "rootfs": null,
            "running_time": null,
            "scp_fw": null,
            "scp_romfw": null,
            "state": "waiting",
            "tests": [
                "boot"
            ],
            "uid": "24D3ZKYNgHr0bVrjaSVd2orVcGA",
            "user": "anders.roxell@linaro.org",
            "user_agent": "tuxsuite/0.42.3",
            "waiting_for": "24D3Z7GyLylTddEHvszZy1y1rpV"
        },
        "24D3ZKbVnLsKYrdxHXi2E4EfNso": {
            "ap_romfw": null,
            "boot_args": null,
            "device": "qemu-arm64",
            "finished_time": null,
            "fip": null,
            "kernel": null,
            "mcp_fw": null,
            "mcp_romfw": null,
            "modules": null,
            "parameters": [],
            "plan": "24D3Yyw67BIzlvfe46068FsTl1l",
            "project": "linaro/anders",
            "provisioning_time": null,
            "result": "unknown",
            "results": {},
            "retries": 0,
            "retries_messages": [],
            "rootfs": null,
            "running_time": null,
            "scp_fw": null,
            "scp_romfw": null,
            "state": "waiting",
            "tests": [
                "boot"
            ],
            "uid": "24D3ZKbVnLsKYrdxHXi2E4EfNso",
            "user": "anders.roxell@linaro.org",
            "user_agent": "tuxsuite/0.42.3",
            "waiting_for": "24D3ZAYIyRbPq70qt2qtmBygNJG"
        },
        "24D3ZKjRPYpOhM3IXJNjhmonp7O": {
            "ap_romfw": null,
            "boot_args": null,
            "device": "qemu-arm64",
            "finished_time": null,
            "fip": null,
            "kernel": null,
            "mcp_fw": null,
            "mcp_romfw": null,
            "modules": null,
            "parameters": [],
            "plan": "24D3Yyw67BIzlvfe46068FsTl1l",
            "project": "linaro/anders",
            "provisioning_time": null,
            "result": "unknown",
            "results": {},
            "retries": 0,
            "retries_messages": [],
            "rootfs": null,
            "running_time": null,
            "scp_fw": null,
            "scp_romfw": null,
            "state": "waiting",
            "tests": [
                "boot"
            ],
            "uid": "24D3ZKjRPYpOhM3IXJNjhmonp7O",
            "user": "anders.roxell@linaro.org",
            "user_agent": "tuxsuite/0.42.3",
            "waiting_for": "24D3ZDDECPsV1YKVQy8vA1G7CLA"
        },
        "24D3ZKtkqIGljuCfqS2yYFVxJbl": {
            "ap_romfw": null,
            "boot_args": null,
            "device": "qemu-arm64",
            "finished_time": null,
            "fip": null,
            "kernel": null,
            "mcp_fw": null,
            "mcp_romfw": null,
            "modules": null,
            "parameters": [],
            "plan": "24D3Yyw67BIzlvfe46068FsTl1l",
            "project": "linaro/anders",
            "provisioning_time": null,
            "result": "unknown",
            "results": {},
            "retries": 0,
            "retries_messages": [],
            "rootfs": null,
            "running_time": null,
            "scp_fw": null,
            "scp_romfw": null,
            "state": "waiting",
            "tests": [
                "boot"
            ],
            "uid": "24D3ZKtkqIGljuCfqS2yYFVxJbl",
            "user": "anders.roxell@linaro.org",
            "user_agent": "tuxsuite/0.42.3",
            "waiting_for": "24D3Z8itEmD1RylwWG8sql7548s"
        },
        "24D3ZNEmOmOFSi3dKcVwGLFtDu0": {
            "ap_romfw": null,
            "boot_args": null,
            "device": "qemu-arm64",
            "finished_time": null,
            "fip": null,
            "kernel": null,
            "mcp_fw": null,
            "mcp_romfw": null,
            "modules": null,
            "parameters": [],
            "plan": "24D3Yyw67BIzlvfe46068FsTl1l",
            "project": "linaro/anders",
            "provisioning_time": null,
            "result": "unknown",
            "results": {},
            "retries": 0,
            "retries_messages": [],
            "rootfs": null,
            "running_time": null,
            "scp_fw": null,
            "scp_romfw": null,
            "state": "waiting",
            "tests": [
                "boot"
            ],
            "uid": "24D3ZNEmOmOFSi3dKcVwGLFtDu0",
            "user": "anders.roxell@linaro.org",
            "user_agent": "tuxsuite/0.42.3",
            "waiting_for": "24D3Z6XWHO0jsetJBT8xENrzCsy"
        }
    }
}