{
    "builds": {
        "24D3ZyLLvZ6VDlWPzbhks0Z61Q8": {
            "build_name": "",
            "client_token": "a65c7740-692c-496b-aaef-3121b5e4de00",
            "download_url": "https://builds.tuxbuild.com/24D3ZyLLvZ6VDlWPzbhks0Z61Q8/",
            "environment": {},
            "errors_count": 0,
            "finished_time": null,
            "git_ref": "v5.15-rc2",
            "git_repo": "https://git.kernel.org/pub/scm/linux/kernel/git/torvalds/linux.git",
            "git_sha": "e4e737bb5c170df6135a127739a9e6148ee3da82",
            "image_sha": "",
            "kconfig": [
                "tinyconfig"
            ],
            "kernel_image": "",
            "kernel_patch_file": "",
            "make_variables": {},
            "no_cache": false,
            "plan": "24D3Zt0N1yrVdZ3GoMD6JygUN6v",
            "project": "linaro/anders",
            "provisioning_time": "2022-01-25T22:56:29.453548",
            "result": "unknown",
            "running_time": null,
            "state": "provisioning",
            "target_arch": "arm64",
            "targets": [],
            "toolchain": "gcc-10",
            "uid": "24D3ZyLLvZ6VDlWPzbhks0Z61Q8",
            "user": "anders.roxell@linaro.org",
            "user_agent": "tuxsuite/0.42.3",
            "waited_by": [],
            "warnings_count": 0
        },
        "24D3ZyWOVbNFCxLBLjKqc2nBSqs": {
            "build_name": "",
            "client_token": "aa1b186e-4ff7-4521-94ce-ed08665547a9",
            "download_url": "https://builds.tuxbuild.com/24D3ZyWOVbNFCxLBLjKqc2nBSqs/",
            "environment": {},
            "errors_count": 0,
            "finished_time": null,
            "git_ref": "v5.15-rc2",
            "git_repo": "https://git.kernel.org/pub/scm/linux/kernel/git/torvalds/linux.git",
            "git_sha": "e4e737bb5c170df6135a127739a9e6148ee3da82",
            "image_sha": "",
            "kconfig": [
                "defconfig"
            ],
            "kernel_image": "",
            "kernel_patch_file": "",
            "make_variables": {},
            "no_cache": false,
            "plan": "24D3Zt0N1yrVdZ3GoMD6JygUN6v",
            "project": "linaro/anders",
            "provisioning_time": "2022-01-25T22:56:29.730321",
            "result": "unknown",
            "running_time": null,
            "state": "provisioning",
            "target_arch": "arm64",
            "targets": [],
            "toolchain": "gcc-11",
            "uid": "24D3ZyWOVbNFCxLBLjKqc2nBSqs",
            "user": "anders.roxell@linaro.org",
            "user_agent": "tuxsuite/0.42.3",
            "waited_by": [],
            "warnings_count": 0
        },
        "24D3ZyXLxSUfh2wmfJyJVQ1l7FB": {
            "build_name": "",
            "client_token": "4b609045-1828-45f2-a685-7c9b76020982",
            "download_url": "https://builds.tuxbuild.com/24D3ZyXLxSUfh2wmfJyJVQ1l7FB/",
            "environment": {},
            "errors_count": 0,
            "finished_time": null,
            "git_ref": "v5.15-rc2",
            "git_repo": "https://git.kernel.org/pub/scm/linux/kernel/git/torvalds/linux.git",
            "git_sha": "e4e737bb5c170df6135a127739a9e6148ee3da82",
            "image_sha": "",
            "kconfig": [
                "defconfig"
            ],
            "kernel_image": "",
            "kernel_patch_file": "",
            "make_variables": {
                "LLVM": "1",
                "LLVM_IAS": "1"
            },
            "no_cache": false,
            "plan": "24D3Zt0N1yrVdZ3GoMD6JygUN6v",
            "project": "linaro/anders",
            "provisioning_time": "2022-01-25T22:56:29.836157",
            "result": "unknown",
            "running_time": null,
            "state": "provisioning",
            "target_arch": "arm64",
            "targets": [],
            "toolchain": "clang-13",
            "uid": "24D3ZyXLxSUfh2wmfJyJVQ1l7FB",
            "user": "anders.roxell@linaro.org",
            "user_agent": "tuxsuite/0.42.3",
            "waited_by": [],
            "warnings_count": 0
        },
        "24D3ZyaJkteK6LmWttBXR5arQ7X": {
            "build_name": "",
            "client_token": "bfe07279-2fbe-4518-8b65-f6ad3fd01ddb",
            "download_url": "https://builds.tuxbuild.com/24D3ZyaJkteK6LmWttBXR5arQ7X/",
            "environment": {},
            "errors_count": 0,
            "finished_time": null,
            "git_ref": "v5.15-rc2",
            "git_repo": "https://git.kernel.org/pub/scm/linux/kernel/git/torvalds/linux.git",
            "git_sha": "e4e737bb5c170df6135a127739a9e6148ee3da82",
            "image_sha": "",
            "kconfig": [
                "defconfig"
            ],
            "kernel_image": "",
            "kernel_patch_file": "",
            "make_variables": {},
            "no_cache": false,
            "plan": "24D3Zt0N1yrVdZ3GoMD6JygUN6v",
            "project": "linaro/anders",
            "provisioning_time": "2022-01-25T22:56:29.644650",
            "result": "unknown",
            "running_time": null,
            "state": "provisioning",
            "target_arch": "arm64",
            "targets": [],
            "toolchain": "gcc-11",
            "uid": "24D3ZyaJkteK6LmWttBXR5arQ7X",
            "user": "anders.roxell@linaro.org",
            "user_agent": "tuxsuite/0.42.3",
            "waited_by": [],
            "warnings_count": 0
        },
        "24D3ZycdSG4arb6qKMDj9s8kUW8": {
            "build_name": "",
            "client_token": "eb9b5847-0ae7-40d5-a770-2782f5578448",
            "download_url": "https://builds.tuxbuild.com/24D3ZycdSG4arb6qKMDj9s8kUW8/",
            "environment": {},
            "errors_count": 0,
            "finished_time": null,
            "git_ref": "v5.15-rc2",
            "git_repo": "https://git.kernel.org/pub/scm/linux/kernel/git/torvalds/linux.git",
            "git_sha": "e4e737bb5c170df6135a127739a9e6148ee3da82",
            "image_sha": "",
            "kconfig": [
                "tinyconfig"
            ],
            "kernel_image": "",
            "kernel_patch_file": "",
            "make_variables": {},
            "no_cache": false,
            "plan": "24D3Zt0N1yrVdZ3GoMD6JygUN6v",
            "project": "linaro/anders",
            "provisioning_time": "2022-01-25T22:56:29.150652",
            "result": "unknown",
            "running_time": null,
            "state": "provisioning",
            "target_arch": "arm64",
            "targets": [],
            "toolchain": "gcc-10",
            "uid": "24D3ZycdSG4arb6qKMDj9s8kUW8",
            "user": "anders.roxell@linaro.org",
            "user_agent": "tuxsuite/0.42.3",
            "waited_by": [],
            "warnings_count": 0
        },
        "24D3ZyirGC7hYdKUJaQaIZs7ONd": {
            "build_name": "",
            "client_token": "1ad9fdac-4c9b-4dcd-8d58-f111a4df3ffb",
            "download_url": "https://builds.tuxbuild.com/24D3ZyirGC7hYdKUJaQaIZs7ONd/",
            "environment": {},
            "errors_count": 0,
            "finished_time": null,
            "git_ref": "v5.15-rc2",
            "git_repo": "https://git.kernel.org/pub/scm/linux/kernel/git/torvalds/linux.git",
            "git_sha": "e4e737bb5c170df6135a127739a9e6148ee3da82",
            "image_sha": "",
            "kconfig": [
                "defconfig"
            ],
            "kernel_image": "",
            "kernel_patch_file": "",
            "make_variables": {
                "LLVM": "1",
                "LLVM_IAS": "1"
            },
            "no_cache": false,
            "plan": "24D3Zt0N1yrVdZ3GoMD6JygUN6v",
            "project": "linaro/anders",
            "provisioning_time": "2022-01-25T22:56:29.688984",
            "result": "unknown",
            "running_time": null,
            "state": "provisioning",
            "target_arch": "arm64",
            "targets": [],
            "toolchain": "clang-nightly",
            "uid": "24D3ZyirGC7hYdKUJaQaIZs7ONd",
            "user": "anders.roxell@linaro.org",
            "user_agent": "tuxsuite/0.42.3",
            "waited_by": [],
            "warnings_count": 0
        },
        "24D3Zz2OP6SlkpmxBTEYt8B1HMm": {
            "build_name": "",
            "client_token": "097765ea-5049-47c7-a362-ebe12613d610",
            "download_url": "https://builds.tuxbuild.com/24D3Zz2OP6SlkpmxBTEYt8B1HMm/",
            "environment": {},
            "errors_count": 0,
            "finished_time": null,
            "git_ref": "v5.15-rc2",
            "git_repo": "https://git.kernel.org/pub/scm/linux/kernel/git/torvalds/linux.git",
            "git_sha": "e4e737bb5c170df6135a127739a9e6148ee3da82",
            "image_sha": "",
            "kconfig": [
                "tinyconfig"
            ],
            "kernel_image": "",
            "kernel_patch_file": "",
            "make_variables": {},
            "no_cache": false,
            "plan": "24D3Zt0N1yrVdZ3GoMD6JygUN6v",
            "project": "linaro/anders",
            "provisioning_time": "2022-01-25T22:56:29.320013",
            "result": "unknown",
            "running_time": null,
            "state": "provisioning",
            "target_arch": "arm64",
            "targets": [],
            "toolchain": "gcc-10",
            "uid": "24D3Zz2OP6SlkpmxBTEYt8B1HMm",
            "user": "anders.roxell@linaro.org",
            "user_agent": "tuxsuite/0.42.3",
            "waited_by": [],
            "warnings_count": 0
        },
        "24D3ZzdLrcmwCn6ajDBipg0nWKU": {
            "build_name": "",
            "client_token": "5d6f7bc9-6ec3-4af7-b091-2f72a9185157",
            "download_url": "https://builds.tuxbuild.com/24D3ZzdLrcmwCn6ajDBipg0nWKU/",
            "environment": {},
            "errors_count": 0,
            "finished_time": null,
            "git_ref": "v5.15-rc2",
            "git_repo": "https://git.kernel.org/pub/scm/linux/kernel/git/torvalds/linux.git",
            "git_sha": "e4e737bb5c170df6135a127739a9e6148ee3da82",
            "image_sha": "",
            "kconfig": [
                "defconfig"
            ],
            "kernel_image": "",
            "kernel_patch_file": "",
            "make_variables": {},
            "no_cache": false,
            "plan": "24D3Zt0N1yrVdZ3GoMD6JygUN6v",
            "project": "linaro/anders",
            "provisioning_time": "2022-01-25T22:56:29.879597",
            "result": "unknown",
            "running_time": null,
            "state": "provisioning",
            "target_arch": "arm64",
            "targets": [],
            "toolchain": "gcc-10",
            "uid": "24D3ZzdLrcmwCn6ajDBipg0nWKU",
            "user": "anders.roxell@linaro.org",
            "user_agent": "tuxsuite/0.42.3",
            "waited_by": [],
            "warnings_count": 0
        },
        "24D3Zze4ULyC5WZwTgP8Ne2Vpcx": {
            "build_name": "",
            "client_token": "240a3ea1-4cf5-4cfa-9198-b86eaf574328",
            "download_url": "https://builds.tuxbuild.com/24D3Zze4ULyC5WZwTgP8Ne2Vpcx/",
            "environment": {},
            "errors_count": 0,
            "finished_time": null,
            "git_ref": "v5.15-rc2",
            "git_repo": "https://git.kernel.org/pub/scm/linux/kernel/git/torvalds/linux.git",
            "git_sha": "e4e737bb5c170df6135a127739a9e6148ee3da82",
            "image_sha": "",
            "kconfig": [
                "tinyconfig"
            ],
            "kernel_image": "",
            "kernel_patch_file": "",
            "make_variables": {},
            "no_cache": false,
            "plan": "24D3Zt0N1yrVdZ3GoMD6JygUN6v",
            "project": "linaro/anders",
            "provisioning_time": "2022-01-25T22:56:29.087787",
            "result": "unknown",
            "running_time": null,
            "state": "provisioning",
            "target_arch": "arm64",
            "targets": [],
            "toolchain": "gcc-11",
            "uid": "24D3Zze4ULyC5WZwTgP8Ne2Vpcx",
            "user": "anders.roxell@linaro.org",
            "user_agent": "tuxsuite/0.42.3",
            "waited_by": [],
            "warnings_count": 0
        },
        "24D3ZzjJuPXGtHdnYSU1DUb6G8Z": {
            "build_name": "",
            "client_token": "c6abd099-db67-42fa-8c1b-e82d4c62d800",
            "download_url": "https://builds.tuxbuild.com/24D3ZzjJuPXGtHdnYSU1DUb6G8Z/",
            "environment": {},
            "errors_count": 0,
            "finished_time": null,
            "git_ref": "v5.15-rc2",
            "git_repo": "https://git.kernel.org/pub/scm/linux/kernel/git/torvalds/linux.git",
            "git_sha": "e4e737bb5c170df6135a127739a9e6148ee3da82",
            "image_sha": "",
            "kconfig": [
                "defconfig"
            ],
            "kernel_image": "",
            "kernel_patch_file": "",
            "make_variables": {
                "LLVM": "1",
                "LLVM_IAS": "1"
            },
            "no_cache": false,
            "plan": "24D3Zt0N1yrVdZ3GoMD6JygUN6v",
            "project": "linaro/anders",
            "provisioning_time": "2022-01-25T22:56:29.751088",
            "result": "unknown",
            "running_time": null,
            "state": "provisioning",
            "target_arch": "arm64",
            "targets": [],
            "toolchain": "clang-13",
            "uid": "24D3ZzjJuPXGtHdnYSU1DUb6G8Z",
            "user": "anders.roxell@linaro.org",
            "user_agent": "tuxsuite/0.42.3",
            "waited_by": [],
            "warnings_count": 0
        },
        "24D3ZzplZIRaRZE94lVhGDv3dUe": {
            "build_name": "",
            "client_token": "6a9f4a72-862b-4646-b458-c0efa234b947",
            "download_url": "https://builds.tuxbuild.com/24D3ZzplZIRaRZE94lVhGDv3dUe/",
            "environment": {},
            "errors_count": 0,
            "finished_time": null,
            "git_ref": "v5.15-rc2",
            "git_repo": "https://git.kernel.org/pub/scm/linux/kernel/git/torvalds/linux.git",
            "git_sha": "e4e737bb5c170df6135a127739a9e6148ee3da82",
            "image_sha": "",
            "kconfig": [
                "tinyconfig"
            ],
            "kernel_image": "",
            "kernel_patch_file": "",
            "make_variables": {
                "LLVM": "1",
                "LLVM_IAS": "1"
            },
            "no_cache": false,
            "plan": "24D3Zt0N1yrVdZ3GoMD6JygUN6v",
            "project": "linaro/anders",
            "provisioning_time": "2022-01-25T22:56:29.278516",
            "result": "unknown",
            "running_time": null,
            "state": "provisioning",
            "target_arch": "arm64",
            "targets": [],
            "toolchain": "clang-13",
            "uid": "24D3ZzplZIRaRZE94lVhGDv3dUe",
            "user": "anders.roxell@linaro.org",
            "user_agent": "tuxsuite/0.42.3",
            "waited_by": [],
            "warnings_count": 0
        },
        "24D3Zzzemgv4ul9ZArU96UvlZ4w": {
            "build_name": "",
            "client_token": "b40e0b9b-61d4-4506-83b9-9f1a79d4d633",
            "download_url": "https://builds.tuxbuild.com/24D3Zzzemgv4ul9ZArU96UvlZ4w/",
            "environment": {},
            "errors_count": 0,
            "finished_time": null,
            "git_ref": "v5.15-rc2",
            "git_repo": "https://git.kernel.org/pub/scm/linux/kernel/git/torvalds/linux.git",
            "git_sha": "e4e737bb5c170df6135a127739a9e6148ee3da82",
            "image_sha": "",
            "kconfig": [
                "tinyconfig"
            ],
            "kernel_image": "",
            "kernel_patch_file": "",
            "make_variables": {
                "LLVM": "1",
                "LLVM_IAS": "1"
            },
            "no_cache": false,
            "plan": "24D3Zt0N1yrVdZ3GoMD6JygUN6v",
            "project": "linaro/anders",
            "provisioning_time": "2022-01-25T22:56:29.411726",
            "result": "unknown",
            "running_time": null,
            "state": "provisioning",
            "target_arch": "arm64",
            "targets": [],
            "toolchain": "clang-13",
            "uid": "24D3Zzzemgv4ul9ZArU96UvlZ4w",
            "user": "anders.roxell@linaro.org",
            "user_agent": "tuxsuite/0.42.3",
            "waited_by": [],
            "warnings_count": 0
        },
        "24D3a1AJL3DbjWjes8RbVGnSQtK": {
            "build_name": "",
            "client_token": "8bfff42b-6045-4940-b06d-0309f9184409",
            "download_url": "https://builds.tuxbuild.com/24D3a1AJL3DbjWjes8RbVGnSQtK/",
            "environment": {},
            "errors_count": 0,
            "finished_time": null,
            "git_ref": "v5.15-rc2",
            "git_repo": "https://git.kernel.org/pub/scm/linux/kernel/git/torvalds/linux.git",
            "git_sha": "e4e737bb5c170df6135a127739a9e6148ee3da82",
            "image_sha": "",
            "kconfig": [
                "defconfig"
            ],
            "kernel_image": "",
            "kernel_patch_file": "",
            "make_variables": {},
            "no_cache": false,
            "plan": "24D3Zt0N1yrVdZ3GoMD6JygUN6v",
            "project": "linaro/anders",
            "provisioning_time": "2022-01-25T22:56:29.794596",
            "result": "unknown",
            "running_time": null,
            "state": "provisioning",
            "target_arch": "arm64",
            "targets": [],
            "toolchain": "gcc-10",
            "uid": "24D3a1AJL3DbjWjes8RbVGnSQtK",
            "user": "anders.roxell@linaro.org",
            "user_agent": "tuxsuite/0.42.3",
            "waited_by": [],
            "warnings_count": 0
        },
        "24D3a1BzTlh9SmfyL2P0CBBfgeN": {
            "build_name": "",
            "client_token": "e8814547-3254-4af4-9502-e2250b00b48b",
            "download_url": "https://builds.tuxbuild.com/24D3a1BzTlh9SmfyL2P0CBBfgeN/",
            "environment": {},
            "errors_count": 0,
            "finished_time": null,
            "git_ref": "v5.15-rc2",
            "git_repo": "https://git.kernel.org/pub/scm/linux/kernel/git/torvalds/linux.git",
            "git_sha": "e4e737bb5c170df6135a127739a9e6148ee3da82",
            "image_sha": "",
            "kconfig": [
                "defconfig"
            ],
            "kernel_image": "",
            "kernel_patch_file": "",
            "make_variables": {
                "LLVM": "1",
                "LLVM_IAS": "1"
            },
            "no_cache": false,
            "plan": "24D3Zt0N1yrVdZ3GoMD6JygUN6v",
            "project": "linaro/anders",
            "provisioning_time": "2022-01-25T22:56:29.602942",
            "result": "unknown",
            "running_time": null,
            "state": "provisioning",
            "target_arch": "arm64",
            "targets": [],
            "toolchain": "clang-nightly",
            "uid": "24D3a1BzTlh9SmfyL2P0CBBfgeN",
            "user": "anders.roxell@linaro.org",
            "user_agent": "tuxsuite/0.42.3",
            "waited_by": [],
            "warnings_count": 0
        },
        "24D3a1JVbpChpw2kiKYiXLR4Cmt": {
            "build_name": "",
            "client_token": "86b20a63-6a8e-454b-aa87-f7fd16bd5d73",
            "download_url": "https://builds.tuxbuild.com/24D3a1JVbpChpw2kiKYiXLR4Cmt/",
            "environment": {},
            "errors_count": 0,
            "finished_time": null,
            "git_ref": "v5.15-rc2",
            "git_repo": "https://git.kernel.org/pub/scm/linux/kernel/git/torvalds/linux.git",
            "git_sha": "e4e737bb5c170df6135a127739a9e6148ee3da82",
            "image_sha": "",
            "kconfig": [
                "tinyconfig"
            ],
            "kernel_image": "",
            "kernel_patch_file": "",
            "make_variables": {
                "LLVM": "1",
                "LLVM_IAS": "1"
            },
            "no_cache": false,
            "plan": "24D3Zt0N1yrVdZ3GoMD6JygUN6v",
            "project": "linaro/anders",
            "provisioning_time": "2022-01-25T22:56:29.193876",
            "result": "unknown",
            "running_time": null,
            "state": "provisioning",
            "target_arch": "arm64",
            "targets": [],
            "toolchain": "clang-13",
            "uid": "24D3a1JVbpChpw2kiKYiXLR4Cmt",
            "user": "anders.roxell@linaro.org",
            "user_agent": "tuxsuite/0.42.3",
            "waited_by": [],
            "warnings_count": 0
        },
        "24D3a1XLmHadAAVbTsN5U9n1Ayv": {
            "build_name": "",
            "client_token": "269c5d98-77e5-4680-991a-01e9f33b1e0d",
            "download_url": "https://builds.tuxbuild.com/24D3a1XLmHadAAVbTsN5U9n1Ayv/",
            "environment": {},
            "errors_count": 0,
            "finished_time": null,
            "git_ref": "v5.15-rc2",
            "git_repo": "https://git.kernel.org/pub/scm/linux/kernel/git/torvalds/linux.git",
            "git_sha": "e4e737bb5c170df6135a127739a9e6148ee3da82",
            "image_sha": "",
            "kconfig": [
                "tinyconfig"
            ],
            "kernel_image": "",
            "kernel_patch_file": "",
            "make_variables": {
                "LLVM": "1",
                "LLVM_IAS": "1"
            },
            "no_cache": false,
            "plan": "24D3Zt0N1yrVdZ3GoMD6JygUN6v",
            "project": "linaro/anders",
            "provisioning_time": "2022-01-25T22:56:29.214433",
            "result": "unknown",
            "running_time": null,
            "state": "provisioning",
            "target_arch": "arm64",
            "targets": [],
            "toolchain": "clang-nightly",
            "uid": "24D3a1XLmHadAAVbTsN5U9n1Ayv",
            "user": "anders.roxell@linaro.org",
            "user_agent": "tuxsuite/0.42.3",
            "waited_by": [],
            "warnings_count": 0
        },
        "24D3a1uFiXrI9EkqFWZgFZFEiEb": {
            "build_name": "",
            "client_token": "5d04cf0f-165c-40a6-848e-7225928f7886",
            "download_url": "https://builds.tuxbuild.com/24D3a1uFiXrI9EkqFWZgFZFEiEb/",
            "environment": {},
            "errors_count": 0,
            "finished_time": null,
            "git_ref": "v5.15-rc2",
            "git_repo": "https://git.kernel.org/pub/scm/linux/kernel/git/torvalds/linux.git",
            "git_sha": "e4e737bb5c170df6135a127739a9e6148ee3da82",
            "image_sha": "",
            "kconfig": [
                "defconfig"
            ],
            "kernel_image": "",
            "kernel_patch_file": "",
            "make_variables": {
                "LLVM": "1",
                "LLVM_IAS": "1"
            },
            "no_cache": false,
            "plan": "24D3Zt0N1yrVdZ3GoMD6JygUN6v",
            "project": "linaro/anders",
            "provisioning_time": "2022-01-25T22:56:29.773930",
            "result": "unknown",
            "running_time": null,
            "state": "provisioning",
            "target_arch": "arm64",
            "targets": [],
            "toolchain": "clang-nightly",
            "uid": "24D3a1uFiXrI9EkqFWZgFZFEiEb",
            "user": "anders.roxell@linaro.org",
            "user_agent": "tuxsuite/0.42.3",
            "waited_by": [],
            "warnings_count": 0
        },
        "24D3a1y6I22Jj0F1VLhq4CaCQEH": {
            "build_name": "",
            "client_token": "934e1fdd-7dcd-443a-9d14-04b110e590d0",
            "download_url": "https://builds.tuxbuild.com/24D3a1y6I22Jj0F1VLhq4CaCQEH/",
            "environment": {},
            "errors_count": 0,
            "finished_time": null,
            "git_ref": "v5.15-rc2",
            "git_repo": "https://git.kernel.org/pub/scm/linux/kernel/git/torvalds/linux.git",
            "git_sha": "e4e737bb5c170df6135a127739a9e6148ee3da82",
            "image_sha": "",
            "kconfig": [
                "defconfig"
            ],
            "kernel_image": "",
            "kernel_patch_file": "",
            "make_variables": {
                "LLVM": "1",
                "LLVM_IAS": "1"
            },
            "no_cache": false,
            "plan": "24D3Zt0N1yrVdZ3GoMD6JygUN6v",
            "project": "linaro/anders",
            "provisioning_time": "2022-01-25T22:56:29.923485",
            "result": "unknown",
            "running_time": null,
            "state": "provisioning",
            "target_arch": "arm64",
            "targets": [],
            "toolchain": "clang-13",
            "uid": "24D3a1y6I22Jj0F1VLhq4CaCQEH",
            "user": "anders.roxell@linaro.org",
            "user_agent": "tuxsuite/0.42.3",
            "waited_by": [],
            "warnings_count": 0
        },
        "24D3a1z8ch0tKU3eUkNPBdVXLxY": {
            "build_name": "",
            "client_token": "b60fcdad-e298-46ca-91e3-d48197d3238a",
            "download_url": "https://builds.tuxbuild.com/24D3a1z8ch0tKU3eUkNPBdVXLxY/",
            "environment": {},
            "errors_count": 0,
            "finished_time": null,
            "git_ref": "v5.15-rc2",
            "git_repo": "https://git.kernel.org/pub/scm/linux/kernel/git/torvalds/linux.git",
            "git_sha": "e4e737bb5c170df6135a127739a9e6148ee3da82",
            "image_sha": "",
            "kconfig": [
                "tinyconfig"
            ],
            "kernel_image": "",
            "kernel_patch_file": "",
            "make_variables": {},
            "no_cache": false,
            "plan": "24D3Zt0N1yrVdZ3GoMD6JygUN6v",
            "project": "linaro/anders",
            "provisioning_time": "2022-01-25T22:56:29.474552",
            "result": "unknown",
            "running_time": null,
            "state": "provisioning",
            "target_arch": "arm64",
            "targets": [],
            "toolchain": "gcc-11",
            "uid": "24D3a1z8ch0tKU3eUkNPBdVXLxY",
            "user": "anders.roxell@linaro.org",
            "user_agent": "tuxsuite/0.42.3",
            "waited_by": [],
            "warnings_count": 0
        },
        "24D3a2FJpdBx0EZAtJyvOsmoqLi": {
            "build_name": "",
            "client_token": "f41d0c06-b22b-43be-9214-c4f036fd09b1",
            "download_url": "https://builds.tuxbuild.com/24D3a2FJpdBx0EZAtJyvOsmoqLi/",
            "environment": {},
            "errors_count": 0,
            "finished_time": null,
            "git_ref": "v5.15-rc2",
            "git_repo": "https://git.kernel.org/pub/scm/linux/kernel/git/torvalds/linux.git",
            "git_sha": "e4e737bb5c170df6135a127739a9e6148ee3da82",
            "image_sha": "",
            "kconfig": [
                "defconfig"
            ],
            "kernel_image": "",
            "kernel_patch_file": "",
            "make_variables": {},
            "no_cache": false,
            "plan": "24D3Zt0N1yrVdZ3GoMD6JygUN6v",
            "project": "linaro/anders",
            "provisioning_time": "2022-01-25T22:56:29.623734",
            "result": "unknown",
            "running_time": null,
            "state": "provisioning",
            "target_arch": "arm64",
            "targets": [],
            "toolchain": "gcc-10",
            "uid": "24D3a2FJpdBx0EZAtJyvOsmoqLi",
            "user": "anders.roxell@linaro.org",
            "user_agent": "tuxsuite/0.42.3",
            "waited_by": [],
            "warnings_count": 0
        },
        "24D3a2GkgCgd2CcPcSeNNQ95myx": {
            "build_name": "",
            "client_token": "b8fb1664-4f1a-4025-b1de-3cf817697b27",
            "download_url": "https://builds.tuxbuild.com/24D3a2GkgCgd2CcPcSeNNQ95myx/",
            "environment": {},
            "errors_count": 0,
            "finished_time": null,
            "git_ref": "v5.15-rc2",
            "git_repo": "https://git.kernel.org/pub/scm/linux/kernel/git/torvalds/linux.git",
            "git_sha": "e4e737bb5c170df6135a127739a9e6148ee3da82",
            "image_sha": "",
            "kconfig": [
                "tinyconfig"
            ],
            "kernel_image": "",
            "kernel_patch_file": "",
            "make_variables": {},
            "no_cache": false,
            "plan": "24D3Zt0N1yrVdZ3GoMD6JygUN6v",
            "project": "linaro/anders",
            "provisioning_time": "2022-01-25T22:56:29.173109",
            "result": "unknown",
            "running_time": null,
            "state": "provisioning",
            "target_arch": "arm64",
            "targets": [],
            "toolchain": "gcc-11",
            "uid": "24D3a2GkgCgd2CcPcSeNNQ95myx",
            "user": "anders.roxell@linaro.org",
            "user_agent": "tuxsuite/0.42.3",
            "waited_by": [],
            "warnings_count": 0
        },
        "24D3a30H55839uJiER9BqdZDyGz": {
            "build_name": "",
            "client_token": "e4a33f1e-dcb9-47cc-a5b4-247cac3a7574",
            "download_url": "https://builds.tuxbuild.com/24D3a30H55839uJiER9BqdZDyGz/",
            "environment": {},
            "errors_count": 0,
            "finished_time": null,
            "git_ref": "v5.15-rc2",
            "git_repo": "https://git.kernel.org/pub/scm/linux/kernel/git/torvalds/linux.git",
            "git_sha": "e4e737bb5c170df6135a127739a9e6148ee3da82",
            "image_sha": "",
            "kconfig": [
                "tinyconfig"
            ],
            "kernel_image": "",
            "kernel_patch_file": "",
            "make_variables": {},
            "no_cache": false,
            "plan": "24D3Zt0N1yrVdZ3GoMD6JygUN6v",
            "project": "linaro/anders",
            "provisioning_time": "2022-01-25T22:56:29.255817",
            "result": "unknown",
            "running_time": null,
            "state": "provisioning",
            "target_arch": "arm64",
            "targets": [],
            "toolchain": "gcc-11",
            "uid": "24D3a30H55839uJiER9BqdZDyGz",
            "user": "anders.roxell@linaro.org",
            "user_agent": "tuxsuite/0.42.3",
            "waited_by": [],
            "warnings_count": 0
        },
        "24D3a36gdsvuI6DcAx7g1UzCkJj": {
            "build_name": "",
            "client_token": "923b9e82-9632-42f2-98c8-c3df83c4a15a",
            "download_url": "https://builds.tuxbuild.com/24D3a36gdsvuI6DcAx7g1UzCkJj/",
            "environment": {},
            "errors_count": 0,
            "finished_time": null,
            "git_ref": "v5.15-rc2",
            "git_repo": "https://git.kernel.org/pub/scm/linux/kernel/git/torvalds/linux.git",
            "git_sha": "e4e737bb5c170df6135a127739a9e6148ee3da82",
            "image_sha": "",
            "kconfig": [
                "defconfig"
            ],
            "kernel_image": "",
            "kernel_patch_file": "",
            "make_variables": {
                "LLVM": "1",
                "LLVM_IAS": "1"
            },
            "no_cache": false,
            "plan": "24D3Zt0N1yrVdZ3GoMD6JygUN6v",
            "project": "linaro/anders",
            "provisioning_time": "2022-01-25T22:56:29.579979",
            "result": "unknown",
            "running_time": null,
            "state": "provisioning",
            "target_arch": "arm64",
            "targets": [],
            "toolchain": "clang-13",
            "uid": "24D3a36gdsvuI6DcAx7g1UzCkJj",
            "user": "anders.roxell@linaro.org",
            "user_agent": "tuxsuite/0.42.3",
            "waited_by": [],
            "warnings_count": 0
        },
        "24D3a36sr2BuTV0vZ88vafcSarp": {
            "build_name": "",
            "client_token": "5c60287c-225f-4a77-bd7b-99c53afda7cb",
            "download_url": "https://builds.tuxbuild.com/24D3a36sr2BuTV0vZ88vafcSarp/",
            "environment": {},
            "errors_count": 0,
            "finished_time": null,
            "git_ref": "v5.15-rc2",
            "git_repo": "https://git.kernel.org/pub/scm/linux/kernel/git/torvalds/linux.git",
            "git_sha": "e4e737bb5c170df6135a127739a9e6148ee3da82",
            "image_sha": "",
            "kconfig": [
                "tinyconfig"
            ],
            "kernel_image": "",
            "kernel_patch_file": "",
            "make_variables": {
                "LLVM": "1",
                "LLVM_IAS": "1"
            },
            "no_cache": false,
            "plan": "24D3Zt0N1yrVdZ3GoMD6JygUN6v",
            "project": "linaro/anders",
            "provisioning_time": "2022-01-25T22:56:29.299318",
            "result": "unknown",
            "running_time": null,
            "state": "provisioning",
            "target_arch": "arm64",
            "targets": [],
            "toolchain": "clang-nightly",
            "uid": "24D3a36sr2BuTV0vZ88vafcSarp",
            "user": "anders.roxell@linaro.org",
            "user_agent": "tuxsuite/0.42.3",
            "waited_by": [],
            "warnings_count": 0
        },
        "24D3a3DDGByPEo5nY6vVe5o30Uj": {
            "build_name": "",
            "client_token": "5077fbbf-3b28-4f60-a7a3-134111dccaf5",
            "download_url": "https://builds.tuxbuild.com/24D3a3DDGByPEo5nY6vVe5o30Uj/",
            "environment": {},
            "errors_count": 0,
            "finished_time": null,
            "git_ref": "v5.15-rc2",
            "git_repo": "https://git.kernel.org/pub/scm/linux/kernel/git/torvalds/linux.git",
            "git_sha": "e4e737bb5c170df6135a127739a9e6148ee3da82",
            "image_sha": "",
            "kconfig": [
                "defconfig"
            ],
            "kernel_image": "",
            "kernel_patch_file": "",
            "make_variables": {},
            "no_cache": false,
            "plan": "24D3Zt0N1yrVdZ3GoMD6JygUN6v",
            "project": "linaro/anders",
            "provisioning_time": "2022-01-25T22:56:29.709633",
            "result": "unknown",
            "running_time": null,
            "state": "provisioning",
            "target_arch": "arm64",
            "targets": [],
            "toolchain": "gcc-10",
            "uid": "24D3a3DDGByPEo5nY6vVe5o30Uj",
            "user": "anders.roxell@linaro.org",
            "user_agent": "tuxsuite/0.42.3",
            "waited_by": [],
            "warnings_count": 0
        },
        "24D3a3LIXHr9OvFsGTQ8hzEW9af": {
            "build_name": "",
            "client_token": "8c13386a-92dc-4f21-b1c9-8f676c882708",
            "download_url": "https://builds.tuxbuild.com/24D3a3LIXHr9OvFsGTQ8hzEW9af/",
            "environment": {},
            "errors_count": 0,
            "finished_time": null,
            "git_ref": "v5.15-rc2",
            "git_repo": "https://git.kernel.org/pub/scm/linux/kernel/git/torvalds/linux.git",
            "git_sha": "e4e737bb5c170df6135a127739a9e6148ee3da82",
            "image_sha": "",
            "kconfig": [
                "defconfig"
            ],
            "kernel_image": "",
            "kernel_patch_file": "",
            "make_variables": {
                "LLVM": "1",
                "LLVM_IAS": "1"
            },
            "no_cache": false,
            "plan": "24D3Zt0N1yrVdZ3GoMD6JygUN6v",
            "project": "linaro/anders",
            "provisioning_time": "2022-01-25T22:56:29.665642",
            "result": "unknown",
            "running_time": null,
            "state": "provisioning",
            "target_arch": "arm64",
            "targets": [],
            "toolchain": "clang-13",
            "uid": "24D3a3LIXHr9OvFsGTQ8hzEW9af",
            "user": "anders.roxell@linaro.org",
            "user_agent": "tuxsuite/0.42.3",
            "waited_by": [],
            "warnings_count": 0
        },
        "24D3a3tkXIA0mMedcfgEH0JPwwl": {
            "build_name": "",
            "client_token": "76ab3c02-2f8b-4962-8011-a95f5e9301a4",
            "download_url": "https://builds.tuxbuild.com/24D3a3tkXIA0mMedcfgEH0JPwwl/",
            "environment": {},
            "errors_count": 0,
            "finished_time": null,
            "git_ref": "v5.15-rc2",
            "git_repo": "https://git.kernel.org/pub/scm/linux/kernel/git/torvalds/linux.git",
            "git_sha": "e4e737bb5c170df6135a127739a9e6148ee3da82",
            "image_sha": "",
            "kconfig": [
                "tinyconfig"
            ],
            "kernel_image": "",
            "kernel_patch_file": "",
            "make_variables": {
                "LLVM": "1",
                "LLVM_IAS": "1"
            },
            "no_cache": false,
            "plan": "24D3Zt0N1yrVdZ3GoMD6JygUN6v",
            "project": "linaro/anders",
            "provisioning_time": "2022-01-25T22:56:29.517881",
            "result": "unknown",
            "running_time": null,
            "state": "provisioning",
            "target_arch": "arm64",
            "targets": [],
            "toolchain": "clang-nightly",
            "uid": "24D3a3tkXIA0mMedcfgEH0JPwwl",
            "user": "anders.roxell@linaro.org",
            "user_agent": "tuxsuite/0.42.3",
            "waited_by": [],
            "warnings_count": 0
        },
        "24D3a3vt5A3qjP0OWfHTkWnbK8r": {
            "build_name": "",
            "client_token": "a53c8052-49d0-467c-83fa-54689105c16d",
            "download_url": "https://builds.tuxbuild.com/24D3a3vt5A3qjP0OWfHTkWnbK8r/",
            "environment": {},
            "errors_count": 0,
            "finished_time": null,
            "git_ref": "v5.15-rc2",
            "git_repo": "https://git.kernel.org/pub/scm/linux/kernel/git/torvalds/linux.git",
            "git_sha": "e4e737bb5c170df6135a127739a9e6148ee3da82",
            "image_sha": "",
            "kconfig": [
                "defconfig"
            ],
            "kernel_image": "",
            "kernel_patch_file": "",
            "make_variables": {},
            "no_cache": false,
            "plan": "24D3Zt0N1yrVdZ3GoMD6JygUN6v",
            "project": "linaro/anders",
            "provisioning_time": "2022-01-25T22:56:29.902396",
            "result": "unknown",
            "running_time": null,
            "state": "provisioning",
            "target_arch": "arm64",
            "targets": [],
            "toolchain": "gcc-11",
            "uid": "24D3a3vt5A3qjP0OWfHTkWnbK8r",
            "user": "anders.roxell@linaro.org",
            "user_agent": "tuxsuite/0.42.3",
            "waited_by": [],
            "warnings_count": 0
        },
        "24D3a41WLRvKJBLDsUscZJO91AX": {
            "build_name": "",
            "client_token": "ff8491ec-5271-4a1f-b261-1ea104df2036",
            "download_url": "https://builds.tuxbuild.com/24D3a41WLRvKJBLDsUscZJO91AX/",
            "environment": {},
            "errors_count": 0,
            "finished_time": null,
            "git_ref": "v5.15-rc2",
            "git_repo": "https://git.kernel.org/pub/scm/linux/kernel/git/torvalds/linux.git",
            "git_sha": "e4e737bb5c170df6135a127739a9e6148ee3da82",
            "image_sha": "",
            "kconfig": [
                "tinyconfig"
            ],
            "kernel_image": "",
            "kernel_patch_file": "",
            "make_variables": {},
            "no_cache": false,
            "plan": "24D3Zt0N1yrVdZ3GoMD6JygUN6v",
            "project": "linaro/anders",
            "provisioning_time": "2022-01-25T22:56:29.066385",
            "result": "unknown",
            "running_time": null,
            "state": "provisioning",
            "target_arch": "arm64",
            "targets": [],
            "toolchain": "gcc-10",
            "uid": "24D3a41WLRvKJBLDsUscZJO91AX",
            "user": "anders.roxell@linaro.org",
            "user_agent": "tuxsuite/0.42.3",
            "waited_by": [],
            "warnings_count": 0
        },
        "24D3a44P86rZaIpSxT65NpIJujq": {
            "build_name": "",
            "client_token": "36fbce24-3288-419f-aa94-1393d0e1bc7c",
            "download_url": "https://builds.tuxbuild.com/24D3a44P86rZaIpSxT65NpIJujq/",
            "environment": {},
            "errors_count": 0,
            "finished_time": null,
            "git_ref": "v5.15-rc2",
            "git_repo": "https://git.kernel.org/pub/scm/linux/kernel/git/torvalds/linux.git",
            "git_sha": "e4e737bb5c170df6135a127739a9e6148ee3da82",
            "image_sha": "",
            "kconfig": [
                "tinyconfig"
            ],
            "kernel_image": "",
            "kernel_patch_file": "",
            "make_variables": {
                "LLVM": "1",
                "LLVM_IAS": "1"
            },
            "no_cache": false,
            "plan": "24D3Zt0N1yrVdZ3GoMD6JygUN6v",
            "project": "linaro/anders",
            "provisioning_time": "2022-01-25T22:56:29.432567",
            "result": "unknown",
            "running_time": null,
            "state": "provisioning",
            "target_arch": "arm64",
            "targets": [],
            "toolchain": "clang-nightly",
            "uid": "24D3a44P86rZaIpSxT65NpIJujq",
            "user": "anders.roxell@linaro.org",
            "user_agent": "tuxsuite/0.42.3",
            "waited_by": [],
            "warnings_count": 0
        },
        "24D3a4CQMszRXFchNaEwjW7bdCS": {
            "build_name": "",
            "client_token": "97c12004-368a-4abe-8797-36335bd48bb6",
            "download_url": "https://builds.tuxbuild.com/24D3a4CQMszRXFchNaEwjW7bdCS/",
            "environment": {},
            "errors_count": 0,
            "finished_time": null,
            "git_ref": "v5.15-rc2",
            "git_repo": "https://git.kernel.org/pub/scm/linux/kernel/git/torvalds/linux.git",
            "git_sha": "e4e737bb5c170df6135a127739a9e6148ee3da82",
            "image_sha": "",
            "kconfig": [
                "tinyconfig"
            ],
            "kernel_image": "",
            "kernel_patch_file": "",
            "make_variables": {},
            "no_cache": false,
            "plan": "24D3Zt0N1yrVdZ3GoMD6JygUN6v",
            "project": "linaro/anders",
            "provisioning_time": "2022-01-25T22:56:29.235113",
            "result": "unknown",
            "running_time": null,
            "state": "provisioning",
            "target_arch": "arm64",
            "targets": [],
            "toolchain": "gcc-10",
            "uid": "24D3a4CQMszRXFchNaEwjW7bdCS",
            "user": "anders.roxell@linaro.org",
            "user_agent": "tuxsuite/0.42.3",
            "waited_by": [],
            "warnings_count": 0
        },
        "24D3a4KrGBG613tu65XFFm9GAxx": {
            "build_name": "",
            "client_token": "cbd6eeeb-a5bf-475a-936c-d973c8f5084a",
            "download_url": "https://builds.tuxbuild.com/24D3a4KrGBG613tu65XFFm9GAxx/",
            "environment": {},
            "errors_count": 0,
            "finished_time": null,
            "git_ref": "v5.15-rc2",
            "git_repo": "https://git.kernel.org/pub/scm/linux/kernel/git/torvalds/linux.git",
            "git_sha": "e4e737bb5c170df6135a127739a9e6148ee3da82",
            "image_sha": "",
            "kconfig": [
                "defconfig"
            ],
            "kernel_image": "",
            "kernel_patch_file": "",
            "make_variables": {
                "LLVM": "1",
                "LLVM_IAS": "1"
            },
            "no_cache": false,
            "plan": "24D3Zt0N1yrVdZ3GoMD6JygUN6v",
            "project": "linaro/anders",
            "provisioning_time": "2022-01-25T22:56:29.944717",
            "result": "unknown",
            "running_time": null,
            "state": "provisioning",
            "target_arch": "arm64",
            "targets": [],
            "toolchain": "clang-nightly",
            "uid": "24D3a4KrGBG613tu65XFFm9GAxx",
            "user": "anders.roxell@linaro.org",
            "user_agent": "tuxsuite/0.42.3",
            "waited_by": [],
            "warnings_count": 0
        },
        "24D3a4VeTT3If6eVbOCJkRrVYQW": {
            "build_name": "",
            "client_token": "d5724f18-c269-4c3d-8091-ec4e8a0f3090",
            "download_url": "https://builds.tuxbuild.com/24D3a4VeTT3If6eVbOCJkRrVYQW/",
            "environment": {},
            "errors_count": 0,
            "finished_time": null,
            "git_ref": "v5.15-rc2",
            "git_repo": "https://git.kernel.org/pub/scm/linux/kernel/git/torvalds/linux.git",
            "git_sha": "e4e737bb5c170df6135a127739a9e6148ee3da82",
            "image_sha": "",
            "kconfig": [
                "tinyconfig"
            ],
            "kernel_image": "",
            "kernel_patch_file": "",
            "make_variables": {
                "LLVM": "1",
                "LLVM_IAS": "1"
            },
            "no_cache": false,
            "plan": "24D3Zt0N1yrVdZ3GoMD6JygUN6v",
            "project": "linaro/anders",
            "provisioning_time": "2022-01-25T22:56:29.129112",
            "result": "unknown",
            "running_time": null,
            "state": "provisioning",
            "target_arch": "arm64",
            "targets": [],
            "toolchain": "clang-nightly",
            "uid": "24D3a4VeTT3If6eVbOCJkRrVYQW",
            "user": "anders.roxell@linaro.org",
            "user_agent": "tuxsuite/0.42.3",
            "waited_by": [],
            "warnings_count": 0
        },
        "24D3a4lp8EHxNxiDV79tznrBM6k": {
            "build_name": "",
            "client_token": "7ade5d29-c557-45bf-b16d-91408ab82a72",
            "download_url": "https://builds.tuxbuild.com/24D3a4lp8EHxNxiDV79tznrBM6k/",
            "environment": {},
            "errors_count": 0,
            "finished_time": null,
            "git_ref": "v5.15-rc2",
            "git_repo": "https://git.kernel.org/pub/scm/linux/kernel/git/torvalds/linux.git",
            "git_sha": "e4e737bb5c170df6135a127739a9e6148ee3da82",
            "image_sha": "",
            "kconfig": [
                "tinyconfig"
            ],
            "kernel_image": "",
            "kernel_patch_file": "",
            "make_variables": {
                "LLVM": "1",
                "LLVM_IAS": "1"
            },
            "no_cache": false,
            "plan": "24D3Zt0N1yrVdZ3GoMD6JygUN6v",
            "project": "linaro/anders",
            "provisioning_time": "2022-01-25T22:56:29.497286",
            "result": "unknown",
            "running_time": null,
            "state": "provisioning",
            "target_arch": "arm64",
            "targets": [],
            "toolchain": "clang-13",
            "uid": "24D3a4lp8EHxNxiDV79tznrBM6k",
            "user": "anders.roxell@linaro.org",
            "user_agent": "tuxsuite/0.42.3",
            "waited_by": [],
            "warnings_count": 0
        },
        "24D3a4oRbNyYg3kw2Vh7YjjIPDw": {
            "build_name": "",
            "client_token": "4c9691ec-a5f2-4608-b7df-2b30f952e942",
            "download_url": "https://builds.tuxbuild.com/24D3a4oRbNyYg3kw2Vh7YjjIPDw/",
            "environment": {},
            "errors_count": 0,
            "finished_time": null,
            "git_ref": "v5.15-rc2",
            "git_repo": "https://git.kernel.org/pub/scm/linux/kernel/git/torvalds/linux.git",
            "git_sha": "e4e737bb5c170df6135a127739a9e6148ee3da82",
            "image_sha": "",
            "kconfig": [
                "tinyconfig"
            ],
            "kernel_image": "",
            "kernel_patch_file": "",
            "make_variables": {},
            "no_cache": false,
            "plan": "24D3Zt0N1yrVdZ3GoMD6JygUN6v",
            "project": "linaro/anders",
            "provisioning_time": "2022-01-25T22:56:29.340645",
            "result": "unknown",
            "running_time": null,
            "state": "provisioning",
            "target_arch": "arm64",
            "targets": [],
            "toolchain": "gcc-11",
            "uid": "24D3a4oRbNyYg3kw2Vh7YjjIPDw",
            "user": "anders.roxell@linaro.org",
            "user_agent": "tuxsuite/0.42.3",
            "waited_by": [],
            "warnings_count": 0
        },
        "24D3a4zFi3bb6IpsK071lsdxk87": {
            "build_name": "",
            "client_token": "5595461f-8807-460c-ac51-172a5835fc1b",
            "download_url": "https://builds.tuxbuild.com/24D3a4zFi3bb6IpsK071lsdxk87/",
            "environment": {},
            "errors_count": 0,
            "finished_time": null,
            "git_ref": "v5.15-rc2",
            "git_repo": "https://git.kernel.org/pub/scm/linux/kernel/git/torvalds/linux.git",
            "git_sha": "e4e737bb5c170df6135a127739a9e6148ee3da82",
            "image_sha": "",
            "kconfig": [
                "defconfig"
            ],
            "kernel_image": "",
            "kernel_patch_file": "",
            "make_variables": {},
            "no_cache": false,
            "plan": "24D3Zt0N1yrVdZ3GoMD6JygUN6v",
            "project": "linaro/anders",
            "provisioning_time": "2022-01-25T22:56:29.538591",
            "result": "unknown",
            "running_time": null,
            "state": "provisioning",
            "target_arch": "arm64",
            "targets": [],
            "toolchain": "gcc-10",
            "uid": "24D3a4zFi3bb6IpsK071lsdxk87",
            "user": "anders.roxell@linaro.org",
            "user_agent": "tuxsuite/0.42.3",
            "waited_by": [],
            "warnings_count": 0
        },
        "24D3a5POdiHaW62a0gOUFGRq3Sd": {
            "build_name": "",
            "client_token": "e3395de2-bcba-44bf-8fc4-847cb01b1065",
            "download_url": "https://builds.tuxbuild.com/24D3a5POdiHaW62a0gOUFGRq3Sd/",
            "environment": {},
            "errors_count": 0,
            "finished_time": null,
            "git_ref": "v5.15-rc2",
            "git_repo": "https://git.kernel.org/pub/scm/linux/kernel/git/torvalds/linux.git",
            "git_sha": "e4e737bb5c170df6135a127739a9e6148ee3da82",
            "image_sha": "",
            "kconfig": [
                "defconfig"
            ],
            "kernel_image": "",
            "kernel_patch_file": "",
            "make_variables": {
                "LLVM": "1",
                "LLVM_IAS": "1"
            },
            "no_cache": false,
            "plan": "24D3Zt0N1yrVdZ3GoMD6JygUN6v",
            "project": "linaro/anders",
            "provisioning_time": "2022-01-25T22:56:29.858808",
            "result": "unknown",
            "running_time": null,
            "state": "provisioning",
            "target_arch": "arm64",
            "targets": [],
            "toolchain": "clang-nightly",
            "uid": "24D3a5POdiHaW62a0gOUFGRq3Sd",
            "user": "anders.roxell@linaro.org",
            "user_agent": "tuxsuite/0.42.3",
            "waited_by": [],
            "warnings_count": 0
        },
        "24D3a5mGxBTkqvIujoX6TGU7M9S": {
            "build_name": "",
            "client_token": "85768a3c-7914-4d39-86aa-995b797b1003",
            "download_url": "https://builds.tuxbuild.com/24D3a5mGxBTkqvIujoX6TGU7M9S/",
            "environment": {},
            "errors_count": 0,
            "finished_time": null,
            "git_ref": "v5.15-rc2",
            "git_repo": "https://git.kernel.org/pub/scm/linux/kernel/git/torvalds/linux.git",
            "git_sha": "e4e737bb5c170df6135a127739a9e6148ee3da82",
            "image_sha": "",
            "kconfig": [
                "defconfig"
            ],
            "kernel_image": "",
            "kernel_patch_file": "",
            "make_variables": {},
            "no_cache": false,
            "plan": "24D3Zt0N1yrVdZ3GoMD6JygUN6v",
            "project": "linaro/anders",
            "provisioning_time": "2022-01-25T22:56:29.559295",
            "result": "unknown",
            "running_time": null,
            "state": "provisioning",
            "target_arch": "arm64",
            "targets": [],
            "toolchain": "gcc-11",
            "uid": "24D3a5mGxBTkqvIujoX6TGU7M9S",
            "user": "anders.roxell@linaro.org",
            "user_agent": "tuxsuite/0.42.3",
            "waited_by": [],
            "warnings_count": 0
        },
        "24D3a5qpLoP01WOHyek9DY1nDcT": {
            "build_name": "",
            "client_token": "51a178e1-8009-4532-acb0-f37d2e3bf4e5",
            "download_url": "https://builds.tuxbuild.com/24D3a5qpLoP01WOHyek9DY1nDcT/",
            "environment": {},
            "errors_count": 0,
            "finished_time": null,
            "git_ref": "v5.15-rc2",
            "git_repo": "https://git.kernel.org/pub/scm/linux/kernel/git/torvalds/linux.git",
            "git_sha": "e4e737bb5c170df6135a127739a9e6148ee3da82",
            "image_sha": "",
            "kconfig": [
                "tinyconfig"
            ],
            "kernel_image": "",
            "kernel_patch_file": "",
            "make_variables": {
                "LLVM": "1",
                "LLVM_IAS": "1"
            },
            "no_cache": false,
            "plan": "24D3Zt0N1yrVdZ3GoMD6JygUN6v",
            "project": "linaro/anders",
            "provisioning_time": "2022-01-25T22:56:29.108383",
            "result": "unknown",
            "running_time": null,
            "state": "provisioning",
            "target_arch": "arm64",
            "targets": [],
            "toolchain": "clang-13",
            "uid": "24D3a5qpLoP01WOHyek9DY1nDcT",
            "user": "anders.roxell@linaro.org",
            "user_agent": "tuxsuite/0.42.3",
            "waited_by": [],
            "warnings_count": 0
        },
        "24D3a5rAk6wAKBKZpvGeb5SiuWd": {
            "build_name": "",
            "client_token": "4b0a24cf-ac11-4268-9c57-588569d1fc0a",
            "download_url": "https://builds.tuxbuild.com/24D3a5rAk6wAKBKZpvGeb5SiuWd/",
            "environment": {},
            "errors_count": 0,
            "finished_time": null,
            "git_ref": "v5.15-rc2",
            "git_repo": "https://git.kernel.org/pub/scm/linux/kernel/git/torvalds/linux.git",
            "git_sha": "e4e737bb5c170df6135a127739a9e6148ee3da82",
            "image_sha": "",
            "kconfig": [
                "defconfig"
            ],
            "kernel_image": "",
            "kernel_patch_file": "",
            "make_variables": {},
            "no_cache": false,
            "plan": "24D3Zt0N1yrVdZ3GoMD6JygUN6v",
            "project": "linaro/anders",
            "provisioning_time": "2022-01-25T22:56:29.815164",
            "result": "unknown",
            "running_time": null,
            "state": "provisioning",
            "target_arch": "arm64",
            "targets": [],
            "toolchain": "gcc-11",
            "uid": "24D3a5rAk6wAKBKZpvGeb5SiuWd",
            "user": "anders.roxell@linaro.org",
            "user_agent": "tuxsuite/0.42.3",
            "waited_by": [],
            "warnings_count": 0
        }
    },
    "tests": {
        "24D3a65KTdc0LWrMwMiRAriSDtY": {
            "ap_romfw": null,
            "boot_args": null,
            "device": "qemu-arm64",
            "finished_time": null,
            "fip": null,
            "kernel": null,
            "mcp_fw": null,
            "mcp_romfw": null,
            "modules": null,
            "parameters": [],
            "plan": "24D3Zt0N1yrVdZ3GoMD6JygUN6v",
            "project": "linaro/anders",
            "provisioning_time": null,
            "result": "unknown",
            "results": {},
            "retries": 0,
            "retries_messages": [],
            "rootfs": null,
            "running_time": null,
            "scp_fw": null,
            "scp_romfw": null,
            "state": "waiting",
            "tests": [
                "boot"
            ],
            "uid": "24D3a65KTdc0LWrMwMiRAriSDtY",
            "user": "anders.roxell@linaro.org",
            "user_agent": "tuxsuite/0.42.3",
            "waiting_for": "24D3a1uFiXrI9EkqFWZgFZFEiEb"
        },
        "24D3a6u67PLvd59CbOGtBMwD1gI": {
            "ap_romfw": null,
            "boot_args": null,
            "device": "qemu-arm64",
            "finished_time": null,
            "fip": null,
            "kernel": null,
            "mcp_fw": null,
            "mcp_romfw": null,
            "modules": null,
            "parameters": [],
            "plan": "24D3Zt0N1yrVdZ3GoMD6JygUN6v",
            "project": "linaro/anders",
            "provisioning_time": null,
            "result": "unknown",
            "results": {},
            "retries": 0,
            "retries_messages": [],
            "rootfs": null,
            "running_time": null,
            "scp_fw": null,
            "scp_romfw": null,
            "state": "waiting",
            "tests": [
                "boot"
            ],
            "uid": "24D3a6u67PLvd59CbOGtBMwD1gI",
            "user": "anders.roxell@linaro.org",
            "user_agent": "tuxsuite/0.42.3",
            "waiting_for": "24D3a5POdiHaW62a0gOUFGRq3Sd"
        },
        "24D3a6vpRFpkBbVn78gAAHa0cvF": {
            "ap_romfw": null,
            "boot_args": null,
            "device": "qemu-arm64",
            "finished_time": null,
            "fip": null,
            "kernel": null,
            "mcp_fw": null,
            "mcp_romfw": null,
            "modules": null,
            "parameters": [],
            "plan": "24D3Zt0N1yrVdZ3GoMD6JygUN6v",
            "project": "linaro/anders",
            "provisioning_time": null,
            "result": "unknown",
            "results": {},
            "retries": 0,
            "retries_messages": [],
            "rootfs": null,
            "running_time": null,
            "scp_fw": null,
            "scp_romfw": null,
            "state": "waiting",
            "tests": [
                "boot"
            ],
            "uid": "24D3a6vpRFpkBbVn78gAAHa0cvF",
            "user": "anders.roxell@linaro.org",
            "user_agent": "tuxsuite/0.42.3",
            "waiting_for": "24D3ZzjJuPXGtHdnYSU1DUb6G8Z"
        },
        "24D3a7AtYqqNOkAddS1wmY7ttNU": {
            "ap_romfw": null,
            "boot_args": null,
            "device": "qemu-arm64",
            "finished_time": null,
            "fip": null,
            "kernel": null,
            "mcp_fw": null,
            "mcp_romfw": null,
            "modules": null,
            "parameters": [],
            "plan": "24D3Zt0N1yrVdZ3GoMD6JygUN6v",
            "project": "linaro/anders",
            "provisioning_time": null,
            "result": "unknown",
            "results": {},
            "retries": 0,
            "retries_messages": [],
            "rootfs": null,
            "running_time": null,
            "scp_fw": null,
            "scp_romfw": null,
            "state": "waiting",
            "tests": [
                "boot"
            ],
            "uid": "24D3a7AtYqqNOkAddS1wmY7ttNU",
            "user": "anders.roxell@linaro.org",
            "user_agent": "tuxsuite/0.42.3",
            "waiting_for": "24D3a5mGxBTkqvIujoX6TGU7M9S"
        },
        "24D3a7mPve7CyfauxzWXyv6S6px": {
            "ap_romfw": null,
            "boot_args": null,
            "device": "qemu-arm64",
            "finished_time": null,
            "fip": null,
            "kernel": null,
            "mcp_fw": null,
            "mcp_romfw": null,
            "modules": null,
            "parameters": [],
            "plan": "24D3Zt0N1yrVdZ3GoMD6JygUN6v",
            "project": "linaro/anders",
            "provisioning_time": null,
            "result": "unknown",
            "results": {},
            "retries": 0,
            "retries_messages": [],
            "rootfs": null,
            "running_time": null,
            "scp_fw": null,
            "scp_romfw": null,
            "state": "waiting",
            "tests": [
                "boot"
            ],
            "uid": "24D3a7mPve7CyfauxzWXyv6S6px",
            "user": "anders.roxell@linaro.org",
            "user_agent": "tuxsuite/0.42.3",
            "waiting_for": "24D3a36gdsvuI6DcAx7g1UzCkJj"
        },
        "24D3a7y7MTaSXcG9BwqAuQWmURi": {
            "ap_romfw": null,
            "boot_args": null,
            "device": "qemu-arm64",
            "finished_time": null,
            "fip": null,
            "kernel": null,
            "mcp_fw": null,
            "mcp_romfw": null,
            "modules": null,
            "parameters": [],
            "plan": "24D3Zt0N1yrVdZ3GoMD6JygUN6v",
            "project": "linaro/anders",
            "provisioning_time": null,
            "result": "unknown",
            "results": {},
            "retries": 0,
            "retries_messages": [],
            "rootfs": null,
            "running_time": null,
            "scp_fw": null,
            "scp_romfw": null,
            "state": "waiting",
            "tests": [
                "boot"
            ],
            "uid": "24D3a7y7MTaSXcG9BwqAuQWmURi",
            "user": "anders.roxell@linaro.org",
            "user_agent": "tuxsuite/0.42.3",
            "waiting_for": "24D3a4zFi3bb6IpsK071lsdxk87"
        },
        "24D3a80jsq8w2tJj6QLEVUojC7C": {
            "ap_romfw": null,
            "boot_args": null,
            "device": "qemu-arm64",
            "finished_time": null,
            "fip": null,
            "kernel": null,
            "mcp_fw": null,
            "mcp_romfw": null,
            "modules": null,
            "parameters": [],
            "plan": "24D3Zt0N1yrVdZ3GoMD6JygUN6v",
            "project": "linaro/anders",
            "provisioning_time": null,
            "result": "unknown",
            "results": {},
            "retries": 0,
            "retries_messages": [],
            "rootfs": null,
            "running_time": null,
            "scp_fw": null,
            "scp_romfw": null,
            "state": "waiting",
            "tests": [
                "boot"
            ],
            "uid": "24D3a80jsq8w2tJj6QLEVUojC7C",
            "user": "anders.roxell@linaro.org",
            "user_agent": "tuxsuite/0.42.3",
            "waiting_for": "24D3a5rAk6wAKBKZpvGeb5SiuWd"
        },
        "24D3a85Sde1nRTNsZ6XxZUOpjhF": {
            "ap_romfw": null,
            "boot_args": null,
            "device": "qemu-arm64",
            "finished_time": null,
            "fip": null,
            "kernel": null,
            "mcp_fw": null,
            "mcp_romfw": null,
            "modules": null,
            "parameters": [],
            "plan": "24D3Zt0N1yrVdZ3GoMD6JygUN6v",
            "project": "linaro/anders",
            "provisioning_time": null,
            "result": "unknown",
            "results": {},
            "retries": 0,
            "retries_messages": [],
            "rootfs": null,
            "running_time": null,
            "scp_fw": null,
            "scp_romfw": null,
            "state": "waiting",
            "tests": [
                "boot"
            ],
            "uid": "24D3a85Sde1nRTNsZ6XxZUOpjhF",
            "user": "anders.roxell@linaro.org",
            "user_agent": "tuxsuite/0.42.3",
            "waiting_for": "24D3a2FJpdBx0EZAtJyvOsmoqLi"
        },
        "24D3a8QcQZxh6eQeX6OaHSBejVP": {
            "ap_romfw": null,
            "boot_args": null,
            "device": "qemu-arm64",
            "finished_time": null,
            "fip": null,
            "kernel": null,
            "mcp_fw": null,
            "mcp_romfw": null,
            "modules": null,
            "parameters": [],
            "plan": "24D3Zt0N1yrVdZ3GoMD6JygUN6v",
            "project": "linaro/anders",
            "provisioning_time": null,
            "result": "unknown",
            "results": {},
            "retries": 0,
            "retries_messages": [],
            "rootfs": null,
            "running_time": null,
            "scp_fw": null,
            "scp_romfw": null,
            "state": "waiting",
            "tests": [
                "boot"
            ],
            "uid": "24D3a8QcQZxh6eQeX6OaHSBejVP",
            "user": "anders.roxell@linaro.org",
            "user_agent": "tuxsuite/0.42.3",
            "waiting_for": "24D3a3LIXHr9OvFsGTQ8hzEW9af"
        },
        "24D3a8ZWmNTgKXvRgBseh4W17nF": {
            "ap_romfw": null,
            "boot_args": null,
            "device": "qemu-arm64",
            "finished_time": null,
            "fip": null,
            "kernel": null,
            "mcp_fw": null,
            "mcp_romfw": null,
            "modules": null,
            "parameters": [],
            "plan": "24D3Zt0N1yrVdZ3GoMD6JygUN6v",
            "project": "linaro/anders",
            "provisioning_time": null,
            "result": "unknown",
            "results": {},
            "retries": 0,
            "retries_messages": [],
            "rootfs": null,
            "running_time": null,
            "scp_fw": null,
            "scp_romfw": null,
            "state": "waiting",
            "tests": [
                "boot"
            ],
            "uid": "24D3a8ZWmNTgKXvRgBseh4W17nF",
            "user": "anders.roxell@linaro.org",
            "user_agent": "tuxsuite/0.42.3",
            "waiting_for": "24D3ZyXLxSUfh2wmfJyJVQ1l7FB"
        },
        "24D3a8dX3R1clp9r7qVf8B9CilB": {
            "ap_romfw": null,
            "boot_args": null,
            "device": "qemu-arm64",
            "finished_time": null,
            "fip": null,
            "kernel": null,
            "mcp_fw": null,
            "mcp_romfw": null,
            "modules": null,
            "parameters": [],
            "plan": "24D3Zt0N1yrVdZ3GoMD6JygUN6v",
            "project": "linaro/anders",
            "provisioning_time": null,
            "result": "unknown",
            "results": {},
            "retries": 0,
            "retries_messages": [],
            "rootfs": null,
            "running_time": null,
            "scp_fw": null,
            "scp_romfw": null,
            "state": "waiting",
            "tests": [
                "boot"
            ],
            "uid": "24D3a8dX3R1clp9r7qVf8B9CilB",
            "user": "anders.roxell@linaro.org",
            "user_agent": "tuxsuite/0.42.3",
            "waiting_for": "24D3ZyWOVbNFCxLBLjKqc2nBSqs"
        },
        "24D3a909tyGnCr1igcVIO13WAz9": {
            "ap_romfw": null,
            "boot_args": null,
            "device": "qemu-arm64",
            "finished_time": null,
            "fip": null,
            "kernel": null,
            "mcp_fw": null,
            "mcp_romfw": null,
            "modules": null,
            "parameters": [],
            "plan": "24D3Zt0N1yrVdZ3GoMD6JygUN6v",
            "project": "linaro/anders",
            "provisioning_time": null,
            "result": "unknown",
            "results": {},
            "retries": 0,
            "retries_messages": [],
            "rootfs": null,
            "running_time": null,
            "scp_fw": null,
            "scp_romfw": null,
            "state": "waiting",
            "tests": [
                "boot"
            ],
            "uid": "24D3a909tyGnCr1igcVIO13WAz9",
            "user": "anders.roxell@linaro.org",
            "user_agent": "tuxsuite/0.42.3",
            "waiting_for": "24D3ZyaJkteK6LmWttBXR5arQ7X"
        },
        "24D3a9RG8FmHywKUsA5BOAuHJyo": {
            "ap_romfw": null,
            "boot_args": null,
            "device": "qemu-arm64",
            "finished_time": null,
            "fip": null,
            "kernel": null,
            "mcp_fw": null,
            "mcp_romfw": null,
            "modules": null,
            "parameters": [],
            "plan": "24D3Zt0N1yrVdZ3GoMD6JygUN6v",
            "project": "linaro/anders",
            "provisioning_time": null,
            "result": "unknown",
            "results": {},
            "retries": 0,
            "retries_messages": [],
            "rootfs": null,
            "running_time": null,
            "scp_fw": null,
            "scp_romfw": null,
            "state": "waiting",
            "tests": [
                "boot"
            ],
            "uid": "24D3a9RG8FmHywKUsA5BOAuHJyo",
            "user": "anders.roxell@linaro.org",
            "user_agent": "tuxsuite/0.42.3",
            "waiting_for": "24D3ZzdLrcmwCn6ajDBipg0nWKU"
        },
        "24D3a9lnS2OjaEZEsIIhmkcFhdX": {
            "ap_romfw": null,
            "boot_args": null,
            "device": "qemu-arm64",
            "finished_time": null,
            "fip": null,
            "kernel": null,
            "mcp_fw": null,
            "mcp_romfw": null,
            "modules": null,
            "parameters": [],
            "plan": "24D3Zt0N1yrVdZ3GoMD6JygUN6v",
            "project": "linaro/anders",
            "provisioning_time": null,
            "result": "unknown",
            "results": {},
            "retries": 0,
            "retries_messages": [],
            "rootfs": null,
            "running_time": null,
            "scp_fw": null,
            "scp_romfw": null,
            "state": "waiting",
            "tests": [
                "boot"
            ],
            "uid": "24D3a9lnS2OjaEZEsIIhmkcFhdX",
            "user": "anders.roxell@linaro.org",
            "user_agent": "tuxsuite/0.42.3",
            "waiting_for": "24D3ZyirGC7hYdKUJaQaIZs7ONd"
        },
        "24D3aAyzj9uTMEjHUtHdLVDG0E6": {
            "ap_romfw": null,
            "boot_args": null,
            "device": "qemu-arm64",
            "finished_time": null,
            "fip": null,
            "kernel": null,
            "mcp_fw": null,
            "mcp_romfw": null,
            "modules": null,
            "parameters": [],
            "plan": "24D3Zt0N1yrVdZ3GoMD6JygUN6v",
            "project": "linaro/anders",
            "provisioning_time": null,
            "result": "unknown",
            "results": {},
            "retries": 0,
            "retries_messages": [],
            "rootfs": null,
            "running_time": null,
            "scp_fw": null,
            "scp_romfw": null,
            "state": "waiting",
            "tests": [
                "boot"
            ],
            "uid": "24D3aAyzj9uTMEjHUtHdLVDG0E6",
            "user": "anders.roxell@linaro.org",
            "user_agent": "tuxsuite/0.42.3",
            "waiting_for": "24D3a1AJL3DbjWjes8RbVGnSQtK"
        },
        "24D3aDP7kBZ2mRLP3eqTxsGorzB": {
            "ap_romfw": null,
            "boot_args": null,
            "device": "qemu-arm64",
            "finished_time": null,
            "fip": null,
            "kernel": null,
            "mcp_fw": null,
            "mcp_romfw": null,
            "modules": null,
            "parameters": [],
            "plan": "24D3Zt0N1yrVdZ3GoMD6JygUN6v",
            "project": "linaro/anders",
            "provisioning_time": null,
            "result": "unknown",
            "results": {},
            "retries": 0,
            "retries_messages": [],
            "rootfs": null,
            "running_time": null,
            "scp_fw": null,
            "scp_romfw": null,
            "state": "waiting",
            "tests": [
                "boot"
            ],
            "uid": "24D3aDP7kBZ2mRLP3eqTxsGorzB",
            "user": "anders.roxell@linaro.org",
            "user_agent": "tuxsuite/0.42.3",
            "waiting_for": "24D3a1BzTlh9SmfyL2P0CBBfgeN"
        },
        "24D3aDRDV5KrF3YCDkaTjEGox0E": {
            "ap_romfw": null,
            "boot_args": null,
            "device": "qemu-arm64",
            "finished_time": null,
            "fip": null,
            "kernel": null,
            "mcp_fw": null,
            "mcp_romfw": null,
            "modules": null,
            "parameters": [],
            "plan": "24D3Zt0N1yrVdZ3GoMD6JygUN6v",
            "project": "linaro/anders",
            "provisioning_time": null,
            "result": "unknown",
            "results": {},
            "retries": 0,
            "retries_messages": [],
            "rootfs": null,
            "running_time": null,
            "scp_fw": null,
            "scp_romfw": null,
            "state": "waiting",
            "tests": [
                "boot"
            ],
            "uid": "24D3aDRDV5KrF3YCDkaTjEGox0E",
            "user": "anders.roxell@linaro.org",
            "user_agent": "tuxsuite/0.42.3",
            "waiting_for": "24D3a3DDGByPEo5nY6vVe5o30Uj"
        },
        "24D3aFYPqJJYe42nyAIr6CPXc4l": {
            "ap_romfw": null,
            "boot_args": null,
            "device": "qemu-arm64",
            "finished_time": null,
            "fip": null,
            "kernel": null,
            "mcp_fw": null,
            "mcp_romfw": null,
            "modules": null,
            "parameters": [],
            "plan": "24D3Zt0N1yrVdZ3GoMD6JygUN6v",
            "project": "linaro/anders",
            "provisioning_time": null,
            "result": "unknown",
            "results": {},
            "retries": 0,
            "retries_messages": [],
            "rootfs": null,
            "running_time": null,
            "scp_fw": null,
            "scp_romfw": null,
            "state": "waiting",
            "tests": [
                "boot"
            ],
            "uid": "24D3aFYPqJJYe42nyAIr6CPXc4l",
            "user": "anders.roxell@linaro.org",
            "user_agent": "tuxsuite/0.42.3",
            "waiting_for": "24D3a3vt5A3qjP0OWfHTkWnbK8r"
        },
        "24D3aHVXjLvTyfR2fKDvRDJDT6p": {
            "ap_romfw": null,
            "boot_args": null,
            "device": "qemu-arm64",
            "finished_time": null,
            "fip": null,
            "kernel": null,
            "mcp_fw": null,
            "mcp_romfw": null,
            "modules": null,
            "parameters": [],
            "plan": "24D3Zt0N1yrVdZ3GoMD6JygUN6v",
            "project": "linaro/anders",
            "provisioning_time": null,
            "result": "unknown",
            "results": {},
            "retries": 0,
            "retries_messages": [],
            "rootfs": null,
            "running_time": null,
            "scp_fw": null,
            "scp_romfw": null,
            "state": "waiting",
            "tests": [
                "boot"
            ],
            "uid": "24D3aHVXjLvTyfR2fKDvRDJDT6p",
            "user": "anders.roxell@linaro.org",
            "user_agent": "tuxsuite/0.42.3",
            "waiting_for": "24D3a4KrGBG613tu65XFFm9GAxx"
        },
        "24D3aItkoRuhFjsDfBuudMTv8AP": {
            "ap_romfw": null,
            "boot_args": null,
            "device": "qemu-arm64",
            "finished_time": null,
            "fip": null,
            "kernel": null,
            "mcp_fw": null,
            "mcp_romfw": null,
            "modules": null,
            "parameters": [],
            "plan": "24D3Zt0N1yrVdZ3GoMD6JygUN6v",
            "project": "linaro/anders",
            "provisioning_time": null,
            "result": "unknown",
            "results": {},
            "retries": 0,
            "retries_messages": [],
            "rootfs": null,
            "running_time": null,
            "scp_fw": null,
            "scp_romfw": null,
            "state": "waiting",
            "tests": [
                "boot"
            ],
            "uid": "24D3aItkoRuhFjsDfBuudMTv8AP",
            "user": "anders.roxell@linaro.org",
            "user_agent": "tuxsuite/0.42.3",
            "waiting_for": "24D3a1y6I22Jj0F1VLhq4CaCQEH"
        }
    }
}