{
    "builds": {
        "24D3YafjctPF95DHQzGFf8LYfeU": {
            "build_name": "",
            "client_token": "a0b84686-4a39-4d61-9156-20c05e37fb38",
            "download_url": "https://builds.tuxbuild.com/24D3YafjctPF95DHQzGFf8LYfeU/",
            "environment": {},
            "errors_count": 0,
            "finished_time": null,
            "git_ref": "v5.14-rc7",
            "git_repo": "https://git.kernel.org/pub/scm/linux/kernel/git/torvalds/linux.git",
            "git_sha": "e22ce8eb631bdc47a4a4ea7ecf4e4ba499db4f93",
            "image_sha": "",
            "kconfig": [
                "tinyconfig"
            ],
            "kernel_image": "",
            "kernel_patch_file": "",
            "make_variables": {},
            "no_cache": false,
            "plan": "24D3YVohpg7m5vzTTnisWMts3V1",
            "project": "linaro/anders",
            "provisioning_time": "2022-01-25T22:56:18.621954",
            "result": "unknown",
            "running_time": null,
            "state": "provisioning",
            "target_arch": "arm64",
            "targets": [],
            "toolchain": "gcc-11",
            "uid": "24D3YafjctPF95DHQzGFf8LYfeU",
            "user": "anders.roxell@linaro.org",
            "user_agent": "tuxsuite/0.42.3",
            "waited_by": [],
            "warnings_count": 0
        },
        "24D3YahIrT4aTPMi89XUu5CAJ2q": {
            "build_name": "",
            "client_token": "7086cf4e-05eb-48a0-96e9-4323fadcf134",
            "download_url": "https://builds.tuxbuild.com/24D3YahIrT4aTPMi89XUu5CAJ2q/",
            "environment": {},
            "errors_count": 0,
            "finished_time": null,
            "git_ref": "v5.14-rc7",
            "git_repo": "https://git.kernel.org/pub/scm/linux/kernel/git/torvalds/linux.git",
            "git_sha": "e22ce8eb631bdc47a4a4ea7ecf4e4ba499db4f93",
            "image_sha": "",
            "kconfig": [
                "defconfig"
            ],
            "kernel_image": "",
            "kernel_patch_file": "",
            "make_variables": {
                "LLVM": "1",
                "LLVM_IAS": "1"
            },
            "no_cache": false,
            "plan": "24D3YVohpg7m5vzTTnisWMts3V1",
            "project": "linaro/anders",
            "provisioning_time": "2022-01-25T22:56:18.998582",
            "result": "unknown",
            "running_time": null,
            "state": "provisioning",
            "target_arch": "arm64",
            "targets": [],
            "toolchain": "clang-13",
            "uid": "24D3YahIrT4aTPMi89XUu5CAJ2q",
            "user": "anders.roxell@linaro.org",
            "user_agent": "tuxsuite/0.42.3",
            "waited_by": [],
            "warnings_count": 0
        },
        "24D3Yas7WKhsu2PHTzThPBp5YJ6": {
            "build_name": "",
            "client_token": "2f66ee26-86f2-473e-a344-1c9c9fe6369c",
            "download_url": "https://builds.tuxbuild.com/24D3Yas7WKhsu2PHTzThPBp5YJ6/",
            "environment": {},
            "errors_count": 0,
            "finished_time": null,
            "git_ref": "v5.14-rc7",
            "git_repo": "https://git.kernel.org/pub/scm/linux/kernel/git/torvalds/linux.git",
            "git_sha": "e22ce8eb631bdc47a4a4ea7ecf4e4ba499db4f93",
            "image_sha": "",
            "kconfig": [
                "tinyconfig"
            ],
            "kernel_image": "",
            "kernel_patch_file": "",
            "make_variables": {},
            "no_cache": false,
            "plan": "24D3YVohpg7m5vzTTnisWMts3V1",
            "project": "linaro/anders",
            "provisioning_time": "2022-01-25T22:56:18.865874",
            "result": "unknown",
            "running_time": null,
            "state": "provisioning",
            "target_arch": "arm64",
            "targets": [],
            "toolchain": "gcc-10",
            "uid": "24D3Yas7WKhsu2PHTzThPBp5YJ6",
            "user": "anders.roxell@linaro.org",
            "user_agent": "tuxsuite/0.42.3",
            "waited_by": [],
            "warnings_count": 0
        },
        "24D3Yb9FlkAhVdSbEOFaN4Aqm5o": {
            "build_name": "",
            "client_token": "5f02bb70-ef05-4f84-8b3d-fac77d54b8e9",
            "download_url": "https://builds.tuxbuild.com/24D3Yb9FlkAhVdSbEOFaN4Aqm5o/",
            "environment": {},
            "errors_count": 0,
            "finished_time": null,
            "git_ref": "v5.14-rc7",
            "git_repo": "https://git.kernel.org/pub/scm/linux/kernel/git/torvalds/linux.git",
            "git_sha": "e22ce8eb631bdc47a4a4ea7ecf4e4ba499db4f93",
            "image_sha": "",
            "kconfig": [
                "tinyconfig"
            ],
            "kernel_image": "",
            "kernel_patch_file": "",
            "make_variables": {
                "LLVM": "1",
                "LLVM_IAS": "1"
            },
            "no_cache": false,
            "plan": "24D3YVohpg7m5vzTTnisWMts3V1",
            "project": "linaro/anders",
            "provisioning_time": "2022-01-25T22:56:18.554060",
            "result": "unknown",
            "running_time": null,
            "state": "provisioning",
            "target_arch": "arm64",
            "targets": [],
            "toolchain": "clang-13",
            "uid": "24D3Yb9FlkAhVdSbEOFaN4Aqm5o",
            "user": "anders.roxell@linaro.org",
            "user_agent": "tuxsuite/0.42.3",
            "waited_by": [],
            "warnings_count": 0
        },
        "24D3YbxXnHCZWPTiKXCPC0rK7iZ": {
            "build_name": "",
            "client_token": "15b6a01e-bb9d-4052-b97d-1d892b3648de",
            "download_url": "https://builds.tuxbuild.com/24D3YbxXnHCZWPTiKXCPC0rK7iZ/",
            "environment": {},
            "errors_count": 0,
            "finished_time": null,
            "git_ref": "v5.14-rc7",
            "git_repo": "https://git.kernel.org/pub/scm/linux/kernel/git/torvalds/linux.git",
            "git_sha": "e22ce8eb631bdc47a4a4ea7ecf4e4ba499db4f93",
            "image_sha": "",
            "kconfig": [
                "defconfig"
            ],
            "kernel_image": "",
            "kernel_patch_file": "",
            "make_variables": {},
            "no_cache": false,
            "plan": "24D3YVohpg7m5vzTTnisWMts3V1",
            "project": "linaro/anders",
            "provisioning_time": "2022-01-25T22:56:18.977505",
            "result": "unknown",
            "running_time": null,
            "state": "provisioning",
            "target_arch": "arm64",
            "targets": [],
            "toolchain": "gcc-11",
            "uid": "24D3YbxXnHCZWPTiKXCPC0rK7iZ",
            "user": "anders.roxell@linaro.org",
            "user_agent": "tuxsuite/0.42.3",
            "waited_by": [],
            "warnings_count": 0
        },
        "24D3YcKAapnsbQVyja5HovNMj1j": {
            "build_name": "",
            "client_token": "882891b1-6829-4da2-9eb3-8d65ef87947a",
            "download_url": "https://builds.tuxbuild.com/24D3YcKAapnsbQVyja5HovNMj1j/",
            "environment": {},
            "errors_count": 0,
            "finished_time": null,
            "git_ref": "v5.14-rc7",
            "git_repo": "https://git.kernel.org/pub/scm/linux/kernel/git/torvalds/linux.git",
            "git_sha": "e22ce8eb631bdc47a4a4ea7ecf4e4ba499db4f93",
            "image_sha": "",
            "kconfig": [
                "tinyconfig"
            ],
            "kernel_image": "",
            "kernel_patch_file": "",
            "make_variables": {},
            "no_cache": false,
            "plan": "24D3YVohpg7m5vzTTnisWMts3V1",
            "project": "linaro/anders",
            "provisioning_time": "2022-01-25T22:56:18.689774",
            "result": "unknown",
            "running_time": null,
            "state": "provisioning",
            "target_arch": "arm64",
            "targets": [],
            "toolchain": "gcc-10",
            "uid": "24D3YcKAapnsbQVyja5HovNMj1j",
            "user": "anders.roxell@linaro.org",
            "user_agent": "tuxsuite/0.42.3",
            "waited_by": [],
            "warnings_count": 0
        },
        "24D3Ycc1cLrBA2LkmRM2rkvTfV5": {
            "build_name": "",
            "client_token": "8daf5e07-13f7-4f8a-80f1-1e0887c50c69",
            "download_url": "https://builds.tuxbuild.com/24D3Ycc1cLrBA2LkmRM2rkvTfV5/",
            "environment": {},
            "errors_count": 0,
            "finished_time": null,
            "git_ref": "v5.14-rc7",
            "git_repo": "https://git.kernel.org/pub/scm/linux/kernel/git/torvalds/linux.git",
            "git_sha": "e22ce8eb631bdc47a4a4ea7ecf4e4ba499db4f93",
            "image_sha": "",
            "kconfig": [
                "tinyconfig"
            ],
            "kernel_image": "",
            "kernel_patch_file": "",
            "make_variables": {},
            "no_cache": false,
            "plan": "24D3YVohpg7m5vzTTnisWMts3V1",
            "project": "linaro/anders",
            "provisioning_time": "2022-01-25T22:56:18.888418",
            "result": "unknown",
            "running_time": null,
            "state": "provisioning",
            "target_arch": "arm64",
            "targets": [],
            "toolchain": "gcc-11",
            "uid": "24D3Ycc1cLrBA2LkmRM2rkvTfV5",
            "user": "anders.roxell@linaro.org",
            "user_agent": "tuxsuite/0.42.3",
            "waited_by": [],
            "warnings_count": 0
        },
        "24D3YeHAHjVlbxJFlHVDYodQElE": {
            "build_name": "",
            "client_token": "1a82ae90-90de-4802-8e72-8dd22611f823",
            "download_url": "https://builds.tuxbuild.com/24D3YeHAHjVlbxJFlHVDYodQElE/",
            "environment": {},
            "errors_count": 0,
            "finished_time": null,
            "git_ref": "v5.14-rc7",
            "git_repo": "https://git.kernel.org/pub/scm/linux/kernel/git/torvalds/linux.git",
            "git_sha": "e22ce8eb631bdc47a4a4ea7ecf4e4ba499db4f93",
            "image_sha": "",
            "kconfig": [
                "tinyconfig"
            ],
            "kernel_image": "",
            "kernel_patch_file": "",
            "make_variables": {
                "LLVM": "1",
                "LLVM_IAS": "1"
            },
            "no_cache": false,
            "plan": "24D3YVohpg7m5vzTTnisWMts3V1",
            "project": "linaro/anders",
            "provisioning_time": "2022-01-25T22:56:18.642857",
            "result": "unknown",
            "running_time": null,
            "state": "provisioning",
            "target_arch": "arm64",
            "targets": [],
            "toolchain": "clang-13",
            "uid": "24D3YeHAHjVlbxJFlHVDYodQElE",
            "user": "anders.roxell@linaro.org",
            "user_agent": "tuxsuite/0.42.3",
            "waited_by": [],
            "warnings_count": 0
        },
        "24D3YeHAsBgjwUIl0b7jHMWOE5F": {
            "build_name": "",
            "client_token": "93ee611b-de0c-4e93-81b1-463072e4209f",
            "download_url": "https://builds.tuxbuild.com/24D3YeHAsBgjwUIl0b7jHMWOE5F/",
            "environment": {},
            "errors_count": 0,
            "finished_time": null,
            "git_ref": "v5.14-rc7",
            "git_repo": "https://git.kernel.org/pub/scm/linux/kernel/git/torvalds/linux.git",
            "git_sha": "e22ce8eb631bdc47a4a4ea7ecf4e4ba499db4f93",
            "image_sha": "",
            "kconfig": [
                "tinyconfig"
            ],
            "kernel_image": "",
            "kernel_patch_file": "",
            "make_variables": {
                "LLVM": "1",
                "LLVM_IAS": "1"
            },
            "no_cache": false,
            "plan": "24D3YVohpg7m5vzTTnisWMts3V1",
            "project": "linaro/anders",
            "provisioning_time": "2022-01-25T22:56:18.756357",
            "result": "unknown",
            "running_time": null,
            "state": "provisioning",
            "target_arch": "arm64",
            "targets": [],
            "toolchain": "clang-nightly",
            "uid": "24D3YeHAsBgjwUIl0b7jHMWOE5F",
            "user": "anders.roxell@linaro.org",
            "user_agent": "tuxsuite/0.42.3",
            "waited_by": [],
            "warnings_count": 0
        },
        "24D3YeI9UAtwjn1Oapu5O08d1dO": {
            "build_name": "",
            "client_token": "e18ab2ba-3176-48d1-a511-73b2a5b9f43f",
            "download_url": "https://builds.tuxbuild.com/24D3YeI9UAtwjn1Oapu5O08d1dO/",
            "environment": {},
            "errors_count": 0,
            "finished_time": null,
            "git_ref": "v5.14-rc7",
            "git_repo": "https://git.kernel.org/pub/scm/linux/kernel/git/torvalds/linux.git",
            "git_sha": "e22ce8eb631bdc47a4a4ea7ecf4e4ba499db4f93",
            "image_sha": "",
            "kconfig": [
                "tinyconfig"
            ],
            "kernel_image": "",
            "kernel_patch_file": "",
            "make_variables": {
                "LLVM": "1",
                "LLVM_IAS": "1"
            },
            "no_cache": false,
            "plan": "24D3YVohpg7m5vzTTnisWMts3V1",
            "project": "linaro/anders",
            "provisioning_time": "2022-01-25T22:56:18.929877",
            "result": "unknown",
            "running_time": null,
            "state": "provisioning",
            "target_arch": "arm64",
            "targets": [],
            "toolchain": "clang-nightly",
            "uid": "24D3YeI9UAtwjn1Oapu5O08d1dO",
            "user": "anders.roxell@linaro.org",
            "user_agent": "tuxsuite/0.42.3",
            "waited_by": [],
            "warnings_count": 0
        },
        "24D3YeJFFtCNCkDWRsSJv3KW0TA": {
            "build_name": "",
            "client_token": "0d4846dc-9776-475d-9fb5-3c9e17e114db",
            "download_url": "https://builds.tuxbuild.com/24D3YeJFFtCNCkDWRsSJv3KW0TA/",
            "environment": {},
            "errors_count": 0,
            "finished_time": null,
            "git_ref": "v5.14-rc7",
            "git_repo": "https://git.kernel.org/pub/scm/linux/kernel/git/torvalds/linux.git",
            "git_sha": "e22ce8eb631bdc47a4a4ea7ecf4e4ba499db4f93",
            "image_sha": "",
            "kconfig": [
                "tinyconfig"
            ],
            "kernel_image": "",
            "kernel_patch_file": "",
            "make_variables": {
                "LLVM": "1",
                "LLVM_IAS": "1"
            },
            "no_cache": false,
            "plan": "24D3YVohpg7m5vzTTnisWMts3V1",
            "project": "linaro/anders",
            "provisioning_time": "2022-01-25T22:56:18.909253",
            "result": "unknown",
            "running_time": null,
            "state": "provisioning",
            "target_arch": "arm64",
            "targets": [],
            "toolchain": "clang-13",
            "uid": "24D3YeJFFtCNCkDWRsSJv3KW0TA",
            "user": "anders.roxell@linaro.org",
            "user_agent": "tuxsuite/0.42.3",
            "waited_by": [],
            "warnings_count": 0
        },
        "24D3YeKgyv0IMhjnqEylbeaQAur": {
            "build_name": "",
            "client_token": "5a583835-3fd6-4322-8a9a-a893bf11ba70",
            "download_url": "https://builds.tuxbuild.com/24D3YeKgyv0IMhjnqEylbeaQAur/",
            "environment": {},
            "errors_count": 0,
            "finished_time": null,
            "git_ref": "v5.14-rc7",
            "git_repo": "https://git.kernel.org/pub/scm/linux/kernel/git/torvalds/linux.git",
            "git_sha": "e22ce8eb631bdc47a4a4ea7ecf4e4ba499db4f93",
            "image_sha": "",
            "kconfig": [
                "tinyconfig"
            ],
            "kernel_image": "",
            "kernel_patch_file": "",
            "make_variables": {},
            "no_cache": false,
            "plan": "24D3YVohpg7m5vzTTnisWMts3V1",
            "project": "linaro/anders",
            "provisioning_time": "2022-01-25T22:56:18.600673",
            "result": "unknown",
            "running_time": null,
            "state": "provisioning",
            "target_arch": "arm64",
            "targets": [],
            "toolchain": "gcc-10",
            "uid": "24D3YeKgyv0IMhjnqEylbeaQAur",
            "user": "anders.roxell@linaro.org",
            "user_agent": "tuxsuite/0.42.3",
            "waited_by": [],
            "warnings_count": 0
        },
        "24D3YeMf6mIlxwFwdJf9SNPcCG3": {
            "build_name": "",
            "client_token": "f1fecf23-6ba9-4385-9b99-186c450f39ce",
            "download_url": "https://builds.tuxbuild.com/24D3YeMf6mIlxwFwdJf9SNPcCG3/",
            "environment": {},
            "errors_count": 0,
            "finished_time": null,
            "git_ref": "v5.14-rc7",
            "git_repo": "https://git.kernel.org/pub/scm/linux/kernel/git/torvalds/linux.git",
            "git_sha": "e22ce8eb631bdc47a4a4ea7ecf4e4ba499db4f93",
            "image_sha": "",
            "kconfig": [
                "tinyconfig"
            ],
            "kernel_image": "",
            "kernel_patch_file": "",
            "make_variables": {
                "LLVM": "1",
                "LLVM_IAS": "1"
            },
            "no_cache": false,
            "plan": "24D3YVohpg7m5vzTTnisWMts3V1",
            "project": "linaro/anders",
            "provisioning_time": "2022-01-25T22:56:18.577265",
            "result": "unknown",
            "running_time": null,
            "state": "provisioning",
            "target_arch": "arm64",
            "targets": [],
            "toolchain": "clang-nightly",
            "uid": "24D3YeMf6mIlxwFwdJf9SNPcCG3",
            "user": "anders.roxell@linaro.org",
            "user_agent": "tuxsuite/0.42.3",
            "waited_by": [],
            "warnings_count": 0
        },
        "24D3YejWkp9LzktadmaifVpI7HA": {
            "build_name": "",
            "client_token": "1e16d618-b8bb-435b-a60a-7bec3dfcb365",
            "download_url": "https://builds.tuxbuild.com/24D3YejWkp9LzktadmaifVpI7HA/",
            "environment": {},
            "errors_count": 0,
            "finished_time": null,
            "git_ref": "v5.14-rc7",
            "git_repo": "https://git.kernel.org/pub/scm/linux/kernel/git/torvalds/linux.git",
            "git_sha": "e22ce8eb631bdc47a4a4ea7ecf4e4ba499db4f93",
            "image_sha": "",
            "kconfig": [
                "tinyconfig"
            ],
            "kernel_image": "",
            "kernel_patch_file": "",
            "make_variables": {},
            "no_cache": false,
            "plan": "24D3YVohpg7m5vzTTnisWMts3V1",
            "project": "linaro/anders",
            "provisioning_time": "2022-01-25T22:56:18.778483",
            "result": "unknown",
            "running_time": null,
            "state": "provisioning",
            "target_arch": "arm64",
            "targets": [],
            "toolchain": "gcc-10",
            "uid": "24D3YejWkp9LzktadmaifVpI7HA",
            "user": "anders.roxell@linaro.org",
            "user_agent": "tuxsuite/0.42.3",
            "waited_by": [],
            "warnings_count": 0
        },
        "24D3YeunEj46xF215rqe1Zy5Lx2": {
            "build_name": "",
            "client_token": "74f110cd-4722-4f96-aacb-7fddd8473859",
            "download_url": "https://builds.tuxbuild.com/24D3YeunEj46xF215rqe1Zy5Lx2/",
            "environment": {},
            "errors_count": 0,
            "finished_time": null,
            "git_ref": "v5.14-rc7",
            "git_repo": "https://git.kernel.org/pub/scm/linux/kernel/git/torvalds/linux.git",
            "git_sha": "e22ce8eb631bdc47a4a4ea7ecf4e4ba499db4f93",
            "image_sha": "",
            "kconfig": [
                "tinyconfig"
            ],
            "kernel_image": "",
            "kernel_patch_file": "",
            "make_variables": {
                "LLVM": "1",
                "LLVM_IAS": "1"
            },
            "no_cache": false,
            "plan": "24D3YVohpg7m5vzTTnisWMts3V1",
            "project": "linaro/anders",
            "provisioning_time": "2022-01-25T22:56:18.822077",
            "result": "unknown",
            "running_time": null,
            "state": "provisioning",
            "target_arch": "arm64",
            "targets": [],
            "toolchain": "clang-13",
            "uid": "24D3YeunEj46xF215rqe1Zy5Lx2",
            "user": "anders.roxell@linaro.org",
            "user_agent": "tuxsuite/0.42.3",
            "waited_by": [],
            "warnings_count": 0
        },
        "24D3YfZtYj8lqlAVjcvlcwNOmOF": {
            "build_name": "",
            "client_token": "9755148a-7a88-4e1e-a869-8d8076c09fb1",
            "download_url": "https://builds.tuxbuild.com/24D3YfZtYj8lqlAVjcvlcwNOmOF/",
            "environment": {},
            "errors_count": 0,
            "finished_time": null,
            "git_ref": "v5.14-rc7",
            "git_repo": "https://git.kernel.org/pub/scm/linux/kernel/git/torvalds/linux.git",
            "git_sha": "e22ce8eb631bdc47a4a4ea7ecf4e4ba499db4f93",
            "image_sha": "",
            "kconfig": [
                "tinyconfig"
            ],
            "kernel_image": "",
            "kernel_patch_file": "",
            "make_variables": {
                "LLVM": "1",
                "LLVM_IAS": "1"
            },
            "no_cache": false,
            "plan": "24D3YVohpg7m5vzTTnisWMts3V1",
            "project": "linaro/anders",
            "provisioning_time": "2022-01-25T22:56:18.734981",
            "result": "unknown",
            "running_time": null,
            "state": "provisioning",
            "target_arch": "arm64",
            "targets": [],
            "toolchain": "clang-13",
            "uid": "24D3YfZtYj8lqlAVjcvlcwNOmOF",
            "user": "anders.roxell@linaro.org",
            "user_agent": "tuxsuite/0.42.3",
            "waited_by": [],
            "warnings_count": 0
        },
        "24D3Yfh3QLE0GJXwb6uvcKVey0c": {
            "build_name": "",
            "client_token": "8d85099f-b485-414b-8f88-bcac2aefe08e",
            "download_url": "https://builds.tuxbuild.com/24D3Yfh3QLE0GJXwb6uvcKVey0c/",
            "environment": {},
            "errors_count": 0,
            "finished_time": null,
            "git_ref": "v5.14-rc7",
            "git_repo": "https://git.kernel.org/pub/scm/linux/kernel/git/torvalds/linux.git",
            "git_sha": "e22ce8eb631bdc47a4a4ea7ecf4e4ba499db4f93",
            "image_sha": "",
            "kconfig": [
                "tinyconfig"
            ],
            "kernel_image": "",
            "kernel_patch_file": "",
            "make_variables": {},
            "no_cache": false,
            "plan": "24D3YVohpg7m5vzTTnisWMts3V1",
            "project": "linaro/anders",
            "provisioning_time": "2022-01-25T22:56:18.504372",
            "result": "unknown",
            "running_time": null,
            "state": "provisioning",
            "target_arch": "arm64",
            "targets": [],
            "toolchain": "gcc-10",
            "uid": "24D3Yfh3QLE0GJXwb6uvcKVey0c",
            "user": "anders.roxell@linaro.org",
            "user_agent": "tuxsuite/0.42.3",
            "waited_by": [],
            "warnings_count": 0
        },
        "24D3Yfp2IdjKmvuqMDyL37RBIFz": {
            "build_name": "",
            "client_token": "2ed56fca-d32c-4707-8511-e4b70a33b7ef",
            "download_url": "https://builds.tuxbuild.com/24D3Yfp2IdjKmvuqMDyL37RBIFz/",
            "environment": {},
            "errors_count": 0,
            "finished_time": null,
            "git_ref": "v5.14-rc7",
            "git_repo": "https://git.kernel.org/pub/scm/linux/kernel/git/torvalds/linux.git",
            "git_sha": "e22ce8eb631bdc47a4a4ea7ecf4e4ba499db4f93",
            "image_sha": "",
            "kconfig": [
                "tinyconfig"
            ],
            "kernel_image": "",
            "kernel_patch_file": "",
            "make_variables": {
                "LLVM": "1",
                "LLVM_IAS": "1"
            },
            "no_cache": false,
            "plan": "24D3YVohpg7m5vzTTnisWMts3V1",
            "project": "linaro/anders",
            "provisioning_time": "2022-01-25T22:56:18.666034",
            "result": "unknown",
            "running_time": null,
            "state": "provisioning",
            "target_arch": "arm64",
            "targets": [],
            "toolchain": "clang-nightly",
            "uid": "24D3Yfp2IdjKmvuqMDyL37RBIFz",
            "user": "anders.roxell@linaro.org",
            "user_agent": "tuxsuite/0.42.3",
            "waited_by": [],
            "warnings_count": 0
        },
        "24D3Yg0Xg1yd31Nja79bJwu1y7E": {
            "build_name": "",
            "client_token": "45b456ae-d55d-4525-8239-0a71df3f6c36",
            "download_url": "https://builds.tuxbuild.com/24D3Yg0Xg1yd31Nja79bJwu1y7E/",
            "environment": {},
            "errors_count": 0,
            "finished_time": null,
            "git_ref": "v5.14-rc7",
            "git_repo": "https://git.kernel.org/pub/scm/linux/kernel/git/torvalds/linux.git",
            "git_sha": "e22ce8eb631bdc47a4a4ea7ecf4e4ba499db4f93",
            "image_sha": "",
            "kconfig": [
                "tinyconfig"
            ],
            "kernel_image": "",
            "kernel_patch_file": "",
            "make_variables": {},
            "no_cache": false,
            "plan": "24D3YVohpg7m5vzTTnisWMts3V1",
            "project": "linaro/anders",
            "provisioning_time": "2022-01-25T22:56:18.801315",
            "result": "unknown",
            "running_time": null,
            "state": "provisioning",
            "target_arch": "arm64",
            "targets": [],
            "toolchain": "gcc-11",
            "uid": "24D3Yg0Xg1yd31Nja79bJwu1y7E",
            "user": "anders.roxell@linaro.org",
            "user_agent": "tuxsuite/0.42.3",
            "waited_by": [],
            "warnings_count": 0
        },
        "24D3Yh2mrGhfGLoSilOx9E8C0Ti": {
            "build_name": "",
            "client_token": "a429316c-b563-47c0-81c2-c84af35a5c03",
            "download_url": "https://builds.tuxbuild.com/24D3Yh2mrGhfGLoSilOx9E8C0Ti/",
            "environment": {},
            "errors_count": 0,
            "finished_time": null,
            "git_ref": "v5.14-rc7",
            "git_repo": "https://git.kernel.org/pub/scm/linux/kernel/git/torvalds/linux.git",
            "git_sha": "e22ce8eb631bdc47a4a4ea7ecf4e4ba499db4f93",
            "image_sha": "",
            "kconfig": [
                "defconfig"
            ],
            "kernel_image": "",
            "kernel_patch_file": "",
            "make_variables": {},
            "no_cache": false,
            "plan": "24D3YVohpg7m5vzTTnisWMts3V1",
            "project": "linaro/anders",
            "provisioning_time": "2022-01-25T22:56:18.954995",
            "result": "unknown",
            "running_time": null,
            "state": "provisioning",
            "target_arch": "arm64",
            "targets": [],
            "toolchain": "gcc-10",
            "uid": "24D3Yh2mrGhfGLoSilOx9E8C0Ti",
            "user": "anders.roxell@linaro.org",
            "user_agent": "tuxsuite/0.42.3",
            "waited_by": [],
            "warnings_count": 0
        },
        "24D3YhEcZD6I3bfgYIduKAu9Wrm": {
            "build_name": "",
            "client_token": "5ca0c829-89ac-4d64-918d-e6a03975c9c8",
            "download_url": "https://builds.tuxbuild.com/24D3YhEcZD6I3bfgYIduKAu9Wrm/",
            "environment": {},
            "errors_count": 0,
            "finished_time": null,
            "git_ref": "v5.14-rc7",
            "git_repo": "https://git.kernel.org/pub/scm/linux/kernel/git/torvalds/linux.git",
            "git_sha": "e22ce8eb631bdc47a4a4ea7ecf4e4ba499db4f93",
            "image_sha": "",
            "kconfig": [
                "tinyconfig"
            ],
            "kernel_image": "",
            "kernel_patch_file": "",
            "make_variables": {
                "LLVM": "1",
                "LLVM_IAS": "1"
            },
            "no_cache": false,
            "plan": "24D3YVohpg7m5vzTTnisWMts3V1",
            "project": "linaro/anders",
            "provisioning_time": "2022-01-25T22:56:18.845120",
            "result": "unknown",
            "running_time": null,
            "state": "provisioning",
            "target_arch": "arm64",
            "targets": [],
            "toolchain": "clang-nightly",
            "uid": "24D3YhEcZD6I3bfgYIduKAu9Wrm",
            "user": "anders.roxell@linaro.org",
            "user_agent": "tuxsuite/0.42.3",
            "waited_by": [],
            "warnings_count": 0
        },
        "24D3YhazXz5YETz0jhccvGOLQTq": {
            "build_name": "",
            "client_token": "1f010ade-3d19-4249-941b-e536101c8009",
            "download_url": "https://builds.tuxbuild.com/24D3YhazXz5YETz0jhccvGOLQTq/",
            "environment": {},
            "errors_count": 0,
            "finished_time": null,
            "git_ref": "v5.14-rc7",
            "git_repo": "https://git.kernel.org/pub/scm/linux/kernel/git/torvalds/linux.git",
            "git_sha": "e22ce8eb631bdc47a4a4ea7ecf4e4ba499db4f93",
            "image_sha": "",
            "kconfig": [
                "tinyconfig"
            ],
            "kernel_image": "",
            "kernel_patch_file": "",
            "make_variables": {},
            "no_cache": false,
            "plan": "24D3YVohpg7m5vzTTnisWMts3V1",
            "project": "linaro/anders",
            "provisioning_time": "2022-01-25T22:56:18.713265",
            "result": "unknown",
            "running_time": null,
            "state": "provisioning",
            "target_arch": "arm64",
            "targets": [],
            "toolchain": "gcc-11",
            "uid": "24D3YhazXz5YETz0jhccvGOLQTq",
            "user": "anders.roxell@linaro.org",
            "user_agent": "tuxsuite/0.42.3",
            "waited_by": [],
            "warnings_count": 0
        },
        "24D3YiBHv0yHakB1ChN4Qqzg1yw": {
            "build_name": "",
            "client_token": "1af73507-6739-48b9-bcde-5300184ebaf6",
            "download_url": "https://builds.tuxbuild.com/24D3YiBHv0yHakB1ChN4Qqzg1yw/",
            "environment": {},
            "errors_count": 0,
            "finished_time": null,
            "git_ref": "v5.14-rc7",
            "git_repo": "https://git.kernel.org/pub/scm/linux/kernel/git/torvalds/linux.git",
            "git_sha": "e22ce8eb631bdc47a4a4ea7ecf4e4ba499db4f93",
            "image_sha": "",
            "kconfig": [
                "tinyconfig"
            ],
            "kernel_image": "",
            "kernel_patch_file": "",
            "make_variables": {},
            "no_cache": false,
            "plan": "24D3YVohpg7m5vzTTnisWMts3V1",
            "project": "linaro/anders",
            "provisioning_time": "2022-01-25T22:56:18.529784",
            "result": "unknown",
            "running_time": null,
            "state": "provisioning",
            "target_arch": "arm64",
            "targets": [],
            "toolchain": "gcc-11",
            "uid": "24D3YiBHv0yHakB1ChN4Qqzg1yw",
            "user": "anders.roxell@linaro.org",
            "user_agent": "tuxsuite/0.42.3",
            "waited_by": [],
            "warnings_count": 0
        },
        "24D3YiGoRfAwBfqUzFctFwboJwf": {
            "build_name": "",
            "client_token": "46d2c974-66dc-468d-8669-26e16ff12514",
            "download_url": "https://builds.tuxbuild.com/24D3YiGoRfAwBfqUzFctFwboJwf/",
            "environment": {},
            "errors_count": 0,
            "finished_time": null,
            "git_ref": "v5.14-rc7",
            "git_repo": "https://git.kernel.org/pub/scm/linux/kernel/git/torvalds/linux.git",
            "git_sha": "e22ce8eb631bdc47a4a4ea7ecf4e4ba499db4f93",
            "image_sha": "",
            "kconfig": [
                "defconfig"
            ],
            "kernel_image": "",
            "kernel_patch_file": "",
            "make_variables": {
                "LLVM": "1",
                "LLVM_IAS": "1"
            },
            "no_cache": false,
            "plan": "24D3YVohpg7m5vzTTnisWMts3V1",
            "project": "linaro/anders",
            "provisioning_time": "2022-01-25T22:56:19.111714",
            "result": "unknown",
            "running_time": null,
            "state": "provisioning",
            "target_arch": "arm64",
            "targets": [],
            "toolchain": "clang-nightly",
            "uid": "24D3YiGoRfAwBfqUzFctFwboJwf",
            "user": "anders.roxell@linaro.org",
            "user_agent": "tuxsuite/0.42.3",
            "waited_by": [],
            "warnings_count": 0
        },
        "24D3YiMx8nxRYVda8OrRbJSh5vK": {
            "build_name": "",
            "client_token": "d2962875-000b-4217-85e8-939ccae6b8e6",
            "download_url": "https://builds.tuxbuild.com/24D3YiMx8nxRYVda8OrRbJSh5vK/",
            "environment": {},
            "errors_count": 0,
            "finished_time": null,
            "git_ref": "v5.14-rc7",
            "git_repo": "https://git.kernel.org/pub/scm/linux/kernel/git/torvalds/linux.git",
            "git_sha": "e22ce8eb631bdc47a4a4ea7ecf4e4ba499db4f93",
            "image_sha": "",
            "kconfig": [
                "defconfig"
            ],
            "kernel_image": "",
            "kernel_patch_file": "",
            "make_variables": {
                "LLVM": "1",
                "LLVM_IAS": "1"
            },
            "no_cache": false,
            "plan": "24D3YVohpg7m5vzTTnisWMts3V1",
            "project": "linaro/anders",
            "provisioning_time": "2022-01-25T22:56:19.348371",
            "result": "unknown",
            "running_time": null,
            "state": "provisioning",
            "target_arch": "arm64",
            "targets": [],
            "toolchain": "clang-13",
            "uid": "24D3YiMx8nxRYVda8OrRbJSh5vK",
            "user": "anders.roxell@linaro.org",
            "user_agent": "tuxsuite/0.42.3",
            "waited_by": [],
            "warnings_count": 0
        },
        "24D3Yjb6NbQQyRvkFvg7baspJXh": {
            "build_name": "",
            "client_token": "b8a4096f-cba5-4b89-9d29-9bd6a2b82876",
            "download_url": "https://builds.tuxbuild.com/24D3Yjb6NbQQyRvkFvg7baspJXh/",
            "environment": {},
            "errors_count": 0,
            "finished_time": null,
            "git_ref": "v5.14-rc7",
            "git_repo": "https://git.kernel.org/pub/scm/linux/kernel/git/torvalds/linux.git",
            "git_sha": "e22ce8eb631bdc47a4a4ea7ecf4e4ba499db4f93",
            "image_sha": "",
            "kconfig": [
                "defconfig"
            ],
            "kernel_image": "",
            "kernel_patch_file": "",
            "make_variables": {},
            "no_cache": false,
            "plan": "24D3YVohpg7m5vzTTnisWMts3V1",
            "project": "linaro/anders",
            "provisioning_time": "2022-01-25T22:56:19.132592",
            "result": "unknown",
            "running_time": null,
            "state": "provisioning",
            "target_arch": "arm64",
            "targets": [],
            "toolchain": "gcc-10",
            "uid": "24D3Yjb6NbQQyRvkFvg7baspJXh",
            "user": "anders.roxell@linaro.org",
            "user_agent": "tuxsuite/0.42.3",
            "waited_by": [],
            "warnings_count": 0
        },
        "24D3Yjk68SSp53g9G5yDTtIyHeQ": {
            "build_name": "",
            "client_token": "20b9fef8-b600-4af5-ade6-43bd2abed129",
            "download_url": "https://builds.tuxbuild.com/24D3Yjk68SSp53g9G5yDTtIyHeQ/",
            "environment": {},
            "errors_count": 0,
            "finished_time": null,
            "git_ref": "v5.14-rc7",
            "git_repo": "https://git.kernel.org/pub/scm/linux/kernel/git/torvalds/linux.git",
            "git_sha": "e22ce8eb631bdc47a4a4ea7ecf4e4ba499db4f93",
            "image_sha": "",
            "kconfig": [
                "defconfig"
            ],
            "kernel_image": "",
            "kernel_patch_file": "",
            "make_variables": {
                "LLVM": "1",
                "LLVM_IAS": "1"
            },
            "no_cache": false,
            "plan": "24D3YVohpg7m5vzTTnisWMts3V1",
            "project": "linaro/anders",
            "provisioning_time": "2022-01-25T22:56:19.283044",
            "result": "unknown",
            "running_time": null,
            "state": "provisioning",
            "target_arch": "arm64",
            "targets": [],
            "toolchain": "clang-nightly",
            "uid": "24D3Yjk68SSp53g9G5yDTtIyHeQ",
            "user": "anders.roxell@linaro.org",
            "user_agent": "tuxsuite/0.42.3",
            "waited_by": [],
            "warnings_count": 0
        },
        "24D3Yks7RwiD46hyEHKAqp9vcId": {
            "build_name": "",
            "client_token": "34c09f35-8de8-4fe3-86e8-dd2ddaa4f129",
            "download_url": "https://builds.tuxbuild.com/24D3Yks7RwiD46hyEHKAqp9vcId/",
            "environment": {},
            "errors_count": 0,
            "finished_time": null,
            "git_ref": "v5.14-rc7",
            "git_repo": "https://git.kernel.org/pub/scm/linux/kernel/git/torvalds/linux.git",
            "git_sha": "e22ce8eb631bdc47a4a4ea7ecf4e4ba499db4f93",
            "image_sha": "",
            "kconfig": [
                "defconfig"
            ],
            "kernel_image": "",
            "kernel_patch_file": "",
            "make_variables": {
                "LLVM": "1",
                "LLVM_IAS": "1"
            },
            "no_cache": false,
            "plan": "24D3YVohpg7m5vzTTnisWMts3V1",
            "project": "linaro/anders",
            "provisioning_time": "2022-01-25T22:56:19.021376",
            "result": "unknown",
            "running_time": null,
            "state": "provisioning",
            "target_arch": "arm64",
            "targets": [],
            "toolchain": "clang-nightly",
            "uid": "24D3Yks7RwiD46hyEHKAqp9vcId",
            "user": "anders.roxell@linaro.org",
            "user_agent": "tuxsuite/0.42.3",
            "waited_by": [],
            "warnings_count": 0
        },
        "24D3YlRyn597l5DteAZWIIpbO63": {
            "build_name": "",
            "client_token": "6364aa8f-fc5f-44ed-9562-8fae0bef5687",
            "download_url": "https://builds.tuxbuild.com/24D3YlRyn597l5DteAZWIIpbO63/",
            "environment": {},
            "errors_count": 0,
            "finished_time": null,
            "git_ref": "v5.14-rc7",
            "git_repo": "https://git.kernel.org/pub/scm/linux/kernel/git/torvalds/linux.git",
            "git_sha": "e22ce8eb631bdc47a4a4ea7ecf4e4ba499db4f93",
            "image_sha": "",
            "kconfig": [
                "defconfig"
            ],
            "kernel_image": "",
            "kernel_patch_file": "",
            "make_variables": {},
            "no_cache": false,
            "plan": "24D3YVohpg7m5vzTTnisWMts3V1",
            "project": "linaro/anders",
            "provisioning_time": "2022-01-25T22:56:19.239572",
            "result": "unknown",
            "running_time": null,
            "state": "provisioning",
            "target_arch": "arm64",
            "targets": [],
            "toolchain": "gcc-11",
            "uid": "24D3YlRyn597l5DteAZWIIpbO63",
            "user": "anders.roxell@linaro.org",
            "user_agent": "tuxsuite/0.42.3",
            "waited_by": [],
            "warnings_count": 0
        },
        "24D3Ylu2sihu97R3yPs0jS8Kx8M": {
            "build_name": "",
            "client_token": "133b5191-ee5a-4508-a6b4-24df835d876d",
            "download_url": "https://builds.tuxbuild.com/24D3Ylu2sihu97R3yPs0jS8Kx8M/",
            "environment": {},
            "errors_count": 0,
            "finished_time": null,
            "git_ref": "v5.14-rc7",
            "git_repo": "https://git.kernel.org/pub/scm/linux/kernel/git/torvalds/linux.git",
            "git_sha": "e22ce8eb631bdc47a4a4ea7ecf4e4ba499db4f93",
            "image_sha": "",
            "kconfig": [
                "defconfig"
            ],
            "kernel_image": "",
            "kernel_patch_file": "",
            "make_variables": {},
            "no_cache": false,
            "plan": "24D3YVohpg7m5vzTTnisWMts3V1",
            "project": "linaro/anders",
            "provisioning_time": "2022-01-25T22:56:19.066552",
            "result": "unknown",
            "running_time": null,
            "state": "provisioning",
            "target_arch": "arm64",
            "targets": [],
            "toolchain": "gcc-11",
            "uid": "24D3Ylu2sihu97R3yPs0jS8Kx8M",
            "user": "anders.roxell@linaro.org",
            "user_agent": "tuxsuite/0.42.3",
            "waited_by": [],
            "warnings_count": 0
        },
        "24D3YmdsMuXwFL2dvkni34ZN0wZ": {
            "build_name": "",
            "client_token": "ff45525f-d573-4d2e-9697-b517cc99defc",
            "download_url": "https://builds.tuxbuild.com/24D3YmdsMuXwFL2dvkni34ZN0wZ/",
            "environment": {},
            "errors_count": 0,
            "finished_time": null,
            "git_ref": "v5.14-rc7",
            "git_repo": "https://git.kernel.org/pub/scm/linux/kernel/git/torvalds/linux.git",
            "git_sha": "e22ce8eb631bdc47a4a4ea7ecf4e4ba499db4f93",
            "image_sha": "",
            "kconfig": [
                "defconfig"
            ],
            "kernel_image": "",
            "kernel_patch_file": "",
            "make_variables": {},
            "no_cache": false,
            "plan": "24D3YVohpg7m5vzTTnisWMts3V1",
            "project": "linaro/anders",
            "provisioning_time": "2022-01-25T22:56:19.153916",
            "result": "unknown",
            "running_time": null,
            "state": "provisioning",
            "target_arch": "arm64",
            "targets": [],
            "toolchain": "gcc-11",
            "uid": "24D3YmdsMuXwFL2dvkni34ZN0wZ",
            "user": "anders.roxell@linaro.org",
            "user_agent": "tuxsuite/0.42.3",
            "waited_by": [],
            "warnings_count": 0
        },
        "24D3YnBBLAKAx1nE4wuFZYHTlar": {
            "build_name": "",
            "client_token": "1177d7ea-93f2-4b0b-9f8c-a82e29528130",
            "download_url": "https://builds.tuxbuild.com/24D3YnBBLAKAx1nE4wuFZYHTlar/",
            "environment": {},
            "errors_count": 0,
            "finished_time": null,
            "git_ref": "v5.14-rc7",
            "git_repo": "https://git.kernel.org/pub/scm/linux/kernel/git/torvalds/linux.git",
            "git_sha": "e22ce8eb631bdc47a4a4ea7ecf4e4ba499db4f93",
            "image_sha": "",
            "kconfig": [
                "defconfig"
            ],
            "kernel_image": "",
            "kernel_patch_file": "",
            "make_variables": {
                "LLVM": "1",
                "LLVM_IAS": "1"
            },
            "no_cache": false,
            "plan": "24D3YVohpg7m5vzTTnisWMts3V1",
            "project": "linaro/anders",
            "provisioning_time": "2022-01-25T22:56:19.261826",
            "result": "unknown",
            "running_time": null,
            "state": "provisioning",
            "target_arch": "arm64",
            "targets": [],
            "toolchain": "clang-13",
            "uid": "24D3YnBBLAKAx1nE4wuFZYHTlar",
            "user": "anders.roxell@linaro.org",
            "user_agent": "tuxsuite/0.42.3",
            "waited_by": [],
            "warnings_count": 0
        },
        "24D3YnqVJbUAl6ZIaoBKbxUEaRe": {
            "build_name": "",
            "client_token": "b7cd5952-a4fc-4695-a61e-1315bb5bf6e7",
            "download_url": "https://builds.tuxbuild.com/24D3YnqVJbUAl6ZIaoBKbxUEaRe/",
            "environment": {},
            "errors_count": 0,
            "finished_time": null,
            "git_ref": "v5.14-rc7",
            "git_repo": "https://git.kernel.org/pub/scm/linux/kernel/git/torvalds/linux.git",
            "git_sha": "e22ce8eb631bdc47a4a4ea7ecf4e4ba499db4f93",
            "image_sha": "",
            "kconfig": [
                "defconfig"
            ],
            "kernel_image": "",
            "kernel_patch_file": "",
            "make_variables": {},
            "no_cache": false,
            "plan": "24D3YVohpg7m5vzTTnisWMts3V1",
            "project": "linaro/anders",
            "provisioning_time": "2022-01-25T22:56:19.304545",
            "result": "unknown",
            "running_time": null,
            "state": "provisioning",
            "target_arch": "arm64",
            "targets": [],
            "toolchain": "gcc-10",
            "uid": "24D3YnqVJbUAl6ZIaoBKbxUEaRe",
            "user": "anders.roxell@linaro.org",
            "user_agent": "tuxsuite/0.42.3",
            "waited_by": [],
            "warnings_count": 0
        },
        "24D3YnuuaASHsdNnhsBkGKLc90F": {
            "build_name": "",
            "client_token": "8854cd77-7119-4325-b133-89d75d32ae3f",
            "download_url": "https://builds.tuxbuild.com/24D3YnuuaASHsdNnhsBkGKLc90F/",
            "environment": {},
            "errors_count": 0,
            "finished_time": null,
            "git_ref": "v5.14-rc7",
            "git_repo": "https://git.kernel.org/pub/scm/linux/kernel/git/torvalds/linux.git",
            "git_sha": "e22ce8eb631bdc47a4a4ea7ecf4e4ba499db4f93",
            "image_sha": "",
            "kconfig": [
                "defconfig"
            ],
            "kernel_image": "",
            "kernel_patch_file": "",
            "make_variables": {
                "LLVM": "1",
                "LLVM_IAS": "1"
            },
            "no_cache": false,
            "plan": "24D3YVohpg7m5vzTTnisWMts3V1",
            "project": "linaro/anders",
            "provisioning_time": "2022-01-25T22:56:19.197991",
            "result": "unknown",
            "running_time": null,
            "state": "provisioning",
            "target_arch": "arm64",
            "targets": [],
            "toolchain": "clang-nightly",
            "uid": "24D3YnuuaASHsdNnhsBkGKLc90F",
            "user": "anders.roxell@linaro.org",
            "user_agent": "tuxsuite/0.42.3",
            "waited_by": [],
            "warnings_count": 0
        },
        "24D3Yoj6IRg7lZdJiHnpduhkWz3": {
            "build_name": "",
            "client_token": "6945123b-752b-4f39-8a2e-7aecffeb9801",
            "download_url": "https://builds.tuxbuild.com/24D3Yoj6IRg7lZdJiHnpduhkWz3/",
            "environment": {},
            "errors_count": 0,
            "finished_time": null,
            "git_ref": "v5.14-rc7",
            "git_repo": "https://git.kernel.org/pub/scm/linux/kernel/git/torvalds/linux.git",
            "git_sha": "e22ce8eb631bdc47a4a4ea7ecf4e4ba499db4f93",
            "image_sha": "",
            "kconfig": [
                "defconfig"
            ],
            "kernel_image": "",
            "kernel_patch_file": "",
            "make_variables": {
                "LLVM": "1",
                "LLVM_IAS": "1"
            },
            "no_cache": false,
            "plan": "24D3YVohpg7m5vzTTnisWMts3V1",
            "project": "linaro/anders",
            "provisioning_time": "2022-01-25T22:56:19.090942",
            "result": "unknown",
            "running_time": null,
            "state": "provisioning",
            "target_arch": "arm64",
            "targets": [],
            "toolchain": "clang-13",
            "uid": "24D3Yoj6IRg7lZdJiHnpduhkWz3",
            "user": "anders.roxell@linaro.org",
            "user_agent": "tuxsuite/0.42.3",
            "waited_by": [],
            "warnings_count": 0
        },
        "24D3YouTZt9uMPrGiDxxKYrkfiO": {
            "build_name": "",
            "client_token": "91a4a3c0-d30c-42ab-8008-e9ca433477fc",
            "download_url": "https://builds.tuxbuild.com/24D3YouTZt9uMPrGiDxxKYrkfiO/",
            "environment": {},
            "errors_count": 0,
            "finished_time": null,
            "git_ref": "v5.14-rc7",
            "git_repo": "https://git.kernel.org/pub/scm/linux/kernel/git/torvalds/linux.git",
            "git_sha": "e22ce8eb631bdc47a4a4ea7ecf4e4ba499db4f93",
            "image_sha": "",
            "kconfig": [
                "defconfig"
            ],
            "kernel_image": "",
            "kernel_patch_file": "",
            "make_variables": {
                "LLVM": "1",
                "LLVM_IAS": "1"
            },
            "no_cache": false,
            "plan": "24D3YVohpg7m5vzTTnisWMts3V1",
            "project": "linaro/anders",
            "provisioning_time": "2022-01-25T22:56:19.369820",
            "result": "unknown",
            "running_time": null,
            "state": "provisioning",
            "target_arch": "arm64",
            "targets": [],
            "toolchain": "clang-nightly",
            "uid": "24D3YouTZt9uMPrGiDxxKYrkfiO",
            "user": "anders.roxell@linaro.org",
            "user_agent": "tuxsuite/0.42.3",
            "waited_by": [],
            "warnings_count": 0
        },
        "24D3YoxOV8ltMmCketAgEgNKLOf": {
            "build_name": "",
            "client_token": "21e8c150-2591-48d7-8681-8d9fddd100c4",
            "download_url": "https://builds.tuxbuild.com/24D3YoxOV8ltMmCketAgEgNKLOf/",
            "environment": {},
            "errors_count": 0,
            "finished_time": null,
            "git_ref": "v5.14-rc7",
            "git_repo": "https://git.kernel.org/pub/scm/linux/kernel/git/torvalds/linux.git",
            "git_sha": "e22ce8eb631bdc47a4a4ea7ecf4e4ba499db4f93",
            "image_sha": "",
            "kconfig": [
                "defconfig"
            ],
            "kernel_image": "",
            "kernel_patch_file": "",
            "make_variables": {
                "LLVM": "1",
                "LLVM_IAS": "1"
            },
            "no_cache": false,
            "plan": "24D3YVohpg7m5vzTTnisWMts3V1",
            "project": "linaro/anders",
            "provisioning_time": "2022-01-25T22:56:19.177009",
            "result": "unknown",
            "running_time": null,
            "state": "provisioning",
            "target_arch": "arm64",
            "targets": [],
            "toolchain": "clang-13",
            "uid": "24D3YoxOV8ltMmCketAgEgNKLOf",
            "user": "anders.roxell@linaro.org",
            "user_agent": "tuxsuite/0.42.3",
            "waited_by": [],
            "warnings_count": 0
        },
        "24D3Yp6dhtzzr5gWKxk87fZAJkB": {
            "build_name": "",
            "client_token": "e3a614b2-3ffb-48da-8fcb-1c56fa597919",
            "download_url": "https://builds.tuxbuild.com/24D3Yp6dhtzzr5gWKxk87fZAJkB/",
            "environment": {},
            "errors_count": 0,
            "finished_time": null,
            "git_ref": "v5.14-rc7",
            "git_repo": "https://git.kernel.org/pub/scm/linux/kernel/git/torvalds/linux.git",
            "git_sha": "e22ce8eb631bdc47a4a4ea7ecf4e4ba499db4f93",
            "image_sha": "",
            "kconfig": [
                "defconfig"
            ],
            "kernel_image": "",
            "kernel_patch_file": "",
            "make_variables": {},
            "no_cache": false,
            "plan": "24D3YVohpg7m5vzTTnisWMts3V1",
            "project": "linaro/anders",
            "provisioning_time": "2022-01-25T22:56:19.043146",
            "result": "unknown",
            "running_time": null,
            "state": "provisioning",
            "target_arch": "arm64",
            "targets": [],
            "toolchain": "gcc-10",
            "uid": "24D3Yp6dhtzzr5gWKxk87fZAJkB",
            "user": "anders.roxell@linaro.org",
            "user_agent": "tuxsuite/0.42.3",
            "waited_by": [],
            "warnings_count": 0
        },
        "24D3YpSwzBAZk1dxr9E7AaPogK9": {
            "build_name": "",
            "client_token": "f8a9bd4d-c4e9-4322-9a9b-e279cf75198d",
            "download_url": "https://builds.tuxbuild.com/24D3YpSwzBAZk1dxr9E7AaPogK9/",
            "environment": {},
            "errors_count": 0,
            "finished_time": null,
            "git_ref": "v5.14-rc7",
            "git_repo": "https://git.kernel.org/pub/scm/linux/kernel/git/torvalds/linux.git",
            "git_sha": "e22ce8eb631bdc47a4a4ea7ecf4e4ba499db4f93",
            "image_sha": "",
            "kconfig": [
                "defconfig"
            ],
            "kernel_image": "",
            "kernel_patch_file": "",
            "make_variables": {},
            "no_cache": false,
            "plan": "24D3YVohpg7m5vzTTnisWMts3V1",
            "project": "linaro/anders",
            "provisioning_time": "2022-01-25T22:56:19.218789",
            "result": "unknown",
            "running_time": null,
            "state": "provisioning",
            "target_arch": "arm64",
            "targets": [],
            "toolchain": "gcc-10",
            "uid": "24D3YpSwzBAZk1dxr9E7AaPogK9",
            "user": "anders.roxell@linaro.org",
            "user_agent": "tuxsuite/0.42.3",
            "waited_by": [],
            "warnings_count": 0
        },
        "24D3Ypt85t0CSFvlL8DvMeXlrt7": {
            "build_name": "",
            "client_token": "b534c359-ac3e-4edd-a26c-cd18b1b4ee17",
            "download_url": "https://builds.tuxbuild.com/24D3Ypt85t0CSFvlL8DvMeXlrt7/",
            "environment": {},
            "errors_count": 0,
            "finished_time": null,
            "git_ref": "v5.14-rc7",
            "git_repo": "https://git.kernel.org/pub/scm/linux/kernel/git/torvalds/linux.git",
            "git_sha": "e22ce8eb631bdc47a4a4ea7ecf4e4ba499db4f93",
            "image_sha": "",
            "kconfig": [
                "defconfig"
            ],
            "kernel_image": "",
            "kernel_patch_file": "",
            "make_variables": {},
            "no_cache": false,
            "plan": "24D3YVohpg7m5vzTTnisWMts3V1",
            "project": "linaro/anders",
            "provisioning_time": "2022-01-25T22:56:19.325842",
            "result": "unknown",
            "running_time": null,
            "state": "provisioning",
            "target_arch": "arm64",
            "targets": [],
            "toolchain": "gcc-11",
            "uid": "24D3Ypt85t0CSFvlL8DvMeXlrt7",
            "user": "anders.roxell@linaro.org",
            "user_agent": "tuxsuite/0.42.3",
            "waited_by": [],
            "warnings_count": 0
        }
    },
    "tests": {
        "24D3YqeOq32BwgmUbhzpLG9QyMj": {
            "ap_romfw": null,
            "boot_args": null,
            "device": "qemu-arm64",
            "finished_time": null,
            "fip": null,
            "kernel": null,
            "mcp_fw": null,
            "mcp_romfw": null,
            "modules": null,
            "parameters": [],
            "plan": "24D3YVohpg7m5vzTTnisWMts3V1",
            "project": "linaro/anders",
            "provisioning_time": null,
            "result": "unknown",
            "results": {},
            "retries": 0,
            "retries_messages": [],
            "rootfs": null,
            "running_time": null,
            "scp_fw": null,
            "scp_romfw": null,
            "state": "waiting",
            "tests": [
                "boot"
            ],
            "uid": "24D3YqeOq32BwgmUbhzpLG9QyMj",
            "user": "anders.roxell@linaro.org",
            "user_agent": "tuxsuite/0.42.3",
            "waiting_for": "24D3YlRyn597l5DteAZWIIpbO63"
        },
        "24D3YrI8gddHXUqtptkptgQmUjW": {
            "ap_romfw": null,
            "boot_args": null,
            "device": "qemu-arm64",
            "finished_time": null,
            "fip": null,
            "kernel": null,
            "mcp_fw": null,
            "mcp_romfw": null,
            "modules": null,
            "parameters": [],
            "plan": "24D3YVohpg7m5vzTTnisWMts3V1",
            "project": "linaro/anders",
            "provisioning_time": null,
            "result": "unknown",
            "results": {},
            "retries": 0,
            "retries_messages": [],
            "rootfs": null,
            "running_time": null,
            "scp_fw": null,
            "scp_romfw": null,
            "state": "waiting",
            "tests": [
                "boot"
            ],
            "uid": "24D3YrI8gddHXUqtptkptgQmUjW",
            "user": "anders.roxell@linaro.org",
            "user_agent": "tuxsuite/0.42.3",
            "waiting_for": "24D3YouTZt9uMPrGiDxxKYrkfiO"
        },
        "24D3YrJ6Tw0zndjj5cTUb5YHDij": {
            "ap_romfw": null,
            "boot_args": null,
            "device": "qemu-arm64",
            "finished_time": null,
            "fip": null,
            "kernel": null,
            "mcp_fw": null,
            "mcp_romfw": null,
            "modules": null,
            "parameters": [],
            "plan": "24D3YVohpg7m5vzTTnisWMts3V1",
            "project": "linaro/anders",
            "provisioning_time": null,
            "result": "unknown",
            "results": {},
            "retries": 0,
            "retries_messages": [],
            "rootfs": null,
            "running_time": null,
            "scp_fw": null,
            "scp_romfw": null,
            "state": "waiting",
            "tests": [
                "boot"
            ],
            "uid": "24D3YrJ6Tw0zndjj5cTUb5YHDij",
            "user": "anders.roxell@linaro.org",
            "user_agent": "tuxsuite/0.42.3",
            "waiting_for": "24D3YmdsMuXwFL2dvkni34ZN0wZ"
        },
        "24D3YrLZzfyfdeaGhfw4uqlUnmH": {
            "ap_romfw": null,
            "boot_args": null,
            "device": "qemu-arm64",
            "finished_time": null,
            "fip": null,
            "kernel": null,
            "mcp_fw": null,
            "mcp_romfw": null,
            "modules": null,
            "parameters": [],
            "plan": "24D3YVohpg7m5vzTTnisWMts3V1",
            "project": "linaro/anders",
            "provisioning_time": null,
            "result": "unknown",
            "results": {},
            "retries": 0,
            "retries_messages": [],
            "rootfs": null,
            "running_time": null,
            "scp_fw": null,
            "scp_romfw": null,
            "state": "waiting",
            "tests": [
                "boot"
            ],
            "uid": "24D3YrLZzfyfdeaGhfw4uqlUnmH",
            "user": "anders.roxell@linaro.org",
            "user_agent": "tuxsuite/0.42.3",
            "waiting_for": "24D3YnqVJbUAl6ZIaoBKbxUEaRe"
        },
        "24D3Yro8342b8vzgFgoz4hONCLj": {
            "ap_romfw": null,
            "boot_args": null,
            "device": "qemu-arm64",
            "finished_time": null,
            "fip": null,
            "kernel": null,
            "mcp_fw": null,
            "mcp_romfw": null,
            "modules": null,
            "parameters": [],
            "plan": "24D3YVohpg7m5vzTTnisWMts3V1",
            "project": "linaro/anders",
            "provisioning_time": null,
            "result": "unknown",
            "results": {},
            "retries": 0,
            "retries_messages": [],
            "rootfs": null,
            "running_time": null,
            "scp_fw": null,
            "scp_romfw": null,
            "state": "waiting",
            "tests": [
                "boot"
            ],
            "uid": "24D3Yro8342b8vzgFgoz4hONCLj",
            "user": "anders.roxell@linaro.org",
            "user_agent": "tuxsuite/0.42.3",
            "waiting_for": "24D3Ylu2sihu97R3yPs0jS8Kx8M"
        },
        "24D3YsE9IPW0Ys5GHdJaoPs22K3": {
            "ap_romfw": null,
            "boot_args": null,
            "device": "qemu-arm64",
            "finished_time": null,
            "fip": null,
            "kernel": null,
            "mcp_fw": null,
            "mcp_romfw": null,
            "modules": null,
            "parameters": [],
            "plan": "24D3YVohpg7m5vzTTnisWMts3V1",
            "project": "linaro/anders",
            "provisioning_time": null,
            "result": "unknown",
            "results": {},
            "retries": 0,
            "retries_messages": [],
            "rootfs": null,
            "running_time": null,
            "scp_fw": null,
            "scp_romfw": null,
            "state": "waiting",
            "tests": [
                "boot"
            ],
            "uid": "24D3YsE9IPW0Ys5GHdJaoPs22K3",
            "user": "anders.roxell@linaro.org",
            "user_agent": "tuxsuite/0.42.3",
            "waiting_for": "24D3Yks7RwiD46hyEHKAqp9vcId"
        },
        "24D3YsiqMCFxD29yPP0HG91moQn": {
            "ap_romfw": null,
            "boot_args": null,
            "device": "qemu-arm64",
            "finished_time": null,
            "fip": null,
            "kernel": null,
            "mcp_fw": null,
            "mcp_romfw": null,
            "modules": null,
            "parameters": [],
            "plan": "24D3YVohpg7m5vzTTnisWMts3V1",
            "project": "linaro/anders",
            "provisioning_time": null,
            "result": "unknown",
            "results": {},
            "retries": 0,
            "retries_messages": [],
            "rootfs": null,
            "running_time": null,
            "scp_fw": null,
            "scp_romfw": null,
            "state": "waiting",
            "tests": [
                "boot"
            ],
            "uid": "24D3YsiqMCFxD29yPP0HG91moQn",
            "user": "anders.roxell@linaro.org",
            "user_agent": "tuxsuite/0.42.3",
            "waiting_for": "24D3Yoj6IRg7lZdJiHnpduhkWz3"
        },
        "24D3Yska2fFGBYb3GTi0W6J49nY": {
            "ap_romfw": null,
            "boot_args": null,
            "device": "qemu-arm64",
            "finished_time": null,
            "fip": null,
            "kernel": null,
            "mcp_fw": null,
            "mcp_romfw": null,
            "modules": null,
            "parameters": [],
            "plan": "24D3YVohpg7m5vzTTnisWMts3V1",
            "project": "linaro/anders",
            "provisioning_time": null,
            "result": "unknown",
            "results": {},
            "retries": 0,
            "retries_messages": [],
            "rootfs": null,
            "running_time": null,
            "scp_fw": null,
            "scp_romfw": null,
            "state": "waiting",
            "tests": [
                "boot"
            ],
            "uid": "24D3Yska2fFGBYb3GTi0W6J49nY",
            "user": "anders.roxell@linaro.org",
            "user_agent": "tuxsuite/0.42.3",
            "waiting_for": "24D3Ypt85t0CSFvlL8DvMeXlrt7"
        },
        "24D3Yt6IgS4uMMFRPHoBeCgmdNx": {
            "ap_romfw": null,
            "boot_args": null,
            "device": "qemu-arm64",
            "finished_time": null,
            "fip": null,
            "kernel": null,
            "mcp_fw": null,
            "mcp_romfw": null,
            "modules": null,
            "parameters": [],
            "plan": "24D3YVohpg7m5vzTTnisWMts3V1",
            "project": "linaro/anders",
            "provisioning_time": null,
            "result": "unknown",
            "results": {},
            "retries": 0,
            "retries_messages": [],
            "rootfs": null,
            "running_time": null,
            "scp_fw": null,
            "scp_romfw": null,
            "state": "waiting",
            "tests": [
                "boot"
            ],
            "uid": "24D3Yt6IgS4uMMFRPHoBeCgmdNx",
            "user": "anders.roxell@linaro.org",
            "user_agent": "tuxsuite/0.42.3",
            "waiting_for": "24D3YpSwzBAZk1dxr9E7AaPogK9"
        },
        "24D3YtUKULdGCqopTdq8C8NWNhj": {
            "ap_romfw": null,
            "boot_args": null,
            "device": "qemu-arm64",
            "finished_time": null,
            "fip": null,
            "kernel": null,
            "mcp_fw": null,
            "mcp_romfw": null,
            "modules": null,
            "parameters": [],
            "plan": "24D3YVohpg7m5vzTTnisWMts3V1",
            "project": "linaro/anders",
            "provisioning_time": null,
            "result": "unknown",
            "results": {},
            "retries": 0,
            "retries_messages": [],
            "rootfs": null,
            "running_time": null,
            "scp_fw": null,
            "scp_romfw": null,
            "state": "waiting",
            "tests": [
                "boot"
            ],
            "uid": "24D3YtUKULdGCqopTdq8C8NWNhj",
            "user": "anders.roxell@linaro.org",
            "user_agent": "tuxsuite/0.42.3",
            "waiting_for": "24D3YiMx8nxRYVda8OrRbJSh5vK"
        },
        "24D3YthlCtZWcFtpziWPczGJ1yl": {
            "ap_romfw": null,
            "boot_args": null,
            "device": "qemu-arm64",
            "finished_time": null,
            "fip": null,
            "kernel": null,
            "mcp_fw": null,
            "mcp_romfw": null,
            "modules": null,
            "parameters": [],
            "plan": "24D3YVohpg7m5vzTTnisWMts3V1",
            "project": "linaro/anders",
            "provisioning_time": null,
            "result": "unknown",
            "results": {},
            "retries": 0,
            "retries_messages": [],
            "rootfs": null,
            "running_time": null,
            "scp_fw": null,
            "scp_romfw": null,
            "state": "waiting",
            "tests": [
                "boot"
            ],
            "uid": "24D3YthlCtZWcFtpziWPczGJ1yl",
            "user": "anders.roxell@linaro.org",
            "user_agent": "tuxsuite/0.42.3",
            "waiting_for": "24D3YiGoRfAwBfqUzFctFwboJwf"
        },
        "24D3Yu1vZleKFb7ZKSocdVBOMvb": {
            "ap_romfw": null,
            "boot_args": null,
            "device": "qemu-arm64",
            "finished_time": null,
            "fip": null,
            "kernel": null,
            "mcp_fw": null,
            "mcp_romfw": null,
            "modules": null,
            "parameters": [],
            "plan": "24D3YVohpg7m5vzTTnisWMts3V1",
            "project": "linaro/anders",
            "provisioning_time": null,
            "result": "unknown",
            "results": {},
            "retries": 0,
            "retries_messages": [],
            "rootfs": null,
            "running_time": null,
            "scp_fw": null,
            "scp_romfw": null,
            "state": "waiting",
            "tests": [
                "boot"
            ],
            "uid": "24D3Yu1vZleKFb7ZKSocdVBOMvb",
            "user": "anders.roxell@linaro.org",
            "user_agent": "tuxsuite/0.42.3",
            "waiting_for": "24D3Yjb6NbQQyRvkFvg7baspJXh"
        },
        "24D3Yu9ZjrJfCh6VWDmbWIF3KPv": {
            "ap_romfw": null,
            "boot_args": null,
            "device": "qemu-arm64",
            "finished_time": null,
            "fip": null,
            "kernel": null,
            "mcp_fw": null,
            "mcp_romfw": null,
            "modules": null,
            "parameters": [],
            "plan": "24D3YVohpg7m5vzTTnisWMts3V1",
            "project": "linaro/anders",
            "provisioning_time": null,
            "result": "unknown",
            "results": {},
            "retries": 0,
            "retries_messages": [],
            "rootfs": null,
            "running_time": null,
            "scp_fw": null,
            "scp_romfw": null,
            "state": "waiting",
            "tests": [
                "boot"
            ],
            "uid": "24D3Yu9ZjrJfCh6VWDmbWIF3KPv",
            "user": "anders.roxell@linaro.org",
            "user_agent": "tuxsuite/0.42.3",
            "waiting_for": "24D3YoxOV8ltMmCketAgEgNKLOf"
        },
        "24D3YvID4l3lA2MTBY0sWD5xs1X": {
            "ap_romfw": null,
            "boot_args": null,
            "device": "qemu-arm64",
            "finished_time": null,
            "fip": null,
            "kernel": null,
            "mcp_fw": null,
            "mcp_romfw": null,
            "modules": null,
            "parameters": [],
            "plan": "24D3YVohpg7m5vzTTnisWMts3V1",
            "project": "linaro/anders",
            "provisioning_time": null,
            "result": "unknown",
            "results": {},
            "retries": 0,
            "retries_messages": [],
            "rootfs": null,
            "running_time": null,
            "scp_fw": null,
            "scp_romfw": null,
            "state": "waiting",
            "tests": [
                "boot"
            ],
            "uid": "24D3YvID4l3lA2MTBY0sWD5xs1X",
            "user": "anders.roxell@linaro.org",
            "user_agent": "tuxsuite/0.42.3",
            "waiting_for": "24D3YnBBLAKAx1nE4wuFZYHTlar"
        },
        "24D3YwanMMHvnqfCRlm16IDbshN": {
            "ap_romfw": null,
            "boot_args": null,
            "device": "qemu-arm64",
            "finished_time": null,
            "fip": null,
            "kernel": null,
            "mcp_fw": null,
            "mcp_romfw": null,
            "modules": null,
            "parameters": [],
            "plan": "24D3YVohpg7m5vzTTnisWMts3V1",
            "project": "linaro/anders",
            "provisioning_time": null,
            "result": "unknown",
            "results": {},
            "retries": 0,
            "retries_messages": [],
            "rootfs": null,
            "running_time": null,
            "scp_fw": null,
            "scp_romfw": null,
            "state": "waiting",
            "tests": [
                "boot"
            ],
            "uid": "24D3YwanMMHvnqfCRlm16IDbshN",
            "user": "anders.roxell@linaro.org",
            "user_agent": "tuxsuite/0.42.3",
            "waiting_for": "24D3YahIrT4aTPMi89XUu5CAJ2q"
        },
        "24D3YwcvA4McSghzdyHEQdKOTSM": {
            "ap_romfw": null,
            "boot_args": null,
            "device": "qemu-arm64",
            "finished_time": null,
            "fip": null,
            "kernel": null,
            "mcp_fw": null,
            "mcp_romfw": null,
            "modules": null,
            "parameters": [],
            "plan": "24D3YVohpg7m5vzTTnisWMts3V1",
            "project": "linaro/anders",
            "provisioning_time": null,
            "result": "unknown",
            "results": {},
            "retries": 0,
            "retries_messages": [],
            "rootfs": null,
            "running_time": null,
            "scp_fw": null,
            "scp_romfw": null,
            "state": "waiting",
            "tests": [
                "boot"
            ],
            "uid": "24D3YwcvA4McSghzdyHEQdKOTSM",
            "user": "anders.roxell@linaro.org",
            "user_agent": "tuxsuite/0.42.3",
            "waiting_for": "24D3YnuuaASHsdNnhsBkGKLc90F"
        },
        "24D3YwmIg3pl2kyz8TzgyuKSh3G": {
            "ap_romfw": null,
            "boot_args": null,
            "device": "qemu-arm64",
            "finished_time": null,
            "fip": null,
            "kernel": null,
            "mcp_fw": null,
            "mcp_romfw": null,
            "modules": null,
            "parameters": [],
            "plan": "24D3YVohpg7m5vzTTnisWMts3V1",
            "project": "linaro/anders",
            "provisioning_time": null,
            "result": "unknown",
            "results": {},
            "retries": 0,
            "retries_messages": [],
            "rootfs": null,
            "running_time": null,
            "scp_fw": null,
            "scp_romfw": null,
            "state": "waiting",
            "tests": [
                "boot"
            ],
            "uid": "24D3YwmIg3pl2kyz8TzgyuKSh3G",
            "user": "anders.roxell@linaro.org",
            "user_agent": "tuxsuite/0.42.3",
            "waiting_for": "24D3YbxXnHCZWPTiKXCPC0rK7iZ"
        },
        "24D3Yx5shHeBHL6PdAH6jfzSktL": {
            "ap_romfw": null,
            "boot_args": null,
            "device": "qemu-arm64",
            "finished_time": null,
            "fip": null,
            "kernel": null,
            "mcp_fw": null,
            "mcp_romfw": null,
            "modules": null,
            "parameters": [],
            "plan": "24D3YVohpg7m5vzTTnisWMts3V1",
            "project": "linaro/anders",
            "provisioning_time": null,
            "result": "unknown",
            "results": {},
            "retries": 0,
            "retries_messages": [],
            "rootfs": null,
            "running_time": null,
            "scp_fw": null,
            "scp_romfw": null,
            "state": "waiting",
            "tests": [
                "boot"
            ],
            "uid": "24D3Yx5shHeBHL6PdAH6jfzSktL",
            "user": "anders.roxell@linaro.org",
            "user_agent": "tuxsuite/0.42.3",
            "waiting_for": "24D3Yjk68SSp53g9G5yDTtIyHeQ"
        },
        "24D3YxRWlMB2rkN35mxMoDqR5e1": {
            "ap_romfw": null,
            "boot_args": null,
            "device": "qemu-arm64",
            "finished_time": null,
            "fip": null,
            "kernel": null,
            "mcp_fw": null,
            "mcp_romfw": null,
            "modules": null,
            "parameters": [],
            "plan": "24D3YVohpg7m5vzTTnisWMts3V1",
            "project": "linaro/anders",
            "provisioning_time": null,
            "result": "unknown",
            "results": {},
            "retries": 0,
            "retries_messages": [],
            "rootfs": null,
            "running_time": null,
            "scp_fw": null,
            "scp_romfw": null,
            "state": "waiting",
            "tests": [
                "boot"
            ],
            "uid": "24D3YxRWlMB2rkN35mxMoDqR5e1",
            "user": "anders.roxell@linaro.org",
            "user_agent": "tuxsuite/0.42.3",
            "waiting_for": "24D3Yh2mrGhfGLoSilOx9E8C0Ti"
        },
        "24D3YxaJ9trpDJdRbV6Qsbv8amE": {
            "ap_romfw": null,
            "boot_args": null,
            "device": "qemu-arm64",
            "finished_time": null,
            "fip": null,
            "kernel": null,
            "mcp_fw": null,
            "mcp_romfw": null,
            "modules": null,
            "parameters": [],
            "plan": "24D3YVohpg7m5vzTTnisWMts3V1",
            "project": "linaro/anders",
            "provisioning_time": null,
            "result": "unknown",
            "results": {},
            "retries": 0,
            "retries_messages": [],
            "rootfs": null,
            "running_time": null,
            "scp_fw": null,
            "scp_romfw": null,
            "state": "waiting",
            "tests": [
                "boot"
            ],
            "uid": "24D3YxaJ9trpDJdRbV6Qsbv8amE",
            "user": "anders.roxell@linaro.org",
            "user_agent": "tuxsuite/0.42.3",
            "waiting_for": "24D3Yp6dhtzzr5gWKxk87fZAJkB"
        }
    }
}