{
    "builds": {
        "24KQnN3ImmEDJ78dcZoxleP5f8J": {
            "build_name": "",
            "client_token": "a95ed213-9a2e-4b8c-9044-0584b9aeb659",
            "download_url": "https://builds.tuxbuild.com/24KQnN3ImmEDJ78dcZoxleP5f8J/",
            "environment": {},
            "errors_count": 0,
            "finished_time": null,
            "git_ref": "v5.14-rc1",
            "git_repo": "https://git.kernel.org/pub/scm/linux/kernel/git/torvalds/linux.git",
            "git_sha": "e73f0f0ee7541171d89f2e2491130c7771ba58d3",
            "image_sha": "",
            "kconfig": [
                "tinyconfig"
            ],
            "kernel_image": "",
            "kernel_patch_file": "",
            "make_variables": {},
            "no_cache": true,
            "plan": "24KQnIbfIFW0yVLB2CDIX21wgDm",
            "project": "linaro/anders",
            "provisioning_time": "2022-01-28T13:36:04.721661",
            "result": "unknown",
            "running_time": null,
            "state": "provisioning",
            "target_arch": "arm64",
            "targets": [],
            "toolchain": "gcc-11",
            "uid": "24KQnN3ImmEDJ78dcZoxleP5f8J",
            "user": "anders.roxell@linaro.org",
            "user_agent": "tuxsuite/0.42.3",
            "waited_by": [],
            "warnings_count": 0
        },
        "24KQnNFVcCUL0ocY0TXMWvCVbbH": {
            "build_name": "",
            "client_token": "7aec827e-a7e2-447f-8317-427a6c846de2",
            "download_url": "https://builds.tuxbuild.com/24KQnNFVcCUL0ocY0TXMWvCVbbH/",
            "environment": {},
            "errors_count": 0,
            "finished_time": null,
            "git_ref": "v5.14-rc1",
            "git_repo": "https://git.kernel.org/pub/scm/linux/kernel/git/torvalds/linux.git",
            "git_sha": "e73f0f0ee7541171d89f2e2491130c7771ba58d3",
            "image_sha": "",
            "kconfig": [
                "tinyconfig"
            ],
            "kernel_image": "",
            "kernel_patch_file": "",
            "make_variables": {},
            "no_cache": true,
            "plan": "24KQnIbfIFW0yVLB2CDIX21wgDm",
            "project": "linaro/anders",
            "provisioning_time": "2022-01-28T13:36:04.427970",
            "result": "unknown",
            "running_time": null,
            "state": "provisioning",
            "target_arch": "arm64",
            "targets": [],
            "toolchain": "gcc-11",
            "uid": "24KQnNFVcCUL0ocY0TXMWvCVbbH",
            "user": "anders.roxell@linaro.org",
            "user_agent": "tuxsuite/0.42.3",
            "waited_by": [],
            "warnings_count": 0
        },
        "24KQnNK3svL85bhfeM4mGVvJsqi": {
            "build_name": "",
            "client_token": "a64a6989-5ba8-4ca2-898b-670f27c56c66",
            "download_url": "https://builds.tuxbuild.com/24KQnNK3svL85bhfeM4mGVvJsqi/",
            "environment": {},
            "errors_count": 0,
            "finished_time": null,
            "git_ref": "v5.14-rc1",
            "git_repo": "https://git.kernel.org/pub/scm/linux/kernel/git/torvalds/linux.git",
            "git_sha": "e73f0f0ee7541171d89f2e2491130c7771ba58d3",
            "image_sha": "",
            "kconfig": [
                "tinyconfig"
            ],
            "kernel_image": "",
            "kernel_patch_file": "",
            "make_variables": {
                "LLVM": "1",
                "LLVM_IAS": "1"
            },
            "no_cache": true,
            "plan": "24KQnIbfIFW0yVLB2CDIX21wgDm",
            "project": "linaro/anders",
            "provisioning_time": "2022-01-28T13:36:04.744101",
            "result": "unknown",
            "running_time": null,
            "state": "provisioning",
            "target_arch": "arm64",
            "targets": [],
            "toolchain": "clang-13",
            "uid": "24KQnNK3svL85bhfeM4mGVvJsqi",
            "user": "anders.roxell@linaro.org",
            "user_agent": "tuxsuite/0.42.3",
            "waited_by": [],
            "warnings_count": 0
        },
        "24KQnNPdYAY0OFCHXVASrt2pZYD": {
            "build_name": "",
            "client_token": "8eca5b83-7653-446d-9f29-18fd573c61fd",
            "download_url": "https://builds.tuxbuild.com/24KQnNPdYAY0OFCHXVASrt2pZYD/",
            "environment": {},
            "errors_count": 0,
            "finished_time": null,
            "git_ref": "v5.14-rc1",
            "git_repo": "https://git.kernel.org/pub/scm/linux/kernel/git/torvalds/linux.git",
            "git_sha": "e73f0f0ee7541171d89f2e2491130c7771ba58d3",
            "image_sha": "",
            "kconfig": [
                "tinyconfig"
            ],
            "kernel_image": "",
            "kernel_patch_file": "",
            "make_variables": {
                "LLVM": "1",
                "LLVM_IAS": "1"
            },
            "no_cache": true,
            "plan": "24KQnIbfIFW0yVLB2CDIX21wgDm",
            "project": "linaro/anders",
            "provisioning_time": "2022-01-28T13:36:04.449870",
            "result": "unknown",
            "running_time": null,
            "state": "provisioning",
            "target_arch": "arm64",
            "targets": [],
            "toolchain": "clang-13",
            "uid": "24KQnNPdYAY0OFCHXVASrt2pZYD",
            "user": "anders.roxell@linaro.org",
            "user_agent": "tuxsuite/0.42.3",
            "waited_by": [],
            "warnings_count": 0
        },
        "24KQnNVVB5T7AbadHXzrDvHfaiG": {
            "build_name": "",
            "client_token": "a5072b2c-91f8-4d98-b7aa-6a7792e81e47",
            "download_url": "https://builds.tuxbuild.com/24KQnNVVB5T7AbadHXzrDvHfaiG/",
            "environment": {},
            "errors_count": 0,
            "finished_time": null,
            "git_ref": "v5.14-rc1",
            "git_repo": "https://git.kernel.org/pub/scm/linux/kernel/git/torvalds/linux.git",
            "git_sha": "e73f0f0ee7541171d89f2e2491130c7771ba58d3",
            "image_sha": "",
            "kconfig": [
                "tinyconfig"
            ],
            "kernel_image": "",
            "kernel_patch_file": "",
            "make_variables": {
                "LLVM": "1",
                "LLVM_IAS": "1"
            },
            "no_cache": true,
            "plan": "24KQnIbfIFW0yVLB2CDIX21wgDm",
            "project": "linaro/anders",
            "provisioning_time": "2022-01-28T13:36:04.651154",
            "result": "unknown",
            "running_time": null,
            "state": "provisioning",
            "target_arch": "arm64",
            "targets": [],
            "toolchain": "clang-13",
            "uid": "24KQnNVVB5T7AbadHXzrDvHfaiG",
            "user": "anders.roxell@linaro.org",
            "user_agent": "tuxsuite/0.42.3",
            "waited_by": [],
            "warnings_count": 0
        },
        "24KQnNpYVQ0XeVne09xOD5uM0nl": {
            "build_name": "",
            "client_token": "4b377870-63a1-4151-8c9d-74dffb9ecb52",
            "download_url": "https://builds.tuxbuild.com/24KQnNpYVQ0XeVne09xOD5uM0nl/",
            "environment": {},
            "errors_count": 0,
            "finished_time": null,
            "git_ref": "v5.14-rc1",
            "git_repo": "https://git.kernel.org/pub/scm/linux/kernel/git/torvalds/linux.git",
            "git_sha": "e73f0f0ee7541171d89f2e2491130c7771ba58d3",
            "image_sha": "",
            "kconfig": [
                "tinyconfig"
            ],
            "kernel_image": "",
            "kernel_patch_file": "",
            "make_variables": {
                "LLVM": "1",
                "LLVM_IAS": "1"
            },
            "no_cache": true,
            "plan": "24KQnIbfIFW0yVLB2CDIX21wgDm",
            "project": "linaro/anders",
            "provisioning_time": "2022-01-28T13:36:04.585910",
            "result": "unknown",
            "running_time": null,
            "state": "provisioning",
            "target_arch": "arm64",
            "targets": [],
            "toolchain": "clang-nightly",
            "uid": "24KQnNpYVQ0XeVne09xOD5uM0nl",
            "user": "anders.roxell@linaro.org",
            "user_agent": "tuxsuite/0.42.3",
            "waited_by": [],
            "warnings_count": 0
        },
        "24KQnO5NmqPpdqXC4ARihQHZMm9": {
            "build_name": "",
            "client_token": "b9c689f8-5cd9-4d00-a8f2-73f8a884beab",
            "download_url": "https://builds.tuxbuild.com/24KQnO5NmqPpdqXC4ARihQHZMm9/",
            "environment": {},
            "errors_count": 0,
            "finished_time": null,
            "git_ref": "v5.14-rc1",
            "git_repo": "https://git.kernel.org/pub/scm/linux/kernel/git/torvalds/linux.git",
            "git_sha": "e73f0f0ee7541171d89f2e2491130c7771ba58d3",
            "image_sha": "",
            "kconfig": [
                "tinyconfig"
            ],
            "kernel_image": "",
            "kernel_patch_file": "",
            "make_variables": {
                "LLVM": "1",
                "LLVM_IAS": "1"
            },
            "no_cache": true,
            "plan": "24KQnIbfIFW0yVLB2CDIX21wgDm",
            "project": "linaro/anders",
            "provisioning_time": "2022-01-28T13:36:04.383932",
            "result": "unknown",
            "running_time": null,
            "state": "provisioning",
            "target_arch": "arm64",
            "targets": [],
            "toolchain": "clang-nightly",
            "uid": "24KQnO5NmqPpdqXC4ARihQHZMm9",
            "user": "anders.roxell@linaro.org",
            "user_agent": "tuxsuite/0.42.3",
            "waited_by": [],
            "warnings_count": 0
        },
        "24KQnOWZszLUizv9PB0v2YhcM8q": {
            "build_name": "",
            "client_token": "732e084f-231b-4cec-a44c-c01faa396137",
            "download_url": "https://builds.tuxbuild.com/24KQnOWZszLUizv9PB0v2YhcM8q/",
            "environment": {},
            "errors_count": 0,
            "finished_time": null,
            "git_ref": "v5.14-rc1",
            "git_repo": "https://git.kernel.org/pub/scm/linux/kernel/git/torvalds/linux.git",
            "git_sha": "e73f0f0ee7541171d89f2e2491130c7771ba58d3",
            "image_sha": "",
            "kconfig": [
                "tinyconfig"
            ],
            "kernel_image": "",
            "kernel_patch_file": "",
            "make_variables": {
                "LLVM": "1",
                "LLVM_IAS": "1"
            },
            "no_cache": true,
            "plan": "24KQnIbfIFW0yVLB2CDIX21wgDm",
            "project": "linaro/anders",
            "provisioning_time": "2022-01-28T13:36:04.764983",
            "result": "unknown",
            "running_time": null,
            "state": "provisioning",
            "target_arch": "arm64",
            "targets": [],
            "toolchain": "clang-nightly",
            "uid": "24KQnOWZszLUizv9PB0v2YhcM8q",
            "user": "anders.roxell@linaro.org",
            "user_agent": "tuxsuite/0.42.3",
            "waited_by": [],
            "warnings_count": 0
        },
        "24KQnOk5m9ay6WSdsMEOTVsXkrQ": {
            "build_name": "",
            "client_token": "305be0db-7d4c-4c54-b305-17d58aab6207",
            "download_url": "https://builds.tuxbuild.com/24KQnOk5m9ay6WSdsMEOTVsXkrQ/",
            "environment": {},
            "errors_count": 0,
            "finished_time": null,
            "git_ref": "v5.14-rc1",
            "git_repo": "https://git.kernel.org/pub/scm/linux/kernel/git/torvalds/linux.git",
            "git_sha": "e73f0f0ee7541171d89f2e2491130c7771ba58d3",
            "image_sha": "",
            "kconfig": [
                "tinyconfig"
            ],
            "kernel_image": "",
            "kernel_patch_file": "",
            "make_variables": {},
            "no_cache": true,
            "plan": "24KQnIbfIFW0yVLB2CDIX21wgDm",
            "project": "linaro/anders",
            "provisioning_time": "2022-01-28T13:36:04.696081",
            "result": "unknown",
            "running_time": null,
            "state": "provisioning",
            "target_arch": "arm64",
            "targets": [],
            "toolchain": "gcc-10",
            "uid": "24KQnOk5m9ay6WSdsMEOTVsXkrQ",
            "user": "anders.roxell@linaro.org",
            "user_agent": "tuxsuite/0.42.3",
            "waited_by": [],
            "warnings_count": 0
        },
        "24KQnOn9jGP46zUUn4Rt0pA3joD": {
            "build_name": "",
            "client_token": "1c339db9-3377-4092-877f-2553ad38450b",
            "download_url": "https://builds.tuxbuild.com/24KQnOn9jGP46zUUn4Rt0pA3joD/",
            "environment": {},
            "errors_count": 0,
            "finished_time": null,
            "git_ref": "v5.14-rc1",
            "git_repo": "https://git.kernel.org/pub/scm/linux/kernel/git/torvalds/linux.git",
            "git_sha": "e73f0f0ee7541171d89f2e2491130c7771ba58d3",
            "image_sha": "",
            "kconfig": [
                "tinyconfig"
            ],
            "kernel_image": "",
            "kernel_patch_file": "",
            "make_variables": {
                "LLVM": "1",
                "LLVM_IAS": "1"
            },
            "no_cache": true,
            "plan": "24KQnIbfIFW0yVLB2CDIX21wgDm",
            "project": "linaro/anders",
            "provisioning_time": "2022-01-28T13:36:04.565155",
            "result": "unknown",
            "running_time": null,
            "state": "provisioning",
            "target_arch": "arm64",
            "targets": [],
            "toolchain": "clang-13",
            "uid": "24KQnOn9jGP46zUUn4Rt0pA3joD",
            "user": "anders.roxell@linaro.org",
            "user_agent": "tuxsuite/0.42.3",
            "waited_by": [],
            "warnings_count": 0
        },
        "24KQnOoUjsAuYfAhHZyAJeQZb6o": {
            "build_name": "",
            "client_token": "de3e32c0-cd2d-4652-8faf-236804727ec3",
            "download_url": "https://builds.tuxbuild.com/24KQnOoUjsAuYfAhHZyAJeQZb6o/",
            "environment": {},
            "errors_count": 0,
            "finished_time": null,
            "git_ref": "v5.14-rc1",
            "git_repo": "https://git.kernel.org/pub/scm/linux/kernel/git/torvalds/linux.git",
            "git_sha": "e73f0f0ee7541171d89f2e2491130c7771ba58d3",
            "image_sha": "",
            "kconfig": [
                "tinyconfig"
            ],
            "kernel_image": "",
            "kernel_patch_file": "",
            "make_variables": {},
            "no_cache": true,
            "plan": "24KQnIbfIFW0yVLB2CDIX21wgDm",
            "project": "linaro/anders",
            "provisioning_time": "2022-01-28T13:36:04.514696",
            "result": "unknown",
            "running_time": null,
            "state": "provisioning",
            "target_arch": "arm64",
            "targets": [],
            "toolchain": "gcc-11",
            "uid": "24KQnOoUjsAuYfAhHZyAJeQZb6o",
            "user": "anders.roxell@linaro.org",
            "user_agent": "tuxsuite/0.42.3",
            "waited_by": [],
            "warnings_count": 0
        },
        "24KQnPB1AFKLFaMEnDeBhcfRvHJ": {
            "build_name": "",
            "client_token": "92ceb178-feef-4d94-abeb-60e86515de49",
            "download_url": "https://builds.tuxbuild.com/24KQnPB1AFKLFaMEnDeBhcfRvHJ/",
            "environment": {},
            "errors_count": 0,
            "finished_time": null,
            "git_ref": "v5.14-rc1",
            "git_repo": "https://git.kernel.org/pub/scm/linux/kernel/git/torvalds/linux.git",
            "git_sha": "e73f0f0ee7541171d89f2e2491130c7771ba58d3",
            "image_sha": "",
            "kconfig": [
                "defconfig"
            ],
            "kernel_image": "",
            "kernel_patch_file": "",
            "make_variables": {
                "LLVM": "1",
                "LLVM_IAS": "1"
            },
            "no_cache": true,
            "plan": "24KQnIbfIFW0yVLB2CDIX21wgDm",
            "project": "linaro/anders",
            "provisioning_time": "2022-01-28T13:36:04.939071",
            "result": "unknown",
            "running_time": null,
            "state": "provisioning",
            "target_arch": "arm64",
            "targets": [],
            "toolchain": "clang-nightly",
            "uid": "24KQnPB1AFKLFaMEnDeBhcfRvHJ",
            "user": "anders.roxell@linaro.org",
            "user_agent": "tuxsuite/0.42.3",
            "waited_by": [],
            "warnings_count": 0
        },
        "24KQnPYCysRVK2A7e6FOXLV9kXu": {
            "build_name": "",
            "client_token": "022ea64d-ea0d-4ea9-955b-76e128e3c2b8",
            "download_url": "https://builds.tuxbuild.com/24KQnPYCysRVK2A7e6FOXLV9kXu/",
            "environment": {},
            "errors_count": 0,
            "finished_time": null,
            "git_ref": "v5.14-rc1",
            "git_repo": "https://git.kernel.org/pub/scm/linux/kernel/git/torvalds/linux.git",
            "git_sha": "e73f0f0ee7541171d89f2e2491130c7771ba58d3",
            "image_sha": "",
            "kconfig": [
                "defconfig"
            ],
            "kernel_image": "",
            "kernel_patch_file": "",
            "make_variables": {},
            "no_cache": true,
            "plan": "24KQnIbfIFW0yVLB2CDIX21wgDm",
            "project": "linaro/anders",
            "provisioning_time": "2022-01-28T13:36:04.786959",
            "result": "unknown",
            "running_time": null,
            "state": "provisioning",
            "target_arch": "arm64",
            "targets": [],
            "toolchain": "gcc-10",
            "uid": "24KQnPYCysRVK2A7e6FOXLV9kXu",
            "user": "anders.roxell@linaro.org",
            "user_agent": "tuxsuite/0.42.3",
            "waited_by": [],
            "warnings_count": 0
        },
        "24KQnPnZP4GDKPdnzhrur0R3oDY": {
            "build_name": "",
            "client_token": "e170d612-8d49-4a2d-a8e1-6ecd5589b5b4",
            "download_url": "https://builds.tuxbuild.com/24KQnPnZP4GDKPdnzhrur0R3oDY/",
            "environment": {},
            "errors_count": 0,
            "finished_time": null,
            "git_ref": "v5.14-rc1",
            "git_repo": "https://git.kernel.org/pub/scm/linux/kernel/git/torvalds/linux.git",
            "git_sha": "e73f0f0ee7541171d89f2e2491130c7771ba58d3",
            "image_sha": "",
            "kconfig": [
                "defconfig"
            ],
            "kernel_image": "",
            "kernel_patch_file": "",
            "make_variables": {},
            "no_cache": true,
            "plan": "24KQnIbfIFW0yVLB2CDIX21wgDm",
            "project": "linaro/anders",
            "provisioning_time": "2022-01-28T13:36:04.894508",
            "result": "unknown",
            "running_time": null,
            "state": "provisioning",
            "target_arch": "arm64",
            "targets": [],
            "toolchain": "gcc-11",
            "uid": "24KQnPnZP4GDKPdnzhrur0R3oDY",
            "user": "anders.roxell@linaro.org",
            "user_agent": "tuxsuite/0.42.3",
            "waited_by": [],
            "warnings_count": 0
        },
        "24KQnQ0yzMbTIHVAKGU9AyY9GQ1": {
            "build_name": "",
            "client_token": "12954824-dc17-4bb7-87d6-414c3b99f993",
            "download_url": "https://builds.tuxbuild.com/24KQnQ0yzMbTIHVAKGU9AyY9GQ1/",
            "environment": {},
            "errors_count": 0,
            "finished_time": null,
            "git_ref": "v5.14-rc1",
            "git_repo": "https://git.kernel.org/pub/scm/linux/kernel/git/torvalds/linux.git",
            "git_sha": "e73f0f0ee7541171d89f2e2491130c7771ba58d3",
            "image_sha": "",
            "kconfig": [
                "tinyconfig"
            ],
            "kernel_image": "",
            "kernel_patch_file": "",
            "make_variables": {
                "LLVM": "1",
                "LLVM_IAS": "1"
            },
            "no_cache": true,
            "plan": "24KQnIbfIFW0yVLB2CDIX21wgDm",
            "project": "linaro/anders",
            "provisioning_time": "2022-01-28T13:36:04.362440",
            "result": "unknown",
            "running_time": null,
            "state": "provisioning",
            "target_arch": "arm64",
            "targets": [],
            "toolchain": "clang-13",
            "uid": "24KQnQ0yzMbTIHVAKGU9AyY9GQ1",
            "user": "anders.roxell@linaro.org",
            "user_agent": "tuxsuite/0.42.3",
            "waited_by": [],
            "warnings_count": 0
        },
        "24KQnQMpwZJNoTFalkz2Fk46eb3": {
            "build_name": "",
            "client_token": "35f18a95-6ff1-471d-a6e1-e3f813f8fdda",
            "download_url": "https://builds.tuxbuild.com/24KQnQMpwZJNoTFalkz2Fk46eb3/",
            "environment": {},
            "errors_count": 0,
            "finished_time": null,
            "git_ref": "v5.14-rc1",
            "git_repo": "https://git.kernel.org/pub/scm/linux/kernel/git/torvalds/linux.git",
            "git_sha": "e73f0f0ee7541171d89f2e2491130c7771ba58d3",
            "image_sha": "",
            "kconfig": [
                "tinyconfig"
            ],
            "kernel_image": "",
            "kernel_patch_file": "",
            "make_variables": {
                "LLVM": "1",
                "LLVM_IAS": "1"
            },
            "no_cache": true,
            "plan": "24KQnIbfIFW0yVLB2CDIX21wgDm",
            "project": "linaro/anders",
            "provisioning_time": "2022-01-28T13:36:04.675032",
            "result": "unknown",
            "running_time": null,
            "state": "provisioning",
            "target_arch": "arm64",
            "targets": [],
            "toolchain": "clang-nightly",
            "uid": "24KQnQMpwZJNoTFalkz2Fk46eb3",
            "user": "anders.roxell@linaro.org",
            "user_agent": "tuxsuite/0.42.3",
            "waited_by": [],
            "warnings_count": 0
        },
        "24KQnQOAd7VjahyLWICSYLZwkbU": {
            "build_name": "",
            "client_token": "043d30f0-b72d-4667-8553-aa2f21e550a4",
            "download_url": "https://builds.tuxbuild.com/24KQnQOAd7VjahyLWICSYLZwkbU/",
            "environment": {},
            "errors_count": 0,
            "finished_time": null,
            "git_ref": "v5.14-rc1",
            "git_repo": "https://git.kernel.org/pub/scm/linux/kernel/git/torvalds/linux.git",
            "git_sha": "e73f0f0ee7541171d89f2e2491130c7771ba58d3",
            "image_sha": "",
            "kconfig": [
                "defconfig"
            ],
            "kernel_image": "",
            "kernel_patch_file": "",
            "make_variables": {
                "LLVM": "1",
                "LLVM_IAS": "1"
            },
            "no_cache": true,
            "plan": "24KQnIbfIFW0yVLB2CDIX21wgDm",
            "project": "linaro/anders",
            "provisioning_time": "2022-01-28T13:36:04.915360",
            "result": "unknown",
            "running_time": null,
            "state": "provisioning",
            "target_arch": "arm64",
            "targets": [],
            "toolchain": "clang-13",
            "uid": "24KQnQOAd7VjahyLWICSYLZwkbU",
            "user": "anders.roxell@linaro.org",
            "user_agent": "tuxsuite/0.42.3",
            "waited_by": [],
            "warnings_count": 0
        },
        "24KQnR05EZRbdAcdEVy28PqLdvt": {
            "build_name": "",
            "client_token": "f4d21313-d680-4ac1-b670-b78eb2ef9de9",
            "download_url": "https://builds.tuxbuild.com/24KQnR05EZRbdAcdEVy28PqLdvt/",
            "environment": {},
            "errors_count": 0,
            "finished_time": null,
            "git_ref": "v5.14-rc1",
            "git_repo": "https://git.kernel.org/pub/scm/linux/kernel/git/torvalds/linux.git",
            "git_sha": "e73f0f0ee7541171d89f2e2491130c7771ba58d3",
            "image_sha": "",
            "kconfig": [
                "tinyconfig"
            ],
            "kernel_image": "",
            "kernel_patch_file": "",
            "make_variables": {},
            "no_cache": true,
            "plan": "24KQnIbfIFW0yVLB2CDIX21wgDm",
            "project": "linaro/anders",
            "provisioning_time": "2022-01-28T13:36:04.405360",
            "result": "unknown",
            "running_time": null,
            "state": "provisioning",
            "target_arch": "arm64",
            "targets": [],
            "toolchain": "gcc-10",
            "uid": "24KQnR05EZRbdAcdEVy28PqLdvt",
            "user": "anders.roxell@linaro.org",
            "user_agent": "tuxsuite/0.42.3",
            "waited_by": [],
            "warnings_count": 0
        },
        "24KQnR0wzneERdfUEFXlk75iV4G": {
            "build_name": "",
            "client_token": "feb25601-86b4-49e4-8fab-4116fcc09a5e",
            "download_url": "https://builds.tuxbuild.com/24KQnR0wzneERdfUEFXlk75iV4G/",
            "environment": {},
            "errors_count": 0,
            "finished_time": null,
            "git_ref": "v5.14-rc1",
            "git_repo": "https://git.kernel.org/pub/scm/linux/kernel/git/torvalds/linux.git",
            "git_sha": "e73f0f0ee7541171d89f2e2491130c7771ba58d3",
            "image_sha": "",
            "kconfig": [
                "defconfig"
            ],
            "kernel_image": "",
            "kernel_patch_file": "",
            "make_variables": {
                "LLVM": "1",
                "LLVM_IAS": "1"
            },
            "no_cache": true,
            "plan": "24KQnIbfIFW0yVLB2CDIX21wgDm",
            "project": "linaro/anders",
            "provisioning_time": "2022-01-28T13:36:04.852286",
            "result": "unknown",
            "running_time": null,
            "state": "provisioning",
            "target_arch": "arm64",
            "targets": [],
            "toolchain": "clang-nightly",
            "uid": "24KQnR0wzneERdfUEFXlk75iV4G",
            "user": "anders.roxell@linaro.org",
            "user_agent": "tuxsuite/0.42.3",
            "waited_by": [],
            "warnings_count": 0
        },
        "24KQnRkbK7GMeRcNlEvcNNjCZhK": {
            "build_name": "",
            "client_token": "b7608392-ddc8-42c1-ae2f-2cf360f5b928",
            "download_url": "https://builds.tuxbuild.com/24KQnRkbK7GMeRcNlEvcNNjCZhK/",
            "environment": {},
            "errors_count": 0,
            "finished_time": null,
            "git_ref": "v5.14-rc1",
            "git_repo": "https://git.kernel.org/pub/scm/linux/kernel/git/torvalds/linux.git",
            "git_sha": "e73f0f0ee7541171d89f2e2491130c7771ba58d3",
            "image_sha": "",
            "kconfig": [
                "defconfig"
            ],
            "kernel_image": "",
            "kernel_patch_file": "",
            "make_variables": {
                "LLVM": "1",
                "LLVM_IAS": "1"
            },
            "no_cache": true,
            "plan": "24KQnIbfIFW0yVLB2CDIX21wgDm",
            "project": "linaro/anders",
            "provisioning_time": "2022-01-28T13:36:04.829519",
            "result": "unknown",
            "running_time": null,
            "state": "provisioning",
            "target_arch": "arm64",
            "targets": [],
            "toolchain": "clang-13",
            "uid": "24KQnRkbK7GMeRcNlEvcNNjCZhK",
            "user": "anders.roxell@linaro.org",
            "user_agent": "tuxsuite/0.42.3",
            "waited_by": [],
            "warnings_count": 0
        },
        "24KQnRzkMBVozpuH5fnRG9EehCw": {
            "build_name": "",
            "client_token": "db9d9f05-2bfd-4767-918d-36aef3a3610c",
            "download_url": "https://builds.tuxbuild.com/24KQnRzkMBVozpuH5fnRG9EehCw/",
            "environment": {},
            "errors_count": 0,
            "finished_time": null,
            "git_ref": "v5.14-rc1",
            "git_repo": "https://git.kernel.org/pub/scm/linux/kernel/git/torvalds/linux.git",
            "git_sha": "e73f0f0ee7541171d89f2e2491130c7771ba58d3",
            "image_sha": "",
            "kconfig": [
                "tinyconfig"
            ],
            "kernel_image": "",
            "kernel_patch_file": "",
            "make_variables": {
                "LLVM": "1",
                "LLVM_IAS": "1"
            },
            "no_cache": true,
            "plan": "24KQnIbfIFW0yVLB2CDIX21wgDm",
            "project": "linaro/anders",
            "provisioning_time": "2022-01-28T13:36:04.471331",
            "result": "unknown",
            "running_time": null,
            "state": "provisioning",
            "target_arch": "arm64",
            "targets": [],
            "toolchain": "clang-nightly",
            "uid": "24KQnRzkMBVozpuH5fnRG9EehCw",
            "user": "anders.roxell@linaro.org",
            "user_agent": "tuxsuite/0.42.3",
            "waited_by": [],
            "warnings_count": 0
        },
        "24KQnSal0NNuAffD3ljkRcsqlM6": {
            "build_name": "",
            "client_token": "c01c4a0f-85c7-4125-9f02-302f50c2e430",
            "download_url": "https://builds.tuxbuild.com/24KQnSal0NNuAffD3ljkRcsqlM6/",
            "environment": {},
            "errors_count": 0,
            "finished_time": null,
            "git_ref": "v5.14-rc1",
            "git_repo": "https://git.kernel.org/pub/scm/linux/kernel/git/torvalds/linux.git",
            "git_sha": "e73f0f0ee7541171d89f2e2491130c7771ba58d3",
            "image_sha": "",
            "kconfig": [
                "defconfig"
            ],
            "kernel_image": "",
            "kernel_patch_file": "",
            "make_variables": {},
            "no_cache": true,
            "plan": "24KQnIbfIFW0yVLB2CDIX21wgDm",
            "project": "linaro/anders",
            "provisioning_time": "2022-01-28T13:36:04.873149",
            "result": "unknown",
            "running_time": null,
            "state": "provisioning",
            "target_arch": "arm64",
            "targets": [],
            "toolchain": "gcc-10",
            "uid": "24KQnSal0NNuAffD3ljkRcsqlM6",
            "user": "anders.roxell@linaro.org",
            "user_agent": "tuxsuite/0.42.3",
            "waited_by": [],
            "warnings_count": 0
        },
        "24KQnSxgmP4Twv9Se1ugchksXpL": {
            "build_name": "",
            "client_token": "4276ccbd-00d1-4cf5-a5f5-699426395e82",
            "download_url": "https://builds.tuxbuild.com/24KQnSxgmP4Twv9Se1ugchksXpL/",
            "environment": {},
            "errors_count": 0,
            "finished_time": null,
            "git_ref": "v5.14-rc1",
            "git_repo": "https://git.kernel.org/pub/scm/linux/kernel/git/torvalds/linux.git",
            "git_sha": "e73f0f0ee7541171d89f2e2491130c7771ba58d3",
            "image_sha": "",
            "kconfig": [
                "defconfig"
            ],
            "kernel_image": "",
            "kernel_patch_file": "",
            "make_variables": {},
            "no_cache": true,
            "plan": "24KQnIbfIFW0yVLB2CDIX21wgDm",
            "project": "linaro/anders",
            "provisioning_time": "2022-01-28T13:36:04.964529",
            "result": "unknown",
            "running_time": null,
            "state": "provisioning",
            "target_arch": "arm64",
            "targets": [],
            "toolchain": "gcc-10",
            "uid": "24KQnSxgmP4Twv9Se1ugchksXpL",
            "user": "anders.roxell@linaro.org",
            "user_agent": "tuxsuite/0.42.3",
            "waited_by": [],
            "warnings_count": 0
        },
        "24KQnT5smlmRLM7ZDFX96Nqfq9J": {
            "build_name": "",
            "client_token": "ac1d79d9-bcf3-4e33-9ff5-1d5653309d02",
            "download_url": "https://builds.tuxbuild.com/24KQnT5smlmRLM7ZDFX96Nqfq9J/",
            "environment": {},
            "errors_count": 0,
            "finished_time": null,
            "git_ref": "v5.14-rc1",
            "git_repo": "https://git.kernel.org/pub/scm/linux/kernel/git/torvalds/linux.git",
            "git_sha": "e73f0f0ee7541171d89f2e2491130c7771ba58d3",
            "image_sha": "",
            "kconfig": [
                "defconfig"
            ],
            "kernel_image": "",
            "kernel_patch_file": "",
            "make_variables": {},
            "no_cache": true,
            "plan": "24KQnIbfIFW0yVLB2CDIX21wgDm",
            "project": "linaro/anders",
            "provisioning_time": "2022-01-28T13:36:04.990932",
            "result": "unknown",
            "running_time": null,
            "state": "provisioning",
            "target_arch": "arm64",
            "targets": [],
            "toolchain": "gcc-11",
            "uid": "24KQnT5smlmRLM7ZDFX96Nqfq9J",
            "user": "anders.roxell@linaro.org",
            "user_agent": "tuxsuite/0.42.3",
            "waited_by": [],
            "warnings_count": 0
        },
        "24KQnT9liZ8WLF8z6s6HgMD4nJn": {
            "build_name": "",
            "client_token": "9a3d74a7-1f62-42c5-a68e-a74ae93b49da",
            "download_url": "https://builds.tuxbuild.com/24KQnT9liZ8WLF8z6s6HgMD4nJn/",
            "environment": {},
            "errors_count": 0,
            "finished_time": null,
            "git_ref": "v5.14-rc1",
            "git_repo": "https://git.kernel.org/pub/scm/linux/kernel/git/torvalds/linux.git",
            "git_sha": "e73f0f0ee7541171d89f2e2491130c7771ba58d3",
            "image_sha": "",
            "kconfig": [
                "tinyconfig"
            ],
            "kernel_image": "",
            "kernel_patch_file": "",
            "make_variables": {},
            "no_cache": true,
            "plan": "24KQnIbfIFW0yVLB2CDIX21wgDm",
            "project": "linaro/anders",
            "provisioning_time": "2022-01-28T13:36:04.628095",
            "result": "unknown",
            "running_time": null,
            "state": "provisioning",
            "target_arch": "arm64",
            "targets": [],
            "toolchain": "gcc-11",
            "uid": "24KQnT9liZ8WLF8z6s6HgMD4nJn",
            "user": "anders.roxell@linaro.org",
            "user_agent": "tuxsuite/0.42.3",
            "waited_by": [],
            "warnings_count": 0
        },
        "24KQnTCMGPfHr7p6P8rcvNHfIRj": {
            "build_name": "",
            "client_token": "e0a16029-37bb-4b3a-ae61-b0cecfe6496e",
            "download_url": "https://builds.tuxbuild.com/24KQnTCMGPfHr7p6P8rcvNHfIRj/",
            "environment": {},
            "errors_count": 0,
            "finished_time": null,
            "git_ref": "v5.14-rc1",
            "git_repo": "https://git.kernel.org/pub/scm/linux/kernel/git/torvalds/linux.git",
            "git_sha": "e73f0f0ee7541171d89f2e2491130c7771ba58d3",
            "image_sha": "",
            "kconfig": [
                "tinyconfig"
            ],
            "kernel_image": "",
            "kernel_patch_file": "",
            "make_variables": {},
            "no_cache": true,
            "plan": "24KQnIbfIFW0yVLB2CDIX21wgDm",
            "project": "linaro/anders",
            "provisioning_time": "2022-01-28T13:36:04.317172",
            "result": "unknown",
            "running_time": null,
            "state": "provisioning",
            "target_arch": "arm64",
            "targets": [],
            "toolchain": "gcc-10",
            "uid": "24KQnTCMGPfHr7p6P8rcvNHfIRj",
            "user": "anders.roxell@linaro.org",
            "user_agent": "tuxsuite/0.42.3",
            "waited_by": [],
            "warnings_count": 0
        },
        "24KQnTReMDawtoyEP9XKg0Iq4eK": {
            "build_name": "",
            "client_token": "331444a5-c0b3-4356-955f-ea122c19864d",
            "download_url": "https://builds.tuxbuild.com/24KQnTReMDawtoyEP9XKg0Iq4eK/",
            "environment": {},
            "errors_count": 0,
            "finished_time": null,
            "git_ref": "v5.14-rc1",
            "git_repo": "https://git.kernel.org/pub/scm/linux/kernel/git/torvalds/linux.git",
            "git_sha": "e73f0f0ee7541171d89f2e2491130c7771ba58d3",
            "image_sha": "",
            "kconfig": [
                "tinyconfig"
            ],
            "kernel_image": "",
            "kernel_patch_file": "",
            "make_variables": {},
            "no_cache": true,
            "plan": "24KQnIbfIFW0yVLB2CDIX21wgDm",
            "project": "linaro/anders",
            "provisioning_time": "2022-01-28T13:36:04.606837",
            "result": "unknown",
            "running_time": null,
            "state": "provisioning",
            "target_arch": "arm64",
            "targets": [],
            "toolchain": "gcc-10",
            "uid": "24KQnTReMDawtoyEP9XKg0Iq4eK",
            "user": "anders.roxell@linaro.org",
            "user_agent": "tuxsuite/0.42.3",
            "waited_by": [],
            "warnings_count": 0
        },
        "24KQnU6JFtzQNv9G5I4PBVmpOEH": {
            "build_name": "",
            "client_token": "07491e2c-d332-413c-a34c-738659c4f411",
            "download_url": "https://builds.tuxbuild.com/24KQnU6JFtzQNv9G5I4PBVmpOEH/",
            "environment": {},
            "errors_count": 0,
            "finished_time": null,
            "git_ref": "v5.14-rc1",
            "git_repo": "https://git.kernel.org/pub/scm/linux/kernel/git/torvalds/linux.git",
            "git_sha": "e73f0f0ee7541171d89f2e2491130c7771ba58d3",
            "image_sha": "",
            "kconfig": [
                "defconfig"
            ],
            "kernel_image": "",
            "kernel_patch_file": "",
            "make_variables": {},
            "no_cache": true,
            "plan": "24KQnIbfIFW0yVLB2CDIX21wgDm",
            "project": "linaro/anders",
            "provisioning_time": "2022-01-28T13:36:04.808048",
            "result": "unknown",
            "running_time": null,
            "state": "provisioning",
            "target_arch": "arm64",
            "targets": [],
            "toolchain": "gcc-11",
            "uid": "24KQnU6JFtzQNv9G5I4PBVmpOEH",
            "user": "anders.roxell@linaro.org",
            "user_agent": "tuxsuite/0.42.3",
            "waited_by": [],
            "warnings_count": 0
        },
        "24KQnUPL4E87vuX8JOzZPp8HS9J": {
            "build_name": "",
            "client_token": "800d3ff7-cc48-473c-851e-c8a6ed293d11",
            "download_url": "https://builds.tuxbuild.com/24KQnUPL4E87vuX8JOzZPp8HS9J/",
            "environment": {},
            "errors_count": 0,
            "finished_time": null,
            "git_ref": "v5.14-rc1",
            "git_repo": "https://git.kernel.org/pub/scm/linux/kernel/git/torvalds/linux.git",
            "git_sha": "e73f0f0ee7541171d89f2e2491130c7771ba58d3",
            "image_sha": "",
            "kconfig": [
                "tinyconfig"
            ],
            "kernel_image": "",
            "kernel_patch_file": "",
            "make_variables": {},
            "no_cache": true,
            "plan": "24KQnIbfIFW0yVLB2CDIX21wgDm",
            "project": "linaro/anders",
            "provisioning_time": "2022-01-28T13:36:04.339021",
            "result": "unknown",
            "running_time": null,
            "state": "provisioning",
            "target_arch": "arm64",
            "targets": [],
            "toolchain": "gcc-11",
            "uid": "24KQnUPL4E87vuX8JOzZPp8HS9J",
            "user": "anders.roxell@linaro.org",
            "user_agent": "tuxsuite/0.42.3",
            "waited_by": [],
            "warnings_count": 0
        },
        "24KQnUXE935ufOVs3xuwJ0g93hB": {
            "build_name": "",
            "client_token": "bcf1f5b7-8051-42b8-95e2-8fef39feec74",
            "download_url": "https://builds.tuxbuild.com/24KQnUXE935ufOVs3xuwJ0g93hB/",
            "environment": {},
            "errors_count": 0,
            "finished_time": null,
            "git_ref": "v5.14-rc1",
            "git_repo": "https://git.kernel.org/pub/scm/linux/kernel/git/torvalds/linux.git",
            "git_sha": "e73f0f0ee7541171d89f2e2491130c7771ba58d3",
            "image_sha": "",
            "kconfig": [
                "tinyconfig"
            ],
            "kernel_image": "",
            "kernel_patch_file": "",
            "make_variables": {},
            "no_cache": true,
            "plan": "24KQnIbfIFW0yVLB2CDIX21wgDm",
            "project": "linaro/anders",
            "provisioning_time": "2022-01-28T13:36:04.492881",
            "result": "unknown",
            "running_time": null,
            "state": "provisioning",
            "target_arch": "arm64",
            "targets": [],
            "toolchain": "gcc-10",
            "uid": "24KQnUXE935ufOVs3xuwJ0g93hB",
            "user": "anders.roxell@linaro.org",
            "user_agent": "tuxsuite/0.42.3",
            "waited_by": [],
            "warnings_count": 0
        },
        "24KQnUmkqoMN9ASwsRUGGC04hHG": {
            "build_name": "",
            "client_token": "e4d8c35d-c0dd-4475-915d-dcfde52c0b0e",
            "download_url": "https://builds.tuxbuild.com/24KQnUmkqoMN9ASwsRUGGC04hHG/",
            "environment": {},
            "errors_count": 0,
            "finished_time": null,
            "git_ref": "v5.14-rc1",
            "git_repo": "https://git.kernel.org/pub/scm/linux/kernel/git/torvalds/linux.git",
            "git_sha": "e73f0f0ee7541171d89f2e2491130c7771ba58d3",
            "image_sha": "",
            "kconfig": [
                "defconfig"
            ],
            "kernel_image": "",
            "kernel_patch_file": "",
            "make_variables": {},
            "no_cache": true,
            "plan": "24KQnIbfIFW0yVLB2CDIX21wgDm",
            "project": "linaro/anders",
            "provisioning_time": "2022-01-28T13:36:05.056170",
            "result": "unknown",
            "running_time": null,
            "state": "provisioning",
            "target_arch": "arm64",
            "targets": [],
            "toolchain": "gcc-10",
            "uid": "24KQnUmkqoMN9ASwsRUGGC04hHG",
            "user": "anders.roxell@linaro.org",
            "user_agent": "tuxsuite/0.42.3",
            "waited_by": [],
            "warnings_count": 0
        },
        "24KQnUuPNMfIkpvSpq9DKDCxjWy": {
            "build_name": "",
            "client_token": "efa9d851-b35a-42fd-b4d5-a65a286b2e71",
            "download_url": "https://builds.tuxbuild.com/24KQnUuPNMfIkpvSpq9DKDCxjWy/",
            "environment": {},
            "errors_count": 0,
            "finished_time": null,
            "git_ref": "v5.14-rc1",
            "git_repo": "https://git.kernel.org/pub/scm/linux/kernel/git/torvalds/linux.git",
            "git_sha": "e73f0f0ee7541171d89f2e2491130c7771ba58d3",
            "image_sha": "",
            "kconfig": [
                "defconfig"
            ],
            "kernel_image": "",
            "kernel_patch_file": "",
            "make_variables": {},
            "no_cache": true,
            "plan": "24KQnIbfIFW0yVLB2CDIX21wgDm",
            "project": "linaro/anders",
            "provisioning_time": "2022-01-28T13:36:05.077140",
            "result": "unknown",
            "running_time": null,
            "state": "provisioning",
            "target_arch": "arm64",
            "targets": [],
            "toolchain": "gcc-11",
            "uid": "24KQnUuPNMfIkpvSpq9DKDCxjWy",
            "user": "anders.roxell@linaro.org",
            "user_agent": "tuxsuite/0.42.3",
            "waited_by": [],
            "warnings_count": 0
        },
        "24KQnVO3PztxBLkJliU1v8RE4Uc": {
            "build_name": "",
            "client_token": "e28d220f-d7e9-48c2-b806-378e5b718dc4",
            "download_url": "https://builds.tuxbuild.com/24KQnVO3PztxBLkJliU1v8RE4Uc/",
            "environment": {},
            "errors_count": 0,
            "finished_time": null,
            "git_ref": "v5.14-rc1",
            "git_repo": "https://git.kernel.org/pub/scm/linux/kernel/git/torvalds/linux.git",
            "git_sha": "e73f0f0ee7541171d89f2e2491130c7771ba58d3",
            "image_sha": "",
            "kconfig": [
                "defconfig"
            ],
            "kernel_image": "",
            "kernel_patch_file": "",
            "make_variables": {},
            "no_cache": true,
            "plan": "24KQnIbfIFW0yVLB2CDIX21wgDm",
            "project": "linaro/anders",
            "provisioning_time": "2022-01-28T13:36:05.162297",
            "result": "unknown",
            "running_time": null,
            "state": "provisioning",
            "target_arch": "arm64",
            "targets": [],
            "toolchain": "gcc-11",
            "uid": "24KQnVO3PztxBLkJliU1v8RE4Uc",
            "user": "anders.roxell@linaro.org",
            "user_agent": "tuxsuite/0.42.3",
            "waited_by": [],
            "warnings_count": 0
        },
        "24KQnVoSTS1RFEFRGWXqSjMlz6m": {
            "build_name": "",
            "client_token": "c59bc23f-6fed-4deb-8969-39a859bccfc1",
            "download_url": "https://builds.tuxbuild.com/24KQnVoSTS1RFEFRGWXqSjMlz6m/",
            "environment": {},
            "errors_count": 0,
            "finished_time": null,
            "git_ref": "v5.14-rc1",
            "git_repo": "https://git.kernel.org/pub/scm/linux/kernel/git/torvalds/linux.git",
            "git_sha": "e73f0f0ee7541171d89f2e2491130c7771ba58d3",
            "image_sha": "",
            "kconfig": [
                "defconfig"
            ],
            "kernel_image": "",
            "kernel_patch_file": "",
            "make_variables": {
                "LLVM": "1",
                "LLVM_IAS": "1"
            },
            "no_cache": true,
            "plan": "24KQnIbfIFW0yVLB2CDIX21wgDm",
            "project": "linaro/anders",
            "provisioning_time": "2022-01-28T13:36:05.098179",
            "result": "unknown",
            "running_time": null,
            "state": "provisioning",
            "target_arch": "arm64",
            "targets": [],
            "toolchain": "clang-13",
            "uid": "24KQnVoSTS1RFEFRGWXqSjMlz6m",
            "user": "anders.roxell@linaro.org",
            "user_agent": "tuxsuite/0.42.3",
            "waited_by": [],
            "warnings_count": 0
        },
        "24KQnW7p8cqKSEGeoze6ZrHWs67": {
            "build_name": "",
            "client_token": "0280fa7a-9269-43d8-9076-768c4c386661",
            "download_url": "https://builds.tuxbuild.com/24KQnW7p8cqKSEGeoze6ZrHWs67/",
            "environment": {},
            "errors_count": 0,
            "finished_time": null,
            "git_ref": "v5.14-rc1",
            "git_repo": "https://git.kernel.org/pub/scm/linux/kernel/git/torvalds/linux.git",
            "git_sha": "e73f0f0ee7541171d89f2e2491130c7771ba58d3",
            "image_sha": "",
            "kconfig": [
                "defconfig"
            ],
            "kernel_image": "",
            "kernel_patch_file": "",
            "make_variables": {
                "LLVM": "1",
                "LLVM_IAS": "1"
            },
            "no_cache": true,
            "plan": "24KQnIbfIFW0yVLB2CDIX21wgDm",
            "project": "linaro/anders",
            "provisioning_time": "2022-01-28T13:36:05.120886",
            "result": "unknown",
            "running_time": null,
            "state": "provisioning",
            "target_arch": "arm64",
            "targets": [],
            "toolchain": "clang-nightly",
            "uid": "24KQnW7p8cqKSEGeoze6ZrHWs67",
            "user": "anders.roxell@linaro.org",
            "user_agent": "tuxsuite/0.42.3",
            "waited_by": [],
            "warnings_count": 0
        },
        "24KQnXhg8Ux1cVW7uVUzlYipGeR": {
            "build_name": "",
            "client_token": "6c11b434-04f4-4078-a723-dd989e63ad48",
            "download_url": "https://builds.tuxbuild.com/24KQnXhg8Ux1cVW7uVUzlYipGeR/",
            "environment": {},
            "errors_count": 0,
            "finished_time": null,
            "git_ref": "v5.14-rc1",
            "git_repo": "https://git.kernel.org/pub/scm/linux/kernel/git/torvalds/linux.git",
            "git_sha": "e73f0f0ee7541171d89f2e2491130c7771ba58d3",
            "image_sha": "",
            "kconfig": [
                "defconfig"
            ],
            "kernel_image": "",
            "kernel_patch_file": "",
            "make_variables": {},
            "no_cache": true,
            "plan": "24KQnIbfIFW0yVLB2CDIX21wgDm",
            "project": "linaro/anders",
            "provisioning_time": "2022-01-28T13:36:05.141478",
            "result": "unknown",
            "running_time": null,
            "state": "provisioning",
            "target_arch": "arm64",
            "targets": [],
            "toolchain": "gcc-10",
            "uid": "24KQnXhg8Ux1cVW7uVUzlYipGeR",
            "user": "anders.roxell@linaro.org",
            "user_agent": "tuxsuite/0.42.3",
            "waited_by": [],
            "warnings_count": 0
        },
        "24KQnYIILaRuhklEhoVhJEOCTnk": {
            "build_name": "",
            "client_token": "804ae52f-1b10-4367-b06b-e10470311bcf",
            "download_url": "https://builds.tuxbuild.com/24KQnYIILaRuhklEhoVhJEOCTnk/",
            "environment": {},
            "errors_count": 0,
            "finished_time": null,
            "git_ref": "v5.14-rc1",
            "git_repo": "https://git.kernel.org/pub/scm/linux/kernel/git/torvalds/linux.git",
            "git_sha": "e73f0f0ee7541171d89f2e2491130c7771ba58d3",
            "image_sha": "",
            "kconfig": [
                "defconfig"
            ],
            "kernel_image": "",
            "kernel_patch_file": "",
            "make_variables": {
                "LLVM": "1",
                "LLVM_IAS": "1"
            },
            "no_cache": true,
            "plan": "24KQnIbfIFW0yVLB2CDIX21wgDm",
            "project": "linaro/anders",
            "provisioning_time": "2022-01-28T13:36:05.183442",
            "result": "unknown",
            "running_time": null,
            "state": "provisioning",
            "target_arch": "arm64",
            "targets": [],
            "toolchain": "clang-13",
            "uid": "24KQnYIILaRuhklEhoVhJEOCTnk",
            "user": "anders.roxell@linaro.org",
            "user_agent": "tuxsuite/0.42.3",
            "waited_by": [],
            "warnings_count": 0
        },
        "24KQnYhVC7UnzaQiDuafPVoEcyE": {
            "build_name": "",
            "client_token": "51c5fb3c-b1b0-459c-9b6c-17e23c429aad",
            "download_url": "https://builds.tuxbuild.com/24KQnYhVC7UnzaQiDuafPVoEcyE/",
            "environment": {},
            "errors_count": 0,
            "finished_time": null,
            "git_ref": "v5.14-rc1",
            "git_repo": "https://git.kernel.org/pub/scm/linux/kernel/git/torvalds/linux.git",
            "git_sha": "e73f0f0ee7541171d89f2e2491130c7771ba58d3",
            "image_sha": "",
            "kconfig": [
                "defconfig"
            ],
            "kernel_image": "",
            "kernel_patch_file": "",
            "make_variables": {
                "LLVM": "1",
                "LLVM_IAS": "1"
            },
            "no_cache": true,
            "plan": "24KQnIbfIFW0yVLB2CDIX21wgDm",
            "project": "linaro/anders",
            "provisioning_time": "2022-01-28T13:36:05.035105",
            "result": "unknown",
            "running_time": null,
            "state": "provisioning",
            "target_arch": "arm64",
            "targets": [],
            "toolchain": "clang-nightly",
            "uid": "24KQnYhVC7UnzaQiDuafPVoEcyE",
            "user": "anders.roxell@linaro.org",
            "user_agent": "tuxsuite/0.42.3",
            "waited_by": [],
            "warnings_count": 0
        },
        "24KQnZEzTtSBTSwIbOqhMSJpBC0": {
            "build_name": "",
            "client_token": "0dfb17bf-044a-44d1-b6d3-79e471d8b267",
            "download_url": "https://builds.tuxbuild.com/24KQnZEzTtSBTSwIbOqhMSJpBC0/",
            "environment": {},
            "errors_count": 0,
            "finished_time": null,
            "git_ref": "v5.14-rc1",
            "git_repo": "https://git.kernel.org/pub/scm/linux/kernel/git/torvalds/linux.git",
            "git_sha": "e73f0f0ee7541171d89f2e2491130c7771ba58d3",
            "image_sha": "",
            "kconfig": [
                "defconfig"
            ],
            "kernel_image": "",
            "kernel_patch_file": "",
            "make_variables": {
                "LLVM": "1",
                "LLVM_IAS": "1"
            },
            "no_cache": true,
            "plan": "24KQnIbfIFW0yVLB2CDIX21wgDm",
            "project": "linaro/anders",
            "provisioning_time": "2022-01-28T13:36:05.012203",
            "result": "unknown",
            "running_time": null,
            "state": "provisioning",
            "target_arch": "arm64",
            "targets": [],
            "toolchain": "clang-13",
            "uid": "24KQnZEzTtSBTSwIbOqhMSJpBC0",
            "user": "anders.roxell@linaro.org",
            "user_agent": "tuxsuite/0.42.3",
            "waited_by": [],
            "warnings_count": 0
        },
        "24KQnaqMmTzvPUyotJqdfrBTIFI": {
            "build_name": "",
            "client_token": "9d5d35c7-0353-4093-8dcf-15eb3455697a",
            "download_url": "https://builds.tuxbuild.com/24KQnaqMmTzvPUyotJqdfrBTIFI/",
            "environment": {},
            "errors_count": 0,
            "finished_time": null,
            "git_ref": "v5.14-rc1",
            "git_repo": "https://git.kernel.org/pub/scm/linux/kernel/git/torvalds/linux.git",
            "git_sha": "e73f0f0ee7541171d89f2e2491130c7771ba58d3",
            "image_sha": "",
            "kconfig": [
                "defconfig"
            ],
            "kernel_image": "",
            "kernel_patch_file": "",
            "make_variables": {
                "LLVM": "1",
                "LLVM_IAS": "1"
            },
            "no_cache": true,
            "plan": "24KQnIbfIFW0yVLB2CDIX21wgDm",
            "project": "linaro/anders",
            "provisioning_time": "2022-01-28T13:36:05.204665",
            "result": "unknown",
            "running_time": null,
            "state": "provisioning",
            "target_arch": "arm64",
            "targets": [],
            "toolchain": "clang-nightly",
            "uid": "24KQnaqMmTzvPUyotJqdfrBTIFI",
            "user": "anders.roxell@linaro.org",
            "user_agent": "tuxsuite/0.42.3",
            "waited_by": [],
            "warnings_count": 0
        }
    },
    "tests": {
        "24KQncae66LtRai49yRTll0r4CJ": {
            "ap_romfw": null,
            "boot_args": null,
            "device": "qemu-arm64",
            "finished_time": null,
            "fip": null,
            "kernel": null,
            "mcp_fw": null,
            "mcp_romfw": null,
            "modules": null,
            "parameters": [],
            "plan": "24KQnIbfIFW0yVLB2CDIX21wgDm",
            "project": "linaro/anders",
            "provisioning_time": null,
            "result": "unknown",
            "results": {},
            "retries": 0,
            "retries_messages": [],
            "rootfs": null,
            "running_time": null,
            "scp_fw": null,
            "scp_romfw": null,
            "state": "waiting",
            "tests": [
                "boot"
            ],
            "uid": "24KQncae66LtRai49yRTll0r4CJ",
            "user": "anders.roxell@linaro.org",
            "user_agent": "tuxsuite/0.42.3",
            "waiting_for": "24KQnPYCysRVK2A7e6FOXLV9kXu"
        },
        "24KQncjD8i401jTYcxHosFECB0F": {
            "ap_romfw": null,
            "boot_args": null,
            "device": "qemu-arm64",
            "finished_time": null,
            "fip": null,
            "kernel": null,
            "mcp_fw": null,
            "mcp_romfw": null,
            "modules": null,
            "parameters": [],
            "plan": "24KQnIbfIFW0yVLB2CDIX21wgDm",
            "project": "linaro/anders",
            "provisioning_time": null,
            "result": "unknown",
            "results": {},
            "retries": 0,
            "retries_messages": [],
            "rootfs": null,
            "running_time": null,
            "scp_fw": null,
            "scp_romfw": null,
            "state": "waiting",
            "tests": [
                "boot"
            ],
            "uid": "24KQncjD8i401jTYcxHosFECB0F",
            "user": "anders.roxell@linaro.org",
            "user_agent": "tuxsuite/0.42.3",
            "waiting_for": "24KQnT5smlmRLM7ZDFX96Nqfq9J"
        },
        "24KQncy7CXwpbLEz6pLGLrOBc5J": {
            "ap_romfw": null,
            "boot_args": null,
            "device": "qemu-arm64",
            "finished_time": null,
            "fip": null,
            "kernel": null,
            "mcp_fw": null,
            "mcp_romfw": null,
            "modules": null,
            "parameters": [],
            "plan": "24KQnIbfIFW0yVLB2CDIX21wgDm",
            "project": "linaro/anders",
            "provisioning_time": null,
            "result": "unknown",
            "results": {},
            "retries": 0,
            "retries_messages": [],
            "rootfs": null,
            "running_time": null,
            "scp_fw": null,
            "scp_romfw": null,
            "state": "waiting",
            "tests": [
                "boot"
            ],
            "uid": "24KQncy7CXwpbLEz6pLGLrOBc5J",
            "user": "anders.roxell@linaro.org",
            "user_agent": "tuxsuite/0.42.3",
            "waiting_for": "24KQnQOAd7VjahyLWICSYLZwkbU"
        },
        "24KQnd2p4qpt26hUz3VlvcL5072": {
            "ap_romfw": null,
            "boot_args": null,
            "device": "qemu-arm64",
            "finished_time": null,
            "fip": null,
            "kernel": null,
            "mcp_fw": null,
            "mcp_romfw": null,
            "modules": null,
            "parameters": [],
            "plan": "24KQnIbfIFW0yVLB2CDIX21wgDm",
            "project": "linaro/anders",
            "provisioning_time": null,
            "result": "unknown",
            "results": {},
            "retries": 0,
            "retries_messages": [],
            "rootfs": null,
            "running_time": null,
            "scp_fw": null,
            "scp_romfw": null,
            "state": "waiting",
            "tests": [
                "boot"
            ],
            "uid": "24KQnd2p4qpt26hUz3VlvcL5072",
            "user": "anders.roxell@linaro.org",
            "user_agent": "tuxsuite/0.42.3",
            "waiting_for": "24KQnW7p8cqKSEGeoze6ZrHWs67"
        },
        "24KQndHd3mIBPFZpp2x8GtAI4DL": {
            "ap_romfw": null,
            "boot_args": null,
            "device": "qemu-arm64",
            "finished_time": null,
            "fip": null,
            "kernel": null,
            "mcp_fw": null,
            "mcp_romfw": null,
            "modules": null,
            "parameters": [],
            "plan": "24KQnIbfIFW0yVLB2CDIX21wgDm",
            "project": "linaro/anders",
            "provisioning_time": null,
            "result": "unknown",
            "results": {},
            "retries": 0,
            "retries_messages": [],
            "rootfs": null,
            "running_time": null,
            "scp_fw": null,
            "scp_romfw": null,
            "state": "waiting",
            "tests": [
                "boot"
            ],
            "uid": "24KQndHd3mIBPFZpp2x8GtAI4DL",
            "user": "anders.roxell@linaro.org",
            "user_agent": "tuxsuite/0.42.3",
            "waiting_for": "24KQnSal0NNuAffD3ljkRcsqlM6"
        },
        "24KQnffpSzYfQQKst0Iwn8KqnGw": {
            "ap_romfw": null,
            "boot_args": null,
            "device": "qemu-arm64",
            "finished_time": null,
            "fip": null,
            "kernel": null,
            "mcp_fw": null,
            "mcp_romfw": null,
            "modules": null,
            "parameters": [],
            "plan": "24KQnIbfIFW0yVLB2CDIX21wgDm",
            "project": "linaro/anders",
            "provisioning_time": null,
            "result": "unknown",
            "results": {},
            "retries": 0,
            "retries_messages": [],
            "rootfs": null,
            "running_time": null,
            "scp_fw": null,
            "scp_romfw": null,
            "state": "waiting",
            "tests": [
                "boot"
            ],
            "uid": "24KQnffpSzYfQQKst0Iwn8KqnGw",
            "user": "anders.roxell@linaro.org",
            "user_agent": "tuxsuite/0.42.3",
            "waiting_for": "24KQnRkbK7GMeRcNlEvcNNjCZhK"
        },
        "24KQnfg5CrngumESMGzn6taJ9RM": {
            "ap_romfw": null,
            "boot_args": null,
            "device": "qemu-arm64",
            "finished_time": null,
            "fip": null,
            "kernel": null,
            "mcp_fw": null,
            "mcp_romfw": null,
            "modules": null,
            "parameters": [],
            "plan": "24KQnIbfIFW0yVLB2CDIX21wgDm",
            "project": "linaro/anders",
            "provisioning_time": null,
            "result": "unknown",
            "results": {},
            "retries": 0,
            "retries_messages": [],
            "rootfs": null,
            "running_time": null,
            "scp_fw": null,
            "scp_romfw": null,
            "state": "waiting",
            "tests": [
                "boot"
            ],
            "uid": "24KQnfg5CrngumESMGzn6taJ9RM",
            "user": "anders.roxell@linaro.org",
            "user_agent": "tuxsuite/0.42.3",
            "waiting_for": "24KQnXhg8Ux1cVW7uVUzlYipGeR"
        },
        "24KQngLekyML9NKuJfiNnHZLuHC": {
            "ap_romfw": null,
            "boot_args": null,
            "device": "qemu-arm64",
            "finished_time": null,
            "fip": null,
            "kernel": null,
            "mcp_fw": null,
            "mcp_romfw": null,
            "modules": null,
            "parameters": [],
            "plan": "24KQnIbfIFW0yVLB2CDIX21wgDm",
            "project": "linaro/anders",
            "provisioning_time": null,
            "result": "unknown",
            "results": {},
            "retries": 0,
            "retries_messages": [],
            "rootfs": null,
            "running_time": null,
            "scp_fw": null,
            "scp_romfw": null,
            "state": "waiting",
            "tests": [
                "boot"
            ],
            "uid": "24KQngLekyML9NKuJfiNnHZLuHC",
            "user": "anders.roxell@linaro.org",
            "user_agent": "tuxsuite/0.42.3",
            "waiting_for": "24KQnSxgmP4Twv9Se1ugchksXpL"
        },
        "24KQngXLjr94VWNCgDcv0SevZtB": {
            "ap_romfw": null,
            "boot_args": null,
            "device": "qemu-arm64",
            "finished_time": null,
            "fip": null,
            "kernel": null,
            "mcp_fw": null,
            "mcp_romfw": null,
            "modules": null,
            "parameters": [],
            "plan": "24KQnIbfIFW0yVLB2CDIX21wgDm",
            "project": "linaro/anders",
            "provisioning_time": null,
            "result": "unknown",
            "results": {},
            "retries": 0,
            "retries_messages": [],
            "rootfs": null,
            "running_time": null,
            "scp_fw": null,
            "scp_romfw": null,
            "state": "waiting",
            "tests": [
                "boot"
            ],
            "uid": "24KQngXLjr94VWNCgDcv0SevZtB",
            "user": "anders.roxell@linaro.org",
            "user_agent": "tuxsuite/0.42.3",
            "waiting_for": "24KQnPnZP4GDKPdnzhrur0R3oDY"
        },
        "24KQnhQswNMy1AWzqK09w2pa7US": {
            "ap_romfw": null,
            "boot_args": null,
            "device": "qemu-arm64",
            "finished_time": null,
            "fip": null,
            "kernel": null,
            "mcp_fw": null,
            "mcp_romfw": null,
            "modules": null,
            "parameters": [],
            "plan": "24KQnIbfIFW0yVLB2CDIX21wgDm",
            "project": "linaro/anders",
            "provisioning_time": null,
            "result": "unknown",
            "results": {},
            "retries": 0,
            "retries_messages": [],
            "rootfs": null,
            "running_time": null,
            "scp_fw": null,
            "scp_romfw": null,
            "state": "waiting",
            "tests": [
                "boot"
            ],
            "uid": "24KQnhQswNMy1AWzqK09w2pa7US",
            "user": "anders.roxell@linaro.org",
            "user_agent": "tuxsuite/0.42.3",
            "waiting_for": "24KQnR0wzneERdfUEFXlk75iV4G"
        },
        "24KQnhXaK6JA8d66a5NuEzH8lh0": {
            "ap_romfw": null,
            "boot_args": null,
            "device": "qemu-arm64",
            "finished_time": null,
            "fip": null,
            "kernel": null,
            "mcp_fw": null,
            "mcp_romfw": null,
            "modules": null,
            "parameters": [],
            "plan": "24KQnIbfIFW0yVLB2CDIX21wgDm",
            "project": "linaro/anders",
            "provisioning_time": null,
            "result": "unknown",
            "results": {},
            "retries": 0,
            "retries_messages": [],
            "rootfs": null,
            "running_time": null,
            "scp_fw": null,
            "scp_romfw": null,
            "state": "waiting",
            "tests": [
                "boot"
            ],
            "uid": "24KQnhXaK6JA8d66a5NuEzH8lh0",
            "user": "anders.roxell@linaro.org",
            "user_agent": "tuxsuite/0.42.3",
            "waiting_for": "24KQnUuPNMfIkpvSpq9DKDCxjWy"
        },
        "24KQni7SUqKWpWHimF2jBCYHEhw": {
            "ap_romfw": null,
            "boot_args": null,
            "device": "qemu-arm64",
            "finished_time": null,
            "fip": null,
            "kernel": null,
            "mcp_fw": null,
            "mcp_romfw": null,
            "modules": null,
            "parameters": [],
            "plan": "24KQnIbfIFW0yVLB2CDIX21wgDm",
            "project": "linaro/anders",
            "provisioning_time": null,
            "result": "unknown",
            "results": {},
            "retries": 0,
            "retries_messages": [],
            "rootfs": null,
            "running_time": null,
            "scp_fw": null,
            "scp_romfw": null,
            "state": "waiting",
            "tests": [
                "boot"
            ],
            "uid": "24KQni7SUqKWpWHimF2jBCYHEhw",
            "user": "anders.roxell@linaro.org",
            "user_agent": "tuxsuite/0.42.3",
            "waiting_for": "24KQnU6JFtzQNv9G5I4PBVmpOEH"
        },
        "24KQniIKQYG1qiwUI4gBsptXRrm": {
            "ap_romfw": null,
            "boot_args": null,
            "device": "qemu-arm64",
            "finished_time": null,
            "fip": null,
            "kernel": null,
            "mcp_fw": null,
            "mcp_romfw": null,
            "modules": null,
            "parameters": [],
            "plan": "24KQnIbfIFW0yVLB2CDIX21wgDm",
            "project": "linaro/anders",
            "provisioning_time": null,
            "result": "unknown",
            "results": {},
            "retries": 0,
            "retries_messages": [],
            "rootfs": null,
            "running_time": null,
            "scp_fw": null,
            "scp_romfw": null,
            "state": "waiting",
            "tests": [
                "boot"
            ],
            "uid": "24KQniIKQYG1qiwUI4gBsptXRrm",
            "user": "anders.roxell@linaro.org",
            "user_agent": "tuxsuite/0.42.3",
            "waiting_for": "24KQnYhVC7UnzaQiDuafPVoEcyE"
        },
        "24KQnicyBRCSga8WKXZhhhthiJD": {
            "ap_romfw": null,
            "boot_args": null,
            "device": "qemu-arm64",
            "finished_time": null,
            "fip": null,
            "kernel": null,
            "mcp_fw": null,
            "mcp_romfw": null,
            "modules": null,
            "parameters": [],
            "plan": "24KQnIbfIFW0yVLB2CDIX21wgDm",
            "project": "linaro/anders",
            "provisioning_time": null,
            "result": "unknown",
            "results": {},
            "retries": 0,
            "retries_messages": [],
            "rootfs": null,
            "running_time": null,
            "scp_fw": null,
            "scp_romfw": null,
            "state": "waiting",
            "tests": [
                "boot"
            ],
            "uid": "24KQnicyBRCSga8WKXZhhhthiJD",
            "user": "anders.roxell@linaro.org",
            "user_agent": "tuxsuite/0.42.3",
            "waiting_for": "24KQnYIILaRuhklEhoVhJEOCTnk"
        },
        "24KQnj3jIB1bZEitF8Qt0tDJGZo": {
            "ap_romfw": null,
            "boot_args": null,
            "device": "qemu-arm64",
            "finished_time": null,
            "fip": null,
            "kernel": null,
            "mcp_fw": null,
            "mcp_romfw": null,
            "modules": null,
            "parameters": [],
            "plan": "24KQnIbfIFW0yVLB2CDIX21wgDm",
            "project": "linaro/anders",
            "provisioning_time": null,
            "result": "unknown",
            "results": {},
            "retries": 0,
            "retries_messages": [],
            "rootfs": null,
            "running_time": null,
            "scp_fw": null,
            "scp_romfw": null,
            "state": "waiting",
            "tests": [
                "boot"
            ],
            "uid": "24KQnj3jIB1bZEitF8Qt0tDJGZo",
            "user": "anders.roxell@linaro.org",
            "user_agent": "tuxsuite/0.42.3",
            "waiting_for": "24KQnVoSTS1RFEFRGWXqSjMlz6m"
        },
        "24KQnjJn59QY2JF0C4kmjSW4pI4": {
            "ap_romfw": null,
            "boot_args": null,
            "device": "qemu-arm64",
            "finished_time": null,
            "fip": null,
            "kernel": null,
            "mcp_fw": null,
            "mcp_romfw": null,
            "modules": null,
            "parameters": [],
            "plan": "24KQnIbfIFW0yVLB2CDIX21wgDm",
            "project": "linaro/anders",
            "provisioning_time": null,
            "result": "unknown",
            "results": {},
            "retries": 0,
            "retries_messages": [],
            "rootfs": null,
            "running_time": null,
            "scp_fw": null,
            "scp_romfw": null,
            "state": "waiting",
            "tests": [
                "boot"
            ],
            "uid": "24KQnjJn59QY2JF0C4kmjSW4pI4",
            "user": "anders.roxell@linaro.org",
            "user_agent": "tuxsuite/0.42.3",
            "waiting_for": "24KQnVO3PztxBLkJliU1v8RE4Uc"
        },
        "24KQnjK0kGq0lMZNOjJp2fF5KWJ": {
            "ap_romfw": null,
            "boot_args": null,
            "device": "qemu-arm64",
            "finished_time": null,
            "fip": null,
            "kernel": null,
            "mcp_fw": null,
            "mcp_romfw": null,
            "modules": null,
            "parameters": [],
            "plan": "24KQnIbfIFW0yVLB2CDIX21wgDm",
            "project": "linaro/anders",
            "provisioning_time": null,
            "result": "unknown",
            "results": {},
            "retries": 0,
            "retries_messages": [],
            "rootfs": null,
            "running_time": null,
            "scp_fw": null,
            "scp_romfw": null,
            "state": "waiting",
            "tests": [
                "boot"
            ],
            "uid": "24KQnjK0kGq0lMZNOjJp2fF5KWJ",
            "user": "anders.roxell@linaro.org",
            "user_agent": "tuxsuite/0.42.3",
            "waiting_for": "24KQnUmkqoMN9ASwsRUGGC04hHG"
        },
        "24KQnjmSOQCk77JMbTysF5xkcCU": {
            "ap_romfw": null,
            "boot_args": null,
            "device": "qemu-arm64",
            "finished_time": null,
            "fip": null,
            "kernel": null,
            "mcp_fw": null,
            "mcp_romfw": null,
            "modules": null,
            "parameters": [],
            "plan": "24KQnIbfIFW0yVLB2CDIX21wgDm",
            "project": "linaro/anders",
            "provisioning_time": null,
            "result": "unknown",
            "results": {},
            "retries": 0,
            "retries_messages": [],
            "rootfs": null,
            "running_time": null,
            "scp_fw": null,
            "scp_romfw": null,
            "state": "waiting",
            "tests": [
                "boot"
            ],
            "uid": "24KQnjmSOQCk77JMbTysF5xkcCU",
            "user": "anders.roxell@linaro.org",
            "user_agent": "tuxsuite/0.42.3",
            "waiting_for": "24KQnaqMmTzvPUyotJqdfrBTIFI"
        },
        "24KQnjodu1R8qMIXD4vJtuoSoVR": {
            "ap_romfw": null,
            "boot_args": null,
            "device": "qemu-arm64",
            "finished_time": null,
            "fip": null,
            "kernel": null,
            "mcp_fw": null,
            "mcp_romfw": null,
            "modules": null,
            "parameters": [],
            "plan": "24KQnIbfIFW0yVLB2CDIX21wgDm",
            "project": "linaro/anders",
            "provisioning_time": null,
            "result": "unknown",
            "results": {},
            "retries": 0,
            "retries_messages": [],
            "rootfs": null,
            "running_time": null,
            "scp_fw": null,
            "scp_romfw": null,
            "state": "waiting",
            "tests": [
                "boot"
            ],
            "uid": "24KQnjodu1R8qMIXD4vJtuoSoVR",
            "user": "anders.roxell@linaro.org",
            "user_agent": "tuxsuite/0.42.3",
            "waiting_for": "24KQnPB1AFKLFaMEnDeBhcfRvHJ"
        },
        "24KQnkAzIXQ8fZIuMUdOENosuVV": {
            "ap_romfw": null,
            "boot_args": null,
            "device": "qemu-arm64",
            "finished_time": null,
            "fip": null,
            "kernel": null,
            "mcp_fw": null,
            "mcp_romfw": null,
            "modules": null,
            "parameters": [],
            "plan": "24KQnIbfIFW0yVLB2CDIX21wgDm",
            "project": "linaro/anders",
            "provisioning_time": null,
            "result": "unknown",
            "results": {},
            "retries": 0,
            "retries_messages": [],
            "rootfs": null,
            "running_time": null,
            "scp_fw": null,
            "scp_romfw": null,
            "state": "waiting",
            "tests": [
                "boot"
            ],
            "uid": "24KQnkAzIXQ8fZIuMUdOENosuVV",
            "user": "anders.roxell@linaro.org",
            "user_agent": "tuxsuite/0.42.3",
            "waiting_for": "24KQnZEzTtSBTSwIbOqhMSJpBC0"
        }
    }
}