{
    "builds": {
        "24KQunJBbLjSWWDcLGZ3cNKaZr5": {
            "build_name": "",
            "client_token": "71a3b9e7-5fec-452e-aa74-c7efd8aec630",
            "download_url": "https://builds.tuxbuild.com/24KQunJBbLjSWWDcLGZ3cNKaZr5/",
            "environment": {},
            "errors_count": 0,
            "finished_time": null,
            "git_ref": "v5.16-rc2",
            "git_repo": "https://git.kernel.org/pub/scm/linux/kernel/git/torvalds/linux.git",
            "git_sha": "136057256686de39cc3a07c2e39ef6bc43003ff6",
            "image_sha": "",
            "kconfig": [
                "tinyconfig"
            ],
            "kernel_image": "",
            "kernel_patch_file": "",
            "make_variables": {
                "LLVM": "1",
                "LLVM_IAS": "1"
            },
            "no_cache": true,
            "plan": "24KQusyYltn16KpNSEsROsedPwF",
            "project": "linaro/anders",
            "provisioning_time": "2022-01-28T13:37:03.745877",
            "result": "unknown",
            "running_time": null,
            "state": "provisioning",
            "target_arch": "arm64",
            "targets": [],
            "toolchain": "clang-13",
            "uid": "24KQunJBbLjSWWDcLGZ3cNKaZr5",
            "user": "anders.roxell@linaro.org",
            "user_agent": "tuxsuite/0.42.3",
            "waited_by": [],
            "warnings_count": 0
        },
        "24KQuniHiYTZdogRQyxc8wG6xDv": {
            "build_name": "",
            "client_token": "9ff81e05-0212-4347-8b93-4c0e7e0ff39b",
            "download_url": "https://builds.tuxbuild.com/24KQuniHiYTZdogRQyxc8wG6xDv/",
            "environment": {},
            "errors_count": 0,
            "finished_time": null,
            "git_ref": "v5.16-rc2",
            "git_repo": "https://git.kernel.org/pub/scm/linux/kernel/git/torvalds/linux.git",
            "git_sha": "136057256686de39cc3a07c2e39ef6bc43003ff6",
            "image_sha": "",
            "kconfig": [
                "tinyconfig"
            ],
            "kernel_image": "",
            "kernel_patch_file": "",
            "make_variables": {},
            "no_cache": true,
            "plan": "24KQusyYltn16KpNSEsROsedPwF",
            "project": "linaro/anders",
            "provisioning_time": "2022-01-28T13:37:03.975685",
            "result": "unknown",
            "running_time": null,
            "state": "provisioning",
            "target_arch": "arm64",
            "targets": [],
            "toolchain": "gcc-11",
            "uid": "24KQuniHiYTZdogRQyxc8wG6xDv",
            "user": "anders.roxell@linaro.org",
            "user_agent": "tuxsuite/0.42.3",
            "waited_by": [],
            "warnings_count": 0
        },
        "24KQuoeZjst7rvWCwGYc9SNKTbP": {
            "build_name": "",
            "client_token": "1dcaf854-750a-4df6-9871-3ea76d581177",
            "download_url": "https://builds.tuxbuild.com/24KQuoeZjst7rvWCwGYc9SNKTbP/",
            "environment": {},
            "errors_count": 0,
            "finished_time": null,
            "git_ref": "v5.16-rc2",
            "git_repo": "https://git.kernel.org/pub/scm/linux/kernel/git/torvalds/linux.git",
            "git_sha": "136057256686de39cc3a07c2e39ef6bc43003ff6",
            "image_sha": "",
            "kconfig": [
                "tinyconfig"
            ],
            "kernel_image": "",
            "kernel_patch_file": "",
            "make_variables": {
                "LLVM": "1",
                "LLVM_IAS": "1"
            },
            "no_cache": true,
            "plan": "24KQusyYltn16KpNSEsROsedPwF",
            "project": "linaro/anders",
            "provisioning_time": "2022-01-28T13:37:03.767777",
            "result": "unknown",
            "running_time": null,
            "state": "provisioning",
            "target_arch": "arm64",
            "targets": [],
            "toolchain": "clang-nightly",
            "uid": "24KQuoeZjst7rvWCwGYc9SNKTbP",
            "user": "anders.roxell@linaro.org",
            "user_agent": "tuxsuite/0.42.3",
            "waited_by": [],
            "warnings_count": 0
        },
        "24KQupC3iUGBUKWCR3J6d7Fexvp": {
            "build_name": "",
            "client_token": "803e1678-d387-4c17-a676-5d3999666bc9",
            "download_url": "https://builds.tuxbuild.com/24KQupC3iUGBUKWCR3J6d7Fexvp/",
            "environment": {},
            "errors_count": 0,
            "finished_time": null,
            "git_ref": "v5.16-rc2",
            "git_repo": "https://git.kernel.org/pub/scm/linux/kernel/git/torvalds/linux.git",
            "git_sha": "136057256686de39cc3a07c2e39ef6bc43003ff6",
            "image_sha": "",
            "kconfig": [
                "tinyconfig"
            ],
            "kernel_image": "",
            "kernel_patch_file": "",
            "make_variables": {},
            "no_cache": true,
            "plan": "24KQusyYltn16KpNSEsROsedPwF",
            "project": "linaro/anders",
            "provisioning_time": "2022-01-28T13:37:03.788237",
            "result": "unknown",
            "running_time": null,
            "state": "provisioning",
            "target_arch": "arm64",
            "targets": [],
            "toolchain": "gcc-10",
            "uid": "24KQupC3iUGBUKWCR3J6d7Fexvp",
            "user": "anders.roxell@linaro.org",
            "user_agent": "tuxsuite/0.42.3",
            "waited_by": [],
            "warnings_count": 0
        },
        "24KQupdfr8nBkfXKjra9CMEDXdM": {
            "build_name": "",
            "client_token": "6812b779-973c-4718-bfc2-93cd9af80b62",
            "download_url": "https://builds.tuxbuild.com/24KQupdfr8nBkfXKjra9CMEDXdM/",
            "environment": {},
            "errors_count": 0,
            "finished_time": null,
            "git_ref": "v5.16-rc2",
            "git_repo": "https://git.kernel.org/pub/scm/linux/kernel/git/torvalds/linux.git",
            "git_sha": "136057256686de39cc3a07c2e39ef6bc43003ff6",
            "image_sha": "",
            "kconfig": [
                "tinyconfig"
            ],
            "kernel_image": "",
            "kernel_patch_file": "",
            "make_variables": {},
            "no_cache": true,
            "plan": "24KQusyYltn16KpNSEsROsedPwF",
            "project": "linaro/anders",
            "provisioning_time": "2022-01-28T13:37:03.725861",
            "result": "unknown",
            "running_time": null,
            "state": "provisioning",
            "target_arch": "arm64",
            "targets": [],
            "toolchain": "gcc-11",
            "uid": "24KQupdfr8nBkfXKjra9CMEDXdM",
            "user": "anders.roxell@linaro.org",
            "user_agent": "tuxsuite/0.42.3",
            "waited_by": [],
            "warnings_count": 0
        },
        "24KQupzpkCnz92id9IHvbTIiizP": {
            "build_name": "",
            "client_token": "c8195fb7-f6a4-4c57-8cea-6222f0305a81",
            "download_url": "https://builds.tuxbuild.com/24KQupzpkCnz92id9IHvbTIiizP/",
            "environment": {},
            "errors_count": 0,
            "finished_time": null,
            "git_ref": "v5.16-rc2",
            "git_repo": "https://git.kernel.org/pub/scm/linux/kernel/git/torvalds/linux.git",
            "git_sha": "136057256686de39cc3a07c2e39ef6bc43003ff6",
            "image_sha": "",
            "kconfig": [
                "tinyconfig"
            ],
            "kernel_image": "",
            "kernel_patch_file": "",
            "make_variables": {},
            "no_cache": true,
            "plan": "24KQusyYltn16KpNSEsROsedPwF",
            "project": "linaro/anders",
            "provisioning_time": "2022-01-28T13:37:03.955484",
            "result": "unknown",
            "running_time": null,
            "state": "provisioning",
            "target_arch": "arm64",
            "targets": [],
            "toolchain": "gcc-10",
            "uid": "24KQupzpkCnz92id9IHvbTIiizP",
            "user": "anders.roxell@linaro.org",
            "user_agent": "tuxsuite/0.42.3",
            "waited_by": [],
            "warnings_count": 0
        },
        "24KQuqngbkPpOun30v6bgdtFKow": {
            "build_name": "",
            "client_token": "c51690e2-e2ef-4427-abc3-8a18b1117c39",
            "download_url": "https://builds.tuxbuild.com/24KQuqngbkPpOun30v6bgdtFKow/",
            "environment": {},
            "errors_count": 0,
            "finished_time": null,
            "git_ref": "v5.16-rc2",
            "git_repo": "https://git.kernel.org/pub/scm/linux/kernel/git/torvalds/linux.git",
            "git_sha": "136057256686de39cc3a07c2e39ef6bc43003ff6",
            "image_sha": "",
            "kconfig": [
                "tinyconfig"
            ],
            "kernel_image": "",
            "kernel_patch_file": "",
            "make_variables": {
                "LLVM": "1",
                "LLVM_IAS": "1"
            },
            "no_cache": true,
            "plan": "24KQusyYltn16KpNSEsROsedPwF",
            "project": "linaro/anders",
            "provisioning_time": "2022-01-28T13:37:03.932357",
            "result": "unknown",
            "running_time": null,
            "state": "provisioning",
            "target_arch": "arm64",
            "targets": [],
            "toolchain": "clang-nightly",
            "uid": "24KQuqngbkPpOun30v6bgdtFKow",
            "user": "anders.roxell@linaro.org",
            "user_agent": "tuxsuite/0.42.3",
            "waited_by": [],
            "warnings_count": 0
        },
        "24KQuqnrvovfFkWLUt4bHFNyDVD": {
            "build_name": "",
            "client_token": "58c91006-f512-4b7a-b3c9-c17f6763c845",
            "download_url": "https://builds.tuxbuild.com/24KQuqnrvovfFkWLUt4bHFNyDVD/",
            "environment": {},
            "errors_count": 0,
            "finished_time": null,
            "git_ref": "v5.16-rc2",
            "git_repo": "https://git.kernel.org/pub/scm/linux/kernel/git/torvalds/linux.git",
            "git_sha": "136057256686de39cc3a07c2e39ef6bc43003ff6",
            "image_sha": "",
            "kconfig": [
                "tinyconfig"
            ],
            "kernel_image": "",
            "kernel_patch_file": "",
            "make_variables": {
                "LLVM": "1",
                "LLVM_IAS": "1"
            },
            "no_cache": true,
            "plan": "24KQusyYltn16KpNSEsROsedPwF",
            "project": "linaro/anders",
            "provisioning_time": "2022-01-28T13:37:03.996318",
            "result": "unknown",
            "running_time": null,
            "state": "provisioning",
            "target_arch": "arm64",
            "targets": [],
            "toolchain": "clang-13",
            "uid": "24KQuqnrvovfFkWLUt4bHFNyDVD",
            "user": "anders.roxell@linaro.org",
            "user_agent": "tuxsuite/0.42.3",
            "waited_by": [],
            "warnings_count": 0
        },
        "24KQuqvQvlhfyQP7mcqHs9ttN7E": {
            "build_name": "",
            "client_token": "27f9da7f-1a3f-4f54-be85-4bbcfe476e01",
            "download_url": "https://builds.tuxbuild.com/24KQuqvQvlhfyQP7mcqHs9ttN7E/",
            "environment": {},
            "errors_count": 0,
            "finished_time": null,
            "git_ref": "v5.16-rc2",
            "git_repo": "https://git.kernel.org/pub/scm/linux/kernel/git/torvalds/linux.git",
            "git_sha": "136057256686de39cc3a07c2e39ef6bc43003ff6",
            "image_sha": "",
            "kconfig": [
                "tinyconfig"
            ],
            "kernel_image": "",
            "kernel_patch_file": "",
            "make_variables": {
                "LLVM": "1",
                "LLVM_IAS": "1"
            },
            "no_cache": true,
            "plan": "24KQusyYltn16KpNSEsROsedPwF",
            "project": "linaro/anders",
            "provisioning_time": "2022-01-28T13:37:03.828412",
            "result": "unknown",
            "running_time": null,
            "state": "provisioning",
            "target_arch": "arm64",
            "targets": [],
            "toolchain": "clang-13",
            "uid": "24KQuqvQvlhfyQP7mcqHs9ttN7E",
            "user": "anders.roxell@linaro.org",
            "user_agent": "tuxsuite/0.42.3",
            "waited_by": [],
            "warnings_count": 0
        },
        "24KQurJqDt1lCbESeEcw4YLsrtt": {
            "build_name": "",
            "client_token": "ddb9688d-3135-4167-b13a-4e1c558ca467",
            "download_url": "https://builds.tuxbuild.com/24KQurJqDt1lCbESeEcw4YLsrtt/",
            "environment": {},
            "errors_count": 0,
            "finished_time": null,
            "git_ref": "v5.16-rc2",
            "git_repo": "https://git.kernel.org/pub/scm/linux/kernel/git/torvalds/linux.git",
            "git_sha": "136057256686de39cc3a07c2e39ef6bc43003ff6",
            "image_sha": "",
            "kconfig": [
                "tinyconfig"
            ],
            "kernel_image": "",
            "kernel_patch_file": "",
            "make_variables": {},
            "no_cache": true,
            "plan": "24KQusyYltn16KpNSEsROsedPwF",
            "project": "linaro/anders",
            "provisioning_time": "2022-01-28T13:37:03.871432",
            "result": "unknown",
            "running_time": null,
            "state": "provisioning",
            "target_arch": "arm64",
            "targets": [],
            "toolchain": "gcc-10",
            "uid": "24KQurJqDt1lCbESeEcw4YLsrtt",
            "user": "anders.roxell@linaro.org",
            "user_agent": "tuxsuite/0.42.3",
            "waited_by": [],
            "warnings_count": 0
        },
        "24KQuroRB8RGZJYqYlRLfPWroE3": {
            "build_name": "",
            "client_token": "ebf88520-7d9c-4aa3-a251-a8f1fab1fb4f",
            "download_url": "https://builds.tuxbuild.com/24KQuroRB8RGZJYqYlRLfPWroE3/",
            "environment": {},
            "errors_count": 0,
            "finished_time": null,
            "git_ref": "v5.16-rc2",
            "git_repo": "https://git.kernel.org/pub/scm/linux/kernel/git/torvalds/linux.git",
            "git_sha": "136057256686de39cc3a07c2e39ef6bc43003ff6",
            "image_sha": "",
            "kconfig": [
                "tinyconfig"
            ],
            "kernel_image": "",
            "kernel_patch_file": "",
            "make_variables": {},
            "no_cache": true,
            "plan": "24KQusyYltn16KpNSEsROsedPwF",
            "project": "linaro/anders",
            "provisioning_time": "2022-01-28T13:37:03.705388",
            "result": "unknown",
            "running_time": null,
            "state": "provisioning",
            "target_arch": "arm64",
            "targets": [],
            "toolchain": "gcc-10",
            "uid": "24KQuroRB8RGZJYqYlRLfPWroE3",
            "user": "anders.roxell@linaro.org",
            "user_agent": "tuxsuite/0.42.3",
            "waited_by": [],
            "warnings_count": 0
        },
        "24KQus5UgQ1zSf1G3vVLyhQKipv": {
            "build_name": "",
            "client_token": "33c55487-0846-48de-9559-b5aab66dd6af",
            "download_url": "https://builds.tuxbuild.com/24KQus5UgQ1zSf1G3vVLyhQKipv/",
            "environment": {},
            "errors_count": 0,
            "finished_time": null,
            "git_ref": "v5.16-rc2",
            "git_repo": "https://git.kernel.org/pub/scm/linux/kernel/git/torvalds/linux.git",
            "git_sha": "136057256686de39cc3a07c2e39ef6bc43003ff6",
            "image_sha": "",
            "kconfig": [
                "tinyconfig"
            ],
            "kernel_image": "",
            "kernel_patch_file": "",
            "make_variables": {
                "LLVM": "1",
                "LLVM_IAS": "1"
            },
            "no_cache": true,
            "plan": "24KQusyYltn16KpNSEsROsedPwF",
            "project": "linaro/anders",
            "provisioning_time": "2022-01-28T13:37:03.911871",
            "result": "unknown",
            "running_time": null,
            "state": "provisioning",
            "target_arch": "arm64",
            "targets": [],
            "toolchain": "clang-13",
            "uid": "24KQus5UgQ1zSf1G3vVLyhQKipv",
            "user": "anders.roxell@linaro.org",
            "user_agent": "tuxsuite/0.42.3",
            "waited_by": [],
            "warnings_count": 0
        },
        "24KQut3BpuwTah8bQe0Ww8XOK1V": {
            "build_name": "",
            "client_token": "82543bb7-117d-46ea-9744-12415b382753",
            "download_url": "https://builds.tuxbuild.com/24KQut3BpuwTah8bQe0Ww8XOK1V/",
            "environment": {},
            "errors_count": 0,
            "finished_time": null,
            "git_ref": "v5.16-rc2",
            "git_repo": "https://git.kernel.org/pub/scm/linux/kernel/git/torvalds/linux.git",
            "git_sha": "136057256686de39cc3a07c2e39ef6bc43003ff6",
            "image_sha": "",
            "kconfig": [
                "tinyconfig"
            ],
            "kernel_image": "",
            "kernel_patch_file": "",
            "make_variables": {},
            "no_cache": true,
            "plan": "24KQusyYltn16KpNSEsROsedPwF",
            "project": "linaro/anders",
            "provisioning_time": "2022-01-28T13:37:03.891493",
            "result": "unknown",
            "running_time": null,
            "state": "provisioning",
            "target_arch": "arm64",
            "targets": [],
            "toolchain": "gcc-11",
            "uid": "24KQut3BpuwTah8bQe0Ww8XOK1V",
            "user": "anders.roxell@linaro.org",
            "user_agent": "tuxsuite/0.42.3",
            "waited_by": [],
            "warnings_count": 0
        },
        "24KQuta2hh0Tpc9vDYwKkWoMtfi": {
            "build_name": "",
            "client_token": "b1f70a38-0006-464f-820a-5e6db5ae65cd",
            "download_url": "https://builds.tuxbuild.com/24KQuta2hh0Tpc9vDYwKkWoMtfi/",
            "environment": {},
            "errors_count": 0,
            "finished_time": null,
            "git_ref": "v5.16-rc2",
            "git_repo": "https://git.kernel.org/pub/scm/linux/kernel/git/torvalds/linux.git",
            "git_sha": "136057256686de39cc3a07c2e39ef6bc43003ff6",
            "image_sha": "",
            "kconfig": [
                "tinyconfig"
            ],
            "kernel_image": "",
            "kernel_patch_file": "",
            "make_variables": {
                "LLVM": "1",
                "LLVM_IAS": "1"
            },
            "no_cache": true,
            "plan": "24KQusyYltn16KpNSEsROsedPwF",
            "project": "linaro/anders",
            "provisioning_time": "2022-01-28T13:37:03.850585",
            "result": "unknown",
            "running_time": null,
            "state": "provisioning",
            "target_arch": "arm64",
            "targets": [],
            "toolchain": "clang-nightly",
            "uid": "24KQuta2hh0Tpc9vDYwKkWoMtfi",
            "user": "anders.roxell@linaro.org",
            "user_agent": "tuxsuite/0.42.3",
            "waited_by": [],
            "warnings_count": 0
        },
        "24KQuthBd1kLfBnKOFYmQ2xKDmK": {
            "build_name": "",
            "client_token": "8e8de9d1-6dfb-492f-8704-07aa912215a1",
            "download_url": "https://builds.tuxbuild.com/24KQuthBd1kLfBnKOFYmQ2xKDmK/",
            "environment": {},
            "errors_count": 0,
            "finished_time": null,
            "git_ref": "v5.16-rc2",
            "git_repo": "https://git.kernel.org/pub/scm/linux/kernel/git/torvalds/linux.git",
            "git_sha": "136057256686de39cc3a07c2e39ef6bc43003ff6",
            "image_sha": "",
            "kconfig": [
                "tinyconfig"
            ],
            "kernel_image": "",
            "kernel_patch_file": "",
            "make_variables": {},
            "no_cache": true,
            "plan": "24KQusyYltn16KpNSEsROsedPwF",
            "project": "linaro/anders",
            "provisioning_time": "2022-01-28T13:37:03.808281",
            "result": "unknown",
            "running_time": null,
            "state": "provisioning",
            "target_arch": "arm64",
            "targets": [],
            "toolchain": "gcc-11",
            "uid": "24KQuthBd1kLfBnKOFYmQ2xKDmK",
            "user": "anders.roxell@linaro.org",
            "user_agent": "tuxsuite/0.42.3",
            "waited_by": [],
            "warnings_count": 0
        },
        "24KQuufA4lwgM97htl3XCB7nWuw": {
            "build_name": "",
            "client_token": "ad5a63df-df99-4155-882d-d87dce29740d",
            "download_url": "https://builds.tuxbuild.com/24KQuufA4lwgM97htl3XCB7nWuw/",
            "environment": {},
            "errors_count": 0,
            "finished_time": null,
            "git_ref": "v5.16-rc2",
            "git_repo": "https://git.kernel.org/pub/scm/linux/kernel/git/torvalds/linux.git",
            "git_sha": "136057256686de39cc3a07c2e39ef6bc43003ff6",
            "image_sha": "",
            "kconfig": [
                "defconfig"
            ],
            "kernel_image": "",
            "kernel_patch_file": "",
            "make_variables": {},
            "no_cache": true,
            "plan": "24KQusyYltn16KpNSEsROsedPwF",
            "project": "linaro/anders",
            "provisioning_time": "2022-01-28T13:37:04.375169",
            "result": "unknown",
            "running_time": null,
            "state": "provisioning",
            "target_arch": "arm64",
            "targets": [],
            "toolchain": "gcc-10",
            "uid": "24KQuufA4lwgM97htl3XCB7nWuw",
            "user": "anders.roxell@linaro.org",
            "user_agent": "tuxsuite/0.42.3",
            "waited_by": [],
            "warnings_count": 0
        },
        "24KQuvCAKYJjr7UcEzMiOCSFG5A": {
            "build_name": "",
            "client_token": "24bc5cbb-b9b7-44b0-b775-065220cb0cac",
            "download_url": "https://builds.tuxbuild.com/24KQuvCAKYJjr7UcEzMiOCSFG5A/",
            "environment": {},
            "errors_count": 0,
            "finished_time": null,
            "git_ref": "v5.16-rc2",
            "git_repo": "https://git.kernel.org/pub/scm/linux/kernel/git/torvalds/linux.git",
            "git_sha": "136057256686de39cc3a07c2e39ef6bc43003ff6",
            "image_sha": "",
            "kconfig": [
                "defconfig"
            ],
            "kernel_image": "",
            "kernel_patch_file": "",
            "make_variables": {
                "LLVM": "1",
                "LLVM_IAS": "1"
            },
            "no_cache": true,
            "plan": "24KQusyYltn16KpNSEsROsedPwF",
            "project": "linaro/anders",
            "provisioning_time": "2022-01-28T13:37:04.438488",
            "result": "unknown",
            "running_time": null,
            "state": "provisioning",
            "target_arch": "arm64",
            "targets": [],
            "toolchain": "clang-nightly",
            "uid": "24KQuvCAKYJjr7UcEzMiOCSFG5A",
            "user": "anders.roxell@linaro.org",
            "user_agent": "tuxsuite/0.42.3",
            "waited_by": [],
            "warnings_count": 0
        },
        "24KQuviLboAdQsUu1IfalMoLmUJ": {
            "build_name": "",
            "client_token": "d5d2cbab-766a-4440-af5d-7b08caeb0e04",
            "download_url": "https://builds.tuxbuild.com/24KQuviLboAdQsUu1IfalMoLmUJ/",
            "environment": {},
            "errors_count": 0,
            "finished_time": null,
            "git_ref": "v5.16-rc2",
            "git_repo": "https://git.kernel.org/pub/scm/linux/kernel/git/torvalds/linux.git",
            "git_sha": "136057256686de39cc3a07c2e39ef6bc43003ff6",
            "image_sha": "",
            "kconfig": [
                "tinyconfig"
            ],
            "kernel_image": "",
            "kernel_patch_file": "",
            "make_variables": {
                "LLVM": "1",
                "LLVM_IAS": "1"
            },
            "no_cache": true,
            "plan": "24KQusyYltn16KpNSEsROsedPwF",
            "project": "linaro/anders",
            "provisioning_time": "2022-01-28T13:37:04.103933",
            "result": "unknown",
            "running_time": null,
            "state": "provisioning",
            "target_arch": "arm64",
            "targets": [],
            "toolchain": "clang-nightly",
            "uid": "24KQuviLboAdQsUu1IfalMoLmUJ",
            "user": "anders.roxell@linaro.org",
            "user_agent": "tuxsuite/0.42.3",
            "waited_by": [],
            "warnings_count": 0
        },
        "24KQuvnpSB2jyEstVj6SYM2Lgql": {
            "build_name": "",
            "client_token": "e89fafd0-0d7b-46fa-9567-540bbc9b571f",
            "download_url": "https://builds.tuxbuild.com/24KQuvnpSB2jyEstVj6SYM2Lgql/",
            "environment": {},
            "errors_count": 0,
            "finished_time": null,
            "git_ref": "v5.16-rc2",
            "git_repo": "https://git.kernel.org/pub/scm/linux/kernel/git/torvalds/linux.git",
            "git_sha": "136057256686de39cc3a07c2e39ef6bc43003ff6",
            "image_sha": "",
            "kconfig": [
                "defconfig"
            ],
            "kernel_image": "",
            "kernel_patch_file": "",
            "make_variables": {},
            "no_cache": true,
            "plan": "24KQusyYltn16KpNSEsROsedPwF",
            "project": "linaro/anders",
            "provisioning_time": "2022-01-28T13:37:04.228536",
            "result": "unknown",
            "running_time": null,
            "state": "provisioning",
            "target_arch": "arm64",
            "targets": [],
            "toolchain": "gcc-11",
            "uid": "24KQuvnpSB2jyEstVj6SYM2Lgql",
            "user": "anders.roxell@linaro.org",
            "user_agent": "tuxsuite/0.42.3",
            "waited_by": [],
            "warnings_count": 0
        },
        "24KQuvyAtH9l2TlqJOKz59ZE5tR": {
            "build_name": "",
            "client_token": "4973c66a-4a15-4b90-a807-55bc4c6bfc18",
            "download_url": "https://builds.tuxbuild.com/24KQuvyAtH9l2TlqJOKz59ZE5tR/",
            "environment": {},
            "errors_count": 0,
            "finished_time": null,
            "git_ref": "v5.16-rc2",
            "git_repo": "https://git.kernel.org/pub/scm/linux/kernel/git/torvalds/linux.git",
            "git_sha": "136057256686de39cc3a07c2e39ef6bc43003ff6",
            "image_sha": "",
            "kconfig": [
                "defconfig"
            ],
            "kernel_image": "",
            "kernel_patch_file": "",
            "make_variables": {},
            "no_cache": true,
            "plan": "24KQusyYltn16KpNSEsROsedPwF",
            "project": "linaro/anders",
            "provisioning_time": "2022-01-28T13:37:04.314748",
            "result": "unknown",
            "running_time": null,
            "state": "provisioning",
            "target_arch": "arm64",
            "targets": [],
            "toolchain": "gcc-11",
            "uid": "24KQuvyAtH9l2TlqJOKz59ZE5tR",
            "user": "anders.roxell@linaro.org",
            "user_agent": "tuxsuite/0.42.3",
            "waited_by": [],
            "warnings_count": 0
        },
        "24KQuwkWVM5Ql6tnpMn9r4nEB8Z": {
            "build_name": "",
            "client_token": "71eb6095-1af2-4647-873b-051d4b9f15ab",
            "download_url": "https://builds.tuxbuild.com/24KQuwkWVM5Ql6tnpMn9r4nEB8Z/",
            "environment": {},
            "errors_count": 0,
            "finished_time": null,
            "git_ref": "v5.16-rc2",
            "git_repo": "https://git.kernel.org/pub/scm/linux/kernel/git/torvalds/linux.git",
            "git_sha": "136057256686de39cc3a07c2e39ef6bc43003ff6",
            "image_sha": "",
            "kconfig": [
                "defconfig"
            ],
            "kernel_image": "",
            "kernel_patch_file": "",
            "make_variables": {
                "LLVM": "1",
                "LLVM_IAS": "1"
            },
            "no_cache": true,
            "plan": "24KQusyYltn16KpNSEsROsedPwF",
            "project": "linaro/anders",
            "provisioning_time": "2022-01-28T13:37:04.249176",
            "result": "unknown",
            "running_time": null,
            "state": "provisioning",
            "target_arch": "arm64",
            "targets": [],
            "toolchain": "clang-13",
            "uid": "24KQuwkWVM5Ql6tnpMn9r4nEB8Z",
            "user": "anders.roxell@linaro.org",
            "user_agent": "tuxsuite/0.42.3",
            "waited_by": [],
            "warnings_count": 0
        },
        "24KQux3PmSTnsM53UvwKmF3ginl": {
            "build_name": "",
            "client_token": "8b46802a-a31a-491a-af5e-b2dad477b852",
            "download_url": "https://builds.tuxbuild.com/24KQux3PmSTnsM53UvwKmF3ginl/",
            "environment": {},
            "errors_count": 0,
            "finished_time": null,
            "git_ref": "v5.16-rc2",
            "git_repo": "https://git.kernel.org/pub/scm/linux/kernel/git/torvalds/linux.git",
            "git_sha": "136057256686de39cc3a07c2e39ef6bc43003ff6",
            "image_sha": "",
            "kconfig": [
                "tinyconfig"
            ],
            "kernel_image": "",
            "kernel_patch_file": "",
            "make_variables": {},
            "no_cache": true,
            "plan": "24KQusyYltn16KpNSEsROsedPwF",
            "project": "linaro/anders",
            "provisioning_time": "2022-01-28T13:37:04.041736",
            "result": "unknown",
            "running_time": null,
            "state": "provisioning",
            "target_arch": "arm64",
            "targets": [],
            "toolchain": "gcc-10",
            "uid": "24KQux3PmSTnsM53UvwKmF3ginl",
            "user": "anders.roxell@linaro.org",
            "user_agent": "tuxsuite/0.42.3",
            "waited_by": [],
            "warnings_count": 0
        },
        "24KQuxCAHrD6piU3tZ3yUriKWhg": {
            "build_name": "",
            "client_token": "79b2d4ea-c27b-42f9-b039-75ca141d5cf4",
            "download_url": "https://builds.tuxbuild.com/24KQuxCAHrD6piU3tZ3yUriKWhg/",
            "environment": {},
            "errors_count": 0,
            "finished_time": null,
            "git_ref": "v5.16-rc2",
            "git_repo": "https://git.kernel.org/pub/scm/linux/kernel/git/torvalds/linux.git",
            "git_sha": "136057256686de39cc3a07c2e39ef6bc43003ff6",
            "image_sha": "",
            "kconfig": [
                "defconfig"
            ],
            "kernel_image": "",
            "kernel_patch_file": "",
            "make_variables": {},
            "no_cache": true,
            "plan": "24KQusyYltn16KpNSEsROsedPwF",
            "project": "linaro/anders",
            "provisioning_time": "2022-01-28T13:37:04.126484",
            "result": "unknown",
            "running_time": null,
            "state": "provisioning",
            "target_arch": "arm64",
            "targets": [],
            "toolchain": "gcc-10",
            "uid": "24KQuxCAHrD6piU3tZ3yUriKWhg",
            "user": "anders.roxell@linaro.org",
            "user_agent": "tuxsuite/0.42.3",
            "waited_by": [],
            "warnings_count": 0
        },
        "24KQuy9NC2rOBIUycSSA9d2WyAl": {
            "build_name": "",
            "client_token": "b482076a-eb77-4225-a4e1-bb19bf9cb14c",
            "download_url": "https://builds.tuxbuild.com/24KQuy9NC2rOBIUycSSA9d2WyAl/",
            "environment": {},
            "errors_count": 0,
            "finished_time": null,
            "git_ref": "v5.16-rc2",
            "git_repo": "https://git.kernel.org/pub/scm/linux/kernel/git/torvalds/linux.git",
            "git_sha": "136057256686de39cc3a07c2e39ef6bc43003ff6",
            "image_sha": "",
            "kconfig": [
                "defconfig"
            ],
            "kernel_image": "",
            "kernel_patch_file": "",
            "make_variables": {
                "LLVM": "1",
                "LLVM_IAS": "1"
            },
            "no_cache": true,
            "plan": "24KQusyYltn16KpNSEsROsedPwF",
            "project": "linaro/anders",
            "provisioning_time": "2022-01-28T13:37:04.500576",
            "result": "unknown",
            "running_time": null,
            "state": "provisioning",
            "target_arch": "arm64",
            "targets": [],
            "toolchain": "clang-13",
            "uid": "24KQuy9NC2rOBIUycSSA9d2WyAl",
            "user": "anders.roxell@linaro.org",
            "user_agent": "tuxsuite/0.42.3",
            "waited_by": [],
            "warnings_count": 0
        },
        "24KQuytbTFgDTKn44n2KnZ7drL2": {
            "build_name": "",
            "client_token": "ed7fe75e-ec36-45e0-9db1-90491da1e2a7",
            "download_url": "https://builds.tuxbuild.com/24KQuytbTFgDTKn44n2KnZ7drL2/",
            "environment": {},
            "errors_count": 0,
            "finished_time": null,
            "git_ref": "v5.16-rc2",
            "git_repo": "https://git.kernel.org/pub/scm/linux/kernel/git/torvalds/linux.git",
            "git_sha": "136057256686de39cc3a07c2e39ef6bc43003ff6",
            "image_sha": "",
            "kconfig": [
                "defconfig"
            ],
            "kernel_image": "",
            "kernel_patch_file": "",
            "make_variables": {},
            "no_cache": true,
            "plan": "24KQusyYltn16KpNSEsROsedPwF",
            "project": "linaro/anders",
            "provisioning_time": "2022-01-28T13:37:04.397250",
            "result": "unknown",
            "running_time": null,
            "state": "provisioning",
            "target_arch": "arm64",
            "targets": [],
            "toolchain": "gcc-11",
            "uid": "24KQuytbTFgDTKn44n2KnZ7drL2",
            "user": "anders.roxell@linaro.org",
            "user_agent": "tuxsuite/0.42.3",
            "waited_by": [],
            "warnings_count": 0
        },
        "24KQuz0XFcZOxH96QMFpWYbZXtI": {
            "build_name": "",
            "client_token": "bb545266-4442-4d9c-97dc-93e436015010",
            "download_url": "https://builds.tuxbuild.com/24KQuz0XFcZOxH96QMFpWYbZXtI/",
            "environment": {},
            "errors_count": 0,
            "finished_time": null,
            "git_ref": "v5.16-rc2",
            "git_repo": "https://git.kernel.org/pub/scm/linux/kernel/git/torvalds/linux.git",
            "git_sha": "136057256686de39cc3a07c2e39ef6bc43003ff6",
            "image_sha": "",
            "kconfig": [
                "defconfig"
            ],
            "kernel_image": "",
            "kernel_patch_file": "",
            "make_variables": {},
            "no_cache": true,
            "plan": "24KQusyYltn16KpNSEsROsedPwF",
            "project": "linaro/anders",
            "provisioning_time": "2022-01-28T13:37:04.458382",
            "result": "unknown",
            "running_time": null,
            "state": "provisioning",
            "target_arch": "arm64",
            "targets": [],
            "toolchain": "gcc-10",
            "uid": "24KQuz0XFcZOxH96QMFpWYbZXtI",
            "user": "anders.roxell@linaro.org",
            "user_agent": "tuxsuite/0.42.3",
            "waited_by": [],
            "warnings_count": 0
        },
        "24KQuzdk7q0tGtOfUzqOn9r6P2u": {
            "build_name": "",
            "client_token": "c32b4b19-56ac-4212-aba1-0e104740b67a",
            "download_url": "https://builds.tuxbuild.com/24KQuzdk7q0tGtOfUzqOn9r6P2u/",
            "environment": {},
            "errors_count": 0,
            "finished_time": null,
            "git_ref": "v5.16-rc2",
            "git_repo": "https://git.kernel.org/pub/scm/linux/kernel/git/torvalds/linux.git",
            "git_sha": "136057256686de39cc3a07c2e39ef6bc43003ff6",
            "image_sha": "",
            "kconfig": [
                "defconfig"
            ],
            "kernel_image": "",
            "kernel_patch_file": "",
            "make_variables": {
                "LLVM": "1",
                "LLVM_IAS": "1"
            },
            "no_cache": true,
            "plan": "24KQusyYltn16KpNSEsROsedPwF",
            "project": "linaro/anders",
            "provisioning_time": "2022-01-28T13:37:04.521462",
            "result": "unknown",
            "running_time": null,
            "state": "provisioning",
            "target_arch": "arm64",
            "targets": [],
            "toolchain": "clang-nightly",
            "uid": "24KQuzdk7q0tGtOfUzqOn9r6P2u",
            "user": "anders.roxell@linaro.org",
            "user_agent": "tuxsuite/0.42.3",
            "waited_by": [],
            "warnings_count": 0
        },
        "24KQuzfHdlvhMQ4zRbOY57oPTfF": {
            "build_name": "",
            "client_token": "b28e1ae1-c66f-4990-bb49-6a51a10fc15c",
            "download_url": "https://builds.tuxbuild.com/24KQuzfHdlvhMQ4zRbOY57oPTfF/",
            "environment": {},
            "errors_count": 0,
            "finished_time": null,
            "git_ref": "v5.16-rc2",
            "git_repo": "https://git.kernel.org/pub/scm/linux/kernel/git/torvalds/linux.git",
            "git_sha": "136057256686de39cc3a07c2e39ef6bc43003ff6",
            "image_sha": "",
            "kconfig": [
                "defconfig"
            ],
            "kernel_image": "",
            "kernel_patch_file": "",
            "make_variables": {},
            "no_cache": true,
            "plan": "24KQusyYltn16KpNSEsROsedPwF",
            "project": "linaro/anders",
            "provisioning_time": "2022-01-28T13:37:04.146474",
            "result": "unknown",
            "running_time": null,
            "state": "provisioning",
            "target_arch": "arm64",
            "targets": [],
            "toolchain": "gcc-11",
            "uid": "24KQuzfHdlvhMQ4zRbOY57oPTfF",
            "user": "anders.roxell@linaro.org",
            "user_agent": "tuxsuite/0.42.3",
            "waited_by": [],
            "warnings_count": 0
        },
        "24KQuzhfjHzhR8uTcodvM83ygsU": {
            "build_name": "",
            "client_token": "cfb28cd9-709b-4920-aaf4-752a3943d86f",
            "download_url": "https://builds.tuxbuild.com/24KQuzhfjHzhR8uTcodvM83ygsU/",
            "environment": {},
            "errors_count": 0,
            "finished_time": null,
            "git_ref": "v5.16-rc2",
            "git_repo": "https://git.kernel.org/pub/scm/linux/kernel/git/torvalds/linux.git",
            "git_sha": "136057256686de39cc3a07c2e39ef6bc43003ff6",
            "image_sha": "",
            "kconfig": [
                "defconfig"
            ],
            "kernel_image": "",
            "kernel_patch_file": "",
            "make_variables": {
                "LLVM": "1",
                "LLVM_IAS": "1"
            },
            "no_cache": true,
            "plan": "24KQusyYltn16KpNSEsROsedPwF",
            "project": "linaro/anders",
            "provisioning_time": "2022-01-28T13:37:04.354809",
            "result": "unknown",
            "running_time": null,
            "state": "provisioning",
            "target_arch": "arm64",
            "targets": [],
            "toolchain": "clang-nightly",
            "uid": "24KQuzhfjHzhR8uTcodvM83ygsU",
            "user": "anders.roxell@linaro.org",
            "user_agent": "tuxsuite/0.42.3",
            "waited_by": [],
            "warnings_count": 0
        },
        "24KQv01ZJt6xojaxu8rPbc5QSYT": {
            "build_name": "",
            "client_token": "32d58733-a0ce-46e7-9ae9-3fc14ed59442",
            "download_url": "https://builds.tuxbuild.com/24KQv01ZJt6xojaxu8rPbc5QSYT/",
            "environment": {},
            "errors_count": 0,
            "finished_time": null,
            "git_ref": "v5.16-rc2",
            "git_repo": "https://git.kernel.org/pub/scm/linux/kernel/git/torvalds/linux.git",
            "git_sha": "136057256686de39cc3a07c2e39ef6bc43003ff6",
            "image_sha": "",
            "kconfig": [
                "defconfig"
            ],
            "kernel_image": "",
            "kernel_patch_file": "",
            "make_variables": {
                "LLVM": "1",
                "LLVM_IAS": "1"
            },
            "no_cache": true,
            "plan": "24KQusyYltn16KpNSEsROsedPwF",
            "project": "linaro/anders",
            "provisioning_time": "2022-01-28T13:37:04.417782",
            "result": "unknown",
            "running_time": null,
            "state": "provisioning",
            "target_arch": "arm64",
            "targets": [],
            "toolchain": "clang-13",
            "uid": "24KQv01ZJt6xojaxu8rPbc5QSYT",
            "user": "anders.roxell@linaro.org",
            "user_agent": "tuxsuite/0.42.3",
            "waited_by": [],
            "warnings_count": 0
        },
        "24KQv0AGPnbsIvk39BrBBxwumN1": {
            "build_name": "",
            "client_token": "0a3f3dcc-e3c6-4cfa-8a2f-200e83abf86b",
            "download_url": "https://builds.tuxbuild.com/24KQv0AGPnbsIvk39BrBBxwumN1/",
            "environment": {},
            "errors_count": 0,
            "finished_time": null,
            "git_ref": "v5.16-rc2",
            "git_repo": "https://git.kernel.org/pub/scm/linux/kernel/git/torvalds/linux.git",
            "git_sha": "136057256686de39cc3a07c2e39ef6bc43003ff6",
            "image_sha": "",
            "kconfig": [
                "defconfig"
            ],
            "kernel_image": "",
            "kernel_patch_file": "",
            "make_variables": {
                "LLVM": "1",
                "LLVM_IAS": "1"
            },
            "no_cache": true,
            "plan": "24KQusyYltn16KpNSEsROsedPwF",
            "project": "linaro/anders",
            "provisioning_time": "2022-01-28T13:37:04.166542",
            "result": "unknown",
            "running_time": null,
            "state": "provisioning",
            "target_arch": "arm64",
            "targets": [],
            "toolchain": "clang-13",
            "uid": "24KQv0AGPnbsIvk39BrBBxwumN1",
            "user": "anders.roxell@linaro.org",
            "user_agent": "tuxsuite/0.42.3",
            "waited_by": [],
            "warnings_count": 0
        },
        "24KQv0C2OGsvzjnOPcaXBlL27Ck": {
            "build_name": "",
            "client_token": "2e6285c5-68e7-49b9-9b17-ef37e374a2f0",
            "download_url": "https://builds.tuxbuild.com/24KQv0C2OGsvzjnOPcaXBlL27Ck/",
            "environment": {},
            "errors_count": 0,
            "finished_time": null,
            "git_ref": "v5.16-rc2",
            "git_repo": "https://git.kernel.org/pub/scm/linux/kernel/git/torvalds/linux.git",
            "git_sha": "136057256686de39cc3a07c2e39ef6bc43003ff6",
            "image_sha": "",
            "kconfig": [
                "defconfig"
            ],
            "kernel_image": "",
            "kernel_patch_file": "",
            "make_variables": {
                "LLVM": "1",
                "LLVM_IAS": "1"
            },
            "no_cache": true,
            "plan": "24KQusyYltn16KpNSEsROsedPwF",
            "project": "linaro/anders",
            "provisioning_time": "2022-01-28T13:37:04.269275",
            "result": "unknown",
            "running_time": null,
            "state": "provisioning",
            "target_arch": "arm64",
            "targets": [],
            "toolchain": "clang-nightly",
            "uid": "24KQv0C2OGsvzjnOPcaXBlL27Ck",
            "user": "anders.roxell@linaro.org",
            "user_agent": "tuxsuite/0.42.3",
            "waited_by": [],
            "warnings_count": 0
        },
        "24KQv0RZ1CNLs73zCbpRX0hTSWa": {
            "build_name": "",
            "client_token": "fb778d09-69d2-4cc9-9733-a37ea245293d",
            "download_url": "https://builds.tuxbuild.com/24KQv0RZ1CNLs73zCbpRX0hTSWa/",
            "environment": {},
            "errors_count": 0,
            "finished_time": null,
            "git_ref": "v5.16-rc2",
            "git_repo": "https://git.kernel.org/pub/scm/linux/kernel/git/torvalds/linux.git",
            "git_sha": "136057256686de39cc3a07c2e39ef6bc43003ff6",
            "image_sha": "",
            "kconfig": [
                "defconfig"
            ],
            "kernel_image": "",
            "kernel_patch_file": "",
            "make_variables": {
                "LLVM": "1",
                "LLVM_IAS": "1"
            },
            "no_cache": true,
            "plan": "24KQusyYltn16KpNSEsROsedPwF",
            "project": "linaro/anders",
            "provisioning_time": "2022-01-28T13:37:04.334791",
            "result": "unknown",
            "running_time": null,
            "state": "provisioning",
            "target_arch": "arm64",
            "targets": [],
            "toolchain": "clang-13",
            "uid": "24KQv0RZ1CNLs73zCbpRX0hTSWa",
            "user": "anders.roxell@linaro.org",
            "user_agent": "tuxsuite/0.42.3",
            "waited_by": [],
            "warnings_count": 0
        },
        "24KQv0dxIRTbbeuB076ML0ThMsS": {
            "build_name": "",
            "client_token": "e3f5e8f4-204d-4708-b0e9-de6313848ebf",
            "download_url": "https://builds.tuxbuild.com/24KQv0dxIRTbbeuB076ML0ThMsS/",
            "environment": {},
            "errors_count": 0,
            "finished_time": null,
            "git_ref": "v5.16-rc2",
            "git_repo": "https://git.kernel.org/pub/scm/linux/kernel/git/torvalds/linux.git",
            "git_sha": "136057256686de39cc3a07c2e39ef6bc43003ff6",
            "image_sha": "",
            "kconfig": [
                "defconfig"
            ],
            "kernel_image": "",
            "kernel_patch_file": "",
            "make_variables": {},
            "no_cache": true,
            "plan": "24KQusyYltn16KpNSEsROsedPwF",
            "project": "linaro/anders",
            "provisioning_time": "2022-01-28T13:37:04.480452",
            "result": "unknown",
            "running_time": null,
            "state": "provisioning",
            "target_arch": "arm64",
            "targets": [],
            "toolchain": "gcc-11",
            "uid": "24KQv0dxIRTbbeuB076ML0ThMsS",
            "user": "anders.roxell@linaro.org",
            "user_agent": "tuxsuite/0.42.3",
            "waited_by": [],
            "warnings_count": 0
        },
        "24KQv0oIJ0MqlUYjXwgbiOtzXmC": {
            "build_name": "",
            "client_token": "210c2499-634b-4791-bca9-5dd719bd3261",
            "download_url": "https://builds.tuxbuild.com/24KQv0oIJ0MqlUYjXwgbiOtzXmC/",
            "environment": {},
            "errors_count": 0,
            "finished_time": null,
            "git_ref": "v5.16-rc2",
            "git_repo": "https://git.kernel.org/pub/scm/linux/kernel/git/torvalds/linux.git",
            "git_sha": "136057256686de39cc3a07c2e39ef6bc43003ff6",
            "image_sha": "",
            "kconfig": [
                "defconfig"
            ],
            "kernel_image": "",
            "kernel_patch_file": "",
            "make_variables": {
                "LLVM": "1",
                "LLVM_IAS": "1"
            },
            "no_cache": true,
            "plan": "24KQusyYltn16KpNSEsROsedPwF",
            "project": "linaro/anders",
            "provisioning_time": "2022-01-28T13:37:04.186652",
            "result": "unknown",
            "running_time": null,
            "state": "provisioning",
            "target_arch": "arm64",
            "targets": [],
            "toolchain": "clang-nightly",
            "uid": "24KQv0oIJ0MqlUYjXwgbiOtzXmC",
            "user": "anders.roxell@linaro.org",
            "user_agent": "tuxsuite/0.42.3",
            "waited_by": [],
            "warnings_count": 0
        },
        "24KQv14hbAgfkawiC5xvZlh9Bls": {
            "build_name": "",
            "client_token": "600fd6d3-6914-4c06-b5c6-5669052e3b52",
            "download_url": "https://builds.tuxbuild.com/24KQv14hbAgfkawiC5xvZlh9Bls/",
            "environment": {},
            "errors_count": 0,
            "finished_time": null,
            "git_ref": "v5.16-rc2",
            "git_repo": "https://git.kernel.org/pub/scm/linux/kernel/git/torvalds/linux.git",
            "git_sha": "136057256686de39cc3a07c2e39ef6bc43003ff6",
            "image_sha": "",
            "kconfig": [
                "defconfig"
            ],
            "kernel_image": "",
            "kernel_patch_file": "",
            "make_variables": {},
            "no_cache": true,
            "plan": "24KQusyYltn16KpNSEsROsedPwF",
            "project": "linaro/anders",
            "provisioning_time": "2022-01-28T13:37:04.208323",
            "result": "unknown",
            "running_time": null,
            "state": "provisioning",
            "target_arch": "arm64",
            "targets": [],
            "toolchain": "gcc-10",
            "uid": "24KQv14hbAgfkawiC5xvZlh9Bls",
            "user": "anders.roxell@linaro.org",
            "user_agent": "tuxsuite/0.42.3",
            "waited_by": [],
            "warnings_count": 0
        },
        "24KQv1QKoLFujODP1zbRPrtXSGe": {
            "build_name": "",
            "client_token": "c6deadb9-4201-447d-94c8-22021359c3fa",
            "download_url": "https://builds.tuxbuild.com/24KQv1QKoLFujODP1zbRPrtXSGe/",
            "environment": {},
            "errors_count": 0,
            "finished_time": null,
            "git_ref": "v5.16-rc2",
            "git_repo": "https://git.kernel.org/pub/scm/linux/kernel/git/torvalds/linux.git",
            "git_sha": "136057256686de39cc3a07c2e39ef6bc43003ff6",
            "image_sha": "",
            "kconfig": [
                "tinyconfig"
            ],
            "kernel_image": "",
            "kernel_patch_file": "",
            "make_variables": {
                "LLVM": "1",
                "LLVM_IAS": "1"
            },
            "no_cache": true,
            "plan": "24KQusyYltn16KpNSEsROsedPwF",
            "project": "linaro/anders",
            "provisioning_time": "2022-01-28T13:37:04.083484",
            "result": "unknown",
            "running_time": null,
            "state": "provisioning",
            "target_arch": "arm64",
            "targets": [],
            "toolchain": "clang-13",
            "uid": "24KQv1QKoLFujODP1zbRPrtXSGe",
            "user": "anders.roxell@linaro.org",
            "user_agent": "tuxsuite/0.42.3",
            "waited_by": [],
            "warnings_count": 0
        },
        "24KQv1WjWNukIsWR7pL7jdJlZVS": {
            "build_name": "",
            "client_token": "a3383df0-2651-41b3-b7fa-18410d9bc31a",
            "download_url": "https://builds.tuxbuild.com/24KQv1WjWNukIsWR7pL7jdJlZVS/",
            "environment": {},
            "errors_count": 0,
            "finished_time": null,
            "git_ref": "v5.16-rc2",
            "git_repo": "https://git.kernel.org/pub/scm/linux/kernel/git/torvalds/linux.git",
            "git_sha": "136057256686de39cc3a07c2e39ef6bc43003ff6",
            "image_sha": "",
            "kconfig": [
                "defconfig"
            ],
            "kernel_image": "",
            "kernel_patch_file": "",
            "make_variables": {},
            "no_cache": true,
            "plan": "24KQusyYltn16KpNSEsROsedPwF",
            "project": "linaro/anders",
            "provisioning_time": "2022-01-28T13:37:04.292042",
            "result": "unknown",
            "running_time": null,
            "state": "provisioning",
            "target_arch": "arm64",
            "targets": [],
            "toolchain": "gcc-10",
            "uid": "24KQv1WjWNukIsWR7pL7jdJlZVS",
            "user": "anders.roxell@linaro.org",
            "user_agent": "tuxsuite/0.42.3",
            "waited_by": [],
            "warnings_count": 0
        },
        "24KQv1pksgZPOqmnUNxoN4LqrIt": {
            "build_name": "",
            "client_token": "0ca85a24-521c-4709-be11-bb38b063fc38",
            "download_url": "https://builds.tuxbuild.com/24KQv1pksgZPOqmnUNxoN4LqrIt/",
            "environment": {},
            "errors_count": 0,
            "finished_time": null,
            "git_ref": "v5.16-rc2",
            "git_repo": "https://git.kernel.org/pub/scm/linux/kernel/git/torvalds/linux.git",
            "git_sha": "136057256686de39cc3a07c2e39ef6bc43003ff6",
            "image_sha": "",
            "kconfig": [
                "tinyconfig"
            ],
            "kernel_image": "",
            "kernel_patch_file": "",
            "make_variables": {
                "LLVM": "1",
                "LLVM_IAS": "1"
            },
            "no_cache": true,
            "plan": "24KQusyYltn16KpNSEsROsedPwF",
            "project": "linaro/anders",
            "provisioning_time": "2022-01-28T13:37:04.017055",
            "result": "unknown",
            "running_time": null,
            "state": "provisioning",
            "target_arch": "arm64",
            "targets": [],
            "toolchain": "clang-nightly",
            "uid": "24KQv1pksgZPOqmnUNxoN4LqrIt",
            "user": "anders.roxell@linaro.org",
            "user_agent": "tuxsuite/0.42.3",
            "waited_by": [],
            "warnings_count": 0
        },
        "24KQv1zM5YXBgy4JvyXAVL7q82T": {
            "build_name": "",
            "client_token": "188e2ca1-f81d-4512-8c07-8ce3360fd1b2",
            "download_url": "https://builds.tuxbuild.com/24KQv1zM5YXBgy4JvyXAVL7q82T/",
            "environment": {},
            "errors_count": 0,
            "finished_time": null,
            "git_ref": "v5.16-rc2",
            "git_repo": "https://git.kernel.org/pub/scm/linux/kernel/git/torvalds/linux.git",
            "git_sha": "136057256686de39cc3a07c2e39ef6bc43003ff6",
            "image_sha": "",
            "kconfig": [
                "tinyconfig"
            ],
            "kernel_image": "",
            "kernel_patch_file": "",
            "make_variables": {},
            "no_cache": true,
            "plan": "24KQusyYltn16KpNSEsROsedPwF",
            "project": "linaro/anders",
            "provisioning_time": "2022-01-28T13:37:04.063152",
            "result": "unknown",
            "running_time": null,
            "state": "provisioning",
            "target_arch": "arm64",
            "targets": [],
            "toolchain": "gcc-11",
            "uid": "24KQv1zM5YXBgy4JvyXAVL7q82T",
            "user": "anders.roxell@linaro.org",
            "user_agent": "tuxsuite/0.42.3",
            "waited_by": [],
            "warnings_count": 0
        }
    },
    "tests": {
        "24KQv2hJEtfdj68j0cpclJkaVPO": {
            "ap_romfw": null,
            "boot_args": null,
            "device": "qemu-arm64",
            "finished_time": null,
            "fip": null,
            "kernel": null,
            "mcp_fw": null,
            "mcp_romfw": null,
            "modules": null,
            "parameters": [],
            "plan": "24KQusyYltn16KpNSEsROsedPwF",
            "project": "linaro/anders",
            "provisioning_time": null,
            "result": "unknown",
            "results": {},
            "retries": 0,
            "retries_messages": [],
            "rootfs": null,
            "running_time": null,
            "scp_fw": null,
            "scp_romfw": null,
            "state": "waiting",
            "tests": [
                "boot"
            ],
            "uid": "24KQv2hJEtfdj68j0cpclJkaVPO",
            "user": "anders.roxell@linaro.org",
            "user_agent": "tuxsuite/0.42.3",
            "waiting_for": "24KQv0RZ1CNLs73zCbpRX0hTSWa"
        },
        "24KQv2lgMHDecNTKuwS4T37Yuuh": {
            "ap_romfw": null,
            "boot_args": null,
            "device": "qemu-arm64",
            "finished_time": null,
            "fip": null,
            "kernel": null,
            "mcp_fw": null,
            "mcp_romfw": null,
            "modules": null,
            "parameters": [],
            "plan": "24KQusyYltn16KpNSEsROsedPwF",
            "project": "linaro/anders",
            "provisioning_time": null,
            "result": "unknown",
            "results": {},
            "retries": 0,
            "retries_messages": [],
            "rootfs": null,
            "running_time": null,
            "scp_fw": null,
            "scp_romfw": null,
            "state": "waiting",
            "tests": [
                "boot"
            ],
            "uid": "24KQv2lgMHDecNTKuwS4T37Yuuh",
            "user": "anders.roxell@linaro.org",
            "user_agent": "tuxsuite/0.42.3",
            "waiting_for": "24KQuz0XFcZOxH96QMFpWYbZXtI"
        },
        "24KQv34ps1MWImakdtf4qgcYwCl": {
            "ap_romfw": null,
            "boot_args": null,
            "device": "qemu-arm64",
            "finished_time": null,
            "fip": null,
            "kernel": null,
            "mcp_fw": null,
            "mcp_romfw": null,
            "modules": null,
            "parameters": [],
            "plan": "24KQusyYltn16KpNSEsROsedPwF",
            "project": "linaro/anders",
            "provisioning_time": null,
            "result": "unknown",
            "results": {},
            "retries": 0,
            "retries_messages": [],
            "rootfs": null,
            "running_time": null,
            "scp_fw": null,
            "scp_romfw": null,
            "state": "waiting",
            "tests": [
                "boot"
            ],
            "uid": "24KQv34ps1MWImakdtf4qgcYwCl",
            "user": "anders.roxell@linaro.org",
            "user_agent": "tuxsuite/0.42.3",
            "waiting_for": "24KQv01ZJt6xojaxu8rPbc5QSYT"
        },
        "24KQv35jgEkNe4G8NTTuVWl1Qsv": {
            "ap_romfw": null,
            "boot_args": null,
            "device": "qemu-arm64",
            "finished_time": null,
            "fip": null,
            "kernel": null,
            "mcp_fw": null,
            "mcp_romfw": null,
            "modules": null,
            "parameters": [],
            "plan": "24KQusyYltn16KpNSEsROsedPwF",
            "project": "linaro/anders",
            "provisioning_time": null,
            "result": "unknown",
            "results": {},
            "retries": 0,
            "retries_messages": [],
            "rootfs": null,
            "running_time": null,
            "scp_fw": null,
            "scp_romfw": null,
            "state": "waiting",
            "tests": [
                "boot"
            ],
            "uid": "24KQv35jgEkNe4G8NTTuVWl1Qsv",
            "user": "anders.roxell@linaro.org",
            "user_agent": "tuxsuite/0.42.3",
            "waiting_for": "24KQuwkWVM5Ql6tnpMn9r4nEB8Z"
        },
        "24KQv3IXawqtNdYlmUki91hUNNt": {
            "ap_romfw": null,
            "boot_args": null,
            "device": "qemu-arm64",
            "finished_time": null,
            "fip": null,
            "kernel": null,
            "mcp_fw": null,
            "mcp_romfw": null,
            "modules": null,
            "parameters": [],
            "plan": "24KQusyYltn16KpNSEsROsedPwF",
            "project": "linaro/anders",
            "provisioning_time": null,
            "result": "unknown",
            "results": {},
            "retries": 0,
            "retries_messages": [],
            "rootfs": null,
            "running_time": null,
            "scp_fw": null,
            "scp_romfw": null,
            "state": "waiting",
            "tests": [
                "boot"
            ],
            "uid": "24KQv3IXawqtNdYlmUki91hUNNt",
            "user": "anders.roxell@linaro.org",
            "user_agent": "tuxsuite/0.42.3",
            "waiting_for": "24KQuvnpSB2jyEstVj6SYM2Lgql"
        },
        "24KQv3Q3EgqTMWHEDa3nzFdZtHT": {
            "ap_romfw": null,
            "boot_args": null,
            "device": "qemu-arm64",
            "finished_time": null,
            "fip": null,
            "kernel": null,
            "mcp_fw": null,
            "mcp_romfw": null,
            "modules": null,
            "parameters": [],
            "plan": "24KQusyYltn16KpNSEsROsedPwF",
            "project": "linaro/anders",
            "provisioning_time": null,
            "result": "unknown",
            "results": {},
            "retries": 0,
            "retries_messages": [],
            "rootfs": null,
            "running_time": null,
            "scp_fw": null,
            "scp_romfw": null,
            "state": "waiting",
            "tests": [
                "boot"
            ],
            "uid": "24KQv3Q3EgqTMWHEDa3nzFdZtHT",
            "user": "anders.roxell@linaro.org",
            "user_agent": "tuxsuite/0.42.3",
            "waiting_for": "24KQv1WjWNukIsWR7pL7jdJlZVS"
        },
        "24KQv3Uy0C3cY30Zx0COPbQEHj8": {
            "ap_romfw": null,
            "boot_args": null,
            "device": "qemu-arm64",
            "finished_time": null,
            "fip": null,
            "kernel": null,
            "mcp_fw": null,
            "mcp_romfw": null,
            "modules": null,
            "parameters": [],
            "plan": "24KQusyYltn16KpNSEsROsedPwF",
            "project": "linaro/anders",
            "provisioning_time": null,
            "result": "unknown",
            "results": {},
            "retries": 0,
            "retries_messages": [],
            "rootfs": null,
            "running_time": null,
            "scp_fw": null,
            "scp_romfw": null,
            "state": "waiting",
            "tests": [
                "boot"
            ],
            "uid": "24KQv3Uy0C3cY30Zx0COPbQEHj8",
            "user": "anders.roxell@linaro.org",
            "user_agent": "tuxsuite/0.42.3",
            "waiting_for": "24KQv0oIJ0MqlUYjXwgbiOtzXmC"
        },
        "24KQv3yo8kpM1CTm3eFyjzpaAXG": {
            "ap_romfw": null,
            "boot_args": null,
            "device": "qemu-arm64",
            "finished_time": null,
            "fip": null,
            "kernel": null,
            "mcp_fw": null,
            "mcp_romfw": null,
            "modules": null,
            "parameters": [],
            "plan": "24KQusyYltn16KpNSEsROsedPwF",
            "project": "linaro/anders",
            "provisioning_time": null,
            "result": "unknown",
            "results": {},
            "retries": 0,
            "retries_messages": [],
            "rootfs": null,
            "running_time": null,
            "scp_fw": null,
            "scp_romfw": null,
            "state": "waiting",
            "tests": [
                "boot"
            ],
            "uid": "24KQv3yo8kpM1CTm3eFyjzpaAXG",
            "user": "anders.roxell@linaro.org",
            "user_agent": "tuxsuite/0.42.3",
            "waiting_for": "24KQuufA4lwgM97htl3XCB7nWuw"
        },
        "24KQv4EgT1373Hk86OSgtNjHd1i": {
            "ap_romfw": null,
            "boot_args": null,
            "device": "qemu-arm64",
            "finished_time": null,
            "fip": null,
            "kernel": null,
            "mcp_fw": null,
            "mcp_romfw": null,
            "modules": null,
            "parameters": [],
            "plan": "24KQusyYltn16KpNSEsROsedPwF",
            "project": "linaro/anders",
            "provisioning_time": null,
            "result": "unknown",
            "results": {},
            "retries": 0,
            "retries_messages": [],
            "rootfs": null,
            "running_time": null,
            "scp_fw": null,
            "scp_romfw": null,
            "state": "waiting",
            "tests": [
                "boot"
            ],
            "uid": "24KQv4EgT1373Hk86OSgtNjHd1i",
            "user": "anders.roxell@linaro.org",
            "user_agent": "tuxsuite/0.42.3",
            "waiting_for": "24KQuzhfjHzhR8uTcodvM83ygsU"
        },
        "24KQv4pciDU4asbr9t7FKIVEGUo": {
            "ap_romfw": null,
            "boot_args": null,
            "device": "qemu-arm64",
            "finished_time": null,
            "fip": null,
            "kernel": null,
            "mcp_fw": null,
            "mcp_romfw": null,
            "modules": null,
            "parameters": [],
            "plan": "24KQusyYltn16KpNSEsROsedPwF",
            "project": "linaro/anders",
            "provisioning_time": null,
            "result": "unknown",
            "results": {},
            "retries": 0,
            "retries_messages": [],
            "rootfs": null,
            "running_time": null,
            "scp_fw": null,
            "scp_romfw": null,
            "state": "waiting",
            "tests": [
                "boot"
            ],
            "uid": "24KQv4pciDU4asbr9t7FKIVEGUo",
            "user": "anders.roxell@linaro.org",
            "user_agent": "tuxsuite/0.42.3",
            "waiting_for": "24KQuvCAKYJjr7UcEzMiOCSFG5A"
        },
        "24KQv5dW3URIgM4DYheunviPe9v": {
            "ap_romfw": null,
            "boot_args": null,
            "device": "qemu-arm64",
            "finished_time": null,
            "fip": null,
            "kernel": null,
            "mcp_fw": null,
            "mcp_romfw": null,
            "modules": null,
            "parameters": [],
            "plan": "24KQusyYltn16KpNSEsROsedPwF",
            "project": "linaro/anders",
            "provisioning_time": null,
            "result": "unknown",
            "results": {},
            "retries": 0,
            "retries_messages": [],
            "rootfs": null,
            "running_time": null,
            "scp_fw": null,
            "scp_romfw": null,
            "state": "waiting",
            "tests": [
                "boot"
            ],
            "uid": "24KQv5dW3URIgM4DYheunviPe9v",
            "user": "anders.roxell@linaro.org",
            "user_agent": "tuxsuite/0.42.3",
            "waiting_for": "24KQv0AGPnbsIvk39BrBBxwumN1"
        },
        "24KQv6C29Zw1Cvog8k4NwjZcynm": {
            "ap_romfw": null,
            "boot_args": null,
            "device": "qemu-arm64",
            "finished_time": null,
            "fip": null,
            "kernel": null,
            "mcp_fw": null,
            "mcp_romfw": null,
            "modules": null,
            "parameters": [],
            "plan": "24KQusyYltn16KpNSEsROsedPwF",
            "project": "linaro/anders",
            "provisioning_time": null,
            "result": "unknown",
            "results": {},
            "retries": 0,
            "retries_messages": [],
            "rootfs": null,
            "running_time": null,
            "scp_fw": null,
            "scp_romfw": null,
            "state": "waiting",
            "tests": [
                "boot"
            ],
            "uid": "24KQv6C29Zw1Cvog8k4NwjZcynm",
            "user": "anders.roxell@linaro.org",
            "user_agent": "tuxsuite/0.42.3",
            "waiting_for": "24KQuzfHdlvhMQ4zRbOY57oPTfF"
        },
        "24KQv6OV9fQqFahStOfY5GLDCWk": {
            "ap_romfw": null,
            "boot_args": null,
            "device": "qemu-arm64",
            "finished_time": null,
            "fip": null,
            "kernel": null,
            "mcp_fw": null,
            "mcp_romfw": null,
            "modules": null,
            "parameters": [],
            "plan": "24KQusyYltn16KpNSEsROsedPwF",
            "project": "linaro/anders",
            "provisioning_time": null,
            "result": "unknown",
            "results": {},
            "retries": 0,
            "retries_messages": [],
            "rootfs": null,
            "running_time": null,
            "scp_fw": null,
            "scp_romfw": null,
            "state": "waiting",
            "tests": [
                "boot"
            ],
            "uid": "24KQv6OV9fQqFahStOfY5GLDCWk",
            "user": "anders.roxell@linaro.org",
            "user_agent": "tuxsuite/0.42.3",
            "waiting_for": "24KQuvyAtH9l2TlqJOKz59ZE5tR"
        },
        "24KQv6rdLdxGBdOsNz9oBfx0K7I": {
            "ap_romfw": null,
            "boot_args": null,
            "device": "qemu-arm64",
            "finished_time": null,
            "fip": null,
            "kernel": null,
            "mcp_fw": null,
            "mcp_romfw": null,
            "modules": null,
            "parameters": [],
            "plan": "24KQusyYltn16KpNSEsROsedPwF",
            "project": "linaro/anders",
            "provisioning_time": null,
            "result": "unknown",
            "results": {},
            "retries": 0,
            "retries_messages": [],
            "rootfs": null,
            "running_time": null,
            "scp_fw": null,
            "scp_romfw": null,
            "state": "waiting",
            "tests": [
                "boot"
            ],
            "uid": "24KQv6rdLdxGBdOsNz9oBfx0K7I",
            "user": "anders.roxell@linaro.org",
            "user_agent": "tuxsuite/0.42.3",
            "waiting_for": "24KQuy9NC2rOBIUycSSA9d2WyAl"
        },
        "24KQv6s2AHGmzTGdjVJuCeQTsWG": {
            "ap_romfw": null,
            "boot_args": null,
            "device": "qemu-arm64",
            "finished_time": null,
            "fip": null,
            "kernel": null,
            "mcp_fw": null,
            "mcp_romfw": null,
            "modules": null,
            "parameters": [],
            "plan": "24KQusyYltn16KpNSEsROsedPwF",
            "project": "linaro/anders",
            "provisioning_time": null,
            "result": "unknown",
            "results": {},
            "retries": 0,
            "retries_messages": [],
            "rootfs": null,
            "running_time": null,
            "scp_fw": null,
            "scp_romfw": null,
            "state": "waiting",
            "tests": [
                "boot"
            ],
            "uid": "24KQv6s2AHGmzTGdjVJuCeQTsWG",
            "user": "anders.roxell@linaro.org",
            "user_agent": "tuxsuite/0.42.3",
            "waiting_for": "24KQuxCAHrD6piU3tZ3yUriKWhg"
        },
        "24KQv6x9TfYxg2oaEatCBHqwa6H": {
            "ap_romfw": null,
            "boot_args": null,
            "device": "qemu-arm64",
            "finished_time": null,
            "fip": null,
            "kernel": null,
            "mcp_fw": null,
            "mcp_romfw": null,
            "modules": null,
            "parameters": [],
            "plan": "24KQusyYltn16KpNSEsROsedPwF",
            "project": "linaro/anders",
            "provisioning_time": null,
            "result": "unknown",
            "results": {},
            "retries": 0,
            "retries_messages": [],
            "rootfs": null,
            "running_time": null,
            "scp_fw": null,
            "scp_romfw": null,
            "state": "waiting",
            "tests": [
                "boot"
            ],
            "uid": "24KQv6x9TfYxg2oaEatCBHqwa6H",
            "user": "anders.roxell@linaro.org",
            "user_agent": "tuxsuite/0.42.3",
            "waiting_for": "24KQv0dxIRTbbeuB076ML0ThMsS"
        },
        "24KQv7W57TzJH15zsJRUOLHFRfp": {
            "ap_romfw": null,
            "boot_args": null,
            "device": "qemu-arm64",
            "finished_time": null,
            "fip": null,
            "kernel": null,
            "mcp_fw": null,
            "mcp_romfw": null,
            "modules": null,
            "parameters": [],
            "plan": "24KQusyYltn16KpNSEsROsedPwF",
            "project": "linaro/anders",
            "provisioning_time": null,
            "result": "unknown",
            "results": {},
            "retries": 0,
            "retries_messages": [],
            "rootfs": null,
            "running_time": null,
            "scp_fw": null,
            "scp_romfw": null,
            "state": "waiting",
            "tests": [
                "boot"
            ],
            "uid": "24KQv7W57TzJH15zsJRUOLHFRfp",
            "user": "anders.roxell@linaro.org",
            "user_agent": "tuxsuite/0.42.3",
            "waiting_for": "24KQuzdk7q0tGtOfUzqOn9r6P2u"
        },
        "24KQv8jqjwrqw4VpNtCRuPTCy3B": {
            "ap_romfw": null,
            "boot_args": null,
            "device": "qemu-arm64",
            "finished_time": null,
            "fip": null,
            "kernel": null,
            "mcp_fw": null,
            "mcp_romfw": null,
            "modules": null,
            "parameters": [],
            "plan": "24KQusyYltn16KpNSEsROsedPwF",
            "project": "linaro/anders",
            "provisioning_time": null,
            "result": "unknown",
            "results": {},
            "retries": 0,
            "retries_messages": [],
            "rootfs": null,
            "running_time": null,
            "scp_fw": null,
            "scp_romfw": null,
            "state": "waiting",
            "tests": [
                "boot"
            ],
            "uid": "24KQv8jqjwrqw4VpNtCRuPTCy3B",
            "user": "anders.roxell@linaro.org",
            "user_agent": "tuxsuite/0.42.3",
            "waiting_for": "24KQv14hbAgfkawiC5xvZlh9Bls"
        },
        "24KQv9CmgQeR59T8LmVe2YjsqhB": {
            "ap_romfw": null,
            "boot_args": null,
            "device": "qemu-arm64",
            "finished_time": null,
            "fip": null,
            "kernel": null,
            "mcp_fw": null,
            "mcp_romfw": null,
            "modules": null,
            "parameters": [],
            "plan": "24KQusyYltn16KpNSEsROsedPwF",
            "project": "linaro/anders",
            "provisioning_time": null,
            "result": "unknown",
            "results": {},
            "retries": 0,
            "retries_messages": [],
            "rootfs": null,
            "running_time": null,
            "scp_fw": null,
            "scp_romfw": null,
            "state": "waiting",
            "tests": [
                "boot"
            ],
            "uid": "24KQv9CmgQeR59T8LmVe2YjsqhB",
            "user": "anders.roxell@linaro.org",
            "user_agent": "tuxsuite/0.42.3",
            "waiting_for": "24KQv0C2OGsvzjnOPcaXBlL27Ck"
        },
        "24KQv9N9moT2qwRIUC6khgIYFZb": {
            "ap_romfw": null,
            "boot_args": null,
            "device": "qemu-arm64",
            "finished_time": null,
            "fip": null,
            "kernel": null,
            "mcp_fw": null,
            "mcp_romfw": null,
            "modules": null,
            "parameters": [],
            "plan": "24KQusyYltn16KpNSEsROsedPwF",
            "project": "linaro/anders",
            "provisioning_time": null,
            "result": "unknown",
            "results": {},
            "retries": 0,
            "retries_messages": [],
            "rootfs": null,
            "running_time": null,
            "scp_fw": null,
            "scp_romfw": null,
            "state": "waiting",
            "tests": [
                "boot"
            ],
            "uid": "24KQv9N9moT2qwRIUC6khgIYFZb",
            "user": "anders.roxell@linaro.org",
            "user_agent": "tuxsuite/0.42.3",
            "waiting_for": "24KQuytbTFgDTKn44n2KnZ7drL2"
        }
    }
}