{
    "builds": {
        "24KQqVoTV8QWeoYKiL9CbwyiJZq": {
            "build_name": "",
            "client_token": "277fa7fa-4970-404e-97d1-f7f27c7f8b81",
            "download_url": "https://builds.tuxbuild.com/24KQqVoTV8QWeoYKiL9CbwyiJZq/",
            "environment": {},
            "errors_count": 0,
            "finished_time": null,
            "git_ref": "v5.14",
            "git_repo": "https://git.kernel.org/pub/scm/linux/kernel/git/torvalds/linux.git",
            "git_sha": "7d2a07b769330c34b4deabeed939325c77a7ec2f",
            "image_sha": "",
            "kconfig": [
                "tinyconfig"
            ],
            "kernel_image": "",
            "kernel_patch_file": "",
            "make_variables": {},
            "no_cache": true,
            "plan": "24KQqbrFGl3jFngQqxjTZ5UtIUz",
            "project": "linaro/anders",
            "provisioning_time": "2022-01-28T13:36:29.982405",
            "result": "unknown",
            "running_time": null,
            "state": "provisioning",
            "target_arch": "arm64",
            "targets": [],
            "toolchain": "gcc-10",
            "uid": "24KQqVoTV8QWeoYKiL9CbwyiJZq",
            "user": "anders.roxell@linaro.org",
            "user_agent": "tuxsuite/0.42.3",
            "waited_by": [],
            "warnings_count": 0
        },
        "24KQqXnKeZxMpYnoRST29cocdW5": {
            "build_name": "",
            "client_token": "9180e154-2151-4a62-badf-c803a0c32b85",
            "download_url": "https://builds.tuxbuild.com/24KQqXnKeZxMpYnoRST29cocdW5/",
            "environment": {},
            "errors_count": 0,
            "finished_time": null,
            "git_ref": "v5.14",
            "git_repo": "https://git.kernel.org/pub/scm/linux/kernel/git/torvalds/linux.git",
            "git_sha": "7d2a07b769330c34b4deabeed939325c77a7ec2f",
            "image_sha": "",
            "kconfig": [
                "tinyconfig"
            ],
            "kernel_image": "",
            "kernel_patch_file": "",
            "make_variables": {
                "LLVM": "1",
                "LLVM_IAS": "1"
            },
            "no_cache": true,
            "plan": "24KQqbrFGl3jFngQqxjTZ5UtIUz",
            "project": "linaro/anders",
            "provisioning_time": "2022-01-28T13:36:29.960857",
            "result": "unknown",
            "running_time": null,
            "state": "provisioning",
            "target_arch": "arm64",
            "targets": [],
            "toolchain": "clang-nightly",
            "uid": "24KQqXnKeZxMpYnoRST29cocdW5",
            "user": "anders.roxell@linaro.org",
            "user_agent": "tuxsuite/0.42.3",
            "waited_by": [],
            "warnings_count": 0
        },
        "24KQqYSSfr9d1JvK6nIkMVc1Itr": {
            "build_name": "",
            "client_token": "2f49061b-7406-413c-b555-4131ab2e9b88",
            "download_url": "https://builds.tuxbuild.com/24KQqYSSfr9d1JvK6nIkMVc1Itr/",
            "environment": {},
            "errors_count": 0,
            "finished_time": null,
            "git_ref": "v5.14",
            "git_repo": "https://git.kernel.org/pub/scm/linux/kernel/git/torvalds/linux.git",
            "git_sha": "7d2a07b769330c34b4deabeed939325c77a7ec2f",
            "image_sha": "",
            "kconfig": [
                "tinyconfig"
            ],
            "kernel_image": "",
            "kernel_patch_file": "",
            "make_variables": {
                "LLVM": "1",
                "LLVM_IAS": "1"
            },
            "no_cache": true,
            "plan": "24KQqbrFGl3jFngQqxjTZ5UtIUz",
            "project": "linaro/anders",
            "provisioning_time": "2022-01-28T13:36:29.846645",
            "result": "unknown",
            "running_time": null,
            "state": "provisioning",
            "target_arch": "arm64",
            "targets": [],
            "toolchain": "clang-13",
            "uid": "24KQqYSSfr9d1JvK6nIkMVc1Itr",
            "user": "anders.roxell@linaro.org",
            "user_agent": "tuxsuite/0.42.3",
            "waited_by": [],
            "warnings_count": 0
        },
        "24KQqYm1YDDxfE10X11q4yDjpgC": {
            "build_name": "",
            "client_token": "acb6d068-aa44-4e12-9ed4-b1858f111dac",
            "download_url": "https://builds.tuxbuild.com/24KQqYm1YDDxfE10X11q4yDjpgC/",
            "environment": {},
            "errors_count": 0,
            "finished_time": null,
            "git_ref": "v5.14",
            "git_repo": "https://git.kernel.org/pub/scm/linux/kernel/git/torvalds/linux.git",
            "git_sha": "7d2a07b769330c34b4deabeed939325c77a7ec2f",
            "image_sha": "",
            "kconfig": [
                "tinyconfig"
            ],
            "kernel_image": "",
            "kernel_patch_file": "",
            "make_variables": {},
            "no_cache": true,
            "plan": "24KQqbrFGl3jFngQqxjTZ5UtIUz",
            "project": "linaro/anders",
            "provisioning_time": "2022-01-28T13:36:29.800057",
            "result": "unknown",
            "running_time": null,
            "state": "provisioning",
            "target_arch": "arm64",
            "targets": [],
            "toolchain": "gcc-10",
            "uid": "24KQqYm1YDDxfE10X11q4yDjpgC",
            "user": "anders.roxell@linaro.org",
            "user_agent": "tuxsuite/0.42.3",
            "waited_by": [],
            "warnings_count": 0
        },
        "24KQqZSMqrUl0xtveCItEoWD11f": {
            "build_name": "",
            "client_token": "f57a9876-035c-43fe-b563-6e116ac3aadd",
            "download_url": "https://builds.tuxbuild.com/24KQqZSMqrUl0xtveCItEoWD11f/",
            "environment": {},
            "errors_count": 0,
            "finished_time": null,
            "git_ref": "v5.14",
            "git_repo": "https://git.kernel.org/pub/scm/linux/kernel/git/torvalds/linux.git",
            "git_sha": "7d2a07b769330c34b4deabeed939325c77a7ec2f",
            "image_sha": "",
            "kconfig": [
                "tinyconfig"
            ],
            "kernel_image": "",
            "kernel_patch_file": "",
            "make_variables": {},
            "no_cache": true,
            "plan": "24KQqbrFGl3jFngQqxjTZ5UtIUz",
            "project": "linaro/anders",
            "provisioning_time": "2022-01-28T13:36:29.888637",
            "result": "unknown",
            "running_time": null,
            "state": "provisioning",
            "target_arch": "arm64",
            "targets": [],
            "toolchain": "gcc-10",
            "uid": "24KQqZSMqrUl0xtveCItEoWD11f",
            "user": "anders.roxell@linaro.org",
            "user_agent": "tuxsuite/0.42.3",
            "waited_by": [],
            "warnings_count": 0
        },
        "24KQqZbLUouN1HCoPp4QztERYUD": {
            "build_name": "",
            "client_token": "c1179cd3-27de-4e19-a4f3-6edd105c3310",
            "download_url": "https://builds.tuxbuild.com/24KQqZbLUouN1HCoPp4QztERYUD/",
            "environment": {},
            "errors_count": 0,
            "finished_time": null,
            "git_ref": "v5.14",
            "git_repo": "https://git.kernel.org/pub/scm/linux/kernel/git/torvalds/linux.git",
            "git_sha": "7d2a07b769330c34b4deabeed939325c77a7ec2f",
            "image_sha": "",
            "kconfig": [
                "tinyconfig"
            ],
            "kernel_image": "",
            "kernel_patch_file": "",
            "make_variables": {},
            "no_cache": true,
            "plan": "24KQqbrFGl3jFngQqxjTZ5UtIUz",
            "project": "linaro/anders",
            "provisioning_time": "2022-01-28T13:36:29.821894",
            "result": "unknown",
            "running_time": null,
            "state": "provisioning",
            "target_arch": "arm64",
            "targets": [],
            "toolchain": "gcc-11",
            "uid": "24KQqZbLUouN1HCoPp4QztERYUD",
            "user": "anders.roxell@linaro.org",
            "user_agent": "tuxsuite/0.42.3",
            "waited_by": [],
            "warnings_count": 0
        },
        "24KQqZw8ZzbjDN5fJWsw17yvMGj": {
            "build_name": "",
            "client_token": "fcf0a5c3-6940-4f72-87ce-7c6672632c4b",
            "download_url": "https://builds.tuxbuild.com/24KQqZw8ZzbjDN5fJWsw17yvMGj/",
            "environment": {},
            "errors_count": 0,
            "finished_time": null,
            "git_ref": "v5.14",
            "git_repo": "https://git.kernel.org/pub/scm/linux/kernel/git/torvalds/linux.git",
            "git_sha": "7d2a07b769330c34b4deabeed939325c77a7ec2f",
            "image_sha": "",
            "kconfig": [
                "tinyconfig"
            ],
            "kernel_image": "",
            "kernel_patch_file": "",
            "make_variables": {},
            "no_cache": true,
            "plan": "24KQqbrFGl3jFngQqxjTZ5UtIUz",
            "project": "linaro/anders",
            "provisioning_time": "2022-01-28T13:36:29.917093",
            "result": "unknown",
            "running_time": null,
            "state": "provisioning",
            "target_arch": "arm64",
            "targets": [],
            "toolchain": "gcc-11",
            "uid": "24KQqZw8ZzbjDN5fJWsw17yvMGj",
            "user": "anders.roxell@linaro.org",
            "user_agent": "tuxsuite/0.42.3",
            "waited_by": [],
            "warnings_count": 0
        },
        "24KQqbrf9B8joqvJUNZtVehFJJz": {
            "build_name": "",
            "client_token": "551a3000-023f-4a4a-8526-1e2d36012541",
            "download_url": "https://builds.tuxbuild.com/24KQqbrf9B8joqvJUNZtVehFJJz/",
            "environment": {},
            "errors_count": 0,
            "finished_time": null,
            "git_ref": "v5.14",
            "git_repo": "https://git.kernel.org/pub/scm/linux/kernel/git/torvalds/linux.git",
            "git_sha": "7d2a07b769330c34b4deabeed939325c77a7ec2f",
            "image_sha": "",
            "kconfig": [
                "tinyconfig"
            ],
            "kernel_image": "",
            "kernel_patch_file": "",
            "make_variables": {
                "LLVM": "1",
                "LLVM_IAS": "1"
            },
            "no_cache": true,
            "plan": "24KQqbrFGl3jFngQqxjTZ5UtIUz",
            "project": "linaro/anders",
            "provisioning_time": "2022-01-28T13:36:29.938299",
            "result": "unknown",
            "running_time": null,
            "state": "provisioning",
            "target_arch": "arm64",
            "targets": [],
            "toolchain": "clang-13",
            "uid": "24KQqbrf9B8joqvJUNZtVehFJJz",
            "user": "anders.roxell@linaro.org",
            "user_agent": "tuxsuite/0.42.3",
            "waited_by": [],
            "warnings_count": 0
        },
        "24KQqd5LKG7COCOPvqFaUUnFYN7": {
            "build_name": "",
            "client_token": "50a77197-644b-4d0d-87f6-b15be1c81a5c",
            "download_url": "https://builds.tuxbuild.com/24KQqd5LKG7COCOPvqFaUUnFYN7/",
            "environment": {},
            "errors_count": 0,
            "finished_time": null,
            "git_ref": "v5.14",
            "git_repo": "https://git.kernel.org/pub/scm/linux/kernel/git/torvalds/linux.git",
            "git_sha": "7d2a07b769330c34b4deabeed939325c77a7ec2f",
            "image_sha": "",
            "kconfig": [
                "tinyconfig"
            ],
            "kernel_image": "",
            "kernel_patch_file": "",
            "make_variables": {
                "LLVM": "1",
                "LLVM_IAS": "1"
            },
            "no_cache": true,
            "plan": "24KQqbrFGl3jFngQqxjTZ5UtIUz",
            "project": "linaro/anders",
            "provisioning_time": "2022-01-28T13:36:29.867642",
            "result": "unknown",
            "running_time": null,
            "state": "provisioning",
            "target_arch": "arm64",
            "targets": [],
            "toolchain": "clang-nightly",
            "uid": "24KQqd5LKG7COCOPvqFaUUnFYN7",
            "user": "anders.roxell@linaro.org",
            "user_agent": "tuxsuite/0.42.3",
            "waited_by": [],
            "warnings_count": 0
        },
        "24KQqdgb9C3wNeR25sEvymBdlEW": {
            "build_name": "",
            "client_token": "71cfbfb9-1aa5-4c16-8d51-e89acbe481bd",
            "download_url": "https://builds.tuxbuild.com/24KQqdgb9C3wNeR25sEvymBdlEW/",
            "environment": {},
            "errors_count": 0,
            "finished_time": null,
            "git_ref": "v5.14",
            "git_repo": "https://git.kernel.org/pub/scm/linux/kernel/git/torvalds/linux.git",
            "git_sha": "7d2a07b769330c34b4deabeed939325c77a7ec2f",
            "image_sha": "",
            "kconfig": [
                "defconfig"
            ],
            "kernel_image": "",
            "kernel_patch_file": "",
            "make_variables": {},
            "no_cache": true,
            "plan": "24KQqbrFGl3jFngQqxjTZ5UtIUz",
            "project": "linaro/anders",
            "provisioning_time": "2022-01-28T13:36:30.488259",
            "result": "unknown",
            "running_time": null,
            "state": "provisioning",
            "target_arch": "arm64",
            "targets": [],
            "toolchain": "gcc-11",
            "uid": "24KQqdgb9C3wNeR25sEvymBdlEW",
            "user": "anders.roxell@linaro.org",
            "user_agent": "tuxsuite/0.42.3",
            "waited_by": [],
            "warnings_count": 0
        },
        "24KQqdl2brawjwxshzWipfxobeY": {
            "build_name": "",
            "client_token": "5e3c583b-2876-4dbf-a8e6-1865e2213075",
            "download_url": "https://builds.tuxbuild.com/24KQqdl2brawjwxshzWipfxobeY/",
            "environment": {},
            "errors_count": 0,
            "finished_time": null,
            "git_ref": "v5.14",
            "git_repo": "https://git.kernel.org/pub/scm/linux/kernel/git/torvalds/linux.git",
            "git_sha": "7d2a07b769330c34b4deabeed939325c77a7ec2f",
            "image_sha": "",
            "kconfig": [
                "defconfig"
            ],
            "kernel_image": "",
            "kernel_patch_file": "",
            "make_variables": {},
            "no_cache": true,
            "plan": "24KQqbrFGl3jFngQqxjTZ5UtIUz",
            "project": "linaro/anders",
            "provisioning_time": "2022-01-28T13:36:30.642036",
            "result": "unknown",
            "running_time": null,
            "state": "provisioning",
            "target_arch": "arm64",
            "targets": [],
            "toolchain": "gcc-10",
            "uid": "24KQqdl2brawjwxshzWipfxobeY",
            "user": "anders.roxell@linaro.org",
            "user_agent": "tuxsuite/0.42.3",
            "waited_by": [],
            "warnings_count": 0
        },
        "24KQqduBG7Qn3XXFGDvDNnfqeSk": {
            "build_name": "",
            "client_token": "e08c225a-db2d-40a1-8e20-8a9db2a28b7d",
            "download_url": "https://builds.tuxbuild.com/24KQqduBG7Qn3XXFGDvDNnfqeSk/",
            "environment": {},
            "errors_count": 0,
            "finished_time": null,
            "git_ref": "v5.14",
            "git_repo": "https://git.kernel.org/pub/scm/linux/kernel/git/torvalds/linux.git",
            "git_sha": "7d2a07b769330c34b4deabeed939325c77a7ec2f",
            "image_sha": "",
            "kconfig": [
                "defconfig"
            ],
            "kernel_image": "",
            "kernel_patch_file": "",
            "make_variables": {},
            "no_cache": true,
            "plan": "24KQqbrFGl3jFngQqxjTZ5UtIUz",
            "project": "linaro/anders",
            "provisioning_time": "2022-01-28T13:36:30.466686",
            "result": "unknown",
            "running_time": null,
            "state": "provisioning",
            "target_arch": "arm64",
            "targets": [],
            "toolchain": "gcc-10",
            "uid": "24KQqduBG7Qn3XXFGDvDNnfqeSk",
            "user": "anders.roxell@linaro.org",
            "user_agent": "tuxsuite/0.42.3",
            "waited_by": [],
            "warnings_count": 0
        },
        "24KQqdythkTeO9lXD3fWrkIoI7s": {
            "build_name": "",
            "client_token": "a1647ba7-a144-46ba-9583-fca65c79c10f",
            "download_url": "https://builds.tuxbuild.com/24KQqdythkTeO9lXD3fWrkIoI7s/",
            "environment": {},
            "errors_count": 0,
            "finished_time": null,
            "git_ref": "v5.14",
            "git_repo": "https://git.kernel.org/pub/scm/linux/kernel/git/torvalds/linux.git",
            "git_sha": "7d2a07b769330c34b4deabeed939325c77a7ec2f",
            "image_sha": "",
            "kconfig": [
                "tinyconfig"
            ],
            "kernel_image": "",
            "kernel_patch_file": "",
            "make_variables": {
                "LLVM": "1",
                "LLVM_IAS": "1"
            },
            "no_cache": true,
            "plan": "24KQqbrFGl3jFngQqxjTZ5UtIUz",
            "project": "linaro/anders",
            "provisioning_time": "2022-01-28T13:36:30.024085",
            "result": "unknown",
            "running_time": null,
            "state": "provisioning",
            "target_arch": "arm64",
            "targets": [],
            "toolchain": "clang-13",
            "uid": "24KQqdythkTeO9lXD3fWrkIoI7s",
            "user": "anders.roxell@linaro.org",
            "user_agent": "tuxsuite/0.42.3",
            "waited_by": [],
            "warnings_count": 0
        },
        "24KQqeNVWJjQ7dethsGR4lNPfpi": {
            "build_name": "",
            "client_token": "ac1a673c-6331-4e5c-8b76-a7ae50451e41",
            "download_url": "https://builds.tuxbuild.com/24KQqeNVWJjQ7dethsGR4lNPfpi/",
            "environment": {},
            "errors_count": 0,
            "finished_time": null,
            "git_ref": "v5.14",
            "git_repo": "https://git.kernel.org/pub/scm/linux/kernel/git/torvalds/linux.git",
            "git_sha": "7d2a07b769330c34b4deabeed939325c77a7ec2f",
            "image_sha": "",
            "kconfig": [
                "tinyconfig"
            ],
            "kernel_image": "",
            "kernel_patch_file": "",
            "make_variables": {
                "LLVM": "1",
                "LLVM_IAS": "1"
            },
            "no_cache": true,
            "plan": "24KQqbrFGl3jFngQqxjTZ5UtIUz",
            "project": "linaro/anders",
            "provisioning_time": "2022-01-28T13:36:30.199221",
            "result": "unknown",
            "running_time": null,
            "state": "provisioning",
            "target_arch": "arm64",
            "targets": [],
            "toolchain": "clang-13",
            "uid": "24KQqeNVWJjQ7dethsGR4lNPfpi",
            "user": "anders.roxell@linaro.org",
            "user_agent": "tuxsuite/0.42.3",
            "waited_by": [],
            "warnings_count": 0
        },
        "24KQqeS5D77olJ6e1xZ5LQEMEKx": {
            "build_name": "",
            "client_token": "6df6c87b-6c37-4f36-a72e-d17cfb733901",
            "download_url": "https://builds.tuxbuild.com/24KQqeS5D77olJ6e1xZ5LQEMEKx/",
            "environment": {},
            "errors_count": 0,
            "finished_time": null,
            "git_ref": "v5.14",
            "git_repo": "https://git.kernel.org/pub/scm/linux/kernel/git/torvalds/linux.git",
            "git_sha": "7d2a07b769330c34b4deabeed939325c77a7ec2f",
            "image_sha": "",
            "kconfig": [
                "defconfig"
            ],
            "kernel_image": "",
            "kernel_patch_file": "",
            "make_variables": {},
            "no_cache": true,
            "plan": "24KQqbrFGl3jFngQqxjTZ5UtIUz",
            "project": "linaro/anders",
            "provisioning_time": "2022-01-28T13:36:30.399929",
            "result": "unknown",
            "running_time": null,
            "state": "provisioning",
            "target_arch": "arm64",
            "targets": [],
            "toolchain": "gcc-11",
            "uid": "24KQqeS5D77olJ6e1xZ5LQEMEKx",
            "user": "anders.roxell@linaro.org",
            "user_agent": "tuxsuite/0.42.3",
            "waited_by": [],
            "warnings_count": 0
        },
        "24KQqeiZimrNcMYWHOkr8n93ZQD": {
            "build_name": "",
            "client_token": "5d2d83ae-6788-44bc-8146-749453c0fc91",
            "download_url": "https://builds.tuxbuild.com/24KQqeiZimrNcMYWHOkr8n93ZQD/",
            "environment": {},
            "errors_count": 0,
            "finished_time": null,
            "git_ref": "v5.14",
            "git_repo": "https://git.kernel.org/pub/scm/linux/kernel/git/torvalds/linux.git",
            "git_sha": "7d2a07b769330c34b4deabeed939325c77a7ec2f",
            "image_sha": "",
            "kconfig": [
                "tinyconfig"
            ],
            "kernel_image": "",
            "kernel_patch_file": "",
            "make_variables": {},
            "no_cache": true,
            "plan": "24KQqbrFGl3jFngQqxjTZ5UtIUz",
            "project": "linaro/anders",
            "provisioning_time": "2022-01-28T13:36:30.155346",
            "result": "unknown",
            "running_time": null,
            "state": "provisioning",
            "target_arch": "arm64",
            "targets": [],
            "toolchain": "gcc-10",
            "uid": "24KQqeiZimrNcMYWHOkr8n93ZQD",
            "user": "anders.roxell@linaro.org",
            "user_agent": "tuxsuite/0.42.3",
            "waited_by": [],
            "warnings_count": 0
        },
        "24KQqeiz0EmwBC222EqIceHYQ5c": {
            "build_name": "",
            "client_token": "5de354da-5f21-4fb9-97ab-dd40e9c70522",
            "download_url": "https://builds.tuxbuild.com/24KQqeiz0EmwBC222EqIceHYQ5c/",
            "environment": {},
            "errors_count": 0,
            "finished_time": null,
            "git_ref": "v5.14",
            "git_repo": "https://git.kernel.org/pub/scm/linux/kernel/git/torvalds/linux.git",
            "git_sha": "7d2a07b769330c34b4deabeed939325c77a7ec2f",
            "image_sha": "",
            "kconfig": [
                "defconfig"
            ],
            "kernel_image": "",
            "kernel_patch_file": "",
            "make_variables": {
                "LLVM": "1",
                "LLVM_IAS": "1"
            },
            "no_cache": true,
            "plan": "24KQqbrFGl3jFngQqxjTZ5UtIUz",
            "project": "linaro/anders",
            "provisioning_time": "2022-01-28T13:36:30.443433",
            "result": "unknown",
            "running_time": null,
            "state": "provisioning",
            "target_arch": "arm64",
            "targets": [],
            "toolchain": "clang-nightly",
            "uid": "24KQqeiz0EmwBC222EqIceHYQ5c",
            "user": "anders.roxell@linaro.org",
            "user_agent": "tuxsuite/0.42.3",
            "waited_by": [],
            "warnings_count": 0
        },
        "24KQqeyT6JJBT4M9jxsxKLxUIO6": {
            "build_name": "",
            "client_token": "5df555eb-7d6e-493b-bd43-c27d56f6e780",
            "download_url": "https://builds.tuxbuild.com/24KQqeyT6JJBT4M9jxsxKLxUIO6/",
            "environment": {},
            "errors_count": 0,
            "finished_time": null,
            "git_ref": "v5.14",
            "git_repo": "https://git.kernel.org/pub/scm/linux/kernel/git/torvalds/linux.git",
            "git_sha": "7d2a07b769330c34b4deabeed939325c77a7ec2f",
            "image_sha": "",
            "kconfig": [
                "defconfig"
            ],
            "kernel_image": "",
            "kernel_patch_file": "",
            "make_variables": {},
            "no_cache": true,
            "plan": "24KQqbrFGl3jFngQqxjTZ5UtIUz",
            "project": "linaro/anders",
            "provisioning_time": "2022-01-28T13:36:30.303931",
            "result": "unknown",
            "running_time": null,
            "state": "provisioning",
            "target_arch": "arm64",
            "targets": [],
            "toolchain": "gcc-11",
            "uid": "24KQqeyT6JJBT4M9jxsxKLxUIO6",
            "user": "anders.roxell@linaro.org",
            "user_agent": "tuxsuite/0.42.3",
            "waited_by": [],
            "warnings_count": 0
        },
        "24KQqeywLzqI5EiCqtzWG8xrsX5": {
            "build_name": "",
            "client_token": "f5d10e42-31a3-487a-a396-a888809f9236",
            "download_url": "https://builds.tuxbuild.com/24KQqeywLzqI5EiCqtzWG8xrsX5/",
            "environment": {},
            "errors_count": 0,
            "finished_time": null,
            "git_ref": "v5.14",
            "git_repo": "https://git.kernel.org/pub/scm/linux/kernel/git/torvalds/linux.git",
            "git_sha": "7d2a07b769330c34b4deabeed939325c77a7ec2f",
            "image_sha": "",
            "kconfig": [
                "defconfig"
            ],
            "kernel_image": "",
            "kernel_patch_file": "",
            "make_variables": {},
            "no_cache": true,
            "plan": "24KQqbrFGl3jFngQqxjTZ5UtIUz",
            "project": "linaro/anders",
            "provisioning_time": "2022-01-28T13:36:30.578063",
            "result": "unknown",
            "running_time": null,
            "state": "provisioning",
            "target_arch": "arm64",
            "targets": [],
            "toolchain": "gcc-11",
            "uid": "24KQqeywLzqI5EiCqtzWG8xrsX5",
            "user": "anders.roxell@linaro.org",
            "user_agent": "tuxsuite/0.42.3",
            "waited_by": [],
            "warnings_count": 0
        },
        "24KQqf9NbZMwWbvzeup5dD8Ccmd": {
            "build_name": "",
            "client_token": "9d9dc710-dbd4-4fee-9195-369b267bda1a",
            "download_url": "https://builds.tuxbuild.com/24KQqf9NbZMwWbvzeup5dD8Ccmd/",
            "environment": {},
            "errors_count": 0,
            "finished_time": null,
            "git_ref": "v5.14",
            "git_repo": "https://git.kernel.org/pub/scm/linux/kernel/git/torvalds/linux.git",
            "git_sha": "7d2a07b769330c34b4deabeed939325c77a7ec2f",
            "image_sha": "",
            "kconfig": [
                "defconfig"
            ],
            "kernel_image": "",
            "kernel_patch_file": "",
            "make_variables": {
                "LLVM": "1",
                "LLVM_IAS": "1"
            },
            "no_cache": true,
            "plan": "24KQqbrFGl3jFngQqxjTZ5UtIUz",
            "project": "linaro/anders",
            "provisioning_time": "2022-01-28T13:36:30.620860",
            "result": "unknown",
            "running_time": null,
            "state": "provisioning",
            "target_arch": "arm64",
            "targets": [],
            "toolchain": "clang-nightly",
            "uid": "24KQqf9NbZMwWbvzeup5dD8Ccmd",
            "user": "anders.roxell@linaro.org",
            "user_agent": "tuxsuite/0.42.3",
            "waited_by": [],
            "warnings_count": 0
        },
        "24KQqfQvWXOt2TrrAQPWdFzQMgi": {
            "build_name": "",
            "client_token": "a783f612-0108-4f03-bfdd-65a6a2049e7e",
            "download_url": "https://builds.tuxbuild.com/24KQqfQvWXOt2TrrAQPWdFzQMgi/",
            "environment": {},
            "errors_count": 0,
            "finished_time": null,
            "git_ref": "v5.14",
            "git_repo": "https://git.kernel.org/pub/scm/linux/kernel/git/torvalds/linux.git",
            "git_sha": "7d2a07b769330c34b4deabeed939325c77a7ec2f",
            "image_sha": "",
            "kconfig": [
                "defconfig"
            ],
            "kernel_image": "",
            "kernel_patch_file": "",
            "make_variables": {},
            "no_cache": true,
            "plan": "24KQqbrFGl3jFngQqxjTZ5UtIUz",
            "project": "linaro/anders",
            "provisioning_time": "2022-01-28T13:36:30.665212",
            "result": "unknown",
            "running_time": null,
            "state": "provisioning",
            "target_arch": "arm64",
            "targets": [],
            "toolchain": "gcc-11",
            "uid": "24KQqfQvWXOt2TrrAQPWdFzQMgi",
            "user": "anders.roxell@linaro.org",
            "user_agent": "tuxsuite/0.42.3",
            "waited_by": [],
            "warnings_count": 0
        },
        "24KQqgDt8ycDp22BuIfcsJlOYIA": {
            "build_name": "",
            "client_token": "1eeb9636-fec0-4297-8da6-fdb33951cda5",
            "download_url": "https://builds.tuxbuild.com/24KQqgDt8ycDp22BuIfcsJlOYIA/",
            "environment": {},
            "errors_count": 0,
            "finished_time": null,
            "git_ref": "v5.14",
            "git_repo": "https://git.kernel.org/pub/scm/linux/kernel/git/torvalds/linux.git",
            "git_sha": "7d2a07b769330c34b4deabeed939325c77a7ec2f",
            "image_sha": "",
            "kconfig": [
                "tinyconfig"
            ],
            "kernel_image": "",
            "kernel_patch_file": "",
            "make_variables": {
                "LLVM": "1",
                "LLVM_IAS": "1"
            },
            "no_cache": true,
            "plan": "24KQqbrFGl3jFngQqxjTZ5UtIUz",
            "project": "linaro/anders",
            "provisioning_time": "2022-01-28T13:36:30.222344",
            "result": "unknown",
            "running_time": null,
            "state": "provisioning",
            "target_arch": "arm64",
            "targets": [],
            "toolchain": "clang-nightly",
            "uid": "24KQqgDt8ycDp22BuIfcsJlOYIA",
            "user": "anders.roxell@linaro.org",
            "user_agent": "tuxsuite/0.42.3",
            "waited_by": [],
            "warnings_count": 0
        },
        "24KQqgVk5qFODjKBOeX2pNhB5Fs": {
            "build_name": "",
            "client_token": "83e13ef1-cb01-4289-a19a-9f01cc733b89",
            "download_url": "https://builds.tuxbuild.com/24KQqgVk5qFODjKBOeX2pNhB5Fs/",
            "environment": {},
            "errors_count": 0,
            "finished_time": null,
            "git_ref": "v5.14",
            "git_repo": "https://git.kernel.org/pub/scm/linux/kernel/git/torvalds/linux.git",
            "git_sha": "7d2a07b769330c34b4deabeed939325c77a7ec2f",
            "image_sha": "",
            "kconfig": [
                "tinyconfig"
            ],
            "kernel_image": "",
            "kernel_patch_file": "",
            "make_variables": {},
            "no_cache": true,
            "plan": "24KQqbrFGl3jFngQqxjTZ5UtIUz",
            "project": "linaro/anders",
            "provisioning_time": "2022-01-28T13:36:30.089021",
            "result": "unknown",
            "running_time": null,
            "state": "provisioning",
            "target_arch": "arm64",
            "targets": [],
            "toolchain": "gcc-11",
            "uid": "24KQqgVk5qFODjKBOeX2pNhB5Fs",
            "user": "anders.roxell@linaro.org",
            "user_agent": "tuxsuite/0.42.3",
            "waited_by": [],
            "warnings_count": 0
        },
        "24KQqh4lcFiphoCK8zOxSWvZUxr": {
            "build_name": "",
            "client_token": "741ec325-2770-439d-bd62-99ddfc40d076",
            "download_url": "https://builds.tuxbuild.com/24KQqh4lcFiphoCK8zOxSWvZUxr/",
            "environment": {},
            "errors_count": 0,
            "finished_time": null,
            "git_ref": "v5.14",
            "git_repo": "https://git.kernel.org/pub/scm/linux/kernel/git/torvalds/linux.git",
            "git_sha": "7d2a07b769330c34b4deabeed939325c77a7ec2f",
            "image_sha": "",
            "kconfig": [
                "defconfig"
            ],
            "kernel_image": "",
            "kernel_patch_file": "",
            "make_variables": {},
            "no_cache": true,
            "plan": "24KQqbrFGl3jFngQqxjTZ5UtIUz",
            "project": "linaro/anders",
            "provisioning_time": "2022-01-28T13:36:30.556986",
            "result": "unknown",
            "running_time": null,
            "state": "provisioning",
            "target_arch": "arm64",
            "targets": [],
            "toolchain": "gcc-10",
            "uid": "24KQqh4lcFiphoCK8zOxSWvZUxr",
            "user": "anders.roxell@linaro.org",
            "user_agent": "tuxsuite/0.42.3",
            "waited_by": [],
            "warnings_count": 0
        },
        "24KQqhtlP9GMJaNehELwE2CLBHV": {
            "build_name": "",
            "client_token": "9c1d347a-7f3b-41f8-bb57-986ae8616cbf",
            "download_url": "https://builds.tuxbuild.com/24KQqhtlP9GMJaNehELwE2CLBHV/",
            "environment": {},
            "errors_count": 0,
            "finished_time": null,
            "git_ref": "v5.14",
            "git_repo": "https://git.kernel.org/pub/scm/linux/kernel/git/torvalds/linux.git",
            "git_sha": "7d2a07b769330c34b4deabeed939325c77a7ec2f",
            "image_sha": "",
            "kconfig": [
                "defconfig"
            ],
            "kernel_image": "",
            "kernel_patch_file": "",
            "make_variables": {
                "LLVM": "1",
                "LLVM_IAS": "1"
            },
            "no_cache": true,
            "plan": "24KQqbrFGl3jFngQqxjTZ5UtIUz",
            "project": "linaro/anders",
            "provisioning_time": "2022-01-28T13:36:30.509386",
            "result": "unknown",
            "running_time": null,
            "state": "provisioning",
            "target_arch": "arm64",
            "targets": [],
            "toolchain": "clang-13",
            "uid": "24KQqhtlP9GMJaNehELwE2CLBHV",
            "user": "anders.roxell@linaro.org",
            "user_agent": "tuxsuite/0.42.3",
            "waited_by": [],
            "warnings_count": 0
        },
        "24KQqhvNQvQsZwtcG6aPx2I6S4z": {
            "build_name": "",
            "client_token": "eae2ba00-f2cd-4dab-a35b-3355130aa82b",
            "download_url": "https://builds.tuxbuild.com/24KQqhvNQvQsZwtcG6aPx2I6S4z/",
            "environment": {},
            "errors_count": 0,
            "finished_time": null,
            "git_ref": "v5.14",
            "git_repo": "https://git.kernel.org/pub/scm/linux/kernel/git/torvalds/linux.git",
            "git_sha": "7d2a07b769330c34b4deabeed939325c77a7ec2f",
            "image_sha": "",
            "kconfig": [
                "defconfig"
            ],
            "kernel_image": "",
            "kernel_patch_file": "",
            "make_variables": {
                "LLVM": "1",
                "LLVM_IAS": "1"
            },
            "no_cache": true,
            "plan": "24KQqbrFGl3jFngQqxjTZ5UtIUz",
            "project": "linaro/anders",
            "provisioning_time": "2022-01-28T13:36:30.599671",
            "result": "unknown",
            "running_time": null,
            "state": "provisioning",
            "target_arch": "arm64",
            "targets": [],
            "toolchain": "clang-13",
            "uid": "24KQqhvNQvQsZwtcG6aPx2I6S4z",
            "user": "anders.roxell@linaro.org",
            "user_agent": "tuxsuite/0.42.3",
            "waited_by": [],
            "warnings_count": 0
        },
        "24KQqhz718GBR71AdHWq8LNllI8": {
            "build_name": "",
            "client_token": "127747e1-7fcb-4ad3-81d2-ba9aa5597949",
            "download_url": "https://builds.tuxbuild.com/24KQqhz718GBR71AdHWq8LNllI8/",
            "environment": {},
            "errors_count": 0,
            "finished_time": null,
            "git_ref": "v5.14",
            "git_repo": "https://git.kernel.org/pub/scm/linux/kernel/git/torvalds/linux.git",
            "git_sha": "7d2a07b769330c34b4deabeed939325c77a7ec2f",
            "image_sha": "",
            "kconfig": [
                "defconfig"
            ],
            "kernel_image": "",
            "kernel_patch_file": "",
            "make_variables": {
                "LLVM": "1",
                "LLVM_IAS": "1"
            },
            "no_cache": true,
            "plan": "24KQqbrFGl3jFngQqxjTZ5UtIUz",
            "project": "linaro/anders",
            "provisioning_time": "2022-01-28T13:36:30.686461",
            "result": "unknown",
            "running_time": null,
            "state": "provisioning",
            "target_arch": "arm64",
            "targets": [],
            "toolchain": "clang-13",
            "uid": "24KQqhz718GBR71AdHWq8LNllI8",
            "user": "anders.roxell@linaro.org",
            "user_agent": "tuxsuite/0.42.3",
            "waited_by": [],
            "warnings_count": 0
        },
        "24KQqi8b84CAe2MczSrbkVBuhIU": {
            "build_name": "",
            "client_token": "74563aeb-cf0f-4314-848b-e0f797263931",
            "download_url": "https://builds.tuxbuild.com/24KQqi8b84CAe2MczSrbkVBuhIU/",
            "environment": {},
            "errors_count": 0,
            "finished_time": null,
            "git_ref": "v5.14",
            "git_repo": "https://git.kernel.org/pub/scm/linux/kernel/git/torvalds/linux.git",
            "git_sha": "7d2a07b769330c34b4deabeed939325c77a7ec2f",
            "image_sha": "",
            "kconfig": [
                "defconfig"
            ],
            "kernel_image": "",
            "kernel_patch_file": "",
            "make_variables": {
                "LLVM": "1",
                "LLVM_IAS": "1"
            },
            "no_cache": true,
            "plan": "24KQqbrFGl3jFngQqxjTZ5UtIUz",
            "project": "linaro/anders",
            "provisioning_time": "2022-01-28T13:36:30.422365",
            "result": "unknown",
            "running_time": null,
            "state": "provisioning",
            "target_arch": "arm64",
            "targets": [],
            "toolchain": "clang-13",
            "uid": "24KQqi8b84CAe2MczSrbkVBuhIU",
            "user": "anders.roxell@linaro.org",
            "user_agent": "tuxsuite/0.42.3",
            "waited_by": [],
            "warnings_count": 0
        },
        "24KQqiI8bJ54zBUuALtaOKk0SUk": {
            "build_name": "",
            "client_token": "f37f37c2-1434-4394-8f7a-1413f639fefc",
            "download_url": "https://builds.tuxbuild.com/24KQqiI8bJ54zBUuALtaOKk0SUk/",
            "environment": {},
            "errors_count": 0,
            "finished_time": null,
            "git_ref": "v5.14",
            "git_repo": "https://git.kernel.org/pub/scm/linux/kernel/git/torvalds/linux.git",
            "git_sha": "7d2a07b769330c34b4deabeed939325c77a7ec2f",
            "image_sha": "",
            "kconfig": [
                "tinyconfig"
            ],
            "kernel_image": "",
            "kernel_patch_file": "",
            "make_variables": {
                "LLVM": "1",
                "LLVM_IAS": "1"
            },
            "no_cache": true,
            "plan": "24KQqbrFGl3jFngQqxjTZ5UtIUz",
            "project": "linaro/anders",
            "provisioning_time": "2022-01-28T13:36:30.046930",
            "result": "unknown",
            "running_time": null,
            "state": "provisioning",
            "target_arch": "arm64",
            "targets": [],
            "toolchain": "clang-nightly",
            "uid": "24KQqiI8bJ54zBUuALtaOKk0SUk",
            "user": "anders.roxell@linaro.org",
            "user_agent": "tuxsuite/0.42.3",
            "waited_by": [],
            "warnings_count": 0
        },
        "24KQqiQwarBUs2ZwQXtbCH0RCCf": {
            "build_name": "",
            "client_token": "3af4ac70-0837-42e8-894a-c8d3f2172387",
            "download_url": "https://builds.tuxbuild.com/24KQqiQwarBUs2ZwQXtbCH0RCCf/",
            "environment": {},
            "errors_count": 0,
            "finished_time": null,
            "git_ref": "v5.14",
            "git_repo": "https://git.kernel.org/pub/scm/linux/kernel/git/torvalds/linux.git",
            "git_sha": "7d2a07b769330c34b4deabeed939325c77a7ec2f",
            "image_sha": "",
            "kconfig": [
                "tinyconfig"
            ],
            "kernel_image": "",
            "kernel_patch_file": "",
            "make_variables": {
                "LLVM": "1",
                "LLVM_IAS": "1"
            },
            "no_cache": true,
            "plan": "24KQqbrFGl3jFngQqxjTZ5UtIUz",
            "project": "linaro/anders",
            "provisioning_time": "2022-01-28T13:36:30.133374",
            "result": "unknown",
            "running_time": null,
            "state": "provisioning",
            "target_arch": "arm64",
            "targets": [],
            "toolchain": "clang-nightly",
            "uid": "24KQqiQwarBUs2ZwQXtbCH0RCCf",
            "user": "anders.roxell@linaro.org",
            "user_agent": "tuxsuite/0.42.3",
            "waited_by": [],
            "warnings_count": 0
        },
        "24KQqiXOxI5a2mCAyiZ5j5iwspF": {
            "build_name": "",
            "client_token": "7357a191-8d90-478c-a18f-fb967c0927b4",
            "download_url": "https://builds.tuxbuild.com/24KQqiXOxI5a2mCAyiZ5j5iwspF/",
            "environment": {},
            "errors_count": 0,
            "finished_time": null,
            "git_ref": "v5.14",
            "git_repo": "https://git.kernel.org/pub/scm/linux/kernel/git/torvalds/linux.git",
            "git_sha": "7d2a07b769330c34b4deabeed939325c77a7ec2f",
            "image_sha": "",
            "kconfig": [
                "defconfig"
            ],
            "kernel_image": "",
            "kernel_patch_file": "",
            "make_variables": {
                "LLVM": "1",
                "LLVM_IAS": "1"
            },
            "no_cache": true,
            "plan": "24KQqbrFGl3jFngQqxjTZ5UtIUz",
            "project": "linaro/anders",
            "provisioning_time": "2022-01-28T13:36:30.530831",
            "result": "unknown",
            "running_time": null,
            "state": "provisioning",
            "target_arch": "arm64",
            "targets": [],
            "toolchain": "clang-nightly",
            "uid": "24KQqiXOxI5a2mCAyiZ5j5iwspF",
            "user": "anders.roxell@linaro.org",
            "user_agent": "tuxsuite/0.42.3",
            "waited_by": [],
            "warnings_count": 0
        },
        "24KQqimyfqItYR5WHHVEC5fVDc5": {
            "build_name": "",
            "client_token": "2f764364-bf97-425c-8aca-d58843836191",
            "download_url": "https://builds.tuxbuild.com/24KQqimyfqItYR5WHHVEC5fVDc5/",
            "environment": {},
            "errors_count": 0,
            "finished_time": null,
            "git_ref": "v5.14",
            "git_repo": "https://git.kernel.org/pub/scm/linux/kernel/git/torvalds/linux.git",
            "git_sha": "7d2a07b769330c34b4deabeed939325c77a7ec2f",
            "image_sha": "",
            "kconfig": [
                "tinyconfig"
            ],
            "kernel_image": "",
            "kernel_patch_file": "",
            "make_variables": {},
            "no_cache": true,
            "plan": "24KQqbrFGl3jFngQqxjTZ5UtIUz",
            "project": "linaro/anders",
            "provisioning_time": "2022-01-28T13:36:30.068200",
            "result": "unknown",
            "running_time": null,
            "state": "provisioning",
            "target_arch": "arm64",
            "targets": [],
            "toolchain": "gcc-10",
            "uid": "24KQqimyfqItYR5WHHVEC5fVDc5",
            "user": "anders.roxell@linaro.org",
            "user_agent": "tuxsuite/0.42.3",
            "waited_by": [],
            "warnings_count": 0
        },
        "24KQqiqDYhQGulvXl2tXaOsYuJx": {
            "build_name": "",
            "client_token": "1eba07d3-303d-4324-9e8d-b6cd3702c0b2",
            "download_url": "https://builds.tuxbuild.com/24KQqiqDYhQGulvXl2tXaOsYuJx/",
            "environment": {},
            "errors_count": 0,
            "finished_time": null,
            "git_ref": "v5.14",
            "git_repo": "https://git.kernel.org/pub/scm/linux/kernel/git/torvalds/linux.git",
            "git_sha": "7d2a07b769330c34b4deabeed939325c77a7ec2f",
            "image_sha": "",
            "kconfig": [
                "tinyconfig"
            ],
            "kernel_image": "",
            "kernel_patch_file": "",
            "make_variables": {
                "LLVM": "1",
                "LLVM_IAS": "1"
            },
            "no_cache": true,
            "plan": "24KQqbrFGl3jFngQqxjTZ5UtIUz",
            "project": "linaro/anders",
            "provisioning_time": "2022-01-28T13:36:30.110445",
            "result": "unknown",
            "running_time": null,
            "state": "provisioning",
            "target_arch": "arm64",
            "targets": [],
            "toolchain": "clang-13",
            "uid": "24KQqiqDYhQGulvXl2tXaOsYuJx",
            "user": "anders.roxell@linaro.org",
            "user_agent": "tuxsuite/0.42.3",
            "waited_by": [],
            "warnings_count": 0
        },
        "24KQqixewgBFXfA0E9IeoQ0WT31": {
            "build_name": "",
            "client_token": "3d2af1d0-e6d2-4528-b061-efbc897cf91a",
            "download_url": "https://builds.tuxbuild.com/24KQqixewgBFXfA0E9IeoQ0WT31/",
            "environment": {},
            "errors_count": 0,
            "finished_time": null,
            "git_ref": "v5.14",
            "git_repo": "https://git.kernel.org/pub/scm/linux/kernel/git/torvalds/linux.git",
            "git_sha": "7d2a07b769330c34b4deabeed939325c77a7ec2f",
            "image_sha": "",
            "kconfig": [
                "tinyconfig"
            ],
            "kernel_image": "",
            "kernel_patch_file": "",
            "make_variables": {},
            "no_cache": true,
            "plan": "24KQqbrFGl3jFngQqxjTZ5UtIUz",
            "project": "linaro/anders",
            "provisioning_time": "2022-01-28T13:36:30.177355",
            "result": "unknown",
            "running_time": null,
            "state": "provisioning",
            "target_arch": "arm64",
            "targets": [],
            "toolchain": "gcc-11",
            "uid": "24KQqixewgBFXfA0E9IeoQ0WT31",
            "user": "anders.roxell@linaro.org",
            "user_agent": "tuxsuite/0.42.3",
            "waited_by": [],
            "warnings_count": 0
        },
        "24KQqjFPH210hSKElGaAvMUbOBq": {
            "build_name": "",
            "client_token": "0172157d-408a-4484-9545-d68714df87da",
            "download_url": "https://builds.tuxbuild.com/24KQqjFPH210hSKElGaAvMUbOBq/",
            "environment": {},
            "errors_count": 0,
            "finished_time": null,
            "git_ref": "v5.14",
            "git_repo": "https://git.kernel.org/pub/scm/linux/kernel/git/torvalds/linux.git",
            "git_sha": "7d2a07b769330c34b4deabeed939325c77a7ec2f",
            "image_sha": "",
            "kconfig": [
                "defconfig"
            ],
            "kernel_image": "",
            "kernel_patch_file": "",
            "make_variables": {
                "LLVM": "1",
                "LLVM_IAS": "1"
            },
            "no_cache": true,
            "plan": "24KQqbrFGl3jFngQqxjTZ5UtIUz",
            "project": "linaro/anders",
            "provisioning_time": "2022-01-28T13:36:30.325089",
            "result": "unknown",
            "running_time": null,
            "state": "provisioning",
            "target_arch": "arm64",
            "targets": [],
            "toolchain": "clang-13",
            "uid": "24KQqjFPH210hSKElGaAvMUbOBq",
            "user": "anders.roxell@linaro.org",
            "user_agent": "tuxsuite/0.42.3",
            "waited_by": [],
            "warnings_count": 0
        },
        "24KQqjd2Xex7KRLPn3LZPwUTTlv": {
            "build_name": "",
            "client_token": "8b45544d-cc16-4a83-a3b8-ef852f292b9b",
            "download_url": "https://builds.tuxbuild.com/24KQqjd2Xex7KRLPn3LZPwUTTlv/",
            "environment": {},
            "errors_count": 0,
            "finished_time": null,
            "git_ref": "v5.14",
            "git_repo": "https://git.kernel.org/pub/scm/linux/kernel/git/torvalds/linux.git",
            "git_sha": "7d2a07b769330c34b4deabeed939325c77a7ec2f",
            "image_sha": "",
            "kconfig": [
                "tinyconfig"
            ],
            "kernel_image": "",
            "kernel_patch_file": "",
            "make_variables": {},
            "no_cache": true,
            "plan": "24KQqbrFGl3jFngQqxjTZ5UtIUz",
            "project": "linaro/anders",
            "provisioning_time": "2022-01-28T13:36:30.002963",
            "result": "unknown",
            "running_time": null,
            "state": "provisioning",
            "target_arch": "arm64",
            "targets": [],
            "toolchain": "gcc-11",
            "uid": "24KQqjd2Xex7KRLPn3LZPwUTTlv",
            "user": "anders.roxell@linaro.org",
            "user_agent": "tuxsuite/0.42.3",
            "waited_by": [],
            "warnings_count": 0
        },
        "24KQqjghxlTTQqK2T0LL8JzcAZR": {
            "build_name": "",
            "client_token": "dd5692ee-1fb9-4efa-89be-3faf721e61c4",
            "download_url": "https://builds.tuxbuild.com/24KQqjghxlTTQqK2T0LL8JzcAZR/",
            "environment": {},
            "errors_count": 0,
            "finished_time": null,
            "git_ref": "v5.14",
            "git_repo": "https://git.kernel.org/pub/scm/linux/kernel/git/torvalds/linux.git",
            "git_sha": "7d2a07b769330c34b4deabeed939325c77a7ec2f",
            "image_sha": "",
            "kconfig": [
                "defconfig"
            ],
            "kernel_image": "",
            "kernel_patch_file": "",
            "make_variables": {},
            "no_cache": true,
            "plan": "24KQqbrFGl3jFngQqxjTZ5UtIUz",
            "project": "linaro/anders",
            "provisioning_time": "2022-01-28T13:36:30.378727",
            "result": "unknown",
            "running_time": null,
            "state": "provisioning",
            "target_arch": "arm64",
            "targets": [],
            "toolchain": "gcc-10",
            "uid": "24KQqjghxlTTQqK2T0LL8JzcAZR",
            "user": "anders.roxell@linaro.org",
            "user_agent": "tuxsuite/0.42.3",
            "waited_by": [],
            "warnings_count": 0
        },
        "24KQqkFgfcGmq5XAmoioZRzrhi3": {
            "build_name": "",
            "client_token": "8c23b3cf-dd65-431f-905a-b72668c6d0b5",
            "download_url": "https://builds.tuxbuild.com/24KQqkFgfcGmq5XAmoioZRzrhi3/",
            "environment": {},
            "errors_count": 0,
            "finished_time": null,
            "git_ref": "v5.14",
            "git_repo": "https://git.kernel.org/pub/scm/linux/kernel/git/torvalds/linux.git",
            "git_sha": "7d2a07b769330c34b4deabeed939325c77a7ec2f",
            "image_sha": "",
            "kconfig": [
                "defconfig"
            ],
            "kernel_image": "",
            "kernel_patch_file": "",
            "make_variables": {
                "LLVM": "1",
                "LLVM_IAS": "1"
            },
            "no_cache": true,
            "plan": "24KQqbrFGl3jFngQqxjTZ5UtIUz",
            "project": "linaro/anders",
            "provisioning_time": "2022-01-28T13:36:30.352803",
            "result": "unknown",
            "running_time": null,
            "state": "provisioning",
            "target_arch": "arm64",
            "targets": [],
            "toolchain": "clang-nightly",
            "uid": "24KQqkFgfcGmq5XAmoioZRzrhi3",
            "user": "anders.roxell@linaro.org",
            "user_agent": "tuxsuite/0.42.3",
            "waited_by": [],
            "warnings_count": 0
        },
        "24KQqkuV5apumuyqTV8AmVG3EAv": {
            "build_name": "",
            "client_token": "3c81e150-f832-4a3e-a8b0-85bd634c5480",
            "download_url": "https://builds.tuxbuild.com/24KQqkuV5apumuyqTV8AmVG3EAv/",
            "environment": {},
            "errors_count": 0,
            "finished_time": null,
            "git_ref": "v5.14",
            "git_repo": "https://git.kernel.org/pub/scm/linux/kernel/git/torvalds/linux.git",
            "git_sha": "7d2a07b769330c34b4deabeed939325c77a7ec2f",
            "image_sha": "",
            "kconfig": [
                "defconfig"
            ],
            "kernel_image": "",
            "kernel_patch_file": "",
            "make_variables": {
                "LLVM": "1",
                "LLVM_IAS": "1"
            },
            "no_cache": true,
            "plan": "24KQqbrFGl3jFngQqxjTZ5UtIUz",
            "project": "linaro/anders",
            "provisioning_time": "2022-01-28T13:36:30.707311",
            "result": "unknown",
            "running_time": null,
            "state": "provisioning",
            "target_arch": "arm64",
            "targets": [],
            "toolchain": "clang-nightly",
            "uid": "24KQqkuV5apumuyqTV8AmVG3EAv",
            "user": "anders.roxell@linaro.org",
            "user_agent": "tuxsuite/0.42.3",
            "waited_by": [],
            "warnings_count": 0
        },
        "24KQqlF7lRs7vHxFZV5k0MxoJjK": {
            "build_name": "",
            "client_token": "f7ed9cf6-731c-439e-afad-3b3f819ce2d4",
            "download_url": "https://builds.tuxbuild.com/24KQqlF7lRs7vHxFZV5k0MxoJjK/",
            "environment": {},
            "errors_count": 0,
            "finished_time": null,
            "git_ref": "v5.14",
            "git_repo": "https://git.kernel.org/pub/scm/linux/kernel/git/torvalds/linux.git",
            "git_sha": "7d2a07b769330c34b4deabeed939325c77a7ec2f",
            "image_sha": "",
            "kconfig": [
                "defconfig"
            ],
            "kernel_image": "",
            "kernel_patch_file": "",
            "make_variables": {},
            "no_cache": true,
            "plan": "24KQqbrFGl3jFngQqxjTZ5UtIUz",
            "project": "linaro/anders",
            "provisioning_time": "2022-01-28T13:36:30.282301",
            "result": "unknown",
            "running_time": null,
            "state": "provisioning",
            "target_arch": "arm64",
            "targets": [],
            "toolchain": "gcc-10",
            "uid": "24KQqlF7lRs7vHxFZV5k0MxoJjK",
            "user": "anders.roxell@linaro.org",
            "user_agent": "tuxsuite/0.42.3",
            "waited_by": [],
            "warnings_count": 0
        }
    },
    "tests": {
        "24KQqliLoX4p21FWFGC1pmr5v8P": {
            "ap_romfw": null,
            "boot_args": null,
            "device": "qemu-arm64",
            "finished_time": null,
            "fip": null,
            "kernel": null,
            "mcp_fw": null,
            "mcp_romfw": null,
            "modules": null,
            "parameters": [],
            "plan": "24KQqbrFGl3jFngQqxjTZ5UtIUz",
            "project": "linaro/anders",
            "provisioning_time": null,
            "result": "unknown",
            "results": {},
            "retries": 0,
            "retries_messages": [],
            "rootfs": null,
            "running_time": null,
            "scp_fw": null,
            "scp_romfw": null,
            "state": "waiting",
            "tests": [
                "boot"
            ],
            "uid": "24KQqliLoX4p21FWFGC1pmr5v8P",
            "user": "anders.roxell@linaro.org",
            "user_agent": "tuxsuite/0.42.3",
            "waiting_for": "24KQqhtlP9GMJaNehELwE2CLBHV"
        },
        "24KQqlqMVC0dFehYBRSLugaGbdI": {
            "ap_romfw": null,
            "boot_args": null,
            "device": "qemu-arm64",
            "finished_time": null,
            "fip": null,
            "kernel": null,
            "mcp_fw": null,
            "mcp_romfw": null,
            "modules": null,
            "parameters": [],
            "plan": "24KQqbrFGl3jFngQqxjTZ5UtIUz",
            "project": "linaro/anders",
            "provisioning_time": null,
            "result": "unknown",
            "results": {},
            "retries": 0,
            "retries_messages": [],
            "rootfs": null,
            "running_time": null,
            "scp_fw": null,
            "scp_romfw": null,
            "state": "waiting",
            "tests": [
                "boot"
            ],
            "uid": "24KQqlqMVC0dFehYBRSLugaGbdI",
            "user": "anders.roxell@linaro.org",
            "user_agent": "tuxsuite/0.42.3",
            "waiting_for": "24KQqduBG7Qn3XXFGDvDNnfqeSk"
        },
        "24KQqlyJytOmbv6aFkKFZ8sXSfd": {
            "ap_romfw": null,
            "boot_args": null,
            "device": "qemu-arm64",
            "finished_time": null,
            "fip": null,
            "kernel": null,
            "mcp_fw": null,
            "mcp_romfw": null,
            "modules": null,
            "parameters": [],
            "plan": "24KQqbrFGl3jFngQqxjTZ5UtIUz",
            "project": "linaro/anders",
            "provisioning_time": null,
            "result": "unknown",
            "results": {},
            "retries": 0,
            "retries_messages": [],
            "rootfs": null,
            "running_time": null,
            "scp_fw": null,
            "scp_romfw": null,
            "state": "waiting",
            "tests": [
                "boot"
            ],
            "uid": "24KQqlyJytOmbv6aFkKFZ8sXSfd",
            "user": "anders.roxell@linaro.org",
            "user_agent": "tuxsuite/0.42.3",
            "waiting_for": "24KQqjFPH210hSKElGaAvMUbOBq"
        },
        "24KQqlz3bT7XaGX3B2Aw0OMRGU2": {
            "ap_romfw": null,
            "boot_args": null,
            "device": "qemu-arm64",
            "finished_time": null,
            "fip": null,
            "kernel": null,
            "mcp_fw": null,
            "mcp_romfw": null,
            "modules": null,
            "parameters": [],
            "plan": "24KQqbrFGl3jFngQqxjTZ5UtIUz",
            "project": "linaro/anders",
            "provisioning_time": null,
            "result": "unknown",
            "results": {},
            "retries": 0,
            "retries_messages": [],
            "rootfs": null,
            "running_time": null,
            "scp_fw": null,
            "scp_romfw": null,
            "state": "waiting",
            "tests": [
                "boot"
            ],
            "uid": "24KQqlz3bT7XaGX3B2Aw0OMRGU2",
            "user": "anders.roxell@linaro.org",
            "user_agent": "tuxsuite/0.42.3",
            "waiting_for": "24KQqkuV5apumuyqTV8AmVG3EAv"
        },
        "24KQqmJZBeL021yh7bUOt2izfle": {
            "ap_romfw": null,
            "boot_args": null,
            "device": "qemu-arm64",
            "finished_time": null,
            "fip": null,
            "kernel": null,
            "mcp_fw": null,
            "mcp_romfw": null,
            "modules": null,
            "parameters": [],
            "plan": "24KQqbrFGl3jFngQqxjTZ5UtIUz",
            "project": "linaro/anders",
            "provisioning_time": null,
            "result": "unknown",
            "results": {},
            "retries": 0,
            "retries_messages": [],
            "rootfs": null,
            "running_time": null,
            "scp_fw": null,
            "scp_romfw": null,
            "state": "waiting",
            "tests": [
                "boot"
            ],
            "uid": "24KQqmJZBeL021yh7bUOt2izfle",
            "user": "anders.roxell@linaro.org",
            "user_agent": "tuxsuite/0.42.3",
            "waiting_for": "24KQqhz718GBR71AdHWq8LNllI8"
        },
        "24KQqn9Ax6PsETXcao8q8oaGw2n": {
            "ap_romfw": null,
            "boot_args": null,
            "device": "qemu-arm64",
            "finished_time": null,
            "fip": null,
            "kernel": null,
            "mcp_fw": null,
            "mcp_romfw": null,
            "modules": null,
            "parameters": [],
            "plan": "24KQqbrFGl3jFngQqxjTZ5UtIUz",
            "project": "linaro/anders",
            "provisioning_time": null,
            "result": "unknown",
            "results": {},
            "retries": 0,
            "retries_messages": [],
            "rootfs": null,
            "running_time": null,
            "scp_fw": null,
            "scp_romfw": null,
            "state": "waiting",
            "tests": [
                "boot"
            ],
            "uid": "24KQqn9Ax6PsETXcao8q8oaGw2n",
            "user": "anders.roxell@linaro.org",
            "user_agent": "tuxsuite/0.42.3",
            "waiting_for": "24KQqfQvWXOt2TrrAQPWdFzQMgi"
        },
        "24KQqnePBFO2vVokUxAj5ryxUK7": {
            "ap_romfw": null,
            "boot_args": null,
            "device": "qemu-arm64",
            "finished_time": null,
            "fip": null,
            "kernel": null,
            "mcp_fw": null,
            "mcp_romfw": null,
            "modules": null,
            "parameters": [],
            "plan": "24KQqbrFGl3jFngQqxjTZ5UtIUz",
            "project": "linaro/anders",
            "provisioning_time": null,
            "result": "unknown",
            "results": {},
            "retries": 0,
            "retries_messages": [],
            "rootfs": null,
            "running_time": null,
            "scp_fw": null,
            "scp_romfw": null,
            "state": "waiting",
            "tests": [
                "boot"
            ],
            "uid": "24KQqnePBFO2vVokUxAj5ryxUK7",
            "user": "anders.roxell@linaro.org",
            "user_agent": "tuxsuite/0.42.3",
            "waiting_for": "24KQqeyT6JJBT4M9jxsxKLxUIO6"
        },
        "24KQqnmZbP59B1xNksQziirYkZb": {
            "ap_romfw": null,
            "boot_args": null,
            "device": "qemu-arm64",
            "finished_time": null,
            "fip": null,
            "kernel": null,
            "mcp_fw": null,
            "mcp_romfw": null,
            "modules": null,
            "parameters": [],
            "plan": "24KQqbrFGl3jFngQqxjTZ5UtIUz",
            "project": "linaro/anders",
            "provisioning_time": null,
            "result": "unknown",
            "results": {},
            "retries": 0,
            "retries_messages": [],
            "rootfs": null,
            "running_time": null,
            "scp_fw": null,
            "scp_romfw": null,
            "state": "waiting",
            "tests": [
                "boot"
            ],
            "uid": "24KQqnmZbP59B1xNksQziirYkZb",
            "user": "anders.roxell@linaro.org",
            "user_agent": "tuxsuite/0.42.3",
            "waiting_for": "24KQqeiz0EmwBC222EqIceHYQ5c"
        },
        "24KQqnp15QKEJonIi77xY7pkjiW": {
            "ap_romfw": null,
            "boot_args": null,
            "device": "qemu-arm64",
            "finished_time": null,
            "fip": null,
            "kernel": null,
            "mcp_fw": null,
            "mcp_romfw": null,
            "modules": null,
            "parameters": [],
            "plan": "24KQqbrFGl3jFngQqxjTZ5UtIUz",
            "project": "linaro/anders",
            "provisioning_time": null,
            "result": "unknown",
            "results": {},
            "retries": 0,
            "retries_messages": [],
            "rootfs": null,
            "running_time": null,
            "scp_fw": null,
            "scp_romfw": null,
            "state": "waiting",
            "tests": [
                "boot"
            ],
            "uid": "24KQqnp15QKEJonIi77xY7pkjiW",
            "user": "anders.roxell@linaro.org",
            "user_agent": "tuxsuite/0.42.3",
            "waiting_for": "24KQqi8b84CAe2MczSrbkVBuhIU"
        },
        "24KQqoOnjDLkPnlgKCtxH9Y30IR": {
            "ap_romfw": null,
            "boot_args": null,
            "device": "qemu-arm64",
            "finished_time": null,
            "fip": null,
            "kernel": null,
            "mcp_fw": null,
            "mcp_romfw": null,
            "modules": null,
            "parameters": [],
            "plan": "24KQqbrFGl3jFngQqxjTZ5UtIUz",
            "project": "linaro/anders",
            "provisioning_time": null,
            "result": "unknown",
            "results": {},
            "retries": 0,
            "retries_messages": [],
            "rootfs": null,
            "running_time": null,
            "scp_fw": null,
            "scp_romfw": null,
            "state": "waiting",
            "tests": [
                "boot"
            ],
            "uid": "24KQqoOnjDLkPnlgKCtxH9Y30IR",
            "user": "anders.roxell@linaro.org",
            "user_agent": "tuxsuite/0.42.3",
            "waiting_for": "24KQqdgb9C3wNeR25sEvymBdlEW"
        },
        "24KQqoSuzQ1u6qiQ15a1iycCht4": {
            "ap_romfw": null,
            "boot_args": null,
            "device": "qemu-arm64",
            "finished_time": null,
            "fip": null,
            "kernel": null,
            "mcp_fw": null,
            "mcp_romfw": null,
            "modules": null,
            "parameters": [],
            "plan": "24KQqbrFGl3jFngQqxjTZ5UtIUz",
            "project": "linaro/anders",
            "provisioning_time": null,
            "result": "unknown",
            "results": {},
            "retries": 0,
            "retries_messages": [],
            "rootfs": null,
            "running_time": null,
            "scp_fw": null,
            "scp_romfw": null,
            "state": "waiting",
            "tests": [
                "boot"
            ],
            "uid": "24KQqoSuzQ1u6qiQ15a1iycCht4",
            "user": "anders.roxell@linaro.org",
            "user_agent": "tuxsuite/0.42.3",
            "waiting_for": "24KQqeywLzqI5EiCqtzWG8xrsX5"
        },
        "24KQqoUMAoxsqYOkUB3TwwQF8eO": {
            "ap_romfw": null,
            "boot_args": null,
            "device": "qemu-arm64",
            "finished_time": null,
            "fip": null,
            "kernel": null,
            "mcp_fw": null,
            "mcp_romfw": null,
            "modules": null,
            "parameters": [],
            "plan": "24KQqbrFGl3jFngQqxjTZ5UtIUz",
            "project": "linaro/anders",
            "provisioning_time": null,
            "result": "unknown",
            "results": {},
            "retries": 0,
            "retries_messages": [],
            "rootfs": null,
            "running_time": null,
            "scp_fw": null,
            "scp_romfw": null,
            "state": "waiting",
            "tests": [
                "boot"
            ],
            "uid": "24KQqoUMAoxsqYOkUB3TwwQF8eO",
            "user": "anders.roxell@linaro.org",
            "user_agent": "tuxsuite/0.42.3",
            "waiting_for": "24KQqiXOxI5a2mCAyiZ5j5iwspF"
        },
        "24KQqrUO23uramt6isDdooManOF": {
            "ap_romfw": null,
            "boot_args": null,
            "device": "qemu-arm64",
            "finished_time": null,
            "fip": null,
            "kernel": null,
            "mcp_fw": null,
            "mcp_romfw": null,
            "modules": null,
            "parameters": [],
            "plan": "24KQqbrFGl3jFngQqxjTZ5UtIUz",
            "project": "linaro/anders",
            "provisioning_time": null,
            "result": "unknown",
            "results": {},
            "retries": 0,
            "retries_messages": [],
            "rootfs": null,
            "running_time": null,
            "scp_fw": null,
            "scp_romfw": null,
            "state": "waiting",
            "tests": [
                "boot"
            ],
            "uid": "24KQqrUO23uramt6isDdooManOF",
            "user": "anders.roxell@linaro.org",
            "user_agent": "tuxsuite/0.42.3",
            "waiting_for": "24KQqlF7lRs7vHxFZV5k0MxoJjK"
        },
        "24KQqrYynwPYWHhSkPm0JQsQzmi": {
            "ap_romfw": null,
            "boot_args": null,
            "device": "qemu-arm64",
            "finished_time": null,
            "fip": null,
            "kernel": null,
            "mcp_fw": null,
            "mcp_romfw": null,
            "modules": null,
            "parameters": [],
            "plan": "24KQqbrFGl3jFngQqxjTZ5UtIUz",
            "project": "linaro/anders",
            "provisioning_time": null,
            "result": "unknown",
            "results": {},
            "retries": 0,
            "retries_messages": [],
            "rootfs": null,
            "running_time": null,
            "scp_fw": null,
            "scp_romfw": null,
            "state": "waiting",
            "tests": [
                "boot"
            ],
            "uid": "24KQqrYynwPYWHhSkPm0JQsQzmi",
            "user": "anders.roxell@linaro.org",
            "user_agent": "tuxsuite/0.42.3",
            "waiting_for": "24KQqeS5D77olJ6e1xZ5LQEMEKx"
        },
        "24KQqrrIBpcF7gSWR8KktkybQlI": {
            "ap_romfw": null,
            "boot_args": null,
            "device": "qemu-arm64",
            "finished_time": null,
            "fip": null,
            "kernel": null,
            "mcp_fw": null,
            "mcp_romfw": null,
            "modules": null,
            "parameters": [],
            "plan": "24KQqbrFGl3jFngQqxjTZ5UtIUz",
            "project": "linaro/anders",
            "provisioning_time": null,
            "result": "unknown",
            "results": {},
            "retries": 0,
            "retries_messages": [],
            "rootfs": null,
            "running_time": null,
            "scp_fw": null,
            "scp_romfw": null,
            "state": "waiting",
            "tests": [
                "boot"
            ],
            "uid": "24KQqrrIBpcF7gSWR8KktkybQlI",
            "user": "anders.roxell@linaro.org",
            "user_agent": "tuxsuite/0.42.3",
            "waiting_for": "24KQqh4lcFiphoCK8zOxSWvZUxr"
        },
        "24KQqrwCftectLsR9uMgm6qbV92": {
            "ap_romfw": null,
            "boot_args": null,
            "device": "qemu-arm64",
            "finished_time": null,
            "fip": null,
            "kernel": null,
            "mcp_fw": null,
            "mcp_romfw": null,
            "modules": null,
            "parameters": [],
            "plan": "24KQqbrFGl3jFngQqxjTZ5UtIUz",
            "project": "linaro/anders",
            "provisioning_time": null,
            "result": "unknown",
            "results": {},
            "retries": 0,
            "retries_messages": [],
            "rootfs": null,
            "running_time": null,
            "scp_fw": null,
            "scp_romfw": null,
            "state": "waiting",
            "tests": [
                "boot"
            ],
            "uid": "24KQqrwCftectLsR9uMgm6qbV92",
            "user": "anders.roxell@linaro.org",
            "user_agent": "tuxsuite/0.42.3",
            "waiting_for": "24KQqjghxlTTQqK2T0LL8JzcAZR"
        },
        "24KQqs3LqV2NGeyGAGNKQGbqEad": {
            "ap_romfw": null,
            "boot_args": null,
            "device": "qemu-arm64",
            "finished_time": null,
            "fip": null,
            "kernel": null,
            "mcp_fw": null,
            "mcp_romfw": null,
            "modules": null,
            "parameters": [],
            "plan": "24KQqbrFGl3jFngQqxjTZ5UtIUz",
            "project": "linaro/anders",
            "provisioning_time": null,
            "result": "unknown",
            "results": {},
            "retries": 0,
            "retries_messages": [],
            "rootfs": null,
            "running_time": null,
            "scp_fw": null,
            "scp_romfw": null,
            "state": "waiting",
            "tests": [
                "boot"
            ],
            "uid": "24KQqs3LqV2NGeyGAGNKQGbqEad",
            "user": "anders.roxell@linaro.org",
            "user_agent": "tuxsuite/0.42.3",
            "waiting_for": "24KQqdl2brawjwxshzWipfxobeY"
        },
        "24KQqs8nKG6PYpXZZO4r5b941xl": {
            "ap_romfw": null,
            "boot_args": null,
            "device": "qemu-arm64",
            "finished_time": null,
            "fip": null,
            "kernel": null,
            "mcp_fw": null,
            "mcp_romfw": null,
            "modules": null,
            "parameters": [],
            "plan": "24KQqbrFGl3jFngQqxjTZ5UtIUz",
            "project": "linaro/anders",
            "provisioning_time": null,
            "result": "unknown",
            "results": {},
            "retries": 0,
            "retries_messages": [],
            "rootfs": null,
            "running_time": null,
            "scp_fw": null,
            "scp_romfw": null,
            "state": "waiting",
            "tests": [
                "boot"
            ],
            "uid": "24KQqs8nKG6PYpXZZO4r5b941xl",
            "user": "anders.roxell@linaro.org",
            "user_agent": "tuxsuite/0.42.3",
            "waiting_for": "24KQqhvNQvQsZwtcG6aPx2I6S4z"
        },
        "24KQqsV6FojDBPnbeVBpmXNxIZd": {
            "ap_romfw": null,
            "boot_args": null,
            "device": "qemu-arm64",
            "finished_time": null,
            "fip": null,
            "kernel": null,
            "mcp_fw": null,
            "mcp_romfw": null,
            "modules": null,
            "parameters": [],
            "plan": "24KQqbrFGl3jFngQqxjTZ5UtIUz",
            "project": "linaro/anders",
            "provisioning_time": null,
            "result": "unknown",
            "results": {},
            "retries": 0,
            "retries_messages": [],
            "rootfs": null,
            "running_time": null,
            "scp_fw": null,
            "scp_romfw": null,
            "state": "waiting",
            "tests": [
                "boot"
            ],
            "uid": "24KQqsV6FojDBPnbeVBpmXNxIZd",
            "user": "anders.roxell@linaro.org",
            "user_agent": "tuxsuite/0.42.3",
            "waiting_for": "24KQqkFgfcGmq5XAmoioZRzrhi3"
        },
        "24KQqsYQ67GtTcZpoT1GEsi44Xv": {
            "ap_romfw": null,
            "boot_args": null,
            "device": "qemu-arm64",
            "finished_time": null,
            "fip": null,
            "kernel": null,
            "mcp_fw": null,
            "mcp_romfw": null,
            "modules": null,
            "parameters": [],
            "plan": "24KQqbrFGl3jFngQqxjTZ5UtIUz",
            "project": "linaro/anders",
            "provisioning_time": null,
            "result": "unknown",
            "results": {},
            "retries": 0,
            "retries_messages": [],
            "rootfs": null,
            "running_time": null,
            "scp_fw": null,
            "scp_romfw": null,
            "state": "waiting",
            "tests": [
                "boot"
            ],
            "uid": "24KQqsYQ67GtTcZpoT1GEsi44Xv",
            "user": "anders.roxell@linaro.org",
            "user_agent": "tuxsuite/0.42.3",
            "waiting_for": "24KQqf9NbZMwWbvzeup5dD8Ccmd"
        }
    }
}