{
    "builds": {
        "24KQtXWyqdbF8WHYPA5RH2rdu50": {
            "build_name": "",
            "client_token": "c9735397-e10b-470f-8cae-48ca4c3dbc37",
            "download_url": "https://builds.tuxbuild.com/24KQtXWyqdbF8WHYPA5RH2rdu50/",
            "environment": {},
            "errors_count": 0,
            "finished_time": null,
            "git_ref": "v5.15-rc7",
            "git_repo": "https://git.kernel.org/pub/scm/linux/kernel/git/torvalds/linux.git",
            "git_sha": "3906fe9bb7f1a2c8667ae54e967dc8690824f4ea",
            "image_sha": "",
            "kconfig": [
                "defconfig"
            ],
            "kernel_image": "",
            "kernel_patch_file": "",
            "make_variables": {},
            "no_cache": true,
            "plan": "24KQtU4pzgNjLMoDNXzPG9pTsQj",
            "project": "linaro/anders",
            "provisioning_time": "2022-01-28T13:36:53.803539",
            "result": "unknown",
            "running_time": null,
            "state": "provisioning",
            "target_arch": "arm64",
            "targets": [],
            "toolchain": "gcc-11",
            "uid": "24KQtXWyqdbF8WHYPA5RH2rdu50",
            "user": "anders.roxell@linaro.org",
            "user_agent": "tuxsuite/0.42.3",
            "waited_by": [],
            "warnings_count": 0
        },
        "24KQtXjwMtGtynuwPkstLFk4Mt8": {
            "build_name": "",
            "client_token": "87562180-5c9d-47f7-9716-ec5d868a7f02",
            "download_url": "https://builds.tuxbuild.com/24KQtXjwMtGtynuwPkstLFk4Mt8/",
            "environment": {},
            "errors_count": 0,
            "finished_time": null,
            "git_ref": "v5.15-rc7",
            "git_repo": "https://git.kernel.org/pub/scm/linux/kernel/git/torvalds/linux.git",
            "git_sha": "3906fe9bb7f1a2c8667ae54e967dc8690824f4ea",
            "image_sha": "",
            "kconfig": [
                "tinyconfig"
            ],
            "kernel_image": "",
            "kernel_patch_file": "",
            "make_variables": {
                "LLVM": "1",
                "LLVM_IAS": "1"
            },
            "no_cache": true,
            "plan": "24KQtU4pzgNjLMoDNXzPG9pTsQj",
            "project": "linaro/anders",
            "provisioning_time": "2022-01-28T13:36:53.676698",
            "result": "unknown",
            "running_time": null,
            "state": "provisioning",
            "target_arch": "arm64",
            "targets": [],
            "toolchain": "clang-nightly",
            "uid": "24KQtXjwMtGtynuwPkstLFk4Mt8",
            "user": "anders.roxell@linaro.org",
            "user_agent": "tuxsuite/0.42.3",
            "waited_by": [],
            "warnings_count": 0
        },
        "24KQtXrexCIKMpCd4gH7xxsDXuG": {
            "build_name": "",
            "client_token": "3c5f97ec-4c57-409b-b8f6-2c036e9afee0",
            "download_url": "https://builds.tuxbuild.com/24KQtXrexCIKMpCd4gH7xxsDXuG/",
            "environment": {},
            "errors_count": 0,
            "finished_time": null,
            "git_ref": "v5.15-rc7",
            "git_repo": "https://git.kernel.org/pub/scm/linux/kernel/git/torvalds/linux.git",
            "git_sha": "3906fe9bb7f1a2c8667ae54e967dc8690824f4ea",
            "image_sha": "",
            "kconfig": [
                "tinyconfig"
            ],
            "kernel_image": "",
            "kernel_patch_file": "",
            "make_variables": {},
            "no_cache": true,
            "plan": "24KQtU4pzgNjLMoDNXzPG9pTsQj",
            "project": "linaro/anders",
            "provisioning_time": "2022-01-28T13:36:53.697339",
            "result": "unknown",
            "running_time": null,
            "state": "provisioning",
            "target_arch": "arm64",
            "targets": [],
            "toolchain": "gcc-10",
            "uid": "24KQtXrexCIKMpCd4gH7xxsDXuG",
            "user": "anders.roxell@linaro.org",
            "user_agent": "tuxsuite/0.42.3",
            "waited_by": [],
            "warnings_count": 0
        },
        "24KQtY2s9XsrNfY30VcZN80MDYw": {
            "build_name": "",
            "client_token": "9efd2efc-0319-4525-b627-41548ff618bc",
            "download_url": "https://builds.tuxbuild.com/24KQtY2s9XsrNfY30VcZN80MDYw/",
            "environment": {},
            "errors_count": 0,
            "finished_time": null,
            "git_ref": "v5.15-rc7",
            "git_repo": "https://git.kernel.org/pub/scm/linux/kernel/git/torvalds/linux.git",
            "git_sha": "3906fe9bb7f1a2c8667ae54e967dc8690824f4ea",
            "image_sha": "",
            "kconfig": [
                "tinyconfig"
            ],
            "kernel_image": "",
            "kernel_patch_file": "",
            "make_variables": {
                "LLVM": "1",
                "LLVM_IAS": "1"
            },
            "no_cache": true,
            "plan": "24KQtU4pzgNjLMoDNXzPG9pTsQj",
            "project": "linaro/anders",
            "provisioning_time": "2022-01-28T13:36:53.762146",
            "result": "unknown",
            "running_time": null,
            "state": "provisioning",
            "target_arch": "arm64",
            "targets": [],
            "toolchain": "clang-nightly",
            "uid": "24KQtY2s9XsrNfY30VcZN80MDYw",
            "user": "anders.roxell@linaro.org",
            "user_agent": "tuxsuite/0.42.3",
            "waited_by": [],
            "warnings_count": 0
        },
        "24KQtYIp9DfsrUxNwruzaY04pJY": {
            "build_name": "",
            "client_token": "c1983447-be9f-4a68-89a9-12a079f9722f",
            "download_url": "https://builds.tuxbuild.com/24KQtYIp9DfsrUxNwruzaY04pJY/",
            "environment": {},
            "errors_count": 0,
            "finished_time": null,
            "git_ref": "v5.15-rc7",
            "git_repo": "https://git.kernel.org/pub/scm/linux/kernel/git/torvalds/linux.git",
            "git_sha": "3906fe9bb7f1a2c8667ae54e967dc8690824f4ea",
            "image_sha": "",
            "kconfig": [
                "defconfig"
            ],
            "kernel_image": "",
            "kernel_patch_file": "",
            "make_variables": {},
            "no_cache": true,
            "plan": "24KQtU4pzgNjLMoDNXzPG9pTsQj",
            "project": "linaro/anders",
            "provisioning_time": "2022-01-28T13:36:53.887170",
            "result": "unknown",
            "running_time": null,
            "state": "provisioning",
            "target_arch": "arm64",
            "targets": [],
            "toolchain": "gcc-11",
            "uid": "24KQtYIp9DfsrUxNwruzaY04pJY",
            "user": "anders.roxell@linaro.org",
            "user_agent": "tuxsuite/0.42.3",
            "waited_by": [],
            "warnings_count": 0
        },
        "24KQtYJ53o4lOZ9KOElehiKiORZ": {
            "build_name": "",
            "client_token": "f9008654-1818-4534-896e-c3fdf8bfd9e9",
            "download_url": "https://builds.tuxbuild.com/24KQtYJ53o4lOZ9KOElehiKiORZ/",
            "environment": {},
            "errors_count": 0,
            "finished_time": null,
            "git_ref": "v5.15-rc7",
            "git_repo": "https://git.kernel.org/pub/scm/linux/kernel/git/torvalds/linux.git",
            "git_sha": "3906fe9bb7f1a2c8667ae54e967dc8690824f4ea",
            "image_sha": "",
            "kconfig": [
                "defconfig"
            ],
            "kernel_image": "",
            "kernel_patch_file": "",
            "make_variables": {},
            "no_cache": true,
            "plan": "24KQtU4pzgNjLMoDNXzPG9pTsQj",
            "project": "linaro/anders",
            "provisioning_time": "2022-01-28T13:36:53.951544",
            "result": "unknown",
            "running_time": null,
            "state": "provisioning",
            "target_arch": "arm64",
            "targets": [],
            "toolchain": "gcc-10",
            "uid": "24KQtYJ53o4lOZ9KOElehiKiORZ",
            "user": "anders.roxell@linaro.org",
            "user_agent": "tuxsuite/0.42.3",
            "waited_by": [],
            "warnings_count": 0
        },
        "24KQtYMDGBl2ylD6QwXhj3Csz3z": {
            "build_name": "",
            "client_token": "c85c7a04-0fd2-44b2-98b0-8c5dcb2013ab",
            "download_url": "https://builds.tuxbuild.com/24KQtYMDGBl2ylD6QwXhj3Csz3z/",
            "environment": {},
            "errors_count": 0,
            "finished_time": null,
            "git_ref": "v5.15-rc7",
            "git_repo": "https://git.kernel.org/pub/scm/linux/kernel/git/torvalds/linux.git",
            "git_sha": "3906fe9bb7f1a2c8667ae54e967dc8690824f4ea",
            "image_sha": "",
            "kconfig": [
                "tinyconfig"
            ],
            "kernel_image": "",
            "kernel_patch_file": "",
            "make_variables": {},
            "no_cache": true,
            "plan": "24KQtU4pzgNjLMoDNXzPG9pTsQj",
            "project": "linaro/anders",
            "provisioning_time": "2022-01-28T13:36:53.633888",
            "result": "unknown",
            "running_time": null,
            "state": "provisioning",
            "target_arch": "arm64",
            "targets": [],
            "toolchain": "gcc-11",
            "uid": "24KQtYMDGBl2ylD6QwXhj3Csz3z",
            "user": "anders.roxell@linaro.org",
            "user_agent": "tuxsuite/0.42.3",
            "waited_by": [],
            "warnings_count": 0
        },
        "24KQtYMnelQawNPJHqIgo4oPGFQ": {
            "build_name": "",
            "client_token": "8cb56d77-43ff-4322-9a56-4b69e92ca333",
            "download_url": "https://builds.tuxbuild.com/24KQtYMnelQawNPJHqIgo4oPGFQ/",
            "environment": {},
            "errors_count": 0,
            "finished_time": null,
            "git_ref": "v5.15-rc7",
            "git_repo": "https://git.kernel.org/pub/scm/linux/kernel/git/torvalds/linux.git",
            "git_sha": "3906fe9bb7f1a2c8667ae54e967dc8690824f4ea",
            "image_sha": "",
            "kconfig": [
                "tinyconfig"
            ],
            "kernel_image": "",
            "kernel_patch_file": "",
            "make_variables": {
                "LLVM": "1",
                "LLVM_IAS": "1"
            },
            "no_cache": true,
            "plan": "24KQtU4pzgNjLMoDNXzPG9pTsQj",
            "project": "linaro/anders",
            "provisioning_time": "2022-01-28T13:36:53.592787",
            "result": "unknown",
            "running_time": null,
            "state": "provisioning",
            "target_arch": "arm64",
            "targets": [],
            "toolchain": "clang-nightly",
            "uid": "24KQtYMnelQawNPJHqIgo4oPGFQ",
            "user": "anders.roxell@linaro.org",
            "user_agent": "tuxsuite/0.42.3",
            "waited_by": [],
            "warnings_count": 0
        },
        "24KQtYQGXLPWjNlNarFKBIAJ1op": {
            "build_name": "",
            "client_token": "cad073e2-ec2c-4448-b16c-bef136568717",
            "download_url": "https://builds.tuxbuild.com/24KQtYQGXLPWjNlNarFKBIAJ1op/",
            "environment": {},
            "errors_count": 0,
            "finished_time": null,
            "git_ref": "v5.15-rc7",
            "git_repo": "https://git.kernel.org/pub/scm/linux/kernel/git/torvalds/linux.git",
            "git_sha": "3906fe9bb7f1a2c8667ae54e967dc8690824f4ea",
            "image_sha": "",
            "kconfig": [
                "tinyconfig"
            ],
            "kernel_image": "",
            "kernel_patch_file": "",
            "make_variables": {},
            "no_cache": true,
            "plan": "24KQtU4pzgNjLMoDNXzPG9pTsQj",
            "project": "linaro/anders",
            "provisioning_time": "2022-01-28T13:36:53.528902",
            "result": "unknown",
            "running_time": null,
            "state": "provisioning",
            "target_arch": "arm64",
            "targets": [],
            "toolchain": "gcc-10",
            "uid": "24KQtYQGXLPWjNlNarFKBIAJ1op",
            "user": "anders.roxell@linaro.org",
            "user_agent": "tuxsuite/0.42.3",
            "waited_by": [],
            "warnings_count": 0
        },
        "24KQtYcIXXsmLVwyHyTBFMh2Sun": {
            "build_name": "",
            "client_token": "514c64a0-190d-47fc-a439-c51e825a9fbb",
            "download_url": "https://builds.tuxbuild.com/24KQtYcIXXsmLVwyHyTBFMh2Sun/",
            "environment": {},
            "errors_count": 0,
            "finished_time": null,
            "git_ref": "v5.15-rc7",
            "git_repo": "https://git.kernel.org/pub/scm/linux/kernel/git/torvalds/linux.git",
            "git_sha": "3906fe9bb7f1a2c8667ae54e967dc8690824f4ea",
            "image_sha": "",
            "kconfig": [
                "defconfig"
            ],
            "kernel_image": "",
            "kernel_patch_file": "",
            "make_variables": {},
            "no_cache": true,
            "plan": "24KQtU4pzgNjLMoDNXzPG9pTsQj",
            "project": "linaro/anders",
            "provisioning_time": "2022-01-28T13:36:53.866669",
            "result": "unknown",
            "running_time": null,
            "state": "provisioning",
            "target_arch": "arm64",
            "targets": [],
            "toolchain": "gcc-10",
            "uid": "24KQtYcIXXsmLVwyHyTBFMh2Sun",
            "user": "anders.roxell@linaro.org",
            "user_agent": "tuxsuite/0.42.3",
            "waited_by": [],
            "warnings_count": 0
        },
        "24KQtZ7mLakTqe8mNboUPC3hkHK": {
            "build_name": "",
            "client_token": "e0d16208-f01e-4295-ae6d-cc2406d60067",
            "download_url": "https://builds.tuxbuild.com/24KQtZ7mLakTqe8mNboUPC3hkHK/",
            "environment": {},
            "errors_count": 0,
            "finished_time": null,
            "git_ref": "v5.15-rc7",
            "git_repo": "https://git.kernel.org/pub/scm/linux/kernel/git/torvalds/linux.git",
            "git_sha": "3906fe9bb7f1a2c8667ae54e967dc8690824f4ea",
            "image_sha": "",
            "kconfig": [
                "defconfig"
            ],
            "kernel_image": "",
            "kernel_patch_file": "",
            "make_variables": {
                "LLVM": "1",
                "LLVM_IAS": "1"
            },
            "no_cache": true,
            "plan": "24KQtU4pzgNjLMoDNXzPG9pTsQj",
            "project": "linaro/anders",
            "provisioning_time": "2022-01-28T13:36:53.825723",
            "result": "unknown",
            "running_time": null,
            "state": "provisioning",
            "target_arch": "arm64",
            "targets": [],
            "toolchain": "clang-13",
            "uid": "24KQtZ7mLakTqe8mNboUPC3hkHK",
            "user": "anders.roxell@linaro.org",
            "user_agent": "tuxsuite/0.42.3",
            "waited_by": [],
            "warnings_count": 0
        },
        "24KQtZPjENrvo0aYqi23yGjCCy2": {
            "build_name": "",
            "client_token": "74db6bff-f02e-4bef-ad70-06b5f452654b",
            "download_url": "https://builds.tuxbuild.com/24KQtZPjENrvo0aYqi23yGjCCy2/",
            "environment": {},
            "errors_count": 0,
            "finished_time": null,
            "git_ref": "v5.15-rc7",
            "git_repo": "https://git.kernel.org/pub/scm/linux/kernel/git/torvalds/linux.git",
            "git_sha": "3906fe9bb7f1a2c8667ae54e967dc8690824f4ea",
            "image_sha": "",
            "kconfig": [
                "tinyconfig"
            ],
            "kernel_image": "",
            "kernel_patch_file": "",
            "make_variables": {
                "LLVM": "1",
                "LLVM_IAS": "1"
            },
            "no_cache": true,
            "plan": "24KQtU4pzgNjLMoDNXzPG9pTsQj",
            "project": "linaro/anders",
            "provisioning_time": "2022-01-28T13:36:53.572404",
            "result": "unknown",
            "running_time": null,
            "state": "provisioning",
            "target_arch": "arm64",
            "targets": [],
            "toolchain": "clang-13",
            "uid": "24KQtZPjENrvo0aYqi23yGjCCy2",
            "user": "anders.roxell@linaro.org",
            "user_agent": "tuxsuite/0.42.3",
            "waited_by": [],
            "warnings_count": 0
        },
        "24KQtZYxBo1SyINVehsJhrELzjz": {
            "build_name": "",
            "client_token": "38e32d09-46ed-4a82-aac3-244d0f230d4c",
            "download_url": "https://builds.tuxbuild.com/24KQtZYxBo1SyINVehsJhrELzjz/",
            "environment": {},
            "errors_count": 0,
            "finished_time": null,
            "git_ref": "v5.15-rc7",
            "git_repo": "https://git.kernel.org/pub/scm/linux/kernel/git/torvalds/linux.git",
            "git_sha": "3906fe9bb7f1a2c8667ae54e967dc8690824f4ea",
            "image_sha": "",
            "kconfig": [
                "defconfig"
            ],
            "kernel_image": "",
            "kernel_patch_file": "",
            "make_variables": {
                "LLVM": "1",
                "LLVM_IAS": "1"
            },
            "no_cache": true,
            "plan": "24KQtU4pzgNjLMoDNXzPG9pTsQj",
            "project": "linaro/anders",
            "provisioning_time": "2022-01-28T13:36:53.930429",
            "result": "unknown",
            "running_time": null,
            "state": "provisioning",
            "target_arch": "arm64",
            "targets": [],
            "toolchain": "clang-nightly",
            "uid": "24KQtZYxBo1SyINVehsJhrELzjz",
            "user": "anders.roxell@linaro.org",
            "user_agent": "tuxsuite/0.42.3",
            "waited_by": [],
            "warnings_count": 0
        },
        "24KQtZeWaU5YRNdS0qpxxx7Wthp": {
            "build_name": "",
            "client_token": "d19a1f05-3329-48ab-ae18-1f85e80ff2ff",
            "download_url": "https://builds.tuxbuild.com/24KQtZeWaU5YRNdS0qpxxx7Wthp/",
            "environment": {},
            "errors_count": 0,
            "finished_time": null,
            "git_ref": "v5.15-rc7",
            "git_repo": "https://git.kernel.org/pub/scm/linux/kernel/git/torvalds/linux.git",
            "git_sha": "3906fe9bb7f1a2c8667ae54e967dc8690824f4ea",
            "image_sha": "",
            "kconfig": [
                "tinyconfig"
            ],
            "kernel_image": "",
            "kernel_patch_file": "",
            "make_variables": {
                "LLVM": "1",
                "LLVM_IAS": "1"
            },
            "no_cache": true,
            "plan": "24KQtU4pzgNjLMoDNXzPG9pTsQj",
            "project": "linaro/anders",
            "provisioning_time": "2022-01-28T13:36:53.423287",
            "result": "unknown",
            "running_time": null,
            "state": "provisioning",
            "target_arch": "arm64",
            "targets": [],
            "toolchain": "clang-nightly",
            "uid": "24KQtZeWaU5YRNdS0qpxxx7Wthp",
            "user": "anders.roxell@linaro.org",
            "user_agent": "tuxsuite/0.42.3",
            "waited_by": [],
            "warnings_count": 0
        },
        "24KQtZiA0OqQV5QtUN50lGwCR0p": {
            "build_name": "",
            "client_token": "c7ca89a1-e758-41d5-aaec-61d996da1963",
            "download_url": "https://builds.tuxbuild.com/24KQtZiA0OqQV5QtUN50lGwCR0p/",
            "environment": {},
            "errors_count": 0,
            "finished_time": null,
            "git_ref": "v5.15-rc7",
            "git_repo": "https://git.kernel.org/pub/scm/linux/kernel/git/torvalds/linux.git",
            "git_sha": "3906fe9bb7f1a2c8667ae54e967dc8690824f4ea",
            "image_sha": "",
            "kconfig": [
                "tinyconfig"
            ],
            "kernel_image": "",
            "kernel_patch_file": "",
            "make_variables": {
                "LLVM": "1",
                "LLVM_IAS": "1"
            },
            "no_cache": true,
            "plan": "24KQtU4pzgNjLMoDNXzPG9pTsQj",
            "project": "linaro/anders",
            "provisioning_time": "2022-01-28T13:36:53.508452",
            "result": "unknown",
            "running_time": null,
            "state": "provisioning",
            "target_arch": "arm64",
            "targets": [],
            "toolchain": "clang-nightly",
            "uid": "24KQtZiA0OqQV5QtUN50lGwCR0p",
            "user": "anders.roxell@linaro.org",
            "user_agent": "tuxsuite/0.42.3",
            "waited_by": [],
            "warnings_count": 0
        },
        "24KQtZlkF2UfGAprYiOZJ7wKOk1": {
            "build_name": "",
            "client_token": "fdd947ba-0806-480e-a219-7e6e6b65db1a",
            "download_url": "https://builds.tuxbuild.com/24KQtZlkF2UfGAprYiOZJ7wKOk1/",
            "environment": {},
            "errors_count": 0,
            "finished_time": null,
            "git_ref": "v5.15-rc7",
            "git_repo": "https://git.kernel.org/pub/scm/linux/kernel/git/torvalds/linux.git",
            "git_sha": "3906fe9bb7f1a2c8667ae54e967dc8690824f4ea",
            "image_sha": "",
            "kconfig": [
                "tinyconfig"
            ],
            "kernel_image": "",
            "kernel_patch_file": "",
            "make_variables": {},
            "no_cache": true,
            "plan": "24KQtU4pzgNjLMoDNXzPG9pTsQj",
            "project": "linaro/anders",
            "provisioning_time": "2022-01-28T13:36:53.613391",
            "result": "unknown",
            "running_time": null,
            "state": "provisioning",
            "target_arch": "arm64",
            "targets": [],
            "toolchain": "gcc-10",
            "uid": "24KQtZlkF2UfGAprYiOZJ7wKOk1",
            "user": "anders.roxell@linaro.org",
            "user_agent": "tuxsuite/0.42.3",
            "waited_by": [],
            "warnings_count": 0
        },
        "24KQtaHMwcJmnrQqRLlSrZjnc0s": {
            "build_name": "",
            "client_token": "5b21f2b2-d905-4792-90e7-9a3145fe9841",
            "download_url": "https://builds.tuxbuild.com/24KQtaHMwcJmnrQqRLlSrZjnc0s/",
            "environment": {},
            "errors_count": 0,
            "finished_time": null,
            "git_ref": "v5.15-rc7",
            "git_repo": "https://git.kernel.org/pub/scm/linux/kernel/git/torvalds/linux.git",
            "git_sha": "3906fe9bb7f1a2c8667ae54e967dc8690824f4ea",
            "image_sha": "",
            "kconfig": [
                "defconfig"
            ],
            "kernel_image": "",
            "kernel_patch_file": "",
            "make_variables": {
                "LLVM": "1",
                "LLVM_IAS": "1"
            },
            "no_cache": true,
            "plan": "24KQtU4pzgNjLMoDNXzPG9pTsQj",
            "project": "linaro/anders",
            "provisioning_time": "2022-01-28T13:36:53.992462",
            "result": "unknown",
            "running_time": null,
            "state": "provisioning",
            "target_arch": "arm64",
            "targets": [],
            "toolchain": "clang-13",
            "uid": "24KQtaHMwcJmnrQqRLlSrZjnc0s",
            "user": "anders.roxell@linaro.org",
            "user_agent": "tuxsuite/0.42.3",
            "waited_by": [],
            "warnings_count": 0
        },
        "24KQtaV6Z4L2NWMsjPx832jXIkl": {
            "build_name": "",
            "client_token": "39dcc68d-d8bf-4702-9223-1b6e3e7bf4c9",
            "download_url": "https://builds.tuxbuild.com/24KQtaV6Z4L2NWMsjPx832jXIkl/",
            "environment": {},
            "errors_count": 0,
            "finished_time": null,
            "git_ref": "v5.15-rc7",
            "git_repo": "https://git.kernel.org/pub/scm/linux/kernel/git/torvalds/linux.git",
            "git_sha": "3906fe9bb7f1a2c8667ae54e967dc8690824f4ea",
            "image_sha": "",
            "kconfig": [
                "tinyconfig"
            ],
            "kernel_image": "",
            "kernel_patch_file": "",
            "make_variables": {
                "LLVM": "1",
                "LLVM_IAS": "1"
            },
            "no_cache": true,
            "plan": "24KQtU4pzgNjLMoDNXzPG9pTsQj",
            "project": "linaro/anders",
            "provisioning_time": "2022-01-28T13:36:53.402523",
            "result": "unknown",
            "running_time": null,
            "state": "provisioning",
            "target_arch": "arm64",
            "targets": [],
            "toolchain": "clang-13",
            "uid": "24KQtaV6Z4L2NWMsjPx832jXIkl",
            "user": "anders.roxell@linaro.org",
            "user_agent": "tuxsuite/0.42.3",
            "waited_by": [],
            "warnings_count": 0
        },
        "24KQtaom8xdqo6N6jnZ1O5Lv1YU": {
            "build_name": "",
            "client_token": "3692d802-e5ca-4c6f-9371-ced779c12e50",
            "download_url": "https://builds.tuxbuild.com/24KQtaom8xdqo6N6jnZ1O5Lv1YU/",
            "environment": {},
            "errors_count": 0,
            "finished_time": null,
            "git_ref": "v5.15-rc7",
            "git_repo": "https://git.kernel.org/pub/scm/linux/kernel/git/torvalds/linux.git",
            "git_sha": "3906fe9bb7f1a2c8667ae54e967dc8690824f4ea",
            "image_sha": "",
            "kconfig": [
                "tinyconfig"
            ],
            "kernel_image": "",
            "kernel_patch_file": "",
            "make_variables": {},
            "no_cache": true,
            "plan": "24KQtU4pzgNjLMoDNXzPG9pTsQj",
            "project": "linaro/anders",
            "provisioning_time": "2022-01-28T13:36:53.443930",
            "result": "unknown",
            "running_time": null,
            "state": "provisioning",
            "target_arch": "arm64",
            "targets": [],
            "toolchain": "gcc-10",
            "uid": "24KQtaom8xdqo6N6jnZ1O5Lv1YU",
            "user": "anders.roxell@linaro.org",
            "user_agent": "tuxsuite/0.42.3",
            "waited_by": [],
            "warnings_count": 0
        },
        "24KQtaqa2onO45ISyGvgwRLWXvh": {
            "build_name": "",
            "client_token": "bf412682-4f54-4686-a17e-6cf69c5e5185",
            "download_url": "https://builds.tuxbuild.com/24KQtaqa2onO45ISyGvgwRLWXvh/",
            "environment": {},
            "errors_count": 0,
            "finished_time": null,
            "git_ref": "v5.15-rc7",
            "git_repo": "https://git.kernel.org/pub/scm/linux/kernel/git/torvalds/linux.git",
            "git_sha": "3906fe9bb7f1a2c8667ae54e967dc8690824f4ea",
            "image_sha": "",
            "kconfig": [
                "defconfig"
            ],
            "kernel_image": "",
            "kernel_patch_file": "",
            "make_variables": {},
            "no_cache": true,
            "plan": "24KQtU4pzgNjLMoDNXzPG9pTsQj",
            "project": "linaro/anders",
            "provisioning_time": "2022-01-28T13:36:53.971964",
            "result": "unknown",
            "running_time": null,
            "state": "provisioning",
            "target_arch": "arm64",
            "targets": [],
            "toolchain": "gcc-11",
            "uid": "24KQtaqa2onO45ISyGvgwRLWXvh",
            "user": "anders.roxell@linaro.org",
            "user_agent": "tuxsuite/0.42.3",
            "waited_by": [],
            "warnings_count": 0
        },
        "24KQtbECvVjOLXQNypT0F4rQaPe": {
            "build_name": "",
            "client_token": "2598d37b-b2a8-48cc-9426-bfa7531dddab",
            "download_url": "https://builds.tuxbuild.com/24KQtbECvVjOLXQNypT0F4rQaPe/",
            "environment": {},
            "errors_count": 0,
            "finished_time": null,
            "git_ref": "v5.15-rc7",
            "git_repo": "https://git.kernel.org/pub/scm/linux/kernel/git/torvalds/linux.git",
            "git_sha": "3906fe9bb7f1a2c8667ae54e967dc8690824f4ea",
            "image_sha": "",
            "kconfig": [
                "tinyconfig"
            ],
            "kernel_image": "",
            "kernel_patch_file": "",
            "make_variables": {},
            "no_cache": true,
            "plan": "24KQtU4pzgNjLMoDNXzPG9pTsQj",
            "project": "linaro/anders",
            "provisioning_time": "2022-01-28T13:36:53.381962",
            "result": "unknown",
            "running_time": null,
            "state": "provisioning",
            "target_arch": "arm64",
            "targets": [],
            "toolchain": "gcc-11",
            "uid": "24KQtbECvVjOLXQNypT0F4rQaPe",
            "user": "anders.roxell@linaro.org",
            "user_agent": "tuxsuite/0.42.3",
            "waited_by": [],
            "warnings_count": 0
        },
        "24KQtcmaqmK9DKW4CmdAWN53kGL": {
            "build_name": "",
            "client_token": "811f9d12-b73d-43e0-bd93-de41d49f72a7",
            "download_url": "https://builds.tuxbuild.com/24KQtcmaqmK9DKW4CmdAWN53kGL/",
            "environment": {},
            "errors_count": 0,
            "finished_time": null,
            "git_ref": "v5.15-rc7",
            "git_repo": "https://git.kernel.org/pub/scm/linux/kernel/git/torvalds/linux.git",
            "git_sha": "3906fe9bb7f1a2c8667ae54e967dc8690824f4ea",
            "image_sha": "",
            "kconfig": [
                "tinyconfig"
            ],
            "kernel_image": "",
            "kernel_patch_file": "",
            "make_variables": {},
            "no_cache": true,
            "plan": "24KQtU4pzgNjLMoDNXzPG9pTsQj",
            "project": "linaro/anders",
            "provisioning_time": "2022-01-28T13:36:53.717756",
            "result": "unknown",
            "running_time": null,
            "state": "provisioning",
            "target_arch": "arm64",
            "targets": [],
            "toolchain": "gcc-11",
            "uid": "24KQtcmaqmK9DKW4CmdAWN53kGL",
            "user": "anders.roxell@linaro.org",
            "user_agent": "tuxsuite/0.42.3",
            "waited_by": [],
            "warnings_count": 0
        },
        "24KQtd3Rr2US9il8sfzP5ub33Te": {
            "build_name": "",
            "client_token": "179244ea-1be5-4515-a483-4476a6d85a9e",
            "download_url": "https://builds.tuxbuild.com/24KQtd3Rr2US9il8sfzP5ub33Te/",
            "environment": {},
            "errors_count": 0,
            "finished_time": null,
            "git_ref": "v5.15-rc7",
            "git_repo": "https://git.kernel.org/pub/scm/linux/kernel/git/torvalds/linux.git",
            "git_sha": "3906fe9bb7f1a2c8667ae54e967dc8690824f4ea",
            "image_sha": "",
            "kconfig": [
                "tinyconfig"
            ],
            "kernel_image": "",
            "kernel_patch_file": "",
            "make_variables": {
                "LLVM": "1",
                "LLVM_IAS": "1"
            },
            "no_cache": true,
            "plan": "24KQtU4pzgNjLMoDNXzPG9pTsQj",
            "project": "linaro/anders",
            "provisioning_time": "2022-01-28T13:36:53.656130",
            "result": "unknown",
            "running_time": null,
            "state": "provisioning",
            "target_arch": "arm64",
            "targets": [],
            "toolchain": "clang-13",
            "uid": "24KQtd3Rr2US9il8sfzP5ub33Te",
            "user": "anders.roxell@linaro.org",
            "user_agent": "tuxsuite/0.42.3",
            "waited_by": [],
            "warnings_count": 0
        },
        "24KQtdIlKijbzMyAyP8RoveAjEM": {
            "build_name": "",
            "client_token": "7156968a-65e6-47ab-b8e6-61d9fcf9f8a4",
            "download_url": "https://builds.tuxbuild.com/24KQtdIlKijbzMyAyP8RoveAjEM/",
            "environment": {},
            "errors_count": 0,
            "finished_time": null,
            "git_ref": "v5.15-rc7",
            "git_repo": "https://git.kernel.org/pub/scm/linux/kernel/git/torvalds/linux.git",
            "git_sha": "3906fe9bb7f1a2c8667ae54e967dc8690824f4ea",
            "image_sha": "",
            "kconfig": [
                "tinyconfig"
            ],
            "kernel_image": "",
            "kernel_patch_file": "",
            "make_variables": {},
            "no_cache": true,
            "plan": "24KQtU4pzgNjLMoDNXzPG9pTsQj",
            "project": "linaro/anders",
            "provisioning_time": "2022-01-28T13:36:53.322959",
            "result": "unknown",
            "running_time": null,
            "state": "provisioning",
            "target_arch": "arm64",
            "targets": [],
            "toolchain": "gcc-10",
            "uid": "24KQtdIlKijbzMyAyP8RoveAjEM",
            "user": "anders.roxell@linaro.org",
            "user_agent": "tuxsuite/0.42.3",
            "waited_by": [],
            "warnings_count": 0
        },
        "24KQtdTamlL0KzJveTaBGzfxGu2": {
            "build_name": "",
            "client_token": "678780b2-dfc7-414b-9b48-0734d36dac7b",
            "download_url": "https://builds.tuxbuild.com/24KQtdTamlL0KzJveTaBGzfxGu2/",
            "environment": {},
            "errors_count": 0,
            "finished_time": null,
            "git_ref": "v5.15-rc7",
            "git_repo": "https://git.kernel.org/pub/scm/linux/kernel/git/torvalds/linux.git",
            "git_sha": "3906fe9bb7f1a2c8667ae54e967dc8690824f4ea",
            "image_sha": "",
            "kconfig": [
                "defconfig"
            ],
            "kernel_image": "",
            "kernel_patch_file": "",
            "make_variables": {
                "LLVM": "1",
                "LLVM_IAS": "1"
            },
            "no_cache": true,
            "plan": "24KQtU4pzgNjLMoDNXzPG9pTsQj",
            "project": "linaro/anders",
            "provisioning_time": "2022-01-28T13:36:53.846113",
            "result": "unknown",
            "running_time": null,
            "state": "provisioning",
            "target_arch": "arm64",
            "targets": [],
            "toolchain": "clang-nightly",
            "uid": "24KQtdTamlL0KzJveTaBGzfxGu2",
            "user": "anders.roxell@linaro.org",
            "user_agent": "tuxsuite/0.42.3",
            "waited_by": [],
            "warnings_count": 0
        },
        "24KQtdlckI7UMJbWf41IGn5B843": {
            "build_name": "",
            "client_token": "ca9b1df6-f816-4aaf-9ed6-6ef4c88297f4",
            "download_url": "https://builds.tuxbuild.com/24KQtdlckI7UMJbWf41IGn5B843/",
            "environment": {},
            "errors_count": 0,
            "finished_time": null,
            "git_ref": "v5.15-rc7",
            "git_repo": "https://git.kernel.org/pub/scm/linux/kernel/git/torvalds/linux.git",
            "git_sha": "3906fe9bb7f1a2c8667ae54e967dc8690824f4ea",
            "image_sha": "",
            "kconfig": [
                "tinyconfig"
            ],
            "kernel_image": "",
            "kernel_patch_file": "",
            "make_variables": {},
            "no_cache": true,
            "plan": "24KQtU4pzgNjLMoDNXzPG9pTsQj",
            "project": "linaro/anders",
            "provisioning_time": "2022-01-28T13:36:53.467279",
            "result": "unknown",
            "running_time": null,
            "state": "provisioning",
            "target_arch": "arm64",
            "targets": [],
            "toolchain": "gcc-11",
            "uid": "24KQtdlckI7UMJbWf41IGn5B843",
            "user": "anders.roxell@linaro.org",
            "user_agent": "tuxsuite/0.42.3",
            "waited_by": [],
            "warnings_count": 0
        },
        "24KQtdlkfukz73UPHpwa8d8H29k": {
            "build_name": "",
            "client_token": "dd2f70ca-4aaa-47ca-9e55-df61e7e02059",
            "download_url": "https://builds.tuxbuild.com/24KQtdlkfukz73UPHpwa8d8H29k/",
            "environment": {},
            "errors_count": 0,
            "finished_time": null,
            "git_ref": "v5.15-rc7",
            "git_repo": "https://git.kernel.org/pub/scm/linux/kernel/git/torvalds/linux.git",
            "git_sha": "3906fe9bb7f1a2c8667ae54e967dc8690824f4ea",
            "image_sha": "",
            "kconfig": [
                "tinyconfig"
            ],
            "kernel_image": "",
            "kernel_patch_file": "",
            "make_variables": {},
            "no_cache": true,
            "plan": "24KQtU4pzgNjLMoDNXzPG9pTsQj",
            "project": "linaro/anders",
            "provisioning_time": "2022-01-28T13:36:53.549688",
            "result": "unknown",
            "running_time": null,
            "state": "provisioning",
            "target_arch": "arm64",
            "targets": [],
            "toolchain": "gcc-11",
            "uid": "24KQtdlkfukz73UPHpwa8d8H29k",
            "user": "anders.roxell@linaro.org",
            "user_agent": "tuxsuite/0.42.3",
            "waited_by": [],
            "warnings_count": 0
        },
        "24KQte4dJB0Ou2H6qRqGE4elhsh": {
            "build_name": "",
            "client_token": "dd572316-3eb8-4954-bebb-456d6c132403",
            "download_url": "https://builds.tuxbuild.com/24KQte4dJB0Ou2H6qRqGE4elhsh/",
            "environment": {},
            "errors_count": 0,
            "finished_time": null,
            "git_ref": "v5.15-rc7",
            "git_repo": "https://git.kernel.org/pub/scm/linux/kernel/git/torvalds/linux.git",
            "git_sha": "3906fe9bb7f1a2c8667ae54e967dc8690824f4ea",
            "image_sha": "",
            "kconfig": [
                "tinyconfig"
            ],
            "kernel_image": "",
            "kernel_patch_file": "",
            "make_variables": {
                "LLVM": "1",
                "LLVM_IAS": "1"
            },
            "no_cache": true,
            "plan": "24KQtU4pzgNjLMoDNXzPG9pTsQj",
            "project": "linaro/anders",
            "provisioning_time": "2022-01-28T13:36:53.741280",
            "result": "unknown",
            "running_time": null,
            "state": "provisioning",
            "target_arch": "arm64",
            "targets": [],
            "toolchain": "clang-13",
            "uid": "24KQte4dJB0Ou2H6qRqGE4elhsh",
            "user": "anders.roxell@linaro.org",
            "user_agent": "tuxsuite/0.42.3",
            "waited_by": [],
            "warnings_count": 0
        },
        "24KQteMHqQFpl0j0huna8G30uk4": {
            "build_name": "",
            "client_token": "ea2b8283-96a2-4b70-8cf4-592f2dfb65d4",
            "download_url": "https://builds.tuxbuild.com/24KQteMHqQFpl0j0huna8G30uk4/",
            "environment": {},
            "errors_count": 0,
            "finished_time": null,
            "git_ref": "v5.15-rc7",
            "git_repo": "https://git.kernel.org/pub/scm/linux/kernel/git/torvalds/linux.git",
            "git_sha": "3906fe9bb7f1a2c8667ae54e967dc8690824f4ea",
            "image_sha": "",
            "kconfig": [
                "defconfig"
            ],
            "kernel_image": "",
            "kernel_patch_file": "",
            "make_variables": {
                "LLVM": "1",
                "LLVM_IAS": "1"
            },
            "no_cache": true,
            "plan": "24KQtU4pzgNjLMoDNXzPG9pTsQj",
            "project": "linaro/anders",
            "provisioning_time": "2022-01-28T13:36:53.907669",
            "result": "unknown",
            "running_time": null,
            "state": "provisioning",
            "target_arch": "arm64",
            "targets": [],
            "toolchain": "clang-13",
            "uid": "24KQteMHqQFpl0j0huna8G30uk4",
            "user": "anders.roxell@linaro.org",
            "user_agent": "tuxsuite/0.42.3",
            "waited_by": [],
            "warnings_count": 0
        },
        "24KQteRCqp0YquFrRrb88OeVQlT": {
            "build_name": "",
            "client_token": "6bd1c2ca-8151-4bdb-89a2-bb81b196957a",
            "download_url": "https://builds.tuxbuild.com/24KQteRCqp0YquFrRrb88OeVQlT/",
            "environment": {},
            "errors_count": 0,
            "finished_time": null,
            "git_ref": "v5.15-rc7",
            "git_repo": "https://git.kernel.org/pub/scm/linux/kernel/git/torvalds/linux.git",
            "git_sha": "3906fe9bb7f1a2c8667ae54e967dc8690824f4ea",
            "image_sha": "",
            "kconfig": [
                "defconfig"
            ],
            "kernel_image": "",
            "kernel_patch_file": "",
            "make_variables": {},
            "no_cache": true,
            "plan": "24KQtU4pzgNjLMoDNXzPG9pTsQj",
            "project": "linaro/anders",
            "provisioning_time": "2022-01-28T13:36:53.782912",
            "result": "unknown",
            "running_time": null,
            "state": "provisioning",
            "target_arch": "arm64",
            "targets": [],
            "toolchain": "gcc-10",
            "uid": "24KQteRCqp0YquFrRrb88OeVQlT",
            "user": "anders.roxell@linaro.org",
            "user_agent": "tuxsuite/0.42.3",
            "waited_by": [],
            "warnings_count": 0
        },
        "24KQteUHSmjtgcGhH3IMUyBCnUk": {
            "build_name": "",
            "client_token": "06223965-85ff-4f8c-bd9c-7ca68f6a2d25",
            "download_url": "https://builds.tuxbuild.com/24KQteUHSmjtgcGhH3IMUyBCnUk/",
            "environment": {},
            "errors_count": 0,
            "finished_time": null,
            "git_ref": "v5.15-rc7",
            "git_repo": "https://git.kernel.org/pub/scm/linux/kernel/git/torvalds/linux.git",
            "git_sha": "3906fe9bb7f1a2c8667ae54e967dc8690824f4ea",
            "image_sha": "",
            "kconfig": [
                "tinyconfig"
            ],
            "kernel_image": "",
            "kernel_patch_file": "",
            "make_variables": {
                "LLVM": "1",
                "LLVM_IAS": "1"
            },
            "no_cache": true,
            "plan": "24KQtU4pzgNjLMoDNXzPG9pTsQj",
            "project": "linaro/anders",
            "provisioning_time": "2022-01-28T13:36:53.487887",
            "result": "unknown",
            "running_time": null,
            "state": "provisioning",
            "target_arch": "arm64",
            "targets": [],
            "toolchain": "clang-13",
            "uid": "24KQteUHSmjtgcGhH3IMUyBCnUk",
            "user": "anders.roxell@linaro.org",
            "user_agent": "tuxsuite/0.42.3",
            "waited_by": [],
            "warnings_count": 0
        },
        "24KQtejWAbMfzNeY4rUaU8lROsW": {
            "build_name": "",
            "client_token": "4850e3a0-8abb-4e01-8789-e37bf871be7b",
            "download_url": "https://builds.tuxbuild.com/24KQtejWAbMfzNeY4rUaU8lROsW/",
            "environment": {},
            "errors_count": 0,
            "finished_time": null,
            "git_ref": "v5.15-rc7",
            "git_repo": "https://git.kernel.org/pub/scm/linux/kernel/git/torvalds/linux.git",
            "git_sha": "3906fe9bb7f1a2c8667ae54e967dc8690824f4ea",
            "image_sha": "",
            "kconfig": [
                "defconfig"
            ],
            "kernel_image": "",
            "kernel_patch_file": "",
            "make_variables": {
                "LLVM": "1",
                "LLVM_IAS": "1"
            },
            "no_cache": true,
            "plan": "24KQtU4pzgNjLMoDNXzPG9pTsQj",
            "project": "linaro/anders",
            "provisioning_time": "2022-01-28T13:36:54.183663",
            "result": "unknown",
            "running_time": null,
            "state": "provisioning",
            "target_arch": "arm64",
            "targets": [],
            "toolchain": "clang-nightly",
            "uid": "24KQtejWAbMfzNeY4rUaU8lROsW",
            "user": "anders.roxell@linaro.org",
            "user_agent": "tuxsuite/0.42.3",
            "waited_by": [],
            "warnings_count": 0
        },
        "24KQtfIDNnJgVKf1m12u3zsojNb": {
            "build_name": "",
            "client_token": "3a03eeb2-bab9-4f61-a8c9-e3ca0c14cd13",
            "download_url": "https://builds.tuxbuild.com/24KQtfIDNnJgVKf1m12u3zsojNb/",
            "environment": {},
            "errors_count": 0,
            "finished_time": null,
            "git_ref": "v5.15-rc7",
            "git_repo": "https://git.kernel.org/pub/scm/linux/kernel/git/torvalds/linux.git",
            "git_sha": "3906fe9bb7f1a2c8667ae54e967dc8690824f4ea",
            "image_sha": "",
            "kconfig": [
                "defconfig"
            ],
            "kernel_image": "",
            "kernel_patch_file": "",
            "make_variables": {
                "LLVM": "1",
                "LLVM_IAS": "1"
            },
            "no_cache": true,
            "plan": "24KQtU4pzgNjLMoDNXzPG9pTsQj",
            "project": "linaro/anders",
            "provisioning_time": "2022-01-28T13:36:54.099911",
            "result": "unknown",
            "running_time": null,
            "state": "provisioning",
            "target_arch": "arm64",
            "targets": [],
            "toolchain": "clang-nightly",
            "uid": "24KQtfIDNnJgVKf1m12u3zsojNb",
            "user": "anders.roxell@linaro.org",
            "user_agent": "tuxsuite/0.42.3",
            "waited_by": [],
            "warnings_count": 0
        },
        "24KQtgS58jara5ieUgFVqZojckD": {
            "build_name": "",
            "client_token": "47e2e269-baec-4a3c-8991-48b34e6c0fda",
            "download_url": "https://builds.tuxbuild.com/24KQtgS58jara5ieUgFVqZojckD/",
            "environment": {},
            "errors_count": 0,
            "finished_time": null,
            "git_ref": "v5.15-rc7",
            "git_repo": "https://git.kernel.org/pub/scm/linux/kernel/git/torvalds/linux.git",
            "git_sha": "3906fe9bb7f1a2c8667ae54e967dc8690824f4ea",
            "image_sha": "",
            "kconfig": [
                "defconfig"
            ],
            "kernel_image": "",
            "kernel_patch_file": "",
            "make_variables": {},
            "no_cache": true,
            "plan": "24KQtU4pzgNjLMoDNXzPG9pTsQj",
            "project": "linaro/anders",
            "provisioning_time": "2022-01-28T13:36:54.036595",
            "result": "unknown",
            "running_time": null,
            "state": "provisioning",
            "target_arch": "arm64",
            "targets": [],
            "toolchain": "gcc-10",
            "uid": "24KQtgS58jara5ieUgFVqZojckD",
            "user": "anders.roxell@linaro.org",
            "user_agent": "tuxsuite/0.42.3",
            "waited_by": [],
            "warnings_count": 0
        },
        "24KQtjfoHDUS3AqrBRO7VQwiHRa": {
            "build_name": "",
            "client_token": "d455027a-9a4c-4f40-88ad-40141b5d8a3e",
            "download_url": "https://builds.tuxbuild.com/24KQtjfoHDUS3AqrBRO7VQwiHRa/",
            "environment": {},
            "errors_count": 0,
            "finished_time": null,
            "git_ref": "v5.15-rc7",
            "git_repo": "https://git.kernel.org/pub/scm/linux/kernel/git/torvalds/linux.git",
            "git_sha": "3906fe9bb7f1a2c8667ae54e967dc8690824f4ea",
            "image_sha": "",
            "kconfig": [
                "defconfig"
            ],
            "kernel_image": "",
            "kernel_patch_file": "",
            "make_variables": {},
            "no_cache": true,
            "plan": "24KQtU4pzgNjLMoDNXzPG9pTsQj",
            "project": "linaro/anders",
            "provisioning_time": "2022-01-28T13:36:54.140936",
            "result": "unknown",
            "running_time": null,
            "state": "provisioning",
            "target_arch": "arm64",
            "targets": [],
            "toolchain": "gcc-11",
            "uid": "24KQtjfoHDUS3AqrBRO7VQwiHRa",
            "user": "anders.roxell@linaro.org",
            "user_agent": "tuxsuite/0.42.3",
            "waited_by": [],
            "warnings_count": 0
        },
        "24KQtjsXknylLfM5JJYVHfS2SO0": {
            "build_name": "",
            "client_token": "aca2b5c0-cbd7-4403-afd1-338f75435219",
            "download_url": "https://builds.tuxbuild.com/24KQtjsXknylLfM5JJYVHfS2SO0/",
            "environment": {},
            "errors_count": 0,
            "finished_time": null,
            "git_ref": "v5.15-rc7",
            "git_repo": "https://git.kernel.org/pub/scm/linux/kernel/git/torvalds/linux.git",
            "git_sha": "3906fe9bb7f1a2c8667ae54e967dc8690824f4ea",
            "image_sha": "",
            "kconfig": [
                "defconfig"
            ],
            "kernel_image": "",
            "kernel_patch_file": "",
            "make_variables": {
                "LLVM": "1",
                "LLVM_IAS": "1"
            },
            "no_cache": true,
            "plan": "24KQtU4pzgNjLMoDNXzPG9pTsQj",
            "project": "linaro/anders",
            "provisioning_time": "2022-01-28T13:36:54.161631",
            "result": "unknown",
            "running_time": null,
            "state": "provisioning",
            "target_arch": "arm64",
            "targets": [],
            "toolchain": "clang-13",
            "uid": "24KQtjsXknylLfM5JJYVHfS2SO0",
            "user": "anders.roxell@linaro.org",
            "user_agent": "tuxsuite/0.42.3",
            "waited_by": [],
            "warnings_count": 0
        },
        "24KQtk2CB3h4xK6R3O9YaW5xjBI": {
            "build_name": "",
            "client_token": "290f6870-0418-4c68-9ede-697a4b7ba93d",
            "download_url": "https://builds.tuxbuild.com/24KQtk2CB3h4xK6R3O9YaW5xjBI/",
            "environment": {},
            "errors_count": 0,
            "finished_time": null,
            "git_ref": "v5.15-rc7",
            "git_repo": "https://git.kernel.org/pub/scm/linux/kernel/git/torvalds/linux.git",
            "git_sha": "3906fe9bb7f1a2c8667ae54e967dc8690824f4ea",
            "image_sha": "",
            "kconfig": [
                "defconfig"
            ],
            "kernel_image": "",
            "kernel_patch_file": "",
            "make_variables": {
                "LLVM": "1",
                "LLVM_IAS": "1"
            },
            "no_cache": true,
            "plan": "24KQtU4pzgNjLMoDNXzPG9pTsQj",
            "project": "linaro/anders",
            "provisioning_time": "2022-01-28T13:36:54.016025",
            "result": "unknown",
            "running_time": null,
            "state": "provisioning",
            "target_arch": "arm64",
            "targets": [],
            "toolchain": "clang-nightly",
            "uid": "24KQtk2CB3h4xK6R3O9YaW5xjBI",
            "user": "anders.roxell@linaro.org",
            "user_agent": "tuxsuite/0.42.3",
            "waited_by": [],
            "warnings_count": 0
        },
        "24KQtkBpTKpbxuXTwYILeWsB9nL": {
            "build_name": "",
            "client_token": "b0e5e31a-4b8f-41e2-86ec-2c2e30c1bdae",
            "download_url": "https://builds.tuxbuild.com/24KQtkBpTKpbxuXTwYILeWsB9nL/",
            "environment": {},
            "errors_count": 0,
            "finished_time": null,
            "git_ref": "v5.15-rc7",
            "git_repo": "https://git.kernel.org/pub/scm/linux/kernel/git/torvalds/linux.git",
            "git_sha": "3906fe9bb7f1a2c8667ae54e967dc8690824f4ea",
            "image_sha": "",
            "kconfig": [
                "defconfig"
            ],
            "kernel_image": "",
            "kernel_patch_file": "",
            "make_variables": {
                "LLVM": "1",
                "LLVM_IAS": "1"
            },
            "no_cache": true,
            "plan": "24KQtU4pzgNjLMoDNXzPG9pTsQj",
            "project": "linaro/anders",
            "provisioning_time": "2022-01-28T13:36:54.077899",
            "result": "unknown",
            "running_time": null,
            "state": "provisioning",
            "target_arch": "arm64",
            "targets": [],
            "toolchain": "clang-13",
            "uid": "24KQtkBpTKpbxuXTwYILeWsB9nL",
            "user": "anders.roxell@linaro.org",
            "user_agent": "tuxsuite/0.42.3",
            "waited_by": [],
            "warnings_count": 0
        },
        "24KQtkTYHt8VmOzdw2JfTV0ff3F": {
            "build_name": "",
            "client_token": "7dd8f920-8117-4f12-bca4-6e12b19de8a6",
            "download_url": "https://builds.tuxbuild.com/24KQtkTYHt8VmOzdw2JfTV0ff3F/",
            "environment": {},
            "errors_count": 0,
            "finished_time": null,
            "git_ref": "v5.15-rc7",
            "git_repo": "https://git.kernel.org/pub/scm/linux/kernel/git/torvalds/linux.git",
            "git_sha": "3906fe9bb7f1a2c8667ae54e967dc8690824f4ea",
            "image_sha": "",
            "kconfig": [
                "defconfig"
            ],
            "kernel_image": "",
            "kernel_patch_file": "",
            "make_variables": {},
            "no_cache": true,
            "plan": "24KQtU4pzgNjLMoDNXzPG9pTsQj",
            "project": "linaro/anders",
            "provisioning_time": "2022-01-28T13:36:54.057121",
            "result": "unknown",
            "running_time": null,
            "state": "provisioning",
            "target_arch": "arm64",
            "targets": [],
            "toolchain": "gcc-11",
            "uid": "24KQtkTYHt8VmOzdw2JfTV0ff3F",
            "user": "anders.roxell@linaro.org",
            "user_agent": "tuxsuite/0.42.3",
            "waited_by": [],
            "warnings_count": 0
        },
        "24KQtl7pWLjY6NngessIQQIt2Ub": {
            "build_name": "",
            "client_token": "4d1f5aef-c6b0-4ea3-b1b7-9cbd0b340604",
            "download_url": "https://builds.tuxbuild.com/24KQtl7pWLjY6NngessIQQIt2Ub/",
            "environment": {},
            "errors_count": 0,
            "finished_time": null,
            "git_ref": "v5.15-rc7",
            "git_repo": "https://git.kernel.org/pub/scm/linux/kernel/git/torvalds/linux.git",
            "git_sha": "3906fe9bb7f1a2c8667ae54e967dc8690824f4ea",
            "image_sha": "",
            "kconfig": [
                "defconfig"
            ],
            "kernel_image": "",
            "kernel_patch_file": "",
            "make_variables": {},
            "no_cache": true,
            "plan": "24KQtU4pzgNjLMoDNXzPG9pTsQj",
            "project": "linaro/anders",
            "provisioning_time": "2022-01-28T13:36:54.120524",
            "result": "unknown",
            "running_time": null,
            "state": "provisioning",
            "target_arch": "arm64",
            "targets": [],
            "toolchain": "gcc-10",
            "uid": "24KQtl7pWLjY6NngessIQQIt2Ub",
            "user": "anders.roxell@linaro.org",
            "user_agent": "tuxsuite/0.42.3",
            "waited_by": [],
            "warnings_count": 0
        }
    },
    "tests": {
        "24KQtmO95pyBfcowGxoBEjxNMOe": {
            "ap_romfw": null,
            "boot_args": null,
            "device": "qemu-arm64",
            "finished_time": null,
            "fip": null,
            "kernel": null,
            "mcp_fw": null,
            "mcp_romfw": null,
            "modules": null,
            "parameters": [],
            "plan": "24KQtU4pzgNjLMoDNXzPG9pTsQj",
            "project": "linaro/anders",
            "provisioning_time": null,
            "result": "unknown",
            "results": {},
            "retries": 0,
            "retries_messages": [],
            "rootfs": null,
            "running_time": null,
            "scp_fw": null,
            "scp_romfw": null,
            "state": "waiting",
            "tests": [
                "boot"
            ],
            "uid": "24KQtmO95pyBfcowGxoBEjxNMOe",
            "user": "anders.roxell@linaro.org",
            "user_agent": "tuxsuite/0.42.3",
            "waiting_for": "24KQtkTYHt8VmOzdw2JfTV0ff3F"
        },
        "24KQtmk6dOQYcaMTVPpTkj1hPOW": {
            "ap_romfw": null,
            "boot_args": null,
            "device": "qemu-arm64",
            "finished_time": null,
            "fip": null,
            "kernel": null,
            "mcp_fw": null,
            "mcp_romfw": null,
            "modules": null,
            "parameters": [],
            "plan": "24KQtU4pzgNjLMoDNXzPG9pTsQj",
            "project": "linaro/anders",
            "provisioning_time": null,
            "result": "unknown",
            "results": {},
            "retries": 0,
            "retries_messages": [],
            "rootfs": null,
            "running_time": null,
            "scp_fw": null,
            "scp_romfw": null,
            "state": "waiting",
            "tests": [
                "boot"
            ],
            "uid": "24KQtmk6dOQYcaMTVPpTkj1hPOW",
            "user": "anders.roxell@linaro.org",
            "user_agent": "tuxsuite/0.42.3",
            "waiting_for": "24KQtaqa2onO45ISyGvgwRLWXvh"
        },
        "24KQtnAqNGxF92ODykfFx8vkENG": {
            "ap_romfw": null,
            "boot_args": null,
            "device": "qemu-arm64",
            "finished_time": null,
            "fip": null,
            "kernel": null,
            "mcp_fw": null,
            "mcp_romfw": null,
            "modules": null,
            "parameters": [],
            "plan": "24KQtU4pzgNjLMoDNXzPG9pTsQj",
            "project": "linaro/anders",
            "provisioning_time": null,
            "result": "unknown",
            "results": {},
            "retries": 0,
            "retries_messages": [],
            "rootfs": null,
            "running_time": null,
            "scp_fw": null,
            "scp_romfw": null,
            "state": "waiting",
            "tests": [
                "boot"
            ],
            "uid": "24KQtnAqNGxF92ODykfFx8vkENG",
            "user": "anders.roxell@linaro.org",
            "user_agent": "tuxsuite/0.42.3",
            "waiting_for": "24KQtZ7mLakTqe8mNboUPC3hkHK"
        },
        "24KQtnK03ZVbIBGpSzUkejGpj7F": {
            "ap_romfw": null,
            "boot_args": null,
            "device": "qemu-arm64",
            "finished_time": null,
            "fip": null,
            "kernel": null,
            "mcp_fw": null,
            "mcp_romfw": null,
            "modules": null,
            "parameters": [],
            "plan": "24KQtU4pzgNjLMoDNXzPG9pTsQj",
            "project": "linaro/anders",
            "provisioning_time": null,
            "result": "unknown",
            "results": {},
            "retries": 0,
            "retries_messages": [],
            "rootfs": null,
            "running_time": null,
            "scp_fw": null,
            "scp_romfw": null,
            "state": "waiting",
            "tests": [
                "boot"
            ],
            "uid": "24KQtnK03ZVbIBGpSzUkejGpj7F",
            "user": "anders.roxell@linaro.org",
            "user_agent": "tuxsuite/0.42.3",
            "waiting_for": "24KQtaHMwcJmnrQqRLlSrZjnc0s"
        },
        "24KQto1hYp5Bu5yzOyKC9liguuT": {
            "ap_romfw": null,
            "boot_args": null,
            "device": "qemu-arm64",
            "finished_time": null,
            "fip": null,
            "kernel": null,
            "mcp_fw": null,
            "mcp_romfw": null,
            "modules": null,
            "parameters": [],
            "plan": "24KQtU4pzgNjLMoDNXzPG9pTsQj",
            "project": "linaro/anders",
            "provisioning_time": null,
            "result": "unknown",
            "results": {},
            "retries": 0,
            "retries_messages": [],
            "rootfs": null,
            "running_time": null,
            "scp_fw": null,
            "scp_romfw": null,
            "state": "waiting",
            "tests": [
                "boot"
            ],
            "uid": "24KQto1hYp5Bu5yzOyKC9liguuT",
            "user": "anders.roxell@linaro.org",
            "user_agent": "tuxsuite/0.42.3",
            "waiting_for": "24KQtYIp9DfsrUxNwruzaY04pJY"
        },
        "24KQtoIUQmlcdHKQtOn0Tqu0osk": {
            "ap_romfw": null,
            "boot_args": null,
            "device": "qemu-arm64",
            "finished_time": null,
            "fip": null,
            "kernel": null,
            "mcp_fw": null,
            "mcp_romfw": null,
            "modules": null,
            "parameters": [],
            "plan": "24KQtU4pzgNjLMoDNXzPG9pTsQj",
            "project": "linaro/anders",
            "provisioning_time": null,
            "result": "unknown",
            "results": {},
            "retries": 0,
            "retries_messages": [],
            "rootfs": null,
            "running_time": null,
            "scp_fw": null,
            "scp_romfw": null,
            "state": "waiting",
            "tests": [
                "boot"
            ],
            "uid": "24KQtoIUQmlcdHKQtOn0Tqu0osk",
            "user": "anders.roxell@linaro.org",
            "user_agent": "tuxsuite/0.42.3",
            "waiting_for": "24KQtfIDNnJgVKf1m12u3zsojNb"
        },
        "24KQtoSnNQGbhqpHPfSLTUtSo80": {
            "ap_romfw": null,
            "boot_args": null,
            "device": "qemu-arm64",
            "finished_time": null,
            "fip": null,
            "kernel": null,
            "mcp_fw": null,
            "mcp_romfw": null,
            "modules": null,
            "parameters": [],
            "plan": "24KQtU4pzgNjLMoDNXzPG9pTsQj",
            "project": "linaro/anders",
            "provisioning_time": null,
            "result": "unknown",
            "results": {},
            "retries": 0,
            "retries_messages": [],
            "rootfs": null,
            "running_time": null,
            "scp_fw": null,
            "scp_romfw": null,
            "state": "waiting",
            "tests": [
                "boot"
            ],
            "uid": "24KQtoSnNQGbhqpHPfSLTUtSo80",
            "user": "anders.roxell@linaro.org",
            "user_agent": "tuxsuite/0.42.3",
            "waiting_for": "24KQteRCqp0YquFrRrb88OeVQlT"
        },
        "24KQtpNLMzf2ObkdbZ976C0itLW": {
            "ap_romfw": null,
            "boot_args": null,
            "device": "qemu-arm64",
            "finished_time": null,
            "fip": null,
            "kernel": null,
            "mcp_fw": null,
            "mcp_romfw": null,
            "modules": null,
            "parameters": [],
            "plan": "24KQtU4pzgNjLMoDNXzPG9pTsQj",
            "project": "linaro/anders",
            "provisioning_time": null,
            "result": "unknown",
            "results": {},
            "retries": 0,
            "retries_messages": [],
            "rootfs": null,
            "running_time": null,
            "scp_fw": null,
            "scp_romfw": null,
            "state": "waiting",
            "tests": [
                "boot"
            ],
            "uid": "24KQtpNLMzf2ObkdbZ976C0itLW",
            "user": "anders.roxell@linaro.org",
            "user_agent": "tuxsuite/0.42.3",
            "waiting_for": "24KQteMHqQFpl0j0huna8G30uk4"
        },
        "24KQtpWuEhDBIUm6FNuNoSLpYeo": {
            "ap_romfw": null,
            "boot_args": null,
            "device": "qemu-arm64",
            "finished_time": null,
            "fip": null,
            "kernel": null,
            "mcp_fw": null,
            "mcp_romfw": null,
            "modules": null,
            "parameters": [],
            "plan": "24KQtU4pzgNjLMoDNXzPG9pTsQj",
            "project": "linaro/anders",
            "provisioning_time": null,
            "result": "unknown",
            "results": {},
            "retries": 0,
            "retries_messages": [],
            "rootfs": null,
            "running_time": null,
            "scp_fw": null,
            "scp_romfw": null,
            "state": "waiting",
            "tests": [
                "boot"
            ],
            "uid": "24KQtpWuEhDBIUm6FNuNoSLpYeo",
            "user": "anders.roxell@linaro.org",
            "user_agent": "tuxsuite/0.42.3",
            "waiting_for": "24KQtdTamlL0KzJveTaBGzfxGu2"
        },
        "24KQtpj5znvMtgimGWNu24T467v": {
            "ap_romfw": null,
            "boot_args": null,
            "device": "qemu-arm64",
            "finished_time": null,
            "fip": null,
            "kernel": null,
            "mcp_fw": null,
            "mcp_romfw": null,
            "modules": null,
            "parameters": [],
            "plan": "24KQtU4pzgNjLMoDNXzPG9pTsQj",
            "project": "linaro/anders",
            "provisioning_time": null,
            "result": "unknown",
            "results": {},
            "retries": 0,
            "retries_messages": [],
            "rootfs": null,
            "running_time": null,
            "scp_fw": null,
            "scp_romfw": null,
            "state": "waiting",
            "tests": [
                "boot"
            ],
            "uid": "24KQtpj5znvMtgimGWNu24T467v",
            "user": "anders.roxell@linaro.org",
            "user_agent": "tuxsuite/0.42.3",
            "waiting_for": "24KQtYJ53o4lOZ9KOElehiKiORZ"
        },
        "24KQtpop35XixYBlHZsZh4nq5Zt": {
            "ap_romfw": null,
            "boot_args": null,
            "device": "qemu-arm64",
            "finished_time": null,
            "fip": null,
            "kernel": null,
            "mcp_fw": null,
            "mcp_romfw": null,
            "modules": null,
            "parameters": [],
            "plan": "24KQtU4pzgNjLMoDNXzPG9pTsQj",
            "project": "linaro/anders",
            "provisioning_time": null,
            "result": "unknown",
            "results": {},
            "retries": 0,
            "retries_messages": [],
            "rootfs": null,
            "running_time": null,
            "scp_fw": null,
            "scp_romfw": null,
            "state": "waiting",
            "tests": [
                "boot"
            ],
            "uid": "24KQtpop35XixYBlHZsZh4nq5Zt",
            "user": "anders.roxell@linaro.org",
            "user_agent": "tuxsuite/0.42.3",
            "waiting_for": "24KQtXWyqdbF8WHYPA5RH2rdu50"
        },
        "24KQtpsyr6kmMcqVX5QiJaEOpSk": {
            "ap_romfw": null,
            "boot_args": null,
            "device": "qemu-arm64",
            "finished_time": null,
            "fip": null,
            "kernel": null,
            "mcp_fw": null,
            "mcp_romfw": null,
            "modules": null,
            "parameters": [],
            "plan": "24KQtU4pzgNjLMoDNXzPG9pTsQj",
            "project": "linaro/anders",
            "provisioning_time": null,
            "result": "unknown",
            "results": {},
            "retries": 0,
            "retries_messages": [],
            "rootfs": null,
            "running_time": null,
            "scp_fw": null,
            "scp_romfw": null,
            "state": "waiting",
            "tests": [
                "boot"
            ],
            "uid": "24KQtpsyr6kmMcqVX5QiJaEOpSk",
            "user": "anders.roxell@linaro.org",
            "user_agent": "tuxsuite/0.42.3",
            "waiting_for": "24KQtk2CB3h4xK6R3O9YaW5xjBI"
        },
        "24KQtpubPjLzVNNfsfxmi7wrERv": {
            "ap_romfw": null,
            "boot_args": null,
            "device": "qemu-arm64",
            "finished_time": null,
            "fip": null,
            "kernel": null,
            "mcp_fw": null,
            "mcp_romfw": null,
            "modules": null,
            "parameters": [],
            "plan": "24KQtU4pzgNjLMoDNXzPG9pTsQj",
            "project": "linaro/anders",
            "provisioning_time": null,
            "result": "unknown",
            "results": {},
            "retries": 0,
            "retries_messages": [],
            "rootfs": null,
            "running_time": null,
            "scp_fw": null,
            "scp_romfw": null,
            "state": "waiting",
            "tests": [
                "boot"
            ],
            "uid": "24KQtpubPjLzVNNfsfxmi7wrERv",
            "user": "anders.roxell@linaro.org",
            "user_agent": "tuxsuite/0.42.3",
            "waiting_for": "24KQtejWAbMfzNeY4rUaU8lROsW"
        },
        "24KQtq4Ozv8FVqRK6ld7ig0kT2g": {
            "ap_romfw": null,
            "boot_args": null,
            "device": "qemu-arm64",
            "finished_time": null,
            "fip": null,
            "kernel": null,
            "mcp_fw": null,
            "mcp_romfw": null,
            "modules": null,
            "parameters": [],
            "plan": "24KQtU4pzgNjLMoDNXzPG9pTsQj",
            "project": "linaro/anders",
            "provisioning_time": null,
            "result": "unknown",
            "results": {},
            "retries": 0,
            "retries_messages": [],
            "rootfs": null,
            "running_time": null,
            "scp_fw": null,
            "scp_romfw": null,
            "state": "waiting",
            "tests": [
                "boot"
            ],
            "uid": "24KQtq4Ozv8FVqRK6ld7ig0kT2g",
            "user": "anders.roxell@linaro.org",
            "user_agent": "tuxsuite/0.42.3",
            "waiting_for": "24KQtl7pWLjY6NngessIQQIt2Ub"
        },
        "24KQtqAqne1kIp2uHLZAIGDNEeo": {
            "ap_romfw": null,
            "boot_args": null,
            "device": "qemu-arm64",
            "finished_time": null,
            "fip": null,
            "kernel": null,
            "mcp_fw": null,
            "mcp_romfw": null,
            "modules": null,
            "parameters": [],
            "plan": "24KQtU4pzgNjLMoDNXzPG9pTsQj",
            "project": "linaro/anders",
            "provisioning_time": null,
            "result": "unknown",
            "results": {},
            "retries": 0,
            "retries_messages": [],
            "rootfs": null,
            "running_time": null,
            "scp_fw": null,
            "scp_romfw": null,
            "state": "waiting",
            "tests": [
                "boot"
            ],
            "uid": "24KQtqAqne1kIp2uHLZAIGDNEeo",
            "user": "anders.roxell@linaro.org",
            "user_agent": "tuxsuite/0.42.3",
            "waiting_for": "24KQtYcIXXsmLVwyHyTBFMh2Sun"
        },
        "24KQtrKwbQdSiVphZkKQpR9Hm2p": {
            "ap_romfw": null,
            "boot_args": null,
            "device": "qemu-arm64",
            "finished_time": null,
            "fip": null,
            "kernel": null,
            "mcp_fw": null,
            "mcp_romfw": null,
            "modules": null,
            "parameters": [],
            "plan": "24KQtU4pzgNjLMoDNXzPG9pTsQj",
            "project": "linaro/anders",
            "provisioning_time": null,
            "result": "unknown",
            "results": {},
            "retries": 0,
            "retries_messages": [],
            "rootfs": null,
            "running_time": null,
            "scp_fw": null,
            "scp_romfw": null,
            "state": "waiting",
            "tests": [
                "boot"
            ],
            "uid": "24KQtrKwbQdSiVphZkKQpR9Hm2p",
            "user": "anders.roxell@linaro.org",
            "user_agent": "tuxsuite/0.42.3",
            "waiting_for": "24KQtgS58jara5ieUgFVqZojckD"
        },
        "24KQtrYuPNA5EIcYlbQCBGYxQzS": {
            "ap_romfw": null,
            "boot_args": null,
            "device": "qemu-arm64",
            "finished_time": null,
            "fip": null,
            "kernel": null,
            "mcp_fw": null,
            "mcp_romfw": null,
            "modules": null,
            "parameters": [],
            "plan": "24KQtU4pzgNjLMoDNXzPG9pTsQj",
            "project": "linaro/anders",
            "provisioning_time": null,
            "result": "unknown",
            "results": {},
            "retries": 0,
            "retries_messages": [],
            "rootfs": null,
            "running_time": null,
            "scp_fw": null,
            "scp_romfw": null,
            "state": "waiting",
            "tests": [
                "boot"
            ],
            "uid": "24KQtrYuPNA5EIcYlbQCBGYxQzS",
            "user": "anders.roxell@linaro.org",
            "user_agent": "tuxsuite/0.42.3",
            "waiting_for": "24KQtkBpTKpbxuXTwYILeWsB9nL"
        },
        "24KQtsQwkS2QS3StrdADFMZPLqr": {
            "ap_romfw": null,
            "boot_args": null,
            "device": "qemu-arm64",
            "finished_time": null,
            "fip": null,
            "kernel": null,
            "mcp_fw": null,
            "mcp_romfw": null,
            "modules": null,
            "parameters": [],
            "plan": "24KQtU4pzgNjLMoDNXzPG9pTsQj",
            "project": "linaro/anders",
            "provisioning_time": null,
            "result": "unknown",
            "results": {},
            "retries": 0,
            "retries_messages": [],
            "rootfs": null,
            "running_time": null,
            "scp_fw": null,
            "scp_romfw": null,
            "state": "waiting",
            "tests": [
                "boot"
            ],
            "uid": "24KQtsQwkS2QS3StrdADFMZPLqr",
            "user": "anders.roxell@linaro.org",
            "user_agent": "tuxsuite/0.42.3",
            "waiting_for": "24KQtZYxBo1SyINVehsJhrELzjz"
        },
        "24KQtsys2FHZo8Ha3AQ7dlvniHq": {
            "ap_romfw": null,
            "boot_args": null,
            "device": "qemu-arm64",
            "finished_time": null,
            "fip": null,
            "kernel": null,
            "mcp_fw": null,
            "mcp_romfw": null,
            "modules": null,
            "parameters": [],
            "plan": "24KQtU4pzgNjLMoDNXzPG9pTsQj",
            "project": "linaro/anders",
            "provisioning_time": null,
            "result": "unknown",
            "results": {},
            "retries": 0,
            "retries_messages": [],
            "rootfs": null,
            "running_time": null,
            "scp_fw": null,
            "scp_romfw": null,
            "state": "waiting",
            "tests": [
                "boot"
            ],
            "uid": "24KQtsys2FHZo8Ha3AQ7dlvniHq",
            "user": "anders.roxell@linaro.org",
            "user_agent": "tuxsuite/0.42.3",
            "waiting_for": "24KQtjsXknylLfM5JJYVHfS2SO0"
        },
        "24KQttYBVnSllqPMR432Ay6mZsJ": {
            "ap_romfw": null,
            "boot_args": null,
            "device": "qemu-arm64",
            "finished_time": null,
            "fip": null,
            "kernel": null,
            "mcp_fw": null,
            "mcp_romfw": null,
            "modules": null,
            "parameters": [],
            "plan": "24KQtU4pzgNjLMoDNXzPG9pTsQj",
            "project": "linaro/anders",
            "provisioning_time": null,
            "result": "unknown",
            "results": {},
            "retries": 0,
            "retries_messages": [],
            "rootfs": null,
            "running_time": null,
            "scp_fw": null,
            "scp_romfw": null,
            "state": "waiting",
            "tests": [
                "boot"
            ],
            "uid": "24KQttYBVnSllqPMR432Ay6mZsJ",
            "user": "anders.roxell@linaro.org",
            "user_agent": "tuxsuite/0.42.3",
            "waiting_for": "24KQtjfoHDUS3AqrBRO7VQwiHRa"
        }
    }
}