{
    "builds": {
        "24KQwRPYzByOnOeeiiznG0CQxI4": {
            "build_name": "",
            "client_token": "37add61e-07e1-42dd-a4d7-3e6a8e46849a",
            "download_url": "https://builds.tuxbuild.com/24KQwRPYzByOnOeeiiznG0CQxI4/",
            "environment": {},
            "errors_count": 0,
            "finished_time": null,
            "git_ref": "v5.16-rc5",
            "git_repo": "https://git.kernel.org/pub/scm/linux/kernel/git/torvalds/linux.git",
            "git_sha": "2585cf9dfaaddf00b069673f27bb3f8530e2039c",
            "image_sha": "",
            "kconfig": [
                "tinyconfig"
            ],
            "kernel_image": "",
            "kernel_patch_file": "",
            "make_variables": {
                "LLVM": "1",
                "LLVM_IAS": "1"
            },
            "no_cache": true,
            "plan": "24KQwKDDOlicjwuXHAW8Xtxn8nk",
            "project": "linaro/anders",
            "provisioning_time": "2022-01-28T13:37:16.955442",
            "result": "unknown",
            "running_time": null,
            "state": "provisioning",
            "target_arch": "arm64",
            "targets": [],
            "toolchain": "clang-nightly",
            "uid": "24KQwRPYzByOnOeeiiznG0CQxI4",
            "user": "anders.roxell@linaro.org",
            "user_agent": "tuxsuite/0.42.3",
            "waited_by": [],
            "warnings_count": 0
        },
        "24KQwUYkELuOeAJE92WZG9cARoi": {
            "build_name": "",
            "client_token": "3ddabd33-04f2-46de-a07e-ddc64b01ad5f",
            "download_url": "https://builds.tuxbuild.com/24KQwUYkELuOeAJE92WZG9cARoi/",
            "environment": {},
            "errors_count": 0,
            "finished_time": null,
            "git_ref": "v5.16-rc5",
            "git_repo": "https://git.kernel.org/pub/scm/linux/kernel/git/torvalds/linux.git",
            "git_sha": "2585cf9dfaaddf00b069673f27bb3f8530e2039c",
            "image_sha": "",
            "kconfig": [
                "tinyconfig"
            ],
            "kernel_image": "",
            "kernel_patch_file": "",
            "make_variables": {},
            "no_cache": true,
            "plan": "24KQwKDDOlicjwuXHAW8Xtxn8nk",
            "project": "linaro/anders",
            "provisioning_time": "2022-01-28T13:37:16.891075",
            "result": "unknown",
            "running_time": null,
            "state": "provisioning",
            "target_arch": "arm64",
            "targets": [],
            "toolchain": "gcc-10",
            "uid": "24KQwUYkELuOeAJE92WZG9cARoi",
            "user": "anders.roxell@linaro.org",
            "user_agent": "tuxsuite/0.42.3",
            "waited_by": [],
            "warnings_count": 0
        },
        "24KQwVKoA0wkZhFfjOi1ks0fMyL": {
            "build_name": "",
            "client_token": "6775ce9f-be36-4ee7-81ca-7e531166dff7",
            "download_url": "https://builds.tuxbuild.com/24KQwVKoA0wkZhFfjOi1ks0fMyL/",
            "environment": {},
            "errors_count": 0,
            "finished_time": null,
            "git_ref": "v5.16-rc5",
            "git_repo": "https://git.kernel.org/pub/scm/linux/kernel/git/torvalds/linux.git",
            "git_sha": "2585cf9dfaaddf00b069673f27bb3f8530e2039c",
            "image_sha": "",
            "kconfig": [
                "tinyconfig"
            ],
            "kernel_image": "",
            "kernel_patch_file": "",
            "make_variables": {},
            "no_cache": true,
            "plan": "24KQwKDDOlicjwuXHAW8Xtxn8nk",
            "project": "linaro/anders",
            "provisioning_time": "2022-01-28T13:37:16.913572",
            "result": "unknown",
            "running_time": null,
            "state": "provisioning",
            "target_arch": "arm64",
            "targets": [],
            "toolchain": "gcc-11",
            "uid": "24KQwVKoA0wkZhFfjOi1ks0fMyL",
            "user": "anders.roxell@linaro.org",
            "user_agent": "tuxsuite/0.42.3",
            "waited_by": [],
            "warnings_count": 0
        },
        "24KQwVrJ8t2burHCTg24QVXMxnD": {
            "build_name": "",
            "client_token": "fc084606-31a3-4412-aa20-a833a91969f8",
            "download_url": "https://builds.tuxbuild.com/24KQwVrJ8t2burHCTg24QVXMxnD/",
            "environment": {},
            "errors_count": 0,
            "finished_time": null,
            "git_ref": "v5.16-rc5",
            "git_repo": "https://git.kernel.org/pub/scm/linux/kernel/git/torvalds/linux.git",
            "git_sha": "2585cf9dfaaddf00b069673f27bb3f8530e2039c",
            "image_sha": "",
            "kconfig": [
                "tinyconfig"
            ],
            "kernel_image": "",
            "kernel_patch_file": "",
            "make_variables": {
                "LLVM": "1",
                "LLVM_IAS": "1"
            },
            "no_cache": true,
            "plan": "24KQwKDDOlicjwuXHAW8Xtxn8nk",
            "project": "linaro/anders",
            "provisioning_time": "2022-01-28T13:37:16.934316",
            "result": "unknown",
            "running_time": null,
            "state": "provisioning",
            "target_arch": "arm64",
            "targets": [],
            "toolchain": "clang-13",
            "uid": "24KQwVrJ8t2burHCTg24QVXMxnD",
            "user": "anders.roxell@linaro.org",
            "user_agent": "tuxsuite/0.42.3",
            "waited_by": [],
            "warnings_count": 0
        },
        "24KQwWG6UVHbASAKp6FUoYeysew": {
            "build_name": "",
            "client_token": "7d27100e-252b-4ba8-852a-42be59264b07",
            "download_url": "https://builds.tuxbuild.com/24KQwWG6UVHbASAKp6FUoYeysew/",
            "environment": {},
            "errors_count": 0,
            "finished_time": null,
            "git_ref": "v5.16-rc5",
            "git_repo": "https://git.kernel.org/pub/scm/linux/kernel/git/torvalds/linux.git",
            "git_sha": "2585cf9dfaaddf00b069673f27bb3f8530e2039c",
            "image_sha": "",
            "kconfig": [
                "tinyconfig"
            ],
            "kernel_image": "",
            "kernel_patch_file": "",
            "make_variables": {},
            "no_cache": true,
            "plan": "24KQwKDDOlicjwuXHAW8Xtxn8nk",
            "project": "linaro/anders",
            "provisioning_time": "2022-01-28T13:37:16.976208",
            "result": "unknown",
            "running_time": null,
            "state": "provisioning",
            "target_arch": "arm64",
            "targets": [],
            "toolchain": "gcc-10",
            "uid": "24KQwWG6UVHbASAKp6FUoYeysew",
            "user": "anders.roxell@linaro.org",
            "user_agent": "tuxsuite/0.42.3",
            "waited_by": [],
            "warnings_count": 0
        },
        "24KQwWd3KuWEYaJgkhsrBTAXlDb": {
            "build_name": "",
            "client_token": "01d8fc6f-e68d-4fc0-9ba5-a3551d33fbe8",
            "download_url": "https://builds.tuxbuild.com/24KQwWd3KuWEYaJgkhsrBTAXlDb/",
            "environment": {},
            "errors_count": 0,
            "finished_time": null,
            "git_ref": "v5.16-rc5",
            "git_repo": "https://git.kernel.org/pub/scm/linux/kernel/git/torvalds/linux.git",
            "git_sha": "2585cf9dfaaddf00b069673f27bb3f8530e2039c",
            "image_sha": "",
            "kconfig": [
                "tinyconfig"
            ],
            "kernel_image": "",
            "kernel_patch_file": "",
            "make_variables": {},
            "no_cache": true,
            "plan": "24KQwKDDOlicjwuXHAW8Xtxn8nk",
            "project": "linaro/anders",
            "provisioning_time": "2022-01-28T13:37:16.998564",
            "result": "unknown",
            "running_time": null,
            "state": "provisioning",
            "target_arch": "arm64",
            "targets": [],
            "toolchain": "gcc-11",
            "uid": "24KQwWd3KuWEYaJgkhsrBTAXlDb",
            "user": "anders.roxell@linaro.org",
            "user_agent": "tuxsuite/0.42.3",
            "waited_by": [],
            "warnings_count": 0
        },
        "24KQwXphNi3u55ClrzHOvnTwgBB": {
            "build_name": "",
            "client_token": "e29bb40e-52cd-40dc-8f31-ce24140d097c",
            "download_url": "https://builds.tuxbuild.com/24KQwXphNi3u55ClrzHOvnTwgBB/",
            "environment": {},
            "errors_count": 0,
            "finished_time": null,
            "git_ref": "v5.16-rc5",
            "git_repo": "https://git.kernel.org/pub/scm/linux/kernel/git/torvalds/linux.git",
            "git_sha": "2585cf9dfaaddf00b069673f27bb3f8530e2039c",
            "image_sha": "",
            "kconfig": [
                "defconfig"
            ],
            "kernel_image": "",
            "kernel_patch_file": "",
            "make_variables": {},
            "no_cache": true,
            "plan": "24KQwKDDOlicjwuXHAW8Xtxn8nk",
            "project": "linaro/anders",
            "provisioning_time": "2022-01-28T13:37:17.361290",
            "result": "unknown",
            "running_time": null,
            "state": "provisioning",
            "target_arch": "arm64",
            "targets": [],
            "toolchain": "gcc-10",
            "uid": "24KQwXphNi3u55ClrzHOvnTwgBB",
            "user": "anders.roxell@linaro.org",
            "user_agent": "tuxsuite/0.42.3",
            "waited_by": [],
            "warnings_count": 0
        },
        "24KQwY7CvRzOwmFFDPq6d10tSkn": {
            "build_name": "",
            "client_token": "d8d0d423-11da-4338-85bb-3597d73b5a93",
            "download_url": "https://builds.tuxbuild.com/24KQwY7CvRzOwmFFDPq6d10tSkn/",
            "environment": {},
            "errors_count": 0,
            "finished_time": null,
            "git_ref": "v5.16-rc5",
            "git_repo": "https://git.kernel.org/pub/scm/linux/kernel/git/torvalds/linux.git",
            "git_sha": "2585cf9dfaaddf00b069673f27bb3f8530e2039c",
            "image_sha": "",
            "kconfig": [
                "defconfig"
            ],
            "kernel_image": "",
            "kernel_patch_file": "",
            "make_variables": {
                "LLVM": "1",
                "LLVM_IAS": "1"
            },
            "no_cache": true,
            "plan": "24KQwKDDOlicjwuXHAW8Xtxn8nk",
            "project": "linaro/anders",
            "provisioning_time": "2022-01-28T13:37:17.491724",
            "result": "unknown",
            "running_time": null,
            "state": "provisioning",
            "target_arch": "arm64",
            "targets": [],
            "toolchain": "clang-13",
            "uid": "24KQwY7CvRzOwmFFDPq6d10tSkn",
            "user": "anders.roxell@linaro.org",
            "user_agent": "tuxsuite/0.42.3",
            "waited_by": [],
            "warnings_count": 0
        },
        "24KQwYB53qPl9lrJCpixFGKr2ms": {
            "build_name": "",
            "client_token": "15e1d93f-44e0-4f79-a421-7f4ee49fa5dd",
            "download_url": "https://builds.tuxbuild.com/24KQwYB53qPl9lrJCpixFGKr2ms/",
            "environment": {},
            "errors_count": 0,
            "finished_time": null,
            "git_ref": "v5.16-rc5",
            "git_repo": "https://git.kernel.org/pub/scm/linux/kernel/git/torvalds/linux.git",
            "git_sha": "2585cf9dfaaddf00b069673f27bb3f8530e2039c",
            "image_sha": "",
            "kconfig": [
                "defconfig"
            ],
            "kernel_image": "",
            "kernel_patch_file": "",
            "make_variables": {
                "LLVM": "1",
                "LLVM_IAS": "1"
            },
            "no_cache": true,
            "plan": "24KQwKDDOlicjwuXHAW8Xtxn8nk",
            "project": "linaro/anders",
            "provisioning_time": "2022-01-28T13:37:17.773694",
            "result": "unknown",
            "running_time": null,
            "state": "provisioning",
            "target_arch": "arm64",
            "targets": [],
            "toolchain": "clang-nightly",
            "uid": "24KQwYB53qPl9lrJCpixFGKr2ms",
            "user": "anders.roxell@linaro.org",
            "user_agent": "tuxsuite/0.42.3",
            "waited_by": [],
            "warnings_count": 0
        },
        "24KQwYBjpvkIklBUkywVXKyMxEp": {
            "build_name": "",
            "client_token": "e86e90b1-2bc4-4bbc-96d8-6254fb391f2a",
            "download_url": "https://builds.tuxbuild.com/24KQwYBjpvkIklBUkywVXKyMxEp/",
            "environment": {},
            "errors_count": 0,
            "finished_time": null,
            "git_ref": "v5.16-rc5",
            "git_repo": "https://git.kernel.org/pub/scm/linux/kernel/git/torvalds/linux.git",
            "git_sha": "2585cf9dfaaddf00b069673f27bb3f8530e2039c",
            "image_sha": "",
            "kconfig": [
                "defconfig"
            ],
            "kernel_image": "",
            "kernel_patch_file": "",
            "make_variables": {},
            "no_cache": true,
            "plan": "24KQwKDDOlicjwuXHAW8Xtxn8nk",
            "project": "linaro/anders",
            "provisioning_time": "2022-01-28T13:37:17.731247",
            "result": "unknown",
            "running_time": null,
            "state": "provisioning",
            "target_arch": "arm64",
            "targets": [],
            "toolchain": "gcc-11",
            "uid": "24KQwYBjpvkIklBUkywVXKyMxEp",
            "user": "anders.roxell@linaro.org",
            "user_agent": "tuxsuite/0.42.3",
            "waited_by": [],
            "warnings_count": 0
        },
        "24KQwYrgNRHKHpYSidoqnJs5ZkC": {
            "build_name": "",
            "client_token": "967f1826-cb7f-4005-a76f-686c4656d4b4",
            "download_url": "https://builds.tuxbuild.com/24KQwYrgNRHKHpYSidoqnJs5ZkC/",
            "environment": {},
            "errors_count": 0,
            "finished_time": null,
            "git_ref": "v5.16-rc5",
            "git_repo": "https://git.kernel.org/pub/scm/linux/kernel/git/torvalds/linux.git",
            "git_sha": "2585cf9dfaaddf00b069673f27bb3f8530e2039c",
            "image_sha": "",
            "kconfig": [
                "defconfig"
            ],
            "kernel_image": "",
            "kernel_patch_file": "",
            "make_variables": {},
            "no_cache": true,
            "plan": "24KQwKDDOlicjwuXHAW8Xtxn8nk",
            "project": "linaro/anders",
            "provisioning_time": "2022-01-28T13:37:17.560178",
            "result": "unknown",
            "running_time": null,
            "state": "provisioning",
            "target_arch": "arm64",
            "targets": [],
            "toolchain": "gcc-11",
            "uid": "24KQwYrgNRHKHpYSidoqnJs5ZkC",
            "user": "anders.roxell@linaro.org",
            "user_agent": "tuxsuite/0.42.3",
            "waited_by": [],
            "warnings_count": 0
        },
        "24KQwZ0lIBVs1rNUoP0hCQdqL78": {
            "build_name": "",
            "client_token": "23de31e2-e126-401e-869d-279516e2288c",
            "download_url": "https://builds.tuxbuild.com/24KQwZ0lIBVs1rNUoP0hCQdqL78/",
            "environment": {},
            "errors_count": 0,
            "finished_time": null,
            "git_ref": "v5.16-rc5",
            "git_repo": "https://git.kernel.org/pub/scm/linux/kernel/git/torvalds/linux.git",
            "git_sha": "2585cf9dfaaddf00b069673f27bb3f8530e2039c",
            "image_sha": "",
            "kconfig": [
                "tinyconfig"
            ],
            "kernel_image": "",
            "kernel_patch_file": "",
            "make_variables": {},
            "no_cache": true,
            "plan": "24KQwKDDOlicjwuXHAW8Xtxn8nk",
            "project": "linaro/anders",
            "provisioning_time": "2022-01-28T13:37:17.187059",
            "result": "unknown",
            "running_time": null,
            "state": "provisioning",
            "target_arch": "arm64",
            "targets": [],
            "toolchain": "gcc-10",
            "uid": "24KQwZ0lIBVs1rNUoP0hCQdqL78",
            "user": "anders.roxell@linaro.org",
            "user_agent": "tuxsuite/0.42.3",
            "waited_by": [],
            "warnings_count": 0
        },
        "24KQwZ3neSYDu4IvXio8ETqYGfX": {
            "build_name": "",
            "client_token": "551191c6-3c19-4122-abf4-da59838a567f",
            "download_url": "https://builds.tuxbuild.com/24KQwZ3neSYDu4IvXio8ETqYGfX/",
            "environment": {},
            "errors_count": 0,
            "finished_time": null,
            "git_ref": "v5.16-rc5",
            "git_repo": "https://git.kernel.org/pub/scm/linux/kernel/git/torvalds/linux.git",
            "git_sha": "2585cf9dfaaddf00b069673f27bb3f8530e2039c",
            "image_sha": "",
            "kconfig": [
                "defconfig"
            ],
            "kernel_image": "",
            "kernel_patch_file": "",
            "make_variables": {},
            "no_cache": true,
            "plan": "24KQwKDDOlicjwuXHAW8Xtxn8nk",
            "project": "linaro/anders",
            "provisioning_time": "2022-01-28T13:37:17.449383",
            "result": "unknown",
            "running_time": null,
            "state": "provisioning",
            "target_arch": "arm64",
            "targets": [],
            "toolchain": "gcc-10",
            "uid": "24KQwZ3neSYDu4IvXio8ETqYGfX",
            "user": "anders.roxell@linaro.org",
            "user_agent": "tuxsuite/0.42.3",
            "waited_by": [],
            "warnings_count": 0
        },
        "24KQwZIBE31ctieG7t3D3ryoyDg": {
            "build_name": "",
            "client_token": "4ef59915-d060-457a-aa3b-88656b566b92",
            "download_url": "https://builds.tuxbuild.com/24KQwZIBE31ctieG7t3D3ryoyDg/",
            "environment": {},
            "errors_count": 0,
            "finished_time": null,
            "git_ref": "v5.16-rc5",
            "git_repo": "https://git.kernel.org/pub/scm/linux/kernel/git/torvalds/linux.git",
            "git_sha": "2585cf9dfaaddf00b069673f27bb3f8530e2039c",
            "image_sha": "",
            "kconfig": [
                "defconfig"
            ],
            "kernel_image": "",
            "kernel_patch_file": "",
            "make_variables": {
                "LLVM": "1",
                "LLVM_IAS": "1"
            },
            "no_cache": true,
            "plan": "24KQwKDDOlicjwuXHAW8Xtxn8nk",
            "project": "linaro/anders",
            "provisioning_time": "2022-01-28T13:37:17.689961",
            "result": "unknown",
            "running_time": null,
            "state": "provisioning",
            "target_arch": "arm64",
            "targets": [],
            "toolchain": "clang-nightly",
            "uid": "24KQwZIBE31ctieG7t3D3ryoyDg",
            "user": "anders.roxell@linaro.org",
            "user_agent": "tuxsuite/0.42.3",
            "waited_by": [],
            "warnings_count": 0
        },
        "24KQwZJ8JRETd3YUazo4htxVist": {
            "build_name": "",
            "client_token": "4ff85288-76c3-4550-8de3-30a7de81cbaa",
            "download_url": "https://builds.tuxbuild.com/24KQwZJ8JRETd3YUazo4htxVist/",
            "environment": {},
            "errors_count": 0,
            "finished_time": null,
            "git_ref": "v5.16-rc5",
            "git_repo": "https://git.kernel.org/pub/scm/linux/kernel/git/torvalds/linux.git",
            "git_sha": "2585cf9dfaaddf00b069673f27bb3f8530e2039c",
            "image_sha": "",
            "kconfig": [
                "tinyconfig"
            ],
            "kernel_image": "",
            "kernel_patch_file": "",
            "make_variables": {
                "LLVM": "1",
                "LLVM_IAS": "1"
            },
            "no_cache": true,
            "plan": "24KQwKDDOlicjwuXHAW8Xtxn8nk",
            "project": "linaro/anders",
            "provisioning_time": "2022-01-28T13:37:17.019848",
            "result": "unknown",
            "running_time": null,
            "state": "provisioning",
            "target_arch": "arm64",
            "targets": [],
            "toolchain": "clang-13",
            "uid": "24KQwZJ8JRETd3YUazo4htxVist",
            "user": "anders.roxell@linaro.org",
            "user_agent": "tuxsuite/0.42.3",
            "waited_by": [],
            "warnings_count": 0
        },
        "24KQwZR7SkYox6xr0SvzzxXiMIY": {
            "build_name": "",
            "client_token": "0d932346-3bf2-4944-a06c-b985686294cb",
            "download_url": "https://builds.tuxbuild.com/24KQwZR7SkYox6xr0SvzzxXiMIY/",
            "environment": {},
            "errors_count": 0,
            "finished_time": null,
            "git_ref": "v5.16-rc5",
            "git_repo": "https://git.kernel.org/pub/scm/linux/kernel/git/torvalds/linux.git",
            "git_sha": "2585cf9dfaaddf00b069673f27bb3f8530e2039c",
            "image_sha": "",
            "kconfig": [
                "defconfig"
            ],
            "kernel_image": "",
            "kernel_patch_file": "",
            "make_variables": {},
            "no_cache": true,
            "plan": "24KQwKDDOlicjwuXHAW8Xtxn8nk",
            "project": "linaro/anders",
            "provisioning_time": "2022-01-28T13:37:17.470439",
            "result": "unknown",
            "running_time": null,
            "state": "provisioning",
            "target_arch": "arm64",
            "targets": [],
            "toolchain": "gcc-11",
            "uid": "24KQwZR7SkYox6xr0SvzzxXiMIY",
            "user": "anders.roxell@linaro.org",
            "user_agent": "tuxsuite/0.42.3",
            "waited_by": [],
            "warnings_count": 0
        },
        "24KQwZSAT5izaxnSZF4N4d8GxnI": {
            "build_name": "",
            "client_token": "f506de0f-22e7-4c5c-9e2f-2153a5f2dfa7",
            "download_url": "https://builds.tuxbuild.com/24KQwZSAT5izaxnSZF4N4d8GxnI/",
            "environment": {},
            "errors_count": 0,
            "finished_time": null,
            "git_ref": "v5.16-rc5",
            "git_repo": "https://git.kernel.org/pub/scm/linux/kernel/git/torvalds/linux.git",
            "git_sha": "2585cf9dfaaddf00b069673f27bb3f8530e2039c",
            "image_sha": "",
            "kconfig": [
                "defconfig"
            ],
            "kernel_image": "",
            "kernel_patch_file": "",
            "make_variables": {
                "LLVM": "1",
                "LLVM_IAS": "1"
            },
            "no_cache": true,
            "plan": "24KQwKDDOlicjwuXHAW8Xtxn8nk",
            "project": "linaro/anders",
            "provisioning_time": "2022-01-28T13:37:17.580888",
            "result": "unknown",
            "running_time": null,
            "state": "provisioning",
            "target_arch": "arm64",
            "targets": [],
            "toolchain": "clang-13",
            "uid": "24KQwZSAT5izaxnSZF4N4d8GxnI",
            "user": "anders.roxell@linaro.org",
            "user_agent": "tuxsuite/0.42.3",
            "waited_by": [],
            "warnings_count": 0
        },
        "24KQwZSuhYsyKfKy5BVBOIHSIoz": {
            "build_name": "",
            "client_token": "ab80ab9b-e6fd-40b1-9f6c-abb26a9360cf",
            "download_url": "https://builds.tuxbuild.com/24KQwZSuhYsyKfKy5BVBOIHSIoz/",
            "environment": {},
            "errors_count": 0,
            "finished_time": null,
            "git_ref": "v5.16-rc5",
            "git_repo": "https://git.kernel.org/pub/scm/linux/kernel/git/torvalds/linux.git",
            "git_sha": "2585cf9dfaaddf00b069673f27bb3f8530e2039c",
            "image_sha": "",
            "kconfig": [
                "defconfig"
            ],
            "kernel_image": "",
            "kernel_patch_file": "",
            "make_variables": {},
            "no_cache": true,
            "plan": "24KQwKDDOlicjwuXHAW8Xtxn8nk",
            "project": "linaro/anders",
            "provisioning_time": "2022-01-28T13:37:17.535192",
            "result": "unknown",
            "running_time": null,
            "state": "provisioning",
            "target_arch": "arm64",
            "targets": [],
            "toolchain": "gcc-10",
            "uid": "24KQwZSuhYsyKfKy5BVBOIHSIoz",
            "user": "anders.roxell@linaro.org",
            "user_agent": "tuxsuite/0.42.3",
            "waited_by": [],
            "warnings_count": 0
        },
        "24KQwZVwyZz27jeZGgKIoHhFbox": {
            "build_name": "",
            "client_token": "df253f7f-8eeb-4417-b122-d2b86b4883be",
            "download_url": "https://builds.tuxbuild.com/24KQwZVwyZz27jeZGgKIoHhFbox/",
            "environment": {},
            "errors_count": 0,
            "finished_time": null,
            "git_ref": "v5.16-rc5",
            "git_repo": "https://git.kernel.org/pub/scm/linux/kernel/git/torvalds/linux.git",
            "git_sha": "2585cf9dfaaddf00b069673f27bb3f8530e2039c",
            "image_sha": "",
            "kconfig": [
                "defconfig"
            ],
            "kernel_image": "",
            "kernel_patch_file": "",
            "make_variables": {},
            "no_cache": true,
            "plan": "24KQwKDDOlicjwuXHAW8Xtxn8nk",
            "project": "linaro/anders",
            "provisioning_time": "2022-01-28T13:37:17.646120",
            "result": "unknown",
            "running_time": null,
            "state": "provisioning",
            "target_arch": "arm64",
            "targets": [],
            "toolchain": "gcc-11",
            "uid": "24KQwZVwyZz27jeZGgKIoHhFbox",
            "user": "anders.roxell@linaro.org",
            "user_agent": "tuxsuite/0.42.3",
            "waited_by": [],
            "warnings_count": 0
        },
        "24KQwZjv0OLe7Fhnha4Wk3hjZDx": {
            "build_name": "",
            "client_token": "25b2d495-4fec-4957-a2fa-fa0a1da880b3",
            "download_url": "https://builds.tuxbuild.com/24KQwZjv0OLe7Fhnha4Wk3hjZDx/",
            "environment": {},
            "errors_count": 0,
            "finished_time": null,
            "git_ref": "v5.16-rc5",
            "git_repo": "https://git.kernel.org/pub/scm/linux/kernel/git/torvalds/linux.git",
            "git_sha": "2585cf9dfaaddf00b069673f27bb3f8530e2039c",
            "image_sha": "",
            "kconfig": [
                "tinyconfig"
            ],
            "kernel_image": "",
            "kernel_patch_file": "",
            "make_variables": {
                "LLVM": "1",
                "LLVM_IAS": "1"
            },
            "no_cache": true,
            "plan": "24KQwKDDOlicjwuXHAW8Xtxn8nk",
            "project": "linaro/anders",
            "provisioning_time": "2022-01-28T13:37:17.166271",
            "result": "unknown",
            "running_time": null,
            "state": "provisioning",
            "target_arch": "arm64",
            "targets": [],
            "toolchain": "clang-nightly",
            "uid": "24KQwZjv0OLe7Fhnha4Wk3hjZDx",
            "user": "anders.roxell@linaro.org",
            "user_agent": "tuxsuite/0.42.3",
            "waited_by": [],
            "warnings_count": 0
        },
        "24KQwaASTSlG9jG0FTBnfnd1lxd": {
            "build_name": "",
            "client_token": "3992b041-8f55-4ec5-b796-cedf9f5fb158",
            "download_url": "https://builds.tuxbuild.com/24KQwaASTSlG9jG0FTBnfnd1lxd/",
            "environment": {},
            "errors_count": 0,
            "finished_time": null,
            "git_ref": "v5.16-rc5",
            "git_repo": "https://git.kernel.org/pub/scm/linux/kernel/git/torvalds/linux.git",
            "git_sha": "2585cf9dfaaddf00b069673f27bb3f8530e2039c",
            "image_sha": "",
            "kconfig": [
                "defconfig"
            ],
            "kernel_image": "",
            "kernel_patch_file": "",
            "make_variables": {
                "LLVM": "1",
                "LLVM_IAS": "1"
            },
            "no_cache": true,
            "plan": "24KQwKDDOlicjwuXHAW8Xtxn8nk",
            "project": "linaro/anders",
            "provisioning_time": "2022-01-28T13:37:17.428191",
            "result": "unknown",
            "running_time": null,
            "state": "provisioning",
            "target_arch": "arm64",
            "targets": [],
            "toolchain": "clang-nightly",
            "uid": "24KQwaASTSlG9jG0FTBnfnd1lxd",
            "user": "anders.roxell@linaro.org",
            "user_agent": "tuxsuite/0.42.3",
            "waited_by": [],
            "warnings_count": 0
        },
        "24KQwaNhFBZ2bcUiZiARRA7QkzO": {
            "build_name": "",
            "client_token": "fa0bfb79-fb94-448b-b840-7b1c5d635b6d",
            "download_url": "https://builds.tuxbuild.com/24KQwaNhFBZ2bcUiZiARRA7QkzO/",
            "environment": {},
            "errors_count": 0,
            "finished_time": null,
            "git_ref": "v5.16-rc5",
            "git_repo": "https://git.kernel.org/pub/scm/linux/kernel/git/torvalds/linux.git",
            "git_sha": "2585cf9dfaaddf00b069673f27bb3f8530e2039c",
            "image_sha": "",
            "kconfig": [
                "defconfig"
            ],
            "kernel_image": "",
            "kernel_patch_file": "",
            "make_variables": {
                "LLVM": "1",
                "LLVM_IAS": "1"
            },
            "no_cache": true,
            "plan": "24KQwKDDOlicjwuXHAW8Xtxn8nk",
            "project": "linaro/anders",
            "provisioning_time": "2022-01-28T13:37:17.752393",
            "result": "unknown",
            "running_time": null,
            "state": "provisioning",
            "target_arch": "arm64",
            "targets": [],
            "toolchain": "clang-13",
            "uid": "24KQwaNhFBZ2bcUiZiARRA7QkzO",
            "user": "anders.roxell@linaro.org",
            "user_agent": "tuxsuite/0.42.3",
            "waited_by": [],
            "warnings_count": 0
        },
        "24KQwaRHlWfNWMD7d5xlVOcXvnF": {
            "build_name": "",
            "client_token": "29eb9124-12fe-4add-b7af-1298cb8a4713",
            "download_url": "https://builds.tuxbuild.com/24KQwaRHlWfNWMD7d5xlVOcXvnF/",
            "environment": {},
            "errors_count": 0,
            "finished_time": null,
            "git_ref": "v5.16-rc5",
            "git_repo": "https://git.kernel.org/pub/scm/linux/kernel/git/torvalds/linux.git",
            "git_sha": "2585cf9dfaaddf00b069673f27bb3f8530e2039c",
            "image_sha": "",
            "kconfig": [
                "tinyconfig"
            ],
            "kernel_image": "",
            "kernel_patch_file": "",
            "make_variables": {},
            "no_cache": true,
            "plan": "24KQwKDDOlicjwuXHAW8Xtxn8nk",
            "project": "linaro/anders",
            "provisioning_time": "2022-01-28T13:37:17.083478",
            "result": "unknown",
            "running_time": null,
            "state": "provisioning",
            "target_arch": "arm64",
            "targets": [],
            "toolchain": "gcc-11",
            "uid": "24KQwaRHlWfNWMD7d5xlVOcXvnF",
            "user": "anders.roxell@linaro.org",
            "user_agent": "tuxsuite/0.42.3",
            "waited_by": [],
            "warnings_count": 0
        },
        "24KQwafkDWgQ7nNyiQisK7w0C90": {
            "build_name": "",
            "client_token": "ea611dc1-7eba-449d-9fd7-244a078609aa",
            "download_url": "https://builds.tuxbuild.com/24KQwafkDWgQ7nNyiQisK7w0C90/",
            "environment": {},
            "errors_count": 0,
            "finished_time": null,
            "git_ref": "v5.16-rc5",
            "git_repo": "https://git.kernel.org/pub/scm/linux/kernel/git/torvalds/linux.git",
            "git_sha": "2585cf9dfaaddf00b069673f27bb3f8530e2039c",
            "image_sha": "",
            "kconfig": [
                "tinyconfig"
            ],
            "kernel_image": "",
            "kernel_patch_file": "",
            "make_variables": {
                "LLVM": "1",
                "LLVM_IAS": "1"
            },
            "no_cache": true,
            "plan": "24KQwKDDOlicjwuXHAW8Xtxn8nk",
            "project": "linaro/anders",
            "provisioning_time": "2022-01-28T13:37:17.339946",
            "result": "unknown",
            "running_time": null,
            "state": "provisioning",
            "target_arch": "arm64",
            "targets": [],
            "toolchain": "clang-nightly",
            "uid": "24KQwafkDWgQ7nNyiQisK7w0C90",
            "user": "anders.roxell@linaro.org",
            "user_agent": "tuxsuite/0.42.3",
            "waited_by": [],
            "warnings_count": 0
        },
        "24KQwb3jFXRxsYRLXtmMX0gyIGb": {
            "build_name": "",
            "client_token": "b72c2484-b364-4f8a-9a4b-9c9d42aa8a53",
            "download_url": "https://builds.tuxbuild.com/24KQwb3jFXRxsYRLXtmMX0gyIGb/",
            "environment": {},
            "errors_count": 0,
            "finished_time": null,
            "git_ref": "v5.16-rc5",
            "git_repo": "https://git.kernel.org/pub/scm/linux/kernel/git/torvalds/linux.git",
            "git_sha": "2585cf9dfaaddf00b069673f27bb3f8530e2039c",
            "image_sha": "",
            "kconfig": [
                "defconfig"
            ],
            "kernel_image": "",
            "kernel_patch_file": "",
            "make_variables": {
                "LLVM": "1",
                "LLVM_IAS": "1"
            },
            "no_cache": true,
            "plan": "24KQwKDDOlicjwuXHAW8Xtxn8nk",
            "project": "linaro/anders",
            "provisioning_time": "2022-01-28T13:37:17.604118",
            "result": "unknown",
            "running_time": null,
            "state": "provisioning",
            "target_arch": "arm64",
            "targets": [],
            "toolchain": "clang-nightly",
            "uid": "24KQwb3jFXRxsYRLXtmMX0gyIGb",
            "user": "anders.roxell@linaro.org",
            "user_agent": "tuxsuite/0.42.3",
            "waited_by": [],
            "warnings_count": 0
        },
        "24KQwbP8hFVWdQogAS5ySVUfewO": {
            "build_name": "",
            "client_token": "4ebe08b9-5380-41f1-b43b-16eb2b6774df",
            "download_url": "https://builds.tuxbuild.com/24KQwbP8hFVWdQogAS5ySVUfewO/",
            "environment": {},
            "errors_count": 0,
            "finished_time": null,
            "git_ref": "v5.16-rc5",
            "git_repo": "https://git.kernel.org/pub/scm/linux/kernel/git/torvalds/linux.git",
            "git_sha": "2585cf9dfaaddf00b069673f27bb3f8530e2039c",
            "image_sha": "",
            "kconfig": [
                "tinyconfig"
            ],
            "kernel_image": "",
            "kernel_patch_file": "",
            "make_variables": {},
            "no_cache": true,
            "plan": "24KQwKDDOlicjwuXHAW8Xtxn8nk",
            "project": "linaro/anders",
            "provisioning_time": "2022-01-28T13:37:17.062765",
            "result": "unknown",
            "running_time": null,
            "state": "provisioning",
            "target_arch": "arm64",
            "targets": [],
            "toolchain": "gcc-10",
            "uid": "24KQwbP8hFVWdQogAS5ySVUfewO",
            "user": "anders.roxell@linaro.org",
            "user_agent": "tuxsuite/0.42.3",
            "waited_by": [],
            "warnings_count": 0
        },
        "24KQwbcQwVvxqo5fXSgXIBPfBTY": {
            "build_name": "",
            "client_token": "548af240-316c-4d3e-bb22-4b6012a6c347",
            "download_url": "https://builds.tuxbuild.com/24KQwbcQwVvxqo5fXSgXIBPfBTY/",
            "environment": {},
            "errors_count": 0,
            "finished_time": null,
            "git_ref": "v5.16-rc5",
            "git_repo": "https://git.kernel.org/pub/scm/linux/kernel/git/torvalds/linux.git",
            "git_sha": "2585cf9dfaaddf00b069673f27bb3f8530e2039c",
            "image_sha": "",
            "kconfig": [
                "tinyconfig"
            ],
            "kernel_image": "",
            "kernel_patch_file": "",
            "make_variables": {},
            "no_cache": true,
            "plan": "24KQwKDDOlicjwuXHAW8Xtxn8nk",
            "project": "linaro/anders",
            "provisioning_time": "2022-01-28T13:37:17.207705",
            "result": "unknown",
            "running_time": null,
            "state": "provisioning",
            "target_arch": "arm64",
            "targets": [],
            "toolchain": "gcc-11",
            "uid": "24KQwbcQwVvxqo5fXSgXIBPfBTY",
            "user": "anders.roxell@linaro.org",
            "user_agent": "tuxsuite/0.42.3",
            "waited_by": [],
            "warnings_count": 0
        },
        "24KQwbiR7dQeieUiRZEDRISiGH6": {
            "build_name": "",
            "client_token": "84a25cfe-923a-472c-997e-24ff4ffdb166",
            "download_url": "https://builds.tuxbuild.com/24KQwbiR7dQeieUiRZEDRISiGH6/",
            "environment": {},
            "errors_count": 0,
            "finished_time": null,
            "git_ref": "v5.16-rc5",
            "git_repo": "https://git.kernel.org/pub/scm/linux/kernel/git/torvalds/linux.git",
            "git_sha": "2585cf9dfaaddf00b069673f27bb3f8530e2039c",
            "image_sha": "",
            "kconfig": [
                "defconfig"
            ],
            "kernel_image": "",
            "kernel_patch_file": "",
            "make_variables": {
                "LLVM": "1",
                "LLVM_IAS": "1"
            },
            "no_cache": true,
            "plan": "24KQwKDDOlicjwuXHAW8Xtxn8nk",
            "project": "linaro/anders",
            "provisioning_time": "2022-01-28T13:37:17.514143",
            "result": "unknown",
            "running_time": null,
            "state": "provisioning",
            "target_arch": "arm64",
            "targets": [],
            "toolchain": "clang-nightly",
            "uid": "24KQwbiR7dQeieUiRZEDRISiGH6",
            "user": "anders.roxell@linaro.org",
            "user_agent": "tuxsuite/0.42.3",
            "waited_by": [],
            "warnings_count": 0
        },
        "24KQwcOQD0JCzswaK8GVHDLqAO7": {
            "build_name": "",
            "client_token": "18875c54-f0f6-49d9-902c-ed7b5ebf042b",
            "download_url": "https://builds.tuxbuild.com/24KQwcOQD0JCzswaK8GVHDLqAO7/",
            "environment": {},
            "errors_count": 0,
            "finished_time": null,
            "git_ref": "v5.16-rc5",
            "git_repo": "https://git.kernel.org/pub/scm/linux/kernel/git/torvalds/linux.git",
            "git_sha": "2585cf9dfaaddf00b069673f27bb3f8530e2039c",
            "image_sha": "",
            "kconfig": [
                "tinyconfig"
            ],
            "kernel_image": "",
            "kernel_patch_file": "",
            "make_variables": {
                "LLVM": "1",
                "LLVM_IAS": "1"
            },
            "no_cache": true,
            "plan": "24KQwKDDOlicjwuXHAW8Xtxn8nk",
            "project": "linaro/anders",
            "provisioning_time": "2022-01-28T13:37:17.318823",
            "result": "unknown",
            "running_time": null,
            "state": "provisioning",
            "target_arch": "arm64",
            "targets": [],
            "toolchain": "clang-13",
            "uid": "24KQwcOQD0JCzswaK8GVHDLqAO7",
            "user": "anders.roxell@linaro.org",
            "user_agent": "tuxsuite/0.42.3",
            "waited_by": [],
            "warnings_count": 0
        },
        "24KQwca4UUG9AQqeLxV0wh16EZ1": {
            "build_name": "",
            "client_token": "2743801d-a41d-4c4d-9bf2-91972b5d6fff",
            "download_url": "https://builds.tuxbuild.com/24KQwca4UUG9AQqeLxV0wh16EZ1/",
            "environment": {},
            "errors_count": 0,
            "finished_time": null,
            "git_ref": "v5.16-rc5",
            "git_repo": "https://git.kernel.org/pub/scm/linux/kernel/git/torvalds/linux.git",
            "git_sha": "2585cf9dfaaddf00b069673f27bb3f8530e2039c",
            "image_sha": "",
            "kconfig": [
                "defconfig"
            ],
            "kernel_image": "",
            "kernel_patch_file": "",
            "make_variables": {},
            "no_cache": true,
            "plan": "24KQwKDDOlicjwuXHAW8Xtxn8nk",
            "project": "linaro/anders",
            "provisioning_time": "2022-01-28T13:37:17.625248",
            "result": "unknown",
            "running_time": null,
            "state": "provisioning",
            "target_arch": "arm64",
            "targets": [],
            "toolchain": "gcc-10",
            "uid": "24KQwca4UUG9AQqeLxV0wh16EZ1",
            "user": "anders.roxell@linaro.org",
            "user_agent": "tuxsuite/0.42.3",
            "waited_by": [],
            "warnings_count": 0
        },
        "24KQwcae2G1xohnyFm98VuKDDIL": {
            "build_name": "",
            "client_token": "b0e3238d-9be8-471c-af04-8c17c464389a",
            "download_url": "https://builds.tuxbuild.com/24KQwcae2G1xohnyFm98VuKDDIL/",
            "environment": {},
            "errors_count": 0,
            "finished_time": null,
            "git_ref": "v5.16-rc5",
            "git_repo": "https://git.kernel.org/pub/scm/linux/kernel/git/torvalds/linux.git",
            "git_sha": "2585cf9dfaaddf00b069673f27bb3f8530e2039c",
            "image_sha": "",
            "kconfig": [
                "defconfig"
            ],
            "kernel_image": "",
            "kernel_patch_file": "",
            "make_variables": {},
            "no_cache": true,
            "plan": "24KQwKDDOlicjwuXHAW8Xtxn8nk",
            "project": "linaro/anders",
            "provisioning_time": "2022-01-28T13:37:17.382043",
            "result": "unknown",
            "running_time": null,
            "state": "provisioning",
            "target_arch": "arm64",
            "targets": [],
            "toolchain": "gcc-11",
            "uid": "24KQwcae2G1xohnyFm98VuKDDIL",
            "user": "anders.roxell@linaro.org",
            "user_agent": "tuxsuite/0.42.3",
            "waited_by": [],
            "warnings_count": 0
        },
        "24KQwcnDowg4o1J2F9kjwebJ3zs": {
            "build_name": "",
            "client_token": "014dd01f-4498-4ff8-a823-d7db4dd13455",
            "download_url": "https://builds.tuxbuild.com/24KQwcnDowg4o1J2F9kjwebJ3zs/",
            "environment": {},
            "errors_count": 0,
            "finished_time": null,
            "git_ref": "v5.16-rc5",
            "git_repo": "https://git.kernel.org/pub/scm/linux/kernel/git/torvalds/linux.git",
            "git_sha": "2585cf9dfaaddf00b069673f27bb3f8530e2039c",
            "image_sha": "",
            "kconfig": [
                "tinyconfig"
            ],
            "kernel_image": "",
            "kernel_patch_file": "",
            "make_variables": {},
            "no_cache": true,
            "plan": "24KQwKDDOlicjwuXHAW8Xtxn8nk",
            "project": "linaro/anders",
            "provisioning_time": "2022-01-28T13:37:17.295223",
            "result": "unknown",
            "running_time": null,
            "state": "provisioning",
            "target_arch": "arm64",
            "targets": [],
            "toolchain": "gcc-11",
            "uid": "24KQwcnDowg4o1J2F9kjwebJ3zs",
            "user": "anders.roxell@linaro.org",
            "user_agent": "tuxsuite/0.42.3",
            "waited_by": [],
            "warnings_count": 0
        },
        "24KQwdMSbknCrydX9JUeEz0d6AG": {
            "build_name": "",
            "client_token": "b2d78556-2063-4a84-933c-43b9ca2dfdc2",
            "download_url": "https://builds.tuxbuild.com/24KQwdMSbknCrydX9JUeEz0d6AG/",
            "environment": {},
            "errors_count": 0,
            "finished_time": null,
            "git_ref": "v5.16-rc5",
            "git_repo": "https://git.kernel.org/pub/scm/linux/kernel/git/torvalds/linux.git",
            "git_sha": "2585cf9dfaaddf00b069673f27bb3f8530e2039c",
            "image_sha": "",
            "kconfig": [
                "tinyconfig"
            ],
            "kernel_image": "",
            "kernel_patch_file": "",
            "make_variables": {
                "LLVM": "1",
                "LLVM_IAS": "1"
            },
            "no_cache": true,
            "plan": "24KQwKDDOlicjwuXHAW8Xtxn8nk",
            "project": "linaro/anders",
            "provisioning_time": "2022-01-28T13:37:17.232186",
            "result": "unknown",
            "running_time": null,
            "state": "provisioning",
            "target_arch": "arm64",
            "targets": [],
            "toolchain": "clang-13",
            "uid": "24KQwdMSbknCrydX9JUeEz0d6AG",
            "user": "anders.roxell@linaro.org",
            "user_agent": "tuxsuite/0.42.3",
            "waited_by": [],
            "warnings_count": 0
        },
        "24KQwdhk4IlFSnhaMTTI70af8vE": {
            "build_name": "",
            "client_token": "6aae24a3-e7ee-4107-b7bb-169f811597e4",
            "download_url": "https://builds.tuxbuild.com/24KQwdhk4IlFSnhaMTTI70af8vE/",
            "environment": {},
            "errors_count": 0,
            "finished_time": null,
            "git_ref": "v5.16-rc5",
            "git_repo": "https://git.kernel.org/pub/scm/linux/kernel/git/torvalds/linux.git",
            "git_sha": "2585cf9dfaaddf00b069673f27bb3f8530e2039c",
            "image_sha": "",
            "kconfig": [
                "tinyconfig"
            ],
            "kernel_image": "",
            "kernel_patch_file": "",
            "make_variables": {
                "LLVM": "1",
                "LLVM_IAS": "1"
            },
            "no_cache": true,
            "plan": "24KQwKDDOlicjwuXHAW8Xtxn8nk",
            "project": "linaro/anders",
            "provisioning_time": "2022-01-28T13:37:17.040827",
            "result": "unknown",
            "running_time": null,
            "state": "provisioning",
            "target_arch": "arm64",
            "targets": [],
            "toolchain": "clang-nightly",
            "uid": "24KQwdhk4IlFSnhaMTTI70af8vE",
            "user": "anders.roxell@linaro.org",
            "user_agent": "tuxsuite/0.42.3",
            "waited_by": [],
            "warnings_count": 0
        },
        "24KQwdyMPB7dhIU2gMPkIN5j1Nn": {
            "build_name": "",
            "client_token": "233c3cdf-4e2a-4418-b152-90bea2519c69",
            "download_url": "https://builds.tuxbuild.com/24KQwdyMPB7dhIU2gMPkIN5j1Nn/",
            "environment": {},
            "errors_count": 0,
            "finished_time": null,
            "git_ref": "v5.16-rc5",
            "git_repo": "https://git.kernel.org/pub/scm/linux/kernel/git/torvalds/linux.git",
            "git_sha": "2585cf9dfaaddf00b069673f27bb3f8530e2039c",
            "image_sha": "",
            "kconfig": [
                "tinyconfig"
            ],
            "kernel_image": "",
            "kernel_patch_file": "",
            "make_variables": {
                "LLVM": "1",
                "LLVM_IAS": "1"
            },
            "no_cache": true,
            "plan": "24KQwKDDOlicjwuXHAW8Xtxn8nk",
            "project": "linaro/anders",
            "provisioning_time": "2022-01-28T13:37:17.145381",
            "result": "unknown",
            "running_time": null,
            "state": "provisioning",
            "target_arch": "arm64",
            "targets": [],
            "toolchain": "clang-13",
            "uid": "24KQwdyMPB7dhIU2gMPkIN5j1Nn",
            "user": "anders.roxell@linaro.org",
            "user_agent": "tuxsuite/0.42.3",
            "waited_by": [],
            "warnings_count": 0
        },
        "24KQwedRdUc0Ng7eUScjxuFaCut": {
            "build_name": "",
            "client_token": "fa211c77-7ad2-4db8-93f4-af0050f2a10f",
            "download_url": "https://builds.tuxbuild.com/24KQwedRdUc0Ng7eUScjxuFaCut/",
            "environment": {},
            "errors_count": 0,
            "finished_time": null,
            "git_ref": "v5.16-rc5",
            "git_repo": "https://git.kernel.org/pub/scm/linux/kernel/git/torvalds/linux.git",
            "git_sha": "2585cf9dfaaddf00b069673f27bb3f8530e2039c",
            "image_sha": "",
            "kconfig": [
                "tinyconfig"
            ],
            "kernel_image": "",
            "kernel_patch_file": "",
            "make_variables": {
                "LLVM": "1",
                "LLVM_IAS": "1"
            },
            "no_cache": true,
            "plan": "24KQwKDDOlicjwuXHAW8Xtxn8nk",
            "project": "linaro/anders",
            "provisioning_time": "2022-01-28T13:37:17.253370",
            "result": "unknown",
            "running_time": null,
            "state": "provisioning",
            "target_arch": "arm64",
            "targets": [],
            "toolchain": "clang-nightly",
            "uid": "24KQwedRdUc0Ng7eUScjxuFaCut",
            "user": "anders.roxell@linaro.org",
            "user_agent": "tuxsuite/0.42.3",
            "waited_by": [],
            "warnings_count": 0
        },
        "24KQweuiadHvZm2eoXUoOVcS8Jf": {
            "build_name": "",
            "client_token": "14ab782b-11ed-4127-8fd4-d1f829bb6e36",
            "download_url": "https://builds.tuxbuild.com/24KQweuiadHvZm2eoXUoOVcS8Jf/",
            "environment": {},
            "errors_count": 0,
            "finished_time": null,
            "git_ref": "v5.16-rc5",
            "git_repo": "https://git.kernel.org/pub/scm/linux/kernel/git/torvalds/linux.git",
            "git_sha": "2585cf9dfaaddf00b069673f27bb3f8530e2039c",
            "image_sha": "",
            "kconfig": [
                "defconfig"
            ],
            "kernel_image": "",
            "kernel_patch_file": "",
            "make_variables": {
                "LLVM": "1",
                "LLVM_IAS": "1"
            },
            "no_cache": true,
            "plan": "24KQwKDDOlicjwuXHAW8Xtxn8nk",
            "project": "linaro/anders",
            "provisioning_time": "2022-01-28T13:37:17.404205",
            "result": "unknown",
            "running_time": null,
            "state": "provisioning",
            "target_arch": "arm64",
            "targets": [],
            "toolchain": "clang-13",
            "uid": "24KQweuiadHvZm2eoXUoOVcS8Jf",
            "user": "anders.roxell@linaro.org",
            "user_agent": "tuxsuite/0.42.3",
            "waited_by": [],
            "warnings_count": 0
        },
        "24KQwf7EY07UJ6i1aHvLpDHe8I1": {
            "build_name": "",
            "client_token": "bcfb9a40-8e38-4f4c-bce7-70579b8fb280",
            "download_url": "https://builds.tuxbuild.com/24KQwf7EY07UJ6i1aHvLpDHe8I1/",
            "environment": {},
            "errors_count": 0,
            "finished_time": null,
            "git_ref": "v5.16-rc5",
            "git_repo": "https://git.kernel.org/pub/scm/linux/kernel/git/torvalds/linux.git",
            "git_sha": "2585cf9dfaaddf00b069673f27bb3f8530e2039c",
            "image_sha": "",
            "kconfig": [
                "tinyconfig"
            ],
            "kernel_image": "",
            "kernel_patch_file": "",
            "make_variables": {},
            "no_cache": true,
            "plan": "24KQwKDDOlicjwuXHAW8Xtxn8nk",
            "project": "linaro/anders",
            "provisioning_time": "2022-01-28T13:37:17.274246",
            "result": "unknown",
            "running_time": null,
            "state": "provisioning",
            "target_arch": "arm64",
            "targets": [],
            "toolchain": "gcc-10",
            "uid": "24KQwf7EY07UJ6i1aHvLpDHe8I1",
            "user": "anders.roxell@linaro.org",
            "user_agent": "tuxsuite/0.42.3",
            "waited_by": [],
            "warnings_count": 0
        },
        "24KQwfA0EeSYPaYtReuJfoSUA4S": {
            "build_name": "",
            "client_token": "ffd809ae-1d81-4a4c-a0f8-253464f82744",
            "download_url": "https://builds.tuxbuild.com/24KQwfA0EeSYPaYtReuJfoSUA4S/",
            "environment": {},
            "errors_count": 0,
            "finished_time": null,
            "git_ref": "v5.16-rc5",
            "git_repo": "https://git.kernel.org/pub/scm/linux/kernel/git/torvalds/linux.git",
            "git_sha": "2585cf9dfaaddf00b069673f27bb3f8530e2039c",
            "image_sha": "",
            "kconfig": [
                "defconfig"
            ],
            "kernel_image": "",
            "kernel_patch_file": "",
            "make_variables": {},
            "no_cache": true,
            "plan": "24KQwKDDOlicjwuXHAW8Xtxn8nk",
            "project": "linaro/anders",
            "provisioning_time": "2022-01-28T13:37:17.710657",
            "result": "unknown",
            "running_time": null,
            "state": "provisioning",
            "target_arch": "arm64",
            "targets": [],
            "toolchain": "gcc-10",
            "uid": "24KQwfA0EeSYPaYtReuJfoSUA4S",
            "user": "anders.roxell@linaro.org",
            "user_agent": "tuxsuite/0.42.3",
            "waited_by": [],
            "warnings_count": 0
        },
        "24KQwfN7Bkvkjvt9jnJIjqLYpNZ": {
            "build_name": "",
            "client_token": "7e75ede5-917f-4c70-8e5c-98435d21b9ea",
            "download_url": "https://builds.tuxbuild.com/24KQwfN7Bkvkjvt9jnJIjqLYpNZ/",
            "environment": {},
            "errors_count": 0,
            "finished_time": null,
            "git_ref": "v5.16-rc5",
            "git_repo": "https://git.kernel.org/pub/scm/linux/kernel/git/torvalds/linux.git",
            "git_sha": "2585cf9dfaaddf00b069673f27bb3f8530e2039c",
            "image_sha": "",
            "kconfig": [
                "defconfig"
            ],
            "kernel_image": "",
            "kernel_patch_file": "",
            "make_variables": {
                "LLVM": "1",
                "LLVM_IAS": "1"
            },
            "no_cache": true,
            "plan": "24KQwKDDOlicjwuXHAW8Xtxn8nk",
            "project": "linaro/anders",
            "provisioning_time": "2022-01-28T13:37:17.667071",
            "result": "unknown",
            "running_time": null,
            "state": "provisioning",
            "target_arch": "arm64",
            "targets": [],
            "toolchain": "clang-13",
            "uid": "24KQwfN7Bkvkjvt9jnJIjqLYpNZ",
            "user": "anders.roxell@linaro.org",
            "user_agent": "tuxsuite/0.42.3",
            "waited_by": [],
            "warnings_count": 0
        }
    },
    "tests": {
        "24KQwgoSNyUlIkn18zdCqt48vzn": {
            "ap_romfw": null,
            "boot_args": null,
            "device": "qemu-arm64",
            "finished_time": null,
            "fip": null,
            "kernel": null,
            "mcp_fw": null,
            "mcp_romfw": null,
            "modules": null,
            "parameters": [],
            "plan": "24KQwKDDOlicjwuXHAW8Xtxn8nk",
            "project": "linaro/anders",
            "provisioning_time": null,
            "result": "unknown",
            "results": {},
            "retries": 0,
            "retries_messages": [],
            "rootfs": null,
            "running_time": null,
            "scp_fw": null,
            "scp_romfw": null,
            "state": "waiting",
            "tests": [
                "boot"
            ],
            "uid": "24KQwgoSNyUlIkn18zdCqt48vzn",
            "user": "anders.roxell@linaro.org",
            "user_agent": "tuxsuite/0.42.3",
            "waiting_for": "24KQwZSuhYsyKfKy5BVBOIHSIoz"
        },
        "24KQwh5lAFHDwgrjWFVBcXfCCGS": {
            "ap_romfw": null,
            "boot_args": null,
            "device": "qemu-arm64",
            "finished_time": null,
            "fip": null,
            "kernel": null,
            "mcp_fw": null,
            "mcp_romfw": null,
            "modules": null,
            "parameters": [],
            "plan": "24KQwKDDOlicjwuXHAW8Xtxn8nk",
            "project": "linaro/anders",
            "provisioning_time": null,
            "result": "unknown",
            "results": {},
            "retries": 0,
            "retries_messages": [],
            "rootfs": null,
            "running_time": null,
            "scp_fw": null,
            "scp_romfw": null,
            "state": "waiting",
            "tests": [
                "boot"
            ],
            "uid": "24KQwh5lAFHDwgrjWFVBcXfCCGS",
            "user": "anders.roxell@linaro.org",
            "user_agent": "tuxsuite/0.42.3",
            "waiting_for": "24KQwfN7Bkvkjvt9jnJIjqLYpNZ"
        },
        "24KQwhbxgNawgo1GHS2NwpeJchh": {
            "ap_romfw": null,
            "boot_args": null,
            "device": "qemu-arm64",
            "finished_time": null,
            "fip": null,
            "kernel": null,
            "mcp_fw": null,
            "mcp_romfw": null,
            "modules": null,
            "parameters": [],
            "plan": "24KQwKDDOlicjwuXHAW8Xtxn8nk",
            "project": "linaro/anders",
            "provisioning_time": null,
            "result": "unknown",
            "results": {},
            "retries": 0,
            "retries_messages": [],
            "rootfs": null,
            "running_time": null,
            "scp_fw": null,
            "scp_romfw": null,
            "state": "waiting",
            "tests": [
                "boot"
            ],
            "uid": "24KQwhbxgNawgo1GHS2NwpeJchh",
            "user": "anders.roxell@linaro.org",
            "user_agent": "tuxsuite/0.42.3",
            "waiting_for": "24KQwY7CvRzOwmFFDPq6d10tSkn"
        },
        "24KQwhj9Ei0sESoUnKtJozYOUkh": {
            "ap_romfw": null,
            "boot_args": null,
            "device": "qemu-arm64",
            "finished_time": null,
            "fip": null,
            "kernel": null,
            "mcp_fw": null,
            "mcp_romfw": null,
            "modules": null,
            "parameters": [],
            "plan": "24KQwKDDOlicjwuXHAW8Xtxn8nk",
            "project": "linaro/anders",
            "provisioning_time": null,
            "result": "unknown",
            "results": {},
            "retries": 0,
            "retries_messages": [],
            "rootfs": null,
            "running_time": null,
            "scp_fw": null,
            "scp_romfw": null,
            "state": "waiting",
            "tests": [
                "boot"
            ],
            "uid": "24KQwhj9Ei0sESoUnKtJozYOUkh",
            "user": "anders.roxell@linaro.org",
            "user_agent": "tuxsuite/0.42.3",
            "waiting_for": "24KQwXphNi3u55ClrzHOvnTwgBB"
        },
        "24KQwi2rtd6eya8yw2KYpLVuJps": {
            "ap_romfw": null,
            "boot_args": null,
            "device": "qemu-arm64",
            "finished_time": null,
            "fip": null,
            "kernel": null,
            "mcp_fw": null,
            "mcp_romfw": null,
            "modules": null,
            "parameters": [],
            "plan": "24KQwKDDOlicjwuXHAW8Xtxn8nk",
            "project": "linaro/anders",
            "provisioning_time": null,
            "result": "unknown",
            "results": {},
            "retries": 0,
            "retries_messages": [],
            "rootfs": null,
            "running_time": null,
            "scp_fw": null,
            "scp_romfw": null,
            "state": "waiting",
            "tests": [
                "boot"
            ],
            "uid": "24KQwi2rtd6eya8yw2KYpLVuJps",
            "user": "anders.roxell@linaro.org",
            "user_agent": "tuxsuite/0.42.3",
            "waiting_for": "24KQwYB53qPl9lrJCpixFGKr2ms"
        },
        "24KQwie00dVNpKMmn8CyoxhzWQ1": {
            "ap_romfw": null,
            "boot_args": null,
            "device": "qemu-arm64",
            "finished_time": null,
            "fip": null,
            "kernel": null,
            "mcp_fw": null,
            "mcp_romfw": null,
            "modules": null,
            "parameters": [],
            "plan": "24KQwKDDOlicjwuXHAW8Xtxn8nk",
            "project": "linaro/anders",
            "provisioning_time": null,
            "result": "unknown",
            "results": {},
            "retries": 0,
            "retries_messages": [],
            "rootfs": null,
            "running_time": null,
            "scp_fw": null,
            "scp_romfw": null,
            "state": "waiting",
            "tests": [
                "boot"
            ],
            "uid": "24KQwie00dVNpKMmn8CyoxhzWQ1",
            "user": "anders.roxell@linaro.org",
            "user_agent": "tuxsuite/0.42.3",
            "waiting_for": "24KQwZSAT5izaxnSZF4N4d8GxnI"
        },
        "24KQwigpErrDtmPLzHRBF2gCU4w": {
            "ap_romfw": null,
            "boot_args": null,
            "device": "qemu-arm64",
            "finished_time": null,
            "fip": null,
            "kernel": null,
            "mcp_fw": null,
            "mcp_romfw": null,
            "modules": null,
            "parameters": [],
            "plan": "24KQwKDDOlicjwuXHAW8Xtxn8nk",
            "project": "linaro/anders",
            "provisioning_time": null,
            "result": "unknown",
            "results": {},
            "retries": 0,
            "retries_messages": [],
            "rootfs": null,
            "running_time": null,
            "scp_fw": null,
            "scp_romfw": null,
            "state": "waiting",
            "tests": [
                "boot"
            ],
            "uid": "24KQwigpErrDtmPLzHRBF2gCU4w",
            "user": "anders.roxell@linaro.org",
            "user_agent": "tuxsuite/0.42.3",
            "waiting_for": "24KQwZ3neSYDu4IvXio8ETqYGfX"
        },
        "24KQwimETj1Tw16Jk70cQVM7yRy": {
            "ap_romfw": null,
            "boot_args": null,
            "device": "qemu-arm64",
            "finished_time": null,
            "fip": null,
            "kernel": null,
            "mcp_fw": null,
            "mcp_romfw": null,
            "modules": null,
            "parameters": [],
            "plan": "24KQwKDDOlicjwuXHAW8Xtxn8nk",
            "project": "linaro/anders",
            "provisioning_time": null,
            "result": "unknown",
            "results": {},
            "retries": 0,
            "retries_messages": [],
            "rootfs": null,
            "running_time": null,
            "scp_fw": null,
            "scp_romfw": null,
            "state": "waiting",
            "tests": [
                "boot"
            ],
            "uid": "24KQwimETj1Tw16Jk70cQVM7yRy",
            "user": "anders.roxell@linaro.org",
            "user_agent": "tuxsuite/0.42.3",
            "waiting_for": "24KQwfA0EeSYPaYtReuJfoSUA4S"
        },
        "24KQwj9ZM422SlQSMmshcjF3DUi": {
            "ap_romfw": null,
            "boot_args": null,
            "device": "qemu-arm64",
            "finished_time": null,
            "fip": null,
            "kernel": null,
            "mcp_fw": null,
            "mcp_romfw": null,
            "modules": null,
            "parameters": [],
            "plan": "24KQwKDDOlicjwuXHAW8Xtxn8nk",
            "project": "linaro/anders",
            "provisioning_time": null,
            "result": "unknown",
            "results": {},
            "retries": 0,
            "retries_messages": [],
            "rootfs": null,
            "running_time": null,
            "scp_fw": null,
            "scp_romfw": null,
            "state": "waiting",
            "tests": [
                "boot"
            ],
            "uid": "24KQwj9ZM422SlQSMmshcjF3DUi",
            "user": "anders.roxell@linaro.org",
            "user_agent": "tuxsuite/0.42.3",
            "waiting_for": "24KQwbiR7dQeieUiRZEDRISiGH6"
        },
        "24KQwjGhpnjt9lVJFItwumT0ECe": {
            "ap_romfw": null,
            "boot_args": null,
            "device": "qemu-arm64",
            "finished_time": null,
            "fip": null,
            "kernel": null,
            "mcp_fw": null,
            "mcp_romfw": null,
            "modules": null,
            "parameters": [],
            "plan": "24KQwKDDOlicjwuXHAW8Xtxn8nk",
            "project": "linaro/anders",
            "provisioning_time": null,
            "result": "unknown",
            "results": {},
            "retries": 0,
            "retries_messages": [],
            "rootfs": null,
            "running_time": null,
            "scp_fw": null,
            "scp_romfw": null,
            "state": "waiting",
            "tests": [
                "boot"
            ],
            "uid": "24KQwjGhpnjt9lVJFItwumT0ECe",
            "user": "anders.roxell@linaro.org",
            "user_agent": "tuxsuite/0.42.3",
            "waiting_for": "24KQwZIBE31ctieG7t3D3ryoyDg"
        },
        "24KQwjOzsQPOqFBtKKHclT3wxPD": {
            "ap_romfw": null,
            "boot_args": null,
            "device": "qemu-arm64",
            "finished_time": null,
            "fip": null,
            "kernel": null,
            "mcp_fw": null,
            "mcp_romfw": null,
            "modules": null,
            "parameters": [],
            "plan": "24KQwKDDOlicjwuXHAW8Xtxn8nk",
            "project": "linaro/anders",
            "provisioning_time": null,
            "result": "unknown",
            "results": {},
            "retries": 0,
            "retries_messages": [],
            "rootfs": null,
            "running_time": null,
            "scp_fw": null,
            "scp_romfw": null,
            "state": "waiting",
            "tests": [
                "boot"
            ],
            "uid": "24KQwjOzsQPOqFBtKKHclT3wxPD",
            "user": "anders.roxell@linaro.org",
            "user_agent": "tuxsuite/0.42.3",
            "waiting_for": "24KQwYBjpvkIklBUkywVXKyMxEp"
        },
        "24KQwjqTU8zyfm3UVwBPxFeOLd5": {
            "ap_romfw": null,
            "boot_args": null,
            "device": "qemu-arm64",
            "finished_time": null,
            "fip": null,
            "kernel": null,
            "mcp_fw": null,
            "mcp_romfw": null,
            "modules": null,
            "parameters": [],
            "plan": "24KQwKDDOlicjwuXHAW8Xtxn8nk",
            "project": "linaro/anders",
            "provisioning_time": null,
            "result": "unknown",
            "results": {},
            "retries": 0,
            "retries_messages": [],
            "rootfs": null,
            "running_time": null,
            "scp_fw": null,
            "scp_romfw": null,
            "state": "waiting",
            "tests": [
                "boot"
            ],
            "uid": "24KQwjqTU8zyfm3UVwBPxFeOLd5",
            "user": "anders.roxell@linaro.org",
            "user_agent": "tuxsuite/0.42.3",
            "waiting_for": "24KQwb3jFXRxsYRLXtmMX0gyIGb"
        },
        "24KQwjsAX7SO705J5ugNYYV5y4W": {
            "ap_romfw": null,
            "boot_args": null,
            "device": "qemu-arm64",
            "finished_time": null,
            "fip": null,
            "kernel": null,
            "mcp_fw": null,
            "mcp_romfw": null,
            "modules": null,
            "parameters": [],
            "plan": "24KQwKDDOlicjwuXHAW8Xtxn8nk",
            "project": "linaro/anders",
            "provisioning_time": null,
            "result": "unknown",
            "results": {},
            "retries": 0,
            "retries_messages": [],
            "rootfs": null,
            "running_time": null,
            "scp_fw": null,
            "scp_romfw": null,
            "state": "waiting",
            "tests": [
                "boot"
            ],
            "uid": "24KQwjsAX7SO705J5ugNYYV5y4W",
            "user": "anders.roxell@linaro.org",
            "user_agent": "tuxsuite/0.42.3",
            "waiting_for": "24KQwZVwyZz27jeZGgKIoHhFbox"
        },
        "24KQwl2jL7kl2rqubEoAf8bvIRQ": {
            "ap_romfw": null,
            "boot_args": null,
            "device": "qemu-arm64",
            "finished_time": null,
            "fip": null,
            "kernel": null,
            "mcp_fw": null,
            "mcp_romfw": null,
            "modules": null,
            "parameters": [],
            "plan": "24KQwKDDOlicjwuXHAW8Xtxn8nk",
            "project": "linaro/anders",
            "provisioning_time": null,
            "result": "unknown",
            "results": {},
            "retries": 0,
            "retries_messages": [],
            "rootfs": null,
            "running_time": null,
            "scp_fw": null,
            "scp_romfw": null,
            "state": "waiting",
            "tests": [
                "boot"
            ],
            "uid": "24KQwl2jL7kl2rqubEoAf8bvIRQ",
            "user": "anders.roxell@linaro.org",
            "user_agent": "tuxsuite/0.42.3",
            "waiting_for": "24KQwca4UUG9AQqeLxV0wh16EZ1"
        },
        "24KQwlkL8Qf3jNi4Y6Cye7X4WQ8": {
            "ap_romfw": null,
            "boot_args": null,
            "device": "qemu-arm64",
            "finished_time": null,
            "fip": null,
            "kernel": null,
            "mcp_fw": null,
            "mcp_romfw": null,
            "modules": null,
            "parameters": [],
            "plan": "24KQwKDDOlicjwuXHAW8Xtxn8nk",
            "project": "linaro/anders",
            "provisioning_time": null,
            "result": "unknown",
            "results": {},
            "retries": 0,
            "retries_messages": [],
            "rootfs": null,
            "running_time": null,
            "scp_fw": null,
            "scp_romfw": null,
            "state": "waiting",
            "tests": [
                "boot"
            ],
            "uid": "24KQwlkL8Qf3jNi4Y6Cye7X4WQ8",
            "user": "anders.roxell@linaro.org",
            "user_agent": "tuxsuite/0.42.3",
            "waiting_for": "24KQwcae2G1xohnyFm98VuKDDIL"
        },
        "24KQwm6GS9EK5Xl44mjP5e862bU": {
            "ap_romfw": null,
            "boot_args": null,
            "device": "qemu-arm64",
            "finished_time": null,
            "fip": null,
            "kernel": null,
            "mcp_fw": null,
            "mcp_romfw": null,
            "modules": null,
            "parameters": [],
            "plan": "24KQwKDDOlicjwuXHAW8Xtxn8nk",
            "project": "linaro/anders",
            "provisioning_time": null,
            "result": "unknown",
            "results": {},
            "retries": 0,
            "retries_messages": [],
            "rootfs": null,
            "running_time": null,
            "scp_fw": null,
            "scp_romfw": null,
            "state": "waiting",
            "tests": [
                "boot"
            ],
            "uid": "24KQwm6GS9EK5Xl44mjP5e862bU",
            "user": "anders.roxell@linaro.org",
            "user_agent": "tuxsuite/0.42.3",
            "waiting_for": "24KQwYrgNRHKHpYSidoqnJs5ZkC"
        },
        "24KQwmFZ71Gru93uwZuaKaU1Gxi": {
            "ap_romfw": null,
            "boot_args": null,
            "device": "qemu-arm64",
            "finished_time": null,
            "fip": null,
            "kernel": null,
            "mcp_fw": null,
            "mcp_romfw": null,
            "modules": null,
            "parameters": [],
            "plan": "24KQwKDDOlicjwuXHAW8Xtxn8nk",
            "project": "linaro/anders",
            "provisioning_time": null,
            "result": "unknown",
            "results": {},
            "retries": 0,
            "retries_messages": [],
            "rootfs": null,
            "running_time": null,
            "scp_fw": null,
            "scp_romfw": null,
            "state": "waiting",
            "tests": [
                "boot"
            ],
            "uid": "24KQwmFZ71Gru93uwZuaKaU1Gxi",
            "user": "anders.roxell@linaro.org",
            "user_agent": "tuxsuite/0.42.3",
            "waiting_for": "24KQwZR7SkYox6xr0SvzzxXiMIY"
        },
        "24KQwmmXyRkcoQuWvOjLlB7VADI": {
            "ap_romfw": null,
            "boot_args": null,
            "device": "qemu-arm64",
            "finished_time": null,
            "fip": null,
            "kernel": null,
            "mcp_fw": null,
            "mcp_romfw": null,
            "modules": null,
            "parameters": [],
            "plan": "24KQwKDDOlicjwuXHAW8Xtxn8nk",
            "project": "linaro/anders",
            "provisioning_time": null,
            "result": "unknown",
            "results": {},
            "retries": 0,
            "retries_messages": [],
            "rootfs": null,
            "running_time": null,
            "scp_fw": null,
            "scp_romfw": null,
            "state": "waiting",
            "tests": [
                "boot"
            ],
            "uid": "24KQwmmXyRkcoQuWvOjLlB7VADI",
            "user": "anders.roxell@linaro.org",
            "user_agent": "tuxsuite/0.42.3",
            "waiting_for": "24KQwaNhFBZ2bcUiZiARRA7QkzO"
        },
        "24KQwn0VT9NEUGqOSaxkT8MqDB9": {
            "ap_romfw": null,
            "boot_args": null,
            "device": "qemu-arm64",
            "finished_time": null,
            "fip": null,
            "kernel": null,
            "mcp_fw": null,
            "mcp_romfw": null,
            "modules": null,
            "parameters": [],
            "plan": "24KQwKDDOlicjwuXHAW8Xtxn8nk",
            "project": "linaro/anders",
            "provisioning_time": null,
            "result": "unknown",
            "results": {},
            "retries": 0,
            "retries_messages": [],
            "rootfs": null,
            "running_time": null,
            "scp_fw": null,
            "scp_romfw": null,
            "state": "waiting",
            "tests": [
                "boot"
            ],
            "uid": "24KQwn0VT9NEUGqOSaxkT8MqDB9",
            "user": "anders.roxell@linaro.org",
            "user_agent": "tuxsuite/0.42.3",
            "waiting_for": "24KQwaASTSlG9jG0FTBnfnd1lxd"
        },
        "24KQwn125zHppmDAZLsyOG2EUyJ": {
            "ap_romfw": null,
            "boot_args": null,
            "device": "qemu-arm64",
            "finished_time": null,
            "fip": null,
            "kernel": null,
            "mcp_fw": null,
            "mcp_romfw": null,
            "modules": null,
            "parameters": [],
            "plan": "24KQwKDDOlicjwuXHAW8Xtxn8nk",
            "project": "linaro/anders",
            "provisioning_time": null,
            "result": "unknown",
            "results": {},
            "retries": 0,
            "retries_messages": [],
            "rootfs": null,
            "running_time": null,
            "scp_fw": null,
            "scp_romfw": null,
            "state": "waiting",
            "tests": [
                "boot"
            ],
            "uid": "24KQwn125zHppmDAZLsyOG2EUyJ",
            "user": "anders.roxell@linaro.org",
            "user_agent": "tuxsuite/0.42.3",
            "waiting_for": "24KQweuiadHvZm2eoXUoOVcS8Jf"
        }
    }
}