{
    "builds": {
        "24KQq8dZCkQn5qXETbnQhci175G": {
            "build_name": "",
            "client_token": "cb6fdc4a-7393-4590-83fd-bde004060130",
            "download_url": "https://builds.tuxbuild.com/24KQq8dZCkQn5qXETbnQhci175G/",
            "environment": {},
            "errors_count": 0,
            "finished_time": null,
            "git_ref": "v5.14-rc7",
            "git_repo": "https://git.kernel.org/pub/scm/linux/kernel/git/torvalds/linux.git",
            "git_sha": "e22ce8eb631bdc47a4a4ea7ecf4e4ba499db4f93",
            "image_sha": "",
            "kconfig": [
                "tinyconfig"
            ],
            "kernel_image": "",
            "kernel_patch_file": "",
            "make_variables": {
                "LLVM": "1",
                "LLVM_IAS": "1"
            },
            "no_cache": true,
            "plan": "24KQq3VIJI37EyL9qWpoYpJNSJl",
            "project": "linaro/anders",
            "provisioning_time": "2022-01-28T13:36:26.676912",
            "result": "unknown",
            "running_time": null,
            "state": "provisioning",
            "target_arch": "arm64",
            "targets": [],
            "toolchain": "clang-nightly",
            "uid": "24KQq8dZCkQn5qXETbnQhci175G",
            "user": "anders.roxell@linaro.org",
            "user_agent": "tuxsuite/0.42.3",
            "waited_by": [],
            "warnings_count": 0
        },
        "24KQq8ezfxrUt7IRs9P4kFnqHVY": {
            "build_name": "",
            "client_token": "2647a83b-7bd2-43ee-aeac-4e282fb4efe2",
            "download_url": "https://builds.tuxbuild.com/24KQq8ezfxrUt7IRs9P4kFnqHVY/",
            "environment": {},
            "errors_count": 0,
            "finished_time": null,
            "git_ref": "v5.14-rc7",
            "git_repo": "https://git.kernel.org/pub/scm/linux/kernel/git/torvalds/linux.git",
            "git_sha": "e22ce8eb631bdc47a4a4ea7ecf4e4ba499db4f93",
            "image_sha": "",
            "kconfig": [
                "tinyconfig"
            ],
            "kernel_image": "",
            "kernel_patch_file": "",
            "make_variables": {},
            "no_cache": true,
            "plan": "24KQq3VIJI37EyL9qWpoYpJNSJl",
            "project": "linaro/anders",
            "provisioning_time": "2022-01-28T13:36:26.814257",
            "result": "unknown",
            "running_time": null,
            "state": "provisioning",
            "target_arch": "arm64",
            "targets": [],
            "toolchain": "gcc-11",
            "uid": "24KQq8ezfxrUt7IRs9P4kFnqHVY",
            "user": "anders.roxell@linaro.org",
            "user_agent": "tuxsuite/0.42.3",
            "waited_by": [],
            "warnings_count": 0
        },
        "24KQq8h2ex3HYG4M1MRtDPymP8c": {
            "build_name": "",
            "client_token": "ad7b3225-4b49-4822-9209-bc66bb91230b",
            "download_url": "https://builds.tuxbuild.com/24KQq8h2ex3HYG4M1MRtDPymP8c/",
            "environment": {},
            "errors_count": 0,
            "finished_time": null,
            "git_ref": "v5.14-rc7",
            "git_repo": "https://git.kernel.org/pub/scm/linux/kernel/git/torvalds/linux.git",
            "git_sha": "e22ce8eb631bdc47a4a4ea7ecf4e4ba499db4f93",
            "image_sha": "",
            "kconfig": [
                "tinyconfig"
            ],
            "kernel_image": "",
            "kernel_patch_file": "",
            "make_variables": {},
            "no_cache": true,
            "plan": "24KQq3VIJI37EyL9qWpoYpJNSJl",
            "project": "linaro/anders",
            "provisioning_time": "2022-01-28T13:36:26.545649",
            "result": "unknown",
            "running_time": null,
            "state": "provisioning",
            "target_arch": "arm64",
            "targets": [],
            "toolchain": "gcc-11",
            "uid": "24KQq8h2ex3HYG4M1MRtDPymP8c",
            "user": "anders.roxell@linaro.org",
            "user_agent": "tuxsuite/0.42.3",
            "waited_by": [],
            "warnings_count": 0
        },
        "24KQq9V6z6rzxX40GeGBJzD5Ozy": {
            "build_name": "",
            "client_token": "bcb712c9-1a8a-4551-babb-d0c8ebd8b417",
            "download_url": "https://builds.tuxbuild.com/24KQq9V6z6rzxX40GeGBJzD5Ozy/",
            "environment": {},
            "errors_count": 0,
            "finished_time": null,
            "git_ref": "v5.14-rc7",
            "git_repo": "https://git.kernel.org/pub/scm/linux/kernel/git/torvalds/linux.git",
            "git_sha": "e22ce8eb631bdc47a4a4ea7ecf4e4ba499db4f93",
            "image_sha": "",
            "kconfig": [
                "tinyconfig"
            ],
            "kernel_image": "",
            "kernel_patch_file": "",
            "make_variables": {},
            "no_cache": true,
            "plan": "24KQq3VIJI37EyL9qWpoYpJNSJl",
            "project": "linaro/anders",
            "provisioning_time": "2022-01-28T13:36:26.610532",
            "result": "unknown",
            "running_time": null,
            "state": "provisioning",
            "target_arch": "arm64",
            "targets": [],
            "toolchain": "gcc-10",
            "uid": "24KQq9V6z6rzxX40GeGBJzD5Ozy",
            "user": "anders.roxell@linaro.org",
            "user_agent": "tuxsuite/0.42.3",
            "waited_by": [],
            "warnings_count": 0
        },
        "24KQq9sO6hqdWtZMLy3x8sCrw0I": {
            "build_name": "",
            "client_token": "7244750a-56d7-47da-8a7d-9366bbdac757",
            "download_url": "https://builds.tuxbuild.com/24KQq9sO6hqdWtZMLy3x8sCrw0I/",
            "environment": {},
            "errors_count": 0,
            "finished_time": null,
            "git_ref": "v5.14-rc7",
            "git_repo": "https://git.kernel.org/pub/scm/linux/kernel/git/torvalds/linux.git",
            "git_sha": "e22ce8eb631bdc47a4a4ea7ecf4e4ba499db4f93",
            "image_sha": "",
            "kconfig": [
                "tinyconfig"
            ],
            "kernel_image": "",
            "kernel_patch_file": "",
            "make_variables": {},
            "no_cache": true,
            "plan": "24KQq3VIJI37EyL9qWpoYpJNSJl",
            "project": "linaro/anders",
            "provisioning_time": "2022-01-28T13:36:26.698188",
            "result": "unknown",
            "running_time": null,
            "state": "provisioning",
            "target_arch": "arm64",
            "targets": [],
            "toolchain": "gcc-10",
            "uid": "24KQq9sO6hqdWtZMLy3x8sCrw0I",
            "user": "anders.roxell@linaro.org",
            "user_agent": "tuxsuite/0.42.3",
            "waited_by": [],
            "warnings_count": 0
        },
        "24KQq9vZb78MktQFz5mUnpVou3d": {
            "build_name": "",
            "client_token": "ab1a0950-0cba-41eb-a05f-d1bc34c6c0bc",
            "download_url": "https://builds.tuxbuild.com/24KQq9vZb78MktQFz5mUnpVou3d/",
            "environment": {},
            "errors_count": 0,
            "finished_time": null,
            "git_ref": "v5.14-rc7",
            "git_repo": "https://git.kernel.org/pub/scm/linux/kernel/git/torvalds/linux.git",
            "git_sha": "e22ce8eb631bdc47a4a4ea7ecf4e4ba499db4f93",
            "image_sha": "",
            "kconfig": [
                "tinyconfig"
            ],
            "kernel_image": "",
            "kernel_patch_file": "",
            "make_variables": {
                "LLVM": "1",
                "LLVM_IAS": "1"
            },
            "no_cache": true,
            "plan": "24KQq3VIJI37EyL9qWpoYpJNSJl",
            "project": "linaro/anders",
            "provisioning_time": "2022-01-28T13:36:26.894145",
            "result": "unknown",
            "running_time": null,
            "state": "provisioning",
            "target_arch": "arm64",
            "targets": [],
            "toolchain": "clang-nightly",
            "uid": "24KQq9vZb78MktQFz5mUnpVou3d",
            "user": "anders.roxell@linaro.org",
            "user_agent": "tuxsuite/0.42.3",
            "waited_by": [],
            "warnings_count": 0
        },
        "24KQqAfH631GCOsjQjrIqJVdgd2": {
            "build_name": "",
            "client_token": "3451e707-a168-4b70-b760-28ec2512791a",
            "download_url": "https://builds.tuxbuild.com/24KQqAfH631GCOsjQjrIqJVdgd2/",
            "environment": {},
            "errors_count": 0,
            "finished_time": null,
            "git_ref": "v5.14-rc7",
            "git_repo": "https://git.kernel.org/pub/scm/linux/kernel/git/torvalds/linux.git",
            "git_sha": "e22ce8eb631bdc47a4a4ea7ecf4e4ba499db4f93",
            "image_sha": "",
            "kconfig": [
                "tinyconfig"
            ],
            "kernel_image": "",
            "kernel_patch_file": "",
            "make_variables": {},
            "no_cache": true,
            "plan": "24KQq3VIJI37EyL9qWpoYpJNSJl",
            "project": "linaro/anders",
            "provisioning_time": "2022-01-28T13:36:26.724123",
            "result": "unknown",
            "running_time": null,
            "state": "provisioning",
            "target_arch": "arm64",
            "targets": [],
            "toolchain": "gcc-11",
            "uid": "24KQqAfH631GCOsjQjrIqJVdgd2",
            "user": "anders.roxell@linaro.org",
            "user_agent": "tuxsuite/0.42.3",
            "waited_by": [],
            "warnings_count": 0
        },
        "24KQqB0ZwperWzZmji4G46s7O9U": {
            "build_name": "",
            "client_token": "77ece6e9-612e-482d-bd4b-d59c1284ade8",
            "download_url": "https://builds.tuxbuild.com/24KQqB0ZwperWzZmji4G46s7O9U/",
            "environment": {},
            "errors_count": 0,
            "finished_time": null,
            "git_ref": "v5.14-rc7",
            "git_repo": "https://git.kernel.org/pub/scm/linux/kernel/git/torvalds/linux.git",
            "git_sha": "e22ce8eb631bdc47a4a4ea7ecf4e4ba499db4f93",
            "image_sha": "",
            "kconfig": [
                "tinyconfig"
            ],
            "kernel_image": "",
            "kernel_patch_file": "",
            "make_variables": {
                "LLVM": "1",
                "LLVM_IAS": "1"
            },
            "no_cache": true,
            "plan": "24KQq3VIJI37EyL9qWpoYpJNSJl",
            "project": "linaro/anders",
            "provisioning_time": "2022-01-28T13:36:26.980872",
            "result": "unknown",
            "running_time": null,
            "state": "provisioning",
            "target_arch": "arm64",
            "targets": [],
            "toolchain": "clang-nightly",
            "uid": "24KQqB0ZwperWzZmji4G46s7O9U",
            "user": "anders.roxell@linaro.org",
            "user_agent": "tuxsuite/0.42.3",
            "waited_by": [],
            "warnings_count": 0
        },
        "24KQqB1GuinIOaD1FxTRtQBg7LJ": {
            "build_name": "",
            "client_token": "526b6fc5-4587-43a1-96ac-be7b7a3f4423",
            "download_url": "https://builds.tuxbuild.com/24KQqB1GuinIOaD1FxTRtQBg7LJ/",
            "environment": {},
            "errors_count": 0,
            "finished_time": null,
            "git_ref": "v5.14-rc7",
            "git_repo": "https://git.kernel.org/pub/scm/linux/kernel/git/torvalds/linux.git",
            "git_sha": "e22ce8eb631bdc47a4a4ea7ecf4e4ba499db4f93",
            "image_sha": "",
            "kconfig": [
                "tinyconfig"
            ],
            "kernel_image": "",
            "kernel_patch_file": "",
            "make_variables": {
                "LLVM": "1",
                "LLVM_IAS": "1"
            },
            "no_cache": true,
            "plan": "24KQq3VIJI37EyL9qWpoYpJNSJl",
            "project": "linaro/anders",
            "provisioning_time": "2022-01-28T13:36:26.750033",
            "result": "unknown",
            "running_time": null,
            "state": "provisioning",
            "target_arch": "arm64",
            "targets": [],
            "toolchain": "clang-13",
            "uid": "24KQqB1GuinIOaD1FxTRtQBg7LJ",
            "user": "anders.roxell@linaro.org",
            "user_agent": "tuxsuite/0.42.3",
            "waited_by": [],
            "warnings_count": 0
        },
        "24KQqBugBocQoViSTBu4I75cG11": {
            "build_name": "",
            "client_token": "9baa46c5-5965-4d61-a8bf-322861a8c288",
            "download_url": "https://builds.tuxbuild.com/24KQqBugBocQoViSTBu4I75cG11/",
            "environment": {},
            "errors_count": 0,
            "finished_time": null,
            "git_ref": "v5.14-rc7",
            "git_repo": "https://git.kernel.org/pub/scm/linux/kernel/git/torvalds/linux.git",
            "git_sha": "e22ce8eb631bdc47a4a4ea7ecf4e4ba499db4f93",
            "image_sha": "",
            "kconfig": [
                "tinyconfig"
            ],
            "kernel_image": "",
            "kernel_patch_file": "",
            "make_variables": {},
            "no_cache": true,
            "plan": "24KQq3VIJI37EyL9qWpoYpJNSJl",
            "project": "linaro/anders",
            "provisioning_time": "2022-01-28T13:36:26.936365",
            "result": "unknown",
            "running_time": null,
            "state": "provisioning",
            "target_arch": "arm64",
            "targets": [],
            "toolchain": "gcc-11",
            "uid": "24KQqBugBocQoViSTBu4I75cG11",
            "user": "anders.roxell@linaro.org",
            "user_agent": "tuxsuite/0.42.3",
            "waited_by": [],
            "warnings_count": 0
        },
        "24KQqBxxViU56atjf1DZTf0bKG8": {
            "build_name": "",
            "client_token": "08fc2ef4-b78f-4470-aee2-e10b517115d6",
            "download_url": "https://builds.tuxbuild.com/24KQqBxxViU56atjf1DZTf0bKG8/",
            "environment": {},
            "errors_count": 0,
            "finished_time": null,
            "git_ref": "v5.14-rc7",
            "git_repo": "https://git.kernel.org/pub/scm/linux/kernel/git/torvalds/linux.git",
            "git_sha": "e22ce8eb631bdc47a4a4ea7ecf4e4ba499db4f93",
            "image_sha": "",
            "kconfig": [
                "tinyconfig"
            ],
            "kernel_image": "",
            "kernel_patch_file": "",
            "make_variables": {},
            "no_cache": true,
            "plan": "24KQq3VIJI37EyL9qWpoYpJNSJl",
            "project": "linaro/anders",
            "provisioning_time": "2022-01-28T13:36:26.915321",
            "result": "unknown",
            "running_time": null,
            "state": "provisioning",
            "target_arch": "arm64",
            "targets": [],
            "toolchain": "gcc-10",
            "uid": "24KQqBxxViU56atjf1DZTf0bKG8",
            "user": "anders.roxell@linaro.org",
            "user_agent": "tuxsuite/0.42.3",
            "waited_by": [],
            "warnings_count": 0
        },
        "24KQqCXIsPBBh0k9kf39DabDBtv": {
            "build_name": "",
            "client_token": "398b5f6f-5f22-49ff-9e6e-d22dfb91f349",
            "download_url": "https://builds.tuxbuild.com/24KQqCXIsPBBh0k9kf39DabDBtv/",
            "environment": {},
            "errors_count": 0,
            "finished_time": null,
            "git_ref": "v5.14-rc7",
            "git_repo": "https://git.kernel.org/pub/scm/linux/kernel/git/torvalds/linux.git",
            "git_sha": "e22ce8eb631bdc47a4a4ea7ecf4e4ba499db4f93",
            "image_sha": "",
            "kconfig": [
                "tinyconfig"
            ],
            "kernel_image": "",
            "kernel_patch_file": "",
            "make_variables": {
                "LLVM": "1",
                "LLVM_IAS": "1"
            },
            "no_cache": true,
            "plan": "24KQq3VIJI37EyL9qWpoYpJNSJl",
            "project": "linaro/anders",
            "provisioning_time": "2022-01-28T13:36:26.588523",
            "result": "unknown",
            "running_time": null,
            "state": "provisioning",
            "target_arch": "arm64",
            "targets": [],
            "toolchain": "clang-nightly",
            "uid": "24KQqCXIsPBBh0k9kf39DabDBtv",
            "user": "anders.roxell@linaro.org",
            "user_agent": "tuxsuite/0.42.3",
            "waited_by": [],
            "warnings_count": 0
        },
        "24KQqCv6gbdMGLHsTgqtzXkbrTI": {
            "build_name": "",
            "client_token": "b0d8ddb6-02a0-4c99-a222-ff0ba950d5c6",
            "download_url": "https://builds.tuxbuild.com/24KQqCv6gbdMGLHsTgqtzXkbrTI/",
            "environment": {},
            "errors_count": 0,
            "finished_time": null,
            "git_ref": "v5.14-rc7",
            "git_repo": "https://git.kernel.org/pub/scm/linux/kernel/git/torvalds/linux.git",
            "git_sha": "e22ce8eb631bdc47a4a4ea7ecf4e4ba499db4f93",
            "image_sha": "",
            "kconfig": [
                "tinyconfig"
            ],
            "kernel_image": "",
            "kernel_patch_file": "",
            "make_variables": {
                "LLVM": "1",
                "LLVM_IAS": "1"
            },
            "no_cache": true,
            "plan": "24KQq3VIJI37EyL9qWpoYpJNSJl",
            "project": "linaro/anders",
            "provisioning_time": "2022-01-28T13:36:26.771717",
            "result": "unknown",
            "running_time": null,
            "state": "provisioning",
            "target_arch": "arm64",
            "targets": [],
            "toolchain": "clang-nightly",
            "uid": "24KQqCv6gbdMGLHsTgqtzXkbrTI",
            "user": "anders.roxell@linaro.org",
            "user_agent": "tuxsuite/0.42.3",
            "waited_by": [],
            "warnings_count": 0
        },
        "24KQqDB2YSzSo6U2eElj9UTO5TM": {
            "build_name": "",
            "client_token": "5059f735-5621-4951-9444-dd4c717c9440",
            "download_url": "https://builds.tuxbuild.com/24KQqDB2YSzSo6U2eElj9UTO5TM/",
            "environment": {},
            "errors_count": 0,
            "finished_time": null,
            "git_ref": "v5.14-rc7",
            "git_repo": "https://git.kernel.org/pub/scm/linux/kernel/git/torvalds/linux.git",
            "git_sha": "e22ce8eb631bdc47a4a4ea7ecf4e4ba499db4f93",
            "image_sha": "",
            "kconfig": [
                "tinyconfig"
            ],
            "kernel_image": "",
            "kernel_patch_file": "",
            "make_variables": {
                "LLVM": "1",
                "LLVM_IAS": "1"
            },
            "no_cache": true,
            "plan": "24KQq3VIJI37EyL9qWpoYpJNSJl",
            "project": "linaro/anders",
            "provisioning_time": "2022-01-28T13:36:26.872491",
            "result": "unknown",
            "running_time": null,
            "state": "provisioning",
            "target_arch": "arm64",
            "targets": [],
            "toolchain": "clang-13",
            "uid": "24KQqDB2YSzSo6U2eElj9UTO5TM",
            "user": "anders.roxell@linaro.org",
            "user_agent": "tuxsuite/0.42.3",
            "waited_by": [],
            "warnings_count": 0
        },
        "24KQqEsiCnD9nnFtNbOnhIsuDUj": {
            "build_name": "",
            "client_token": "2a862c2e-b8d0-4d82-ab61-96d876db8b3e",
            "download_url": "https://builds.tuxbuild.com/24KQqEsiCnD9nnFtNbOnhIsuDUj/",
            "environment": {},
            "errors_count": 0,
            "finished_time": null,
            "git_ref": "v5.14-rc7",
            "git_repo": "https://git.kernel.org/pub/scm/linux/kernel/git/torvalds/linux.git",
            "git_sha": "e22ce8eb631bdc47a4a4ea7ecf4e4ba499db4f93",
            "image_sha": "",
            "kconfig": [
                "tinyconfig"
            ],
            "kernel_image": "",
            "kernel_patch_file": "",
            "make_variables": {
                "LLVM": "1",
                "LLVM_IAS": "1"
            },
            "no_cache": true,
            "plan": "24KQq3VIJI37EyL9qWpoYpJNSJl",
            "project": "linaro/anders",
            "provisioning_time": "2022-01-28T13:36:26.567021",
            "result": "unknown",
            "running_time": null,
            "state": "provisioning",
            "target_arch": "arm64",
            "targets": [],
            "toolchain": "clang-13",
            "uid": "24KQqEsiCnD9nnFtNbOnhIsuDUj",
            "user": "anders.roxell@linaro.org",
            "user_agent": "tuxsuite/0.42.3",
            "waited_by": [],
            "warnings_count": 0
        },
        "24KQqFBisTeAHaPlWqGxW8zXDMu": {
            "build_name": "",
            "client_token": "05a94381-375e-439c-a40a-d141efd7716b",
            "download_url": "https://builds.tuxbuild.com/24KQqFBisTeAHaPlWqGxW8zXDMu/",
            "environment": {},
            "errors_count": 0,
            "finished_time": null,
            "git_ref": "v5.14-rc7",
            "git_repo": "https://git.kernel.org/pub/scm/linux/kernel/git/torvalds/linux.git",
            "git_sha": "e22ce8eb631bdc47a4a4ea7ecf4e4ba499db4f93",
            "image_sha": "",
            "kconfig": [
                "tinyconfig"
            ],
            "kernel_image": "",
            "kernel_patch_file": "",
            "make_variables": {
                "LLVM": "1",
                "LLVM_IAS": "1"
            },
            "no_cache": true,
            "plan": "24KQq3VIJI37EyL9qWpoYpJNSJl",
            "project": "linaro/anders",
            "provisioning_time": "2022-01-28T13:36:26.655667",
            "result": "unknown",
            "running_time": null,
            "state": "provisioning",
            "target_arch": "arm64",
            "targets": [],
            "toolchain": "clang-13",
            "uid": "24KQqFBisTeAHaPlWqGxW8zXDMu",
            "user": "anders.roxell@linaro.org",
            "user_agent": "tuxsuite/0.42.3",
            "waited_by": [],
            "warnings_count": 0
        },
        "24KQqFd2gYcffTyUOAPknmOoD5B": {
            "build_name": "",
            "client_token": "c45d9d31-eceb-4cf1-a6ec-8c62059157e9",
            "download_url": "https://builds.tuxbuild.com/24KQqFd2gYcffTyUOAPknmOoD5B/",
            "environment": {},
            "errors_count": 0,
            "finished_time": null,
            "git_ref": "v5.14-rc7",
            "git_repo": "https://git.kernel.org/pub/scm/linux/kernel/git/torvalds/linux.git",
            "git_sha": "e22ce8eb631bdc47a4a4ea7ecf4e4ba499db4f93",
            "image_sha": "",
            "kconfig": [
                "tinyconfig"
            ],
            "kernel_image": "",
            "kernel_patch_file": "",
            "make_variables": {
                "LLVM": "1",
                "LLVM_IAS": "1"
            },
            "no_cache": true,
            "plan": "24KQq3VIJI37EyL9qWpoYpJNSJl",
            "project": "linaro/anders",
            "provisioning_time": "2022-01-28T13:36:26.959336",
            "result": "unknown",
            "running_time": null,
            "state": "provisioning",
            "target_arch": "arm64",
            "targets": [],
            "toolchain": "clang-13",
            "uid": "24KQqFd2gYcffTyUOAPknmOoD5B",
            "user": "anders.roxell@linaro.org",
            "user_agent": "tuxsuite/0.42.3",
            "waited_by": [],
            "warnings_count": 0
        },
        "24KQqFld26lQgBhYZdqJ7ML0K51": {
            "build_name": "",
            "client_token": "115524b5-db6c-44ae-8f5e-14733efdb7bc",
            "download_url": "https://builds.tuxbuild.com/24KQqFld26lQgBhYZdqJ7ML0K51/",
            "environment": {},
            "errors_count": 0,
            "finished_time": null,
            "git_ref": "v5.14-rc7",
            "git_repo": "https://git.kernel.org/pub/scm/linux/kernel/git/torvalds/linux.git",
            "git_sha": "e22ce8eb631bdc47a4a4ea7ecf4e4ba499db4f93",
            "image_sha": "",
            "kconfig": [
                "tinyconfig"
            ],
            "kernel_image": "",
            "kernel_patch_file": "",
            "make_variables": {},
            "no_cache": true,
            "plan": "24KQq3VIJI37EyL9qWpoYpJNSJl",
            "project": "linaro/anders",
            "provisioning_time": "2022-01-28T13:36:26.633732",
            "result": "unknown",
            "running_time": null,
            "state": "provisioning",
            "target_arch": "arm64",
            "targets": [],
            "toolchain": "gcc-11",
            "uid": "24KQqFld26lQgBhYZdqJ7ML0K51",
            "user": "anders.roxell@linaro.org",
            "user_agent": "tuxsuite/0.42.3",
            "waited_by": [],
            "warnings_count": 0
        },
        "24KQqFvBoAeV0jVJtpYompFq4O9": {
            "build_name": "",
            "client_token": "b574e70e-c701-4638-8b8c-ebcc487b7a02",
            "download_url": "https://builds.tuxbuild.com/24KQqFvBoAeV0jVJtpYompFq4O9/",
            "environment": {},
            "errors_count": 0,
            "finished_time": null,
            "git_ref": "v5.14-rc7",
            "git_repo": "https://git.kernel.org/pub/scm/linux/kernel/git/torvalds/linux.git",
            "git_sha": "e22ce8eb631bdc47a4a4ea7ecf4e4ba499db4f93",
            "image_sha": "",
            "kconfig": [
                "tinyconfig"
            ],
            "kernel_image": "",
            "kernel_patch_file": "",
            "make_variables": {},
            "no_cache": true,
            "plan": "24KQq3VIJI37EyL9qWpoYpJNSJl",
            "project": "linaro/anders",
            "provisioning_time": "2022-01-28T13:36:26.522764",
            "result": "unknown",
            "running_time": null,
            "state": "provisioning",
            "target_arch": "arm64",
            "targets": [],
            "toolchain": "gcc-10",
            "uid": "24KQqFvBoAeV0jVJtpYompFq4O9",
            "user": "anders.roxell@linaro.org",
            "user_agent": "tuxsuite/0.42.3",
            "waited_by": [],
            "warnings_count": 0
        },
        "24KQqG15yba9hCOmLqJkGRBP38X": {
            "build_name": "",
            "client_token": "63233f7b-1021-49f3-bbe1-476848bd7a71",
            "download_url": "https://builds.tuxbuild.com/24KQqG15yba9hCOmLqJkGRBP38X/",
            "environment": {},
            "errors_count": 0,
            "finished_time": null,
            "git_ref": "v5.14-rc7",
            "git_repo": "https://git.kernel.org/pub/scm/linux/kernel/git/torvalds/linux.git",
            "git_sha": "e22ce8eb631bdc47a4a4ea7ecf4e4ba499db4f93",
            "image_sha": "",
            "kconfig": [
                "tinyconfig"
            ],
            "kernel_image": "",
            "kernel_patch_file": "",
            "make_variables": {},
            "no_cache": true,
            "plan": "24KQq3VIJI37EyL9qWpoYpJNSJl",
            "project": "linaro/anders",
            "provisioning_time": "2022-01-28T13:36:26.792671",
            "result": "unknown",
            "running_time": null,
            "state": "provisioning",
            "target_arch": "arm64",
            "targets": [],
            "toolchain": "gcc-10",
            "uid": "24KQqG15yba9hCOmLqJkGRBP38X",
            "user": "anders.roxell@linaro.org",
            "user_agent": "tuxsuite/0.42.3",
            "waited_by": [],
            "warnings_count": 0
        },
        "24KQqGgaiOMe5gskvp0WSnXsJ9h": {
            "build_name": "",
            "client_token": "31e325a7-46dc-445a-96c7-120fd06eee2b",
            "download_url": "https://builds.tuxbuild.com/24KQqGgaiOMe5gskvp0WSnXsJ9h/",
            "environment": {},
            "errors_count": 0,
            "finished_time": null,
            "git_ref": "v5.14-rc7",
            "git_repo": "https://git.kernel.org/pub/scm/linux/kernel/git/torvalds/linux.git",
            "git_sha": "e22ce8eb631bdc47a4a4ea7ecf4e4ba499db4f93",
            "image_sha": "",
            "kconfig": [
                "defconfig"
            ],
            "kernel_image": "",
            "kernel_patch_file": "",
            "make_variables": {},
            "no_cache": true,
            "plan": "24KQq3VIJI37EyL9qWpoYpJNSJl",
            "project": "linaro/anders",
            "provisioning_time": "2022-01-28T13:36:27.112870",
            "result": "unknown",
            "running_time": null,
            "state": "provisioning",
            "target_arch": "arm64",
            "targets": [],
            "toolchain": "gcc-11",
            "uid": "24KQqGgaiOMe5gskvp0WSnXsJ9h",
            "user": "anders.roxell@linaro.org",
            "user_agent": "tuxsuite/0.42.3",
            "waited_by": [],
            "warnings_count": 0
        },
        "24KQqGiWpCspF1RGa6H4x98BDwl": {
            "build_name": "",
            "client_token": "bc9fed46-8ff2-47e0-ad93-a7782c0ba577",
            "download_url": "https://builds.tuxbuild.com/24KQqGiWpCspF1RGa6H4x98BDwl/",
            "environment": {},
            "errors_count": 0,
            "finished_time": null,
            "git_ref": "v5.14-rc7",
            "git_repo": "https://git.kernel.org/pub/scm/linux/kernel/git/torvalds/linux.git",
            "git_sha": "e22ce8eb631bdc47a4a4ea7ecf4e4ba499db4f93",
            "image_sha": "",
            "kconfig": [
                "defconfig"
            ],
            "kernel_image": "",
            "kernel_patch_file": "",
            "make_variables": {
                "LLVM": "1",
                "LLVM_IAS": "1"
            },
            "no_cache": true,
            "plan": "24KQq3VIJI37EyL9qWpoYpJNSJl",
            "project": "linaro/anders",
            "provisioning_time": "2022-01-28T13:36:27.220536",
            "result": "unknown",
            "running_time": null,
            "state": "provisioning",
            "target_arch": "arm64",
            "targets": [],
            "toolchain": "clang-13",
            "uid": "24KQqGiWpCspF1RGa6H4x98BDwl",
            "user": "anders.roxell@linaro.org",
            "user_agent": "tuxsuite/0.42.3",
            "waited_by": [],
            "warnings_count": 0
        },
        "24KQqGtxkiUHZv2CEqt2FxByU62": {
            "build_name": "",
            "client_token": "acf94cd7-76a6-4d13-867a-eecde065c268",
            "download_url": "https://builds.tuxbuild.com/24KQqGtxkiUHZv2CEqt2FxByU62/",
            "environment": {},
            "errors_count": 0,
            "finished_time": null,
            "git_ref": "v5.14-rc7",
            "git_repo": "https://git.kernel.org/pub/scm/linux/kernel/git/torvalds/linux.git",
            "git_sha": "e22ce8eb631bdc47a4a4ea7ecf4e4ba499db4f93",
            "image_sha": "",
            "kconfig": [
                "defconfig"
            ],
            "kernel_image": "",
            "kernel_patch_file": "",
            "make_variables": {
                "LLVM": "1",
                "LLVM_IAS": "1"
            },
            "no_cache": true,
            "plan": "24KQq3VIJI37EyL9qWpoYpJNSJl",
            "project": "linaro/anders",
            "provisioning_time": "2022-01-28T13:36:27.244637",
            "result": "unknown",
            "running_time": null,
            "state": "provisioning",
            "target_arch": "arm64",
            "targets": [],
            "toolchain": "clang-nightly",
            "uid": "24KQqGtxkiUHZv2CEqt2FxByU62",
            "user": "anders.roxell@linaro.org",
            "user_agent": "tuxsuite/0.42.3",
            "waited_by": [],
            "warnings_count": 0
        },
        "24KQqH4DrTPKQ4VnA5S67DGAcBY": {
            "build_name": "",
            "client_token": "fe09fa3a-02ec-4a4e-a0b5-0a84b9cb6b00",
            "download_url": "https://builds.tuxbuild.com/24KQqH4DrTPKQ4VnA5S67DGAcBY/",
            "environment": {},
            "errors_count": 0,
            "finished_time": null,
            "git_ref": "v5.14-rc7",
            "git_repo": "https://git.kernel.org/pub/scm/linux/kernel/git/torvalds/linux.git",
            "git_sha": "e22ce8eb631bdc47a4a4ea7ecf4e4ba499db4f93",
            "image_sha": "",
            "kconfig": [
                "defconfig"
            ],
            "kernel_image": "",
            "kernel_patch_file": "",
            "make_variables": {},
            "no_cache": true,
            "plan": "24KQq3VIJI37EyL9qWpoYpJNSJl",
            "project": "linaro/anders",
            "provisioning_time": "2022-01-28T13:36:27.359771",
            "result": "unknown",
            "running_time": null,
            "state": "provisioning",
            "target_arch": "arm64",
            "targets": [],
            "toolchain": "gcc-10",
            "uid": "24KQqH4DrTPKQ4VnA5S67DGAcBY",
            "user": "anders.roxell@linaro.org",
            "user_agent": "tuxsuite/0.42.3",
            "waited_by": [],
            "warnings_count": 0
        },
        "24KQqIvHy9S5rx6i1ZVLmgAlpzr": {
            "build_name": "",
            "client_token": "c22da209-7954-440b-8467-5f7f54cdf9ed",
            "download_url": "https://builds.tuxbuild.com/24KQqIvHy9S5rx6i1ZVLmgAlpzr/",
            "environment": {},
            "errors_count": 0,
            "finished_time": null,
            "git_ref": "v5.14-rc7",
            "git_repo": "https://git.kernel.org/pub/scm/linux/kernel/git/torvalds/linux.git",
            "git_sha": "e22ce8eb631bdc47a4a4ea7ecf4e4ba499db4f93",
            "image_sha": "",
            "kconfig": [
                "defconfig"
            ],
            "kernel_image": "",
            "kernel_patch_file": "",
            "make_variables": {},
            "no_cache": true,
            "plan": "24KQq3VIJI37EyL9qWpoYpJNSJl",
            "project": "linaro/anders",
            "provisioning_time": "2022-01-28T13:36:27.291043",
            "result": "unknown",
            "running_time": null,
            "state": "provisioning",
            "target_arch": "arm64",
            "targets": [],
            "toolchain": "gcc-11",
            "uid": "24KQqIvHy9S5rx6i1ZVLmgAlpzr",
            "user": "anders.roxell@linaro.org",
            "user_agent": "tuxsuite/0.42.3",
            "waited_by": [],
            "warnings_count": 0
        },
        "24KQqIzlEck9e6kuVKxbOD3CdPm": {
            "build_name": "",
            "client_token": "58f6f32a-a5ad-49a0-8857-860b61d6289a",
            "download_url": "https://builds.tuxbuild.com/24KQqIzlEck9e6kuVKxbOD3CdPm/",
            "environment": {},
            "errors_count": 0,
            "finished_time": null,
            "git_ref": "v5.14-rc7",
            "git_repo": "https://git.kernel.org/pub/scm/linux/kernel/git/torvalds/linux.git",
            "git_sha": "e22ce8eb631bdc47a4a4ea7ecf4e4ba499db4f93",
            "image_sha": "",
            "kconfig": [
                "defconfig"
            ],
            "kernel_image": "",
            "kernel_patch_file": "",
            "make_variables": {
                "LLVM": "1",
                "LLVM_IAS": "1"
            },
            "no_cache": true,
            "plan": "24KQq3VIJI37EyL9qWpoYpJNSJl",
            "project": "linaro/anders",
            "provisioning_time": "2022-01-28T13:36:27.403090",
            "result": "unknown",
            "running_time": null,
            "state": "provisioning",
            "target_arch": "arm64",
            "targets": [],
            "toolchain": "clang-13",
            "uid": "24KQqIzlEck9e6kuVKxbOD3CdPm",
            "user": "anders.roxell@linaro.org",
            "user_agent": "tuxsuite/0.42.3",
            "waited_by": [],
            "warnings_count": 0
        },
        "24KQqJ55W2Z12ijhBISEJN2Y1Zd": {
            "build_name": "",
            "client_token": "dbe59d15-ecf2-45b5-b12b-82ad97e15002",
            "download_url": "https://builds.tuxbuild.com/24KQqJ55W2Z12ijhBISEJN2Y1Zd/",
            "environment": {},
            "errors_count": 0,
            "finished_time": null,
            "git_ref": "v5.14-rc7",
            "git_repo": "https://git.kernel.org/pub/scm/linux/kernel/git/torvalds/linux.git",
            "git_sha": "e22ce8eb631bdc47a4a4ea7ecf4e4ba499db4f93",
            "image_sha": "",
            "kconfig": [
                "defconfig"
            ],
            "kernel_image": "",
            "kernel_patch_file": "",
            "make_variables": {
                "LLVM": "1",
                "LLVM_IAS": "1"
            },
            "no_cache": true,
            "plan": "24KQq3VIJI37EyL9qWpoYpJNSJl",
            "project": "linaro/anders",
            "provisioning_time": "2022-01-28T13:36:27.336231",
            "result": "unknown",
            "running_time": null,
            "state": "provisioning",
            "target_arch": "arm64",
            "targets": [],
            "toolchain": "clang-nightly",
            "uid": "24KQqJ55W2Z12ijhBISEJN2Y1Zd",
            "user": "anders.roxell@linaro.org",
            "user_agent": "tuxsuite/0.42.3",
            "waited_by": [],
            "warnings_count": 0
        },
        "24KQqJVm5zinkgqxSCmjw469OI6": {
            "build_name": "",
            "client_token": "24b9cf55-5a65-4732-9a95-2f9f1f2fccba",
            "download_url": "https://builds.tuxbuild.com/24KQqJVm5zinkgqxSCmjw469OI6/",
            "environment": {},
            "errors_count": 0,
            "finished_time": null,
            "git_ref": "v5.14-rc7",
            "git_repo": "https://git.kernel.org/pub/scm/linux/kernel/git/torvalds/linux.git",
            "git_sha": "e22ce8eb631bdc47a4a4ea7ecf4e4ba499db4f93",
            "image_sha": "",
            "kconfig": [
                "defconfig"
            ],
            "kernel_image": "",
            "kernel_patch_file": "",
            "make_variables": {},
            "no_cache": true,
            "plan": "24KQq3VIJI37EyL9qWpoYpJNSJl",
            "project": "linaro/anders",
            "provisioning_time": "2022-01-28T13:36:27.091537",
            "result": "unknown",
            "running_time": null,
            "state": "provisioning",
            "target_arch": "arm64",
            "targets": [],
            "toolchain": "gcc-10",
            "uid": "24KQqJVm5zinkgqxSCmjw469OI6",
            "user": "anders.roxell@linaro.org",
            "user_agent": "tuxsuite/0.42.3",
            "waited_by": [],
            "warnings_count": 0
        },
        "24KQqJh9ziHMnboZhoWRK6dGuu0": {
            "build_name": "",
            "client_token": "5f1699af-2540-4b52-8ef5-05616e8181c7",
            "download_url": "https://builds.tuxbuild.com/24KQqJh9ziHMnboZhoWRK6dGuu0/",
            "environment": {},
            "errors_count": 0,
            "finished_time": null,
            "git_ref": "v5.14-rc7",
            "git_repo": "https://git.kernel.org/pub/scm/linux/kernel/git/torvalds/linux.git",
            "git_sha": "e22ce8eb631bdc47a4a4ea7ecf4e4ba499db4f93",
            "image_sha": "",
            "kconfig": [
                "defconfig"
            ],
            "kernel_image": "",
            "kernel_patch_file": "",
            "make_variables": {
                "LLVM": "1",
                "LLVM_IAS": "1"
            },
            "no_cache": true,
            "plan": "24KQq3VIJI37EyL9qWpoYpJNSJl",
            "project": "linaro/anders",
            "provisioning_time": "2022-01-28T13:36:27.045346",
            "result": "unknown",
            "running_time": null,
            "state": "provisioning",
            "target_arch": "arm64",
            "targets": [],
            "toolchain": "clang-13",
            "uid": "24KQqJh9ziHMnboZhoWRK6dGuu0",
            "user": "anders.roxell@linaro.org",
            "user_agent": "tuxsuite/0.42.3",
            "waited_by": [],
            "warnings_count": 0
        },
        "24KQqJnL7PhalpxNWFWG84IIzAe": {
            "build_name": "",
            "client_token": "41c91fdf-b9bc-4f3d-a877-8954a6a4c9a3",
            "download_url": "https://builds.tuxbuild.com/24KQqJnL7PhalpxNWFWG84IIzAe/",
            "environment": {},
            "errors_count": 0,
            "finished_time": null,
            "git_ref": "v5.14-rc7",
            "git_repo": "https://git.kernel.org/pub/scm/linux/kernel/git/torvalds/linux.git",
            "git_sha": "e22ce8eb631bdc47a4a4ea7ecf4e4ba499db4f93",
            "image_sha": "",
            "kconfig": [
                "defconfig"
            ],
            "kernel_image": "",
            "kernel_patch_file": "",
            "make_variables": {},
            "no_cache": true,
            "plan": "24KQq3VIJI37EyL9qWpoYpJNSJl",
            "project": "linaro/anders",
            "provisioning_time": "2022-01-28T13:36:27.023650",
            "result": "unknown",
            "running_time": null,
            "state": "provisioning",
            "target_arch": "arm64",
            "targets": [],
            "toolchain": "gcc-11",
            "uid": "24KQqJnL7PhalpxNWFWG84IIzAe",
            "user": "anders.roxell@linaro.org",
            "user_agent": "tuxsuite/0.42.3",
            "waited_by": [],
            "warnings_count": 0
        },
        "24KQqKKnYjosQJ5ZBMqxHJr1znH": {
            "build_name": "",
            "client_token": "83e782af-a8fc-42b1-83ac-79e8c59bfdad",
            "download_url": "https://builds.tuxbuild.com/24KQqKKnYjosQJ5ZBMqxHJr1znH/",
            "environment": {},
            "errors_count": 0,
            "finished_time": null,
            "git_ref": "v5.14-rc7",
            "git_repo": "https://git.kernel.org/pub/scm/linux/kernel/git/torvalds/linux.git",
            "git_sha": "e22ce8eb631bdc47a4a4ea7ecf4e4ba499db4f93",
            "image_sha": "",
            "kconfig": [
                "defconfig"
            ],
            "kernel_image": "",
            "kernel_patch_file": "",
            "make_variables": {},
            "no_cache": true,
            "plan": "24KQq3VIJI37EyL9qWpoYpJNSJl",
            "project": "linaro/anders",
            "provisioning_time": "2022-01-28T13:36:27.199295",
            "result": "unknown",
            "running_time": null,
            "state": "provisioning",
            "target_arch": "arm64",
            "targets": [],
            "toolchain": "gcc-11",
            "uid": "24KQqKKnYjosQJ5ZBMqxHJr1znH",
            "user": "anders.roxell@linaro.org",
            "user_agent": "tuxsuite/0.42.3",
            "waited_by": [],
            "warnings_count": 0
        },
        "24KQqL9Ju8J66drsjCNtXFQ3q2Y": {
            "build_name": "",
            "client_token": "84910ab4-8abb-43b0-9c5f-22f28118925d",
            "download_url": "https://builds.tuxbuild.com/24KQqL9Ju8J66drsjCNtXFQ3q2Y/",
            "environment": {},
            "errors_count": 0,
            "finished_time": null,
            "git_ref": "v5.14-rc7",
            "git_repo": "https://git.kernel.org/pub/scm/linux/kernel/git/torvalds/linux.git",
            "git_sha": "e22ce8eb631bdc47a4a4ea7ecf4e4ba499db4f93",
            "image_sha": "",
            "kconfig": [
                "defconfig"
            ],
            "kernel_image": "",
            "kernel_patch_file": "",
            "make_variables": {
                "LLVM": "1",
                "LLVM_IAS": "1"
            },
            "no_cache": true,
            "plan": "24KQq3VIJI37EyL9qWpoYpJNSJl",
            "project": "linaro/anders",
            "provisioning_time": "2022-01-28T13:36:27.425733",
            "result": "unknown",
            "running_time": null,
            "state": "provisioning",
            "target_arch": "arm64",
            "targets": [],
            "toolchain": "clang-nightly",
            "uid": "24KQqL9Ju8J66drsjCNtXFQ3q2Y",
            "user": "anders.roxell@linaro.org",
            "user_agent": "tuxsuite/0.42.3",
            "waited_by": [],
            "warnings_count": 0
        },
        "24KQqLC4CAElawLEQ5XDv8dfgyj": {
            "build_name": "",
            "client_token": "8b60204d-19ec-44c9-aafe-91816a98cbb7",
            "download_url": "https://builds.tuxbuild.com/24KQqLC4CAElawLEQ5XDv8dfgyj/",
            "environment": {},
            "errors_count": 0,
            "finished_time": null,
            "git_ref": "v5.14-rc7",
            "git_repo": "https://git.kernel.org/pub/scm/linux/kernel/git/torvalds/linux.git",
            "git_sha": "e22ce8eb631bdc47a4a4ea7ecf4e4ba499db4f93",
            "image_sha": "",
            "kconfig": [
                "defconfig"
            ],
            "kernel_image": "",
            "kernel_patch_file": "",
            "make_variables": {},
            "no_cache": true,
            "plan": "24KQq3VIJI37EyL9qWpoYpJNSJl",
            "project": "linaro/anders",
            "provisioning_time": "2022-01-28T13:36:27.381303",
            "result": "unknown",
            "running_time": null,
            "state": "provisioning",
            "target_arch": "arm64",
            "targets": [],
            "toolchain": "gcc-11",
            "uid": "24KQqLC4CAElawLEQ5XDv8dfgyj",
            "user": "anders.roxell@linaro.org",
            "user_agent": "tuxsuite/0.42.3",
            "waited_by": [],
            "warnings_count": 0
        },
        "24KQqLZ9km8RHDU5acOuu1upu89": {
            "build_name": "",
            "client_token": "2c93058f-5bfe-4a12-80bf-54e2fe6dfa88",
            "download_url": "https://builds.tuxbuild.com/24KQqLZ9km8RHDU5acOuu1upu89/",
            "environment": {},
            "errors_count": 0,
            "finished_time": null,
            "git_ref": "v5.14-rc7",
            "git_repo": "https://git.kernel.org/pub/scm/linux/kernel/git/torvalds/linux.git",
            "git_sha": "e22ce8eb631bdc47a4a4ea7ecf4e4ba499db4f93",
            "image_sha": "",
            "kconfig": [
                "defconfig"
            ],
            "kernel_image": "",
            "kernel_patch_file": "",
            "make_variables": {
                "LLVM": "1",
                "LLVM_IAS": "1"
            },
            "no_cache": true,
            "plan": "24KQq3VIJI37EyL9qWpoYpJNSJl",
            "project": "linaro/anders",
            "provisioning_time": "2022-01-28T13:36:27.156909",
            "result": "unknown",
            "running_time": null,
            "state": "provisioning",
            "target_arch": "arm64",
            "targets": [],
            "toolchain": "clang-nightly",
            "uid": "24KQqLZ9km8RHDU5acOuu1upu89",
            "user": "anders.roxell@linaro.org",
            "user_agent": "tuxsuite/0.42.3",
            "waited_by": [],
            "warnings_count": 0
        },
        "24KQqM0q7KFCQxaJbrtmxtGQsAm": {
            "build_name": "",
            "client_token": "fac1edb3-d3b9-4e5f-a4ae-4d5b3dd9d61d",
            "download_url": "https://builds.tuxbuild.com/24KQqM0q7KFCQxaJbrtmxtGQsAm/",
            "environment": {},
            "errors_count": 0,
            "finished_time": null,
            "git_ref": "v5.14-rc7",
            "git_repo": "https://git.kernel.org/pub/scm/linux/kernel/git/torvalds/linux.git",
            "git_sha": "e22ce8eb631bdc47a4a4ea7ecf4e4ba499db4f93",
            "image_sha": "",
            "kconfig": [
                "defconfig"
            ],
            "kernel_image": "",
            "kernel_patch_file": "",
            "make_variables": {},
            "no_cache": true,
            "plan": "24KQq3VIJI37EyL9qWpoYpJNSJl",
            "project": "linaro/anders",
            "provisioning_time": "2022-01-28T13:36:27.178126",
            "result": "unknown",
            "running_time": null,
            "state": "provisioning",
            "target_arch": "arm64",
            "targets": [],
            "toolchain": "gcc-10",
            "uid": "24KQqM0q7KFCQxaJbrtmxtGQsAm",
            "user": "anders.roxell@linaro.org",
            "user_agent": "tuxsuite/0.42.3",
            "waited_by": [],
            "warnings_count": 0
        },
        "24KQqMBHh63087Q01WqF04YJcNF": {
            "build_name": "",
            "client_token": "63e61148-5d81-4357-862f-4106564b1f16",
            "download_url": "https://builds.tuxbuild.com/24KQqMBHh63087Q01WqF04YJcNF/",
            "environment": {},
            "errors_count": 0,
            "finished_time": null,
            "git_ref": "v5.14-rc7",
            "git_repo": "https://git.kernel.org/pub/scm/linux/kernel/git/torvalds/linux.git",
            "git_sha": "e22ce8eb631bdc47a4a4ea7ecf4e4ba499db4f93",
            "image_sha": "",
            "kconfig": [
                "defconfig"
            ],
            "kernel_image": "",
            "kernel_patch_file": "",
            "make_variables": {},
            "no_cache": true,
            "plan": "24KQq3VIJI37EyL9qWpoYpJNSJl",
            "project": "linaro/anders",
            "provisioning_time": "2022-01-28T13:36:27.002499",
            "result": "unknown",
            "running_time": null,
            "state": "provisioning",
            "target_arch": "arm64",
            "targets": [],
            "toolchain": "gcc-10",
            "uid": "24KQqMBHh63087Q01WqF04YJcNF",
            "user": "anders.roxell@linaro.org",
            "user_agent": "tuxsuite/0.42.3",
            "waited_by": [],
            "warnings_count": 0
        },
        "24KQqMK6xFEWxTHMyZQ0gUvzUPu": {
            "build_name": "",
            "client_token": "28a9b635-3afb-4696-bba9-f4f0b4ec7878",
            "download_url": "https://builds.tuxbuild.com/24KQqMK6xFEWxTHMyZQ0gUvzUPu/",
            "environment": {},
            "errors_count": 0,
            "finished_time": null,
            "git_ref": "v5.14-rc7",
            "git_repo": "https://git.kernel.org/pub/scm/linux/kernel/git/torvalds/linux.git",
            "git_sha": "e22ce8eb631bdc47a4a4ea7ecf4e4ba499db4f93",
            "image_sha": "",
            "kconfig": [
                "defconfig"
            ],
            "kernel_image": "",
            "kernel_patch_file": "",
            "make_variables": {
                "LLVM": "1",
                "LLVM_IAS": "1"
            },
            "no_cache": true,
            "plan": "24KQq3VIJI37EyL9qWpoYpJNSJl",
            "project": "linaro/anders",
            "provisioning_time": "2022-01-28T13:36:27.069727",
            "result": "unknown",
            "running_time": null,
            "state": "provisioning",
            "target_arch": "arm64",
            "targets": [],
            "toolchain": "clang-nightly",
            "uid": "24KQqMK6xFEWxTHMyZQ0gUvzUPu",
            "user": "anders.roxell@linaro.org",
            "user_agent": "tuxsuite/0.42.3",
            "waited_by": [],
            "warnings_count": 0
        },
        "24KQqMU8RzAYVjFR6KLV5dagHtu": {
            "build_name": "",
            "client_token": "4e338ff0-e6d7-4640-982f-7aeba7e0596b",
            "download_url": "https://builds.tuxbuild.com/24KQqMU8RzAYVjFR6KLV5dagHtu/",
            "environment": {},
            "errors_count": 0,
            "finished_time": null,
            "git_ref": "v5.14-rc7",
            "git_repo": "https://git.kernel.org/pub/scm/linux/kernel/git/torvalds/linux.git",
            "git_sha": "e22ce8eb631bdc47a4a4ea7ecf4e4ba499db4f93",
            "image_sha": "",
            "kconfig": [
                "defconfig"
            ],
            "kernel_image": "",
            "kernel_patch_file": "",
            "make_variables": {},
            "no_cache": true,
            "plan": "24KQq3VIJI37EyL9qWpoYpJNSJl",
            "project": "linaro/anders",
            "provisioning_time": "2022-01-28T13:36:27.269712",
            "result": "unknown",
            "running_time": null,
            "state": "provisioning",
            "target_arch": "arm64",
            "targets": [],
            "toolchain": "gcc-10",
            "uid": "24KQqMU8RzAYVjFR6KLV5dagHtu",
            "user": "anders.roxell@linaro.org",
            "user_agent": "tuxsuite/0.42.3",
            "waited_by": [],
            "warnings_count": 0
        },
        "24KQqMtfg9JVTDv3hwi0avuIn7s": {
            "build_name": "",
            "client_token": "1ad89e94-1e3c-49f7-b5a4-661064555f7d",
            "download_url": "https://builds.tuxbuild.com/24KQqMtfg9JVTDv3hwi0avuIn7s/",
            "environment": {},
            "errors_count": 0,
            "finished_time": null,
            "git_ref": "v5.14-rc7",
            "git_repo": "https://git.kernel.org/pub/scm/linux/kernel/git/torvalds/linux.git",
            "git_sha": "e22ce8eb631bdc47a4a4ea7ecf4e4ba499db4f93",
            "image_sha": "",
            "kconfig": [
                "defconfig"
            ],
            "kernel_image": "",
            "kernel_patch_file": "",
            "make_variables": {
                "LLVM": "1",
                "LLVM_IAS": "1"
            },
            "no_cache": true,
            "plan": "24KQq3VIJI37EyL9qWpoYpJNSJl",
            "project": "linaro/anders",
            "provisioning_time": "2022-01-28T13:36:27.134064",
            "result": "unknown",
            "running_time": null,
            "state": "provisioning",
            "target_arch": "arm64",
            "targets": [],
            "toolchain": "clang-13",
            "uid": "24KQqMtfg9JVTDv3hwi0avuIn7s",
            "user": "anders.roxell@linaro.org",
            "user_agent": "tuxsuite/0.42.3",
            "waited_by": [],
            "warnings_count": 0
        },
        "24KQqN7O9CNqfg81UYFKov8kuGE": {
            "build_name": "",
            "client_token": "cc68a845-4df7-4242-969e-73d14615da1b",
            "download_url": "https://builds.tuxbuild.com/24KQqN7O9CNqfg81UYFKov8kuGE/",
            "environment": {},
            "errors_count": 0,
            "finished_time": null,
            "git_ref": "v5.14-rc7",
            "git_repo": "https://git.kernel.org/pub/scm/linux/kernel/git/torvalds/linux.git",
            "git_sha": "e22ce8eb631bdc47a4a4ea7ecf4e4ba499db4f93",
            "image_sha": "",
            "kconfig": [
                "defconfig"
            ],
            "kernel_image": "",
            "kernel_patch_file": "",
            "make_variables": {
                "LLVM": "1",
                "LLVM_IAS": "1"
            },
            "no_cache": true,
            "plan": "24KQq3VIJI37EyL9qWpoYpJNSJl",
            "project": "linaro/anders",
            "provisioning_time": "2022-01-28T13:36:27.312343",
            "result": "unknown",
            "running_time": null,
            "state": "provisioning",
            "target_arch": "arm64",
            "targets": [],
            "toolchain": "clang-13",
            "uid": "24KQqN7O9CNqfg81UYFKov8kuGE",
            "user": "anders.roxell@linaro.org",
            "user_agent": "tuxsuite/0.42.3",
            "waited_by": [],
            "warnings_count": 0
        }
    },
    "tests": {
        "24KQqOF7EtmO13h6Thfl4VFZLRp": {
            "ap_romfw": null,
            "boot_args": null,
            "device": "qemu-arm64",
            "finished_time": null,
            "fip": null,
            "kernel": null,
            "mcp_fw": null,
            "mcp_romfw": null,
            "modules": null,
            "parameters": [],
            "plan": "24KQq3VIJI37EyL9qWpoYpJNSJl",
            "project": "linaro/anders",
            "provisioning_time": null,
            "result": "unknown",
            "results": {},
            "retries": 0,
            "retries_messages": [],
            "rootfs": null,
            "running_time": null,
            "scp_fw": null,
            "scp_romfw": null,
            "state": "waiting",
            "tests": [
                "boot"
            ],
            "uid": "24KQqOF7EtmO13h6Thfl4VFZLRp",
            "user": "anders.roxell@linaro.org",
            "user_agent": "tuxsuite/0.42.3",
            "waiting_for": "24KQqJVm5zinkgqxSCmjw469OI6"
        },
        "24KQqOGNkJ9NIXz4wS84BrzntUb": {
            "ap_romfw": null,
            "boot_args": null,
            "device": "qemu-arm64",
            "finished_time": null,
            "fip": null,
            "kernel": null,
            "mcp_fw": null,
            "mcp_romfw": null,
            "modules": null,
            "parameters": [],
            "plan": "24KQq3VIJI37EyL9qWpoYpJNSJl",
            "project": "linaro/anders",
            "provisioning_time": null,
            "result": "unknown",
            "results": {},
            "retries": 0,
            "retries_messages": [],
            "rootfs": null,
            "running_time": null,
            "scp_fw": null,
            "scp_romfw": null,
            "state": "waiting",
            "tests": [
                "boot"
            ],
            "uid": "24KQqOGNkJ9NIXz4wS84BrzntUb",
            "user": "anders.roxell@linaro.org",
            "user_agent": "tuxsuite/0.42.3",
            "waiting_for": "24KQqMU8RzAYVjFR6KLV5dagHtu"
        },
        "24KQqPHEBQJqY4QA2fbImRrqqLl": {
            "ap_romfw": null,
            "boot_args": null,
            "device": "qemu-arm64",
            "finished_time": null,
            "fip": null,
            "kernel": null,
            "mcp_fw": null,
            "mcp_romfw": null,
            "modules": null,
            "parameters": [],
            "plan": "24KQq3VIJI37EyL9qWpoYpJNSJl",
            "project": "linaro/anders",
            "provisioning_time": null,
            "result": "unknown",
            "results": {},
            "retries": 0,
            "retries_messages": [],
            "rootfs": null,
            "running_time": null,
            "scp_fw": null,
            "scp_romfw": null,
            "state": "waiting",
            "tests": [
                "boot"
            ],
            "uid": "24KQqPHEBQJqY4QA2fbImRrqqLl",
            "user": "anders.roxell@linaro.org",
            "user_agent": "tuxsuite/0.42.3",
            "waiting_for": "24KQqL9Ju8J66drsjCNtXFQ3q2Y"
        },
        "24KQqPOBF4fnO5V77JwZoZyVVhe": {
            "ap_romfw": null,
            "boot_args": null,
            "device": "qemu-arm64",
            "finished_time": null,
            "fip": null,
            "kernel": null,
            "mcp_fw": null,
            "mcp_romfw": null,
            "modules": null,
            "parameters": [],
            "plan": "24KQq3VIJI37EyL9qWpoYpJNSJl",
            "project": "linaro/anders",
            "provisioning_time": null,
            "result": "unknown",
            "results": {},
            "retries": 0,
            "retries_messages": [],
            "rootfs": null,
            "running_time": null,
            "scp_fw": null,
            "scp_romfw": null,
            "state": "waiting",
            "tests": [
                "boot"
            ],
            "uid": "24KQqPOBF4fnO5V77JwZoZyVVhe",
            "user": "anders.roxell@linaro.org",
            "user_agent": "tuxsuite/0.42.3",
            "waiting_for": "24KQqJnL7PhalpxNWFWG84IIzAe"
        },
        "24KQqPtWfQAGwJSvG2zfuHbKfvW": {
            "ap_romfw": null,
            "boot_args": null,
            "device": "qemu-arm64",
            "finished_time": null,
            "fip": null,
            "kernel": null,
            "mcp_fw": null,
            "mcp_romfw": null,
            "modules": null,
            "parameters": [],
            "plan": "24KQq3VIJI37EyL9qWpoYpJNSJl",
            "project": "linaro/anders",
            "provisioning_time": null,
            "result": "unknown",
            "results": {},
            "retries": 0,
            "retries_messages": [],
            "rootfs": null,
            "running_time": null,
            "scp_fw": null,
            "scp_romfw": null,
            "state": "waiting",
            "tests": [
                "boot"
            ],
            "uid": "24KQqPtWfQAGwJSvG2zfuHbKfvW",
            "user": "anders.roxell@linaro.org",
            "user_agent": "tuxsuite/0.42.3",
            "waiting_for": "24KQqKKnYjosQJ5ZBMqxHJr1znH"
        },
        "24KQqQhWvaMfmPhaMCTjtNSxS36": {
            "ap_romfw": null,
            "boot_args": null,
            "device": "qemu-arm64",
            "finished_time": null,
            "fip": null,
            "kernel": null,
            "mcp_fw": null,
            "mcp_romfw": null,
            "modules": null,
            "parameters": [],
            "plan": "24KQq3VIJI37EyL9qWpoYpJNSJl",
            "project": "linaro/anders",
            "provisioning_time": null,
            "result": "unknown",
            "results": {},
            "retries": 0,
            "retries_messages": [],
            "rootfs": null,
            "running_time": null,
            "scp_fw": null,
            "scp_romfw": null,
            "state": "waiting",
            "tests": [
                "boot"
            ],
            "uid": "24KQqQhWvaMfmPhaMCTjtNSxS36",
            "user": "anders.roxell@linaro.org",
            "user_agent": "tuxsuite/0.42.3",
            "waiting_for": "24KQqN7O9CNqfg81UYFKov8kuGE"
        },
        "24KQqR3xdiUdDnV5BoEdK1FITo8": {
            "ap_romfw": null,
            "boot_args": null,
            "device": "qemu-arm64",
            "finished_time": null,
            "fip": null,
            "kernel": null,
            "mcp_fw": null,
            "mcp_romfw": null,
            "modules": null,
            "parameters": [],
            "plan": "24KQq3VIJI37EyL9qWpoYpJNSJl",
            "project": "linaro/anders",
            "provisioning_time": null,
            "result": "unknown",
            "results": {},
            "retries": 0,
            "retries_messages": [],
            "rootfs": null,
            "running_time": null,
            "scp_fw": null,
            "scp_romfw": null,
            "state": "waiting",
            "tests": [
                "boot"
            ],
            "uid": "24KQqR3xdiUdDnV5BoEdK1FITo8",
            "user": "anders.roxell@linaro.org",
            "user_agent": "tuxsuite/0.42.3",
            "waiting_for": "24KQqMK6xFEWxTHMyZQ0gUvzUPu"
        },
        "24KQqR9m2nau05apZiXO5cH0489": {
            "ap_romfw": null,
            "boot_args": null,
            "device": "qemu-arm64",
            "finished_time": null,
            "fip": null,
            "kernel": null,
            "mcp_fw": null,
            "mcp_romfw": null,
            "modules": null,
            "parameters": [],
            "plan": "24KQq3VIJI37EyL9qWpoYpJNSJl",
            "project": "linaro/anders",
            "provisioning_time": null,
            "result": "unknown",
            "results": {},
            "retries": 0,
            "retries_messages": [],
            "rootfs": null,
            "running_time": null,
            "scp_fw": null,
            "scp_romfw": null,
            "state": "waiting",
            "tests": [
                "boot"
            ],
            "uid": "24KQqR9m2nau05apZiXO5cH0489",
            "user": "anders.roxell@linaro.org",
            "user_agent": "tuxsuite/0.42.3",
            "waiting_for": "24KQqLZ9km8RHDU5acOuu1upu89"
        },
        "24KQqS0uXkYubTev5tvq4jNi0Bh": {
            "ap_romfw": null,
            "boot_args": null,
            "device": "qemu-arm64",
            "finished_time": null,
            "fip": null,
            "kernel": null,
            "mcp_fw": null,
            "mcp_romfw": null,
            "modules": null,
            "parameters": [],
            "plan": "24KQq3VIJI37EyL9qWpoYpJNSJl",
            "project": "linaro/anders",
            "provisioning_time": null,
            "result": "unknown",
            "results": {},
            "retries": 0,
            "retries_messages": [],
            "rootfs": null,
            "running_time": null,
            "scp_fw": null,
            "scp_romfw": null,
            "state": "waiting",
            "tests": [
                "boot"
            ],
            "uid": "24KQqS0uXkYubTev5tvq4jNi0Bh",
            "user": "anders.roxell@linaro.org",
            "user_agent": "tuxsuite/0.42.3",
            "waiting_for": "24KQqIzlEck9e6kuVKxbOD3CdPm"
        },
        "24KQqSIirPNSsZK9DKjXDNEEqFq": {
            "ap_romfw": null,
            "boot_args": null,
            "device": "qemu-arm64",
            "finished_time": null,
            "fip": null,
            "kernel": null,
            "mcp_fw": null,
            "mcp_romfw": null,
            "modules": null,
            "parameters": [],
            "plan": "24KQq3VIJI37EyL9qWpoYpJNSJl",
            "project": "linaro/anders",
            "provisioning_time": null,
            "result": "unknown",
            "results": {},
            "retries": 0,
            "retries_messages": [],
            "rootfs": null,
            "running_time": null,
            "scp_fw": null,
            "scp_romfw": null,
            "state": "waiting",
            "tests": [
                "boot"
            ],
            "uid": "24KQqSIirPNSsZK9DKjXDNEEqFq",
            "user": "anders.roxell@linaro.org",
            "user_agent": "tuxsuite/0.42.3",
            "waiting_for": "24KQqH4DrTPKQ4VnA5S67DGAcBY"
        },
        "24KQqSUGdddkN6hgCr4J7fkWVjv": {
            "ap_romfw": null,
            "boot_args": null,
            "device": "qemu-arm64",
            "finished_time": null,
            "fip": null,
            "kernel": null,
            "mcp_fw": null,
            "mcp_romfw": null,
            "modules": null,
            "parameters": [],
            "plan": "24KQq3VIJI37EyL9qWpoYpJNSJl",
            "project": "linaro/anders",
            "provisioning_time": null,
            "result": "unknown",
            "results": {},
            "retries": 0,
            "retries_messages": [],
            "rootfs": null,
            "running_time": null,
            "scp_fw": null,
            "scp_romfw": null,
            "state": "waiting",
            "tests": [
                "boot"
            ],
            "uid": "24KQqSUGdddkN6hgCr4J7fkWVjv",
            "user": "anders.roxell@linaro.org",
            "user_agent": "tuxsuite/0.42.3",
            "waiting_for": "24KQqIvHy9S5rx6i1ZVLmgAlpzr"
        },
        "24KQqSiLBpTkrzgsvzx6fAXuU19": {
            "ap_romfw": null,
            "boot_args": null,
            "device": "qemu-arm64",
            "finished_time": null,
            "fip": null,
            "kernel": null,
            "mcp_fw": null,
            "mcp_romfw": null,
            "modules": null,
            "parameters": [],
            "plan": "24KQq3VIJI37EyL9qWpoYpJNSJl",
            "project": "linaro/anders",
            "provisioning_time": null,
            "result": "unknown",
            "results": {},
            "retries": 0,
            "retries_messages": [],
            "rootfs": null,
            "running_time": null,
            "scp_fw": null,
            "scp_romfw": null,
            "state": "waiting",
            "tests": [
                "boot"
            ],
            "uid": "24KQqSiLBpTkrzgsvzx6fAXuU19",
            "user": "anders.roxell@linaro.org",
            "user_agent": "tuxsuite/0.42.3",
            "waiting_for": "24KQqLC4CAElawLEQ5XDv8dfgyj"
        },
        "24KQqSnhsmBXV1V7cKf3vuGIBsl": {
            "ap_romfw": null,
            "boot_args": null,
            "device": "qemu-arm64",
            "finished_time": null,
            "fip": null,
            "kernel": null,
            "mcp_fw": null,
            "mcp_romfw": null,
            "modules": null,
            "parameters": [],
            "plan": "24KQq3VIJI37EyL9qWpoYpJNSJl",
            "project": "linaro/anders",
            "provisioning_time": null,
            "result": "unknown",
            "results": {},
            "retries": 0,
            "retries_messages": [],
            "rootfs": null,
            "running_time": null,
            "scp_fw": null,
            "scp_romfw": null,
            "state": "waiting",
            "tests": [
                "boot"
            ],
            "uid": "24KQqSnhsmBXV1V7cKf3vuGIBsl",
            "user": "anders.roxell@linaro.org",
            "user_agent": "tuxsuite/0.42.3",
            "waiting_for": "24KQqGiWpCspF1RGa6H4x98BDwl"
        },
        "24KQqTc5JfV46ciWcFmbfAHT3xr": {
            "ap_romfw": null,
            "boot_args": null,
            "device": "qemu-arm64",
            "finished_time": null,
            "fip": null,
            "kernel": null,
            "mcp_fw": null,
            "mcp_romfw": null,
            "modules": null,
            "parameters": [],
            "plan": "24KQq3VIJI37EyL9qWpoYpJNSJl",
            "project": "linaro/anders",
            "provisioning_time": null,
            "result": "unknown",
            "results": {},
            "retries": 0,
            "retries_messages": [],
            "rootfs": null,
            "running_time": null,
            "scp_fw": null,
            "scp_romfw": null,
            "state": "waiting",
            "tests": [
                "boot"
            ],
            "uid": "24KQqTc5JfV46ciWcFmbfAHT3xr",
            "user": "anders.roxell@linaro.org",
            "user_agent": "tuxsuite/0.42.3",
            "waiting_for": "24KQqM0q7KFCQxaJbrtmxtGQsAm"
        },
        "24KQqUWtzNDW5jqPuwp8p0DzGtm": {
            "ap_romfw": null,
            "boot_args": null,
            "device": "qemu-arm64",
            "finished_time": null,
            "fip": null,
            "kernel": null,
            "mcp_fw": null,
            "mcp_romfw": null,
            "modules": null,
            "parameters": [],
            "plan": "24KQq3VIJI37EyL9qWpoYpJNSJl",
            "project": "linaro/anders",
            "provisioning_time": null,
            "result": "unknown",
            "results": {},
            "retries": 0,
            "retries_messages": [],
            "rootfs": null,
            "running_time": null,
            "scp_fw": null,
            "scp_romfw": null,
            "state": "waiting",
            "tests": [
                "boot"
            ],
            "uid": "24KQqUWtzNDW5jqPuwp8p0DzGtm",
            "user": "anders.roxell@linaro.org",
            "user_agent": "tuxsuite/0.42.3",
            "waiting_for": "24KQqJh9ziHMnboZhoWRK6dGuu0"
        },
        "24KQqUom9NUWaqU5oGpSVvqYfS4": {
            "ap_romfw": null,
            "boot_args": null,
            "device": "qemu-arm64",
            "finished_time": null,
            "fip": null,
            "kernel": null,
            "mcp_fw": null,
            "mcp_romfw": null,
            "modules": null,
            "parameters": [],
            "plan": "24KQq3VIJI37EyL9qWpoYpJNSJl",
            "project": "linaro/anders",
            "provisioning_time": null,
            "result": "unknown",
            "results": {},
            "retries": 0,
            "retries_messages": [],
            "rootfs": null,
            "running_time": null,
            "scp_fw": null,
            "scp_romfw": null,
            "state": "waiting",
            "tests": [
                "boot"
            ],
            "uid": "24KQqUom9NUWaqU5oGpSVvqYfS4",
            "user": "anders.roxell@linaro.org",
            "user_agent": "tuxsuite/0.42.3",
            "waiting_for": "24KQqGgaiOMe5gskvp0WSnXsJ9h"
        },
        "24KQqUsyD1Hsk8EAugyBUMxXJvb": {
            "ap_romfw": null,
            "boot_args": null,
            "device": "qemu-arm64",
            "finished_time": null,
            "fip": null,
            "kernel": null,
            "mcp_fw": null,
            "mcp_romfw": null,
            "modules": null,
            "parameters": [],
            "plan": "24KQq3VIJI37EyL9qWpoYpJNSJl",
            "project": "linaro/anders",
            "provisioning_time": null,
            "result": "unknown",
            "results": {},
            "retries": 0,
            "retries_messages": [],
            "rootfs": null,
            "running_time": null,
            "scp_fw": null,
            "scp_romfw": null,
            "state": "waiting",
            "tests": [
                "boot"
            ],
            "uid": "24KQqUsyD1Hsk8EAugyBUMxXJvb",
            "user": "anders.roxell@linaro.org",
            "user_agent": "tuxsuite/0.42.3",
            "waiting_for": "24KQqGtxkiUHZv2CEqt2FxByU62"
        },
        "24KQqUtpG92Y9C46K072G1KhlqC": {
            "ap_romfw": null,
            "boot_args": null,
            "device": "qemu-arm64",
            "finished_time": null,
            "fip": null,
            "kernel": null,
            "mcp_fw": null,
            "mcp_romfw": null,
            "modules": null,
            "parameters": [],
            "plan": "24KQq3VIJI37EyL9qWpoYpJNSJl",
            "project": "linaro/anders",
            "provisioning_time": null,
            "result": "unknown",
            "results": {},
            "retries": 0,
            "retries_messages": [],
            "rootfs": null,
            "running_time": null,
            "scp_fw": null,
            "scp_romfw": null,
            "state": "waiting",
            "tests": [
                "boot"
            ],
            "uid": "24KQqUtpG92Y9C46K072G1KhlqC",
            "user": "anders.roxell@linaro.org",
            "user_agent": "tuxsuite/0.42.3",
            "waiting_for": "24KQqMBHh63087Q01WqF04YJcNF"
        },
        "24KQqV3eQR618PyNNkTRhzHXgV6": {
            "ap_romfw": null,
            "boot_args": null,
            "device": "qemu-arm64",
            "finished_time": null,
            "fip": null,
            "kernel": null,
            "mcp_fw": null,
            "mcp_romfw": null,
            "modules": null,
            "parameters": [],
            "plan": "24KQq3VIJI37EyL9qWpoYpJNSJl",
            "project": "linaro/anders",
            "provisioning_time": null,
            "result": "unknown",
            "results": {},
            "retries": 0,
            "retries_messages": [],
            "rootfs": null,
            "running_time": null,
            "scp_fw": null,
            "scp_romfw": null,
            "state": "waiting",
            "tests": [
                "boot"
            ],
            "uid": "24KQqV3eQR618PyNNkTRhzHXgV6",
            "user": "anders.roxell@linaro.org",
            "user_agent": "tuxsuite/0.42.3",
            "waiting_for": "24KQqMtfg9JVTDv3hwi0avuIn7s"
        },
        "24KQqVU203vGuEWZlVlMZafaTrf": {
            "ap_romfw": null,
            "boot_args": null,
            "device": "qemu-arm64",
            "finished_time": null,
            "fip": null,
            "kernel": null,
            "mcp_fw": null,
            "mcp_romfw": null,
            "modules": null,
            "parameters": [],
            "plan": "24KQq3VIJI37EyL9qWpoYpJNSJl",
            "project": "linaro/anders",
            "provisioning_time": null,
            "result": "unknown",
            "results": {},
            "retries": 0,
            "retries_messages": [],
            "rootfs": null,
            "running_time": null,
            "scp_fw": null,
            "scp_romfw": null,
            "state": "waiting",
            "tests": [
                "boot"
            ],
            "uid": "24KQqVU203vGuEWZlVlMZafaTrf",
            "user": "anders.roxell@linaro.org",
            "user_agent": "tuxsuite/0.42.3",
            "waiting_for": "24KQqJ55W2Z12ijhBISEJN2Y1Zd"
        }
    }
}