{
    "builds": {
        "24KQrOZfJxAOms4TGbILX3Z9OIl": {
            "build_name": "",
            "client_token": "0a67634e-1877-40a9-a762-8c17db056338",
            "download_url": "https://builds.tuxbuild.com/24KQrOZfJxAOms4TGbILX3Z9OIl/",
            "environment": {},
            "errors_count": 0,
            "finished_time": null,
            "git_ref": "v5.15-rc2",
            "git_repo": "https://git.kernel.org/pub/scm/linux/kernel/git/torvalds/linux.git",
            "git_sha": "e4e737bb5c170df6135a127739a9e6148ee3da82",
            "image_sha": "",
            "kconfig": [
                "tinyconfig"
            ],
            "kernel_image": "",
            "kernel_patch_file": "",
            "make_variables": {
                "LLVM": "1",
                "LLVM_IAS": "1"
            },
            "no_cache": true,
            "plan": "24KQrL35ySporeIMzdaoGPUmwvx",
            "project": "linaro/anders",
            "provisioning_time": "2022-01-28T13:36:36.792588",
            "result": "unknown",
            "running_time": null,
            "state": "provisioning",
            "target_arch": "arm64",
            "targets": [],
            "toolchain": "clang-13",
            "uid": "24KQrOZfJxAOms4TGbILX3Z9OIl",
            "user": "anders.roxell@linaro.org",
            "user_agent": "tuxsuite/0.42.3",
            "waited_by": [],
            "warnings_count": 0
        },
        "24KQrOcSAYQPp7Fc18S5U9zlObM": {
            "build_name": "",
            "client_token": "ad16cb8d-a734-48f1-be14-57f6e864a2f4",
            "download_url": "https://builds.tuxbuild.com/24KQrOcSAYQPp7Fc18S5U9zlObM/",
            "environment": {},
            "errors_count": 0,
            "finished_time": null,
            "git_ref": "v5.15-rc2",
            "git_repo": "https://git.kernel.org/pub/scm/linux/kernel/git/torvalds/linux.git",
            "git_sha": "e4e737bb5c170df6135a127739a9e6148ee3da82",
            "image_sha": "",
            "kconfig": [
                "tinyconfig"
            ],
            "kernel_image": "",
            "kernel_patch_file": "",
            "make_variables": {},
            "no_cache": true,
            "plan": "24KQrL35ySporeIMzdaoGPUmwvx",
            "project": "linaro/anders",
            "provisioning_time": "2022-01-28T13:36:36.922035",
            "result": "unknown",
            "running_time": null,
            "state": "provisioning",
            "target_arch": "arm64",
            "targets": [],
            "toolchain": "gcc-10",
            "uid": "24KQrOcSAYQPp7Fc18S5U9zlObM",
            "user": "anders.roxell@linaro.org",
            "user_agent": "tuxsuite/0.42.3",
            "waited_by": [],
            "warnings_count": 0
        },
        "24KQrPYsg59Eu0SydL4xLcG5lre": {
            "build_name": "",
            "client_token": "baf7b2ca-7c0e-47a2-89c5-c66b5fe90139",
            "download_url": "https://builds.tuxbuild.com/24KQrPYsg59Eu0SydL4xLcG5lre/",
            "environment": {},
            "errors_count": 0,
            "finished_time": null,
            "git_ref": "v5.15-rc2",
            "git_repo": "https://git.kernel.org/pub/scm/linux/kernel/git/torvalds/linux.git",
            "git_sha": "e4e737bb5c170df6135a127739a9e6148ee3da82",
            "image_sha": "",
            "kconfig": [
                "tinyconfig"
            ],
            "kernel_image": "",
            "kernel_patch_file": "",
            "make_variables": {
                "LLVM": "1",
                "LLVM_IAS": "1"
            },
            "no_cache": true,
            "plan": "24KQrL35ySporeIMzdaoGPUmwvx",
            "project": "linaro/anders",
            "provisioning_time": "2022-01-28T13:36:36.963942",
            "result": "unknown",
            "running_time": null,
            "state": "provisioning",
            "target_arch": "arm64",
            "targets": [],
            "toolchain": "clang-13",
            "uid": "24KQrPYsg59Eu0SydL4xLcG5lre",
            "user": "anders.roxell@linaro.org",
            "user_agent": "tuxsuite/0.42.3",
            "waited_by": [],
            "warnings_count": 0
        },
        "24KQrPxr05eY5P13AHLhl4nXEWt": {
            "build_name": "",
            "client_token": "d434edb3-3b14-40cd-b35f-bae2dade0b0d",
            "download_url": "https://builds.tuxbuild.com/24KQrPxr05eY5P13AHLhl4nXEWt/",
            "environment": {},
            "errors_count": 0,
            "finished_time": null,
            "git_ref": "v5.15-rc2",
            "git_repo": "https://git.kernel.org/pub/scm/linux/kernel/git/torvalds/linux.git",
            "git_sha": "e4e737bb5c170df6135a127739a9e6148ee3da82",
            "image_sha": "",
            "kconfig": [
                "tinyconfig"
            ],
            "kernel_image": "",
            "kernel_patch_file": "",
            "make_variables": {},
            "no_cache": true,
            "plan": "24KQrL35ySporeIMzdaoGPUmwvx",
            "project": "linaro/anders",
            "provisioning_time": "2022-01-28T13:36:36.668013",
            "result": "unknown",
            "running_time": null,
            "state": "provisioning",
            "target_arch": "arm64",
            "targets": [],
            "toolchain": "gcc-10",
            "uid": "24KQrPxr05eY5P13AHLhl4nXEWt",
            "user": "anders.roxell@linaro.org",
            "user_agent": "tuxsuite/0.42.3",
            "waited_by": [],
            "warnings_count": 0
        },
        "24KQrQ77ZcVw18vQXgZPteIkZpb": {
            "build_name": "",
            "client_token": "13e8a773-572c-41ea-864e-4cc46770f6ff",
            "download_url": "https://builds.tuxbuild.com/24KQrQ77ZcVw18vQXgZPteIkZpb/",
            "environment": {},
            "errors_count": 0,
            "finished_time": null,
            "git_ref": "v5.15-rc2",
            "git_repo": "https://git.kernel.org/pub/scm/linux/kernel/git/torvalds/linux.git",
            "git_sha": "e4e737bb5c170df6135a127739a9e6148ee3da82",
            "image_sha": "",
            "kconfig": [
                "tinyconfig"
            ],
            "kernel_image": "",
            "kernel_patch_file": "",
            "make_variables": {},
            "no_cache": true,
            "plan": "24KQrL35ySporeIMzdaoGPUmwvx",
            "project": "linaro/anders",
            "provisioning_time": "2022-01-28T13:36:36.858558",
            "result": "unknown",
            "running_time": null,
            "state": "provisioning",
            "target_arch": "arm64",
            "targets": [],
            "toolchain": "gcc-11",
            "uid": "24KQrQ77ZcVw18vQXgZPteIkZpb",
            "user": "anders.roxell@linaro.org",
            "user_agent": "tuxsuite/0.42.3",
            "waited_by": [],
            "warnings_count": 0
        },
        "24KQrQG2elh9prN5AFWf3vosibI": {
            "build_name": "",
            "client_token": "ea3662c2-c876-455d-96b0-90b492f62ff6",
            "download_url": "https://builds.tuxbuild.com/24KQrQG2elh9prN5AFWf3vosibI/",
            "environment": {},
            "errors_count": 0,
            "finished_time": null,
            "git_ref": "v5.15-rc2",
            "git_repo": "https://git.kernel.org/pub/scm/linux/kernel/git/torvalds/linux.git",
            "git_sha": "e4e737bb5c170df6135a127739a9e6148ee3da82",
            "image_sha": "",
            "kconfig": [
                "tinyconfig"
            ],
            "kernel_image": "",
            "kernel_patch_file": "",
            "make_variables": {},
            "no_cache": true,
            "plan": "24KQrL35ySporeIMzdaoGPUmwvx",
            "project": "linaro/anders",
            "provisioning_time": "2022-01-28T13:36:36.751596",
            "result": "unknown",
            "running_time": null,
            "state": "provisioning",
            "target_arch": "arm64",
            "targets": [],
            "toolchain": "gcc-10",
            "uid": "24KQrQG2elh9prN5AFWf3vosibI",
            "user": "anders.roxell@linaro.org",
            "user_agent": "tuxsuite/0.42.3",
            "waited_by": [],
            "warnings_count": 0
        },
        "24KQrQRG5tEowS1lzP8ntc5SXy2": {
            "build_name": "",
            "client_token": "6bd73ec7-cb22-4b9b-9335-c03e1cd6b12a",
            "download_url": "https://builds.tuxbuild.com/24KQrQRG5tEowS1lzP8ntc5SXy2/",
            "environment": {},
            "errors_count": 0,
            "finished_time": null,
            "git_ref": "v5.15-rc2",
            "git_repo": "https://git.kernel.org/pub/scm/linux/kernel/git/torvalds/linux.git",
            "git_sha": "e4e737bb5c170df6135a127739a9e6148ee3da82",
            "image_sha": "",
            "kconfig": [
                "tinyconfig"
            ],
            "kernel_image": "",
            "kernel_patch_file": "",
            "make_variables": {},
            "no_cache": true,
            "plan": "24KQrL35ySporeIMzdaoGPUmwvx",
            "project": "linaro/anders",
            "provisioning_time": "2022-01-28T13:36:36.772009",
            "result": "unknown",
            "running_time": null,
            "state": "provisioning",
            "target_arch": "arm64",
            "targets": [],
            "toolchain": "gcc-11",
            "uid": "24KQrQRG5tEowS1lzP8ntc5SXy2",
            "user": "anders.roxell@linaro.org",
            "user_agent": "tuxsuite/0.42.3",
            "waited_by": [],
            "warnings_count": 0
        },
        "24KQrQopm0drGhC86t5Ccmd3XDv": {
            "build_name": "",
            "client_token": "10d6d97c-0b02-4f1b-8be1-888351dd35e2",
            "download_url": "https://builds.tuxbuild.com/24KQrQopm0drGhC86t5Ccmd3XDv/",
            "environment": {},
            "errors_count": 0,
            "finished_time": null,
            "git_ref": "v5.15-rc2",
            "git_repo": "https://git.kernel.org/pub/scm/linux/kernel/git/torvalds/linux.git",
            "git_sha": "e4e737bb5c170df6135a127739a9e6148ee3da82",
            "image_sha": "",
            "kconfig": [
                "tinyconfig"
            ],
            "kernel_image": "",
            "kernel_patch_file": "",
            "make_variables": {},
            "no_cache": true,
            "plan": "24KQrL35ySporeIMzdaoGPUmwvx",
            "project": "linaro/anders",
            "provisioning_time": "2022-01-28T13:36:36.942880",
            "result": "unknown",
            "running_time": null,
            "state": "provisioning",
            "target_arch": "arm64",
            "targets": [],
            "toolchain": "gcc-11",
            "uid": "24KQrQopm0drGhC86t5Ccmd3XDv",
            "user": "anders.roxell@linaro.org",
            "user_agent": "tuxsuite/0.42.3",
            "waited_by": [],
            "warnings_count": 0
        },
        "24KQrT1VUbWOJqurIBLoGvH5aOm": {
            "build_name": "",
            "client_token": "a636614b-6ffb-4bfc-ab4a-24231965448e",
            "download_url": "https://builds.tuxbuild.com/24KQrT1VUbWOJqurIBLoGvH5aOm/",
            "environment": {},
            "errors_count": 0,
            "finished_time": null,
            "git_ref": "v5.15-rc2",
            "git_repo": "https://git.kernel.org/pub/scm/linux/kernel/git/torvalds/linux.git",
            "git_sha": "e4e737bb5c170df6135a127739a9e6148ee3da82",
            "image_sha": "",
            "kconfig": [
                "tinyconfig"
            ],
            "kernel_image": "",
            "kernel_patch_file": "",
            "make_variables": {
                "LLVM": "1",
                "LLVM_IAS": "1"
            },
            "no_cache": true,
            "plan": "24KQrL35ySporeIMzdaoGPUmwvx",
            "project": "linaro/anders",
            "provisioning_time": "2022-01-28T13:36:36.817230",
            "result": "unknown",
            "running_time": null,
            "state": "provisioning",
            "target_arch": "arm64",
            "targets": [],
            "toolchain": "clang-nightly",
            "uid": "24KQrT1VUbWOJqurIBLoGvH5aOm",
            "user": "anders.roxell@linaro.org",
            "user_agent": "tuxsuite/0.42.3",
            "waited_by": [],
            "warnings_count": 0
        },
        "24KQrTuqsoliF4FvCTtZlovuMjL": {
            "build_name": "",
            "client_token": "db574673-82c6-48c1-8256-83840df080f5",
            "download_url": "https://builds.tuxbuild.com/24KQrTuqsoliF4FvCTtZlovuMjL/",
            "environment": {},
            "errors_count": 0,
            "finished_time": null,
            "git_ref": "v5.15-rc2",
            "git_repo": "https://git.kernel.org/pub/scm/linux/kernel/git/torvalds/linux.git",
            "git_sha": "e4e737bb5c170df6135a127739a9e6148ee3da82",
            "image_sha": "",
            "kconfig": [
                "tinyconfig"
            ],
            "kernel_image": "",
            "kernel_patch_file": "",
            "make_variables": {
                "LLVM": "1",
                "LLVM_IAS": "1"
            },
            "no_cache": true,
            "plan": "24KQrL35ySporeIMzdaoGPUmwvx",
            "project": "linaro/anders",
            "provisioning_time": "2022-01-28T13:36:36.709195",
            "result": "unknown",
            "running_time": null,
            "state": "provisioning",
            "target_arch": "arm64",
            "targets": [],
            "toolchain": "clang-13",
            "uid": "24KQrTuqsoliF4FvCTtZlovuMjL",
            "user": "anders.roxell@linaro.org",
            "user_agent": "tuxsuite/0.42.3",
            "waited_by": [],
            "warnings_count": 0
        },
        "24KQrTyw6wIQgjVl1sNIUyfY6la": {
            "build_name": "",
            "client_token": "a68cfc45-af06-43c9-b1e3-63100eaeab69",
            "download_url": "https://builds.tuxbuild.com/24KQrTyw6wIQgjVl1sNIUyfY6la/",
            "environment": {},
            "errors_count": 0,
            "finished_time": null,
            "git_ref": "v5.15-rc2",
            "git_repo": "https://git.kernel.org/pub/scm/linux/kernel/git/torvalds/linux.git",
            "git_sha": "e4e737bb5c170df6135a127739a9e6148ee3da82",
            "image_sha": "",
            "kconfig": [
                "tinyconfig"
            ],
            "kernel_image": "",
            "kernel_patch_file": "",
            "make_variables": {
                "LLVM": "1",
                "LLVM_IAS": "1"
            },
            "no_cache": true,
            "plan": "24KQrL35ySporeIMzdaoGPUmwvx",
            "project": "linaro/anders",
            "provisioning_time": "2022-01-28T13:36:36.986602",
            "result": "unknown",
            "running_time": null,
            "state": "provisioning",
            "target_arch": "arm64",
            "targets": [],
            "toolchain": "clang-nightly",
            "uid": "24KQrTyw6wIQgjVl1sNIUyfY6la",
            "user": "anders.roxell@linaro.org",
            "user_agent": "tuxsuite/0.42.3",
            "waited_by": [],
            "warnings_count": 0
        },
        "24KQrUTkeyVumRntGCkqBOOr9OD": {
            "build_name": "",
            "client_token": "2fa48651-79c1-42ea-90d8-c517aa2c0673",
            "download_url": "https://builds.tuxbuild.com/24KQrUTkeyVumRntGCkqBOOr9OD/",
            "environment": {},
            "errors_count": 0,
            "finished_time": null,
            "git_ref": "v5.15-rc2",
            "git_repo": "https://git.kernel.org/pub/scm/linux/kernel/git/torvalds/linux.git",
            "git_sha": "e4e737bb5c170df6135a127739a9e6148ee3da82",
            "image_sha": "",
            "kconfig": [
                "tinyconfig"
            ],
            "kernel_image": "",
            "kernel_patch_file": "",
            "make_variables": {
                "LLVM": "1",
                "LLVM_IAS": "1"
            },
            "no_cache": true,
            "plan": "24KQrL35ySporeIMzdaoGPUmwvx",
            "project": "linaro/anders",
            "provisioning_time": "2022-01-28T13:36:36.879070",
            "result": "unknown",
            "running_time": null,
            "state": "provisioning",
            "target_arch": "arm64",
            "targets": [],
            "toolchain": "clang-13",
            "uid": "24KQrUTkeyVumRntGCkqBOOr9OD",
            "user": "anders.roxell@linaro.org",
            "user_agent": "tuxsuite/0.42.3",
            "waited_by": [],
            "warnings_count": 0
        },
        "24KQrUpK5YOURicN2XYNgbuOg54": {
            "build_name": "",
            "client_token": "2524936a-8138-421f-8e25-d23d3f50ff9c",
            "download_url": "https://builds.tuxbuild.com/24KQrUpK5YOURicN2XYNgbuOg54/",
            "environment": {},
            "errors_count": 0,
            "finished_time": null,
            "git_ref": "v5.15-rc2",
            "git_repo": "https://git.kernel.org/pub/scm/linux/kernel/git/torvalds/linux.git",
            "git_sha": "e4e737bb5c170df6135a127739a9e6148ee3da82",
            "image_sha": "",
            "kconfig": [
                "tinyconfig"
            ],
            "kernel_image": "",
            "kernel_patch_file": "",
            "make_variables": {
                "LLVM": "1",
                "LLVM_IAS": "1"
            },
            "no_cache": true,
            "plan": "24KQrL35ySporeIMzdaoGPUmwvx",
            "project": "linaro/anders",
            "provisioning_time": "2022-01-28T13:36:36.731154",
            "result": "unknown",
            "running_time": null,
            "state": "provisioning",
            "target_arch": "arm64",
            "targets": [],
            "toolchain": "clang-nightly",
            "uid": "24KQrUpK5YOURicN2XYNgbuOg54",
            "user": "anders.roxell@linaro.org",
            "user_agent": "tuxsuite/0.42.3",
            "waited_by": [],
            "warnings_count": 0
        },
        "24KQrVPFlx3WA415Yz6u1t8a8dc": {
            "build_name": "",
            "client_token": "04047d3f-2f90-4c76-bbc5-46b2df79b4a6",
            "download_url": "https://builds.tuxbuild.com/24KQrVPFlx3WA415Yz6u1t8a8dc/",
            "environment": {},
            "errors_count": 0,
            "finished_time": null,
            "git_ref": "v5.15-rc2",
            "git_repo": "https://git.kernel.org/pub/scm/linux/kernel/git/torvalds/linux.git",
            "git_sha": "e4e737bb5c170df6135a127739a9e6148ee3da82",
            "image_sha": "",
            "kconfig": [
                "tinyconfig"
            ],
            "kernel_image": "",
            "kernel_patch_file": "",
            "make_variables": {},
            "no_cache": true,
            "plan": "24KQrL35ySporeIMzdaoGPUmwvx",
            "project": "linaro/anders",
            "provisioning_time": "2022-01-28T13:36:36.838042",
            "result": "unknown",
            "running_time": null,
            "state": "provisioning",
            "target_arch": "arm64",
            "targets": [],
            "toolchain": "gcc-10",
            "uid": "24KQrVPFlx3WA415Yz6u1t8a8dc",
            "user": "anders.roxell@linaro.org",
            "user_agent": "tuxsuite/0.42.3",
            "waited_by": [],
            "warnings_count": 0
        },
        "24KQrVbVYnussLo0C7CbAx0GP2e": {
            "build_name": "",
            "client_token": "2f438d27-6e8a-42e7-9992-09bcf0448005",
            "download_url": "https://builds.tuxbuild.com/24KQrVbVYnussLo0C7CbAx0GP2e/",
            "environment": {},
            "errors_count": 0,
            "finished_time": null,
            "git_ref": "v5.15-rc2",
            "git_repo": "https://git.kernel.org/pub/scm/linux/kernel/git/torvalds/linux.git",
            "git_sha": "e4e737bb5c170df6135a127739a9e6148ee3da82",
            "image_sha": "",
            "kconfig": [
                "tinyconfig"
            ],
            "kernel_image": "",
            "kernel_patch_file": "",
            "make_variables": {},
            "no_cache": true,
            "plan": "24KQrL35ySporeIMzdaoGPUmwvx",
            "project": "linaro/anders",
            "provisioning_time": "2022-01-28T13:36:36.688784",
            "result": "unknown",
            "running_time": null,
            "state": "provisioning",
            "target_arch": "arm64",
            "targets": [],
            "toolchain": "gcc-11",
            "uid": "24KQrVbVYnussLo0C7CbAx0GP2e",
            "user": "anders.roxell@linaro.org",
            "user_agent": "tuxsuite/0.42.3",
            "waited_by": [],
            "warnings_count": 0
        },
        "24KQrW2PRIbuE11mq5iqLOzTw8W": {
            "build_name": "",
            "client_token": "2c4e14a6-7df4-4baf-a627-cb6480dd0f9a",
            "download_url": "https://builds.tuxbuild.com/24KQrW2PRIbuE11mq5iqLOzTw8W/",
            "environment": {},
            "errors_count": 0,
            "finished_time": null,
            "git_ref": "v5.15-rc2",
            "git_repo": "https://git.kernel.org/pub/scm/linux/kernel/git/torvalds/linux.git",
            "git_sha": "e4e737bb5c170df6135a127739a9e6148ee3da82",
            "image_sha": "",
            "kconfig": [
                "tinyconfig"
            ],
            "kernel_image": "",
            "kernel_patch_file": "",
            "make_variables": {
                "LLVM": "1",
                "LLVM_IAS": "1"
            },
            "no_cache": true,
            "plan": "24KQrL35ySporeIMzdaoGPUmwvx",
            "project": "linaro/anders",
            "provisioning_time": "2022-01-28T13:36:36.901545",
            "result": "unknown",
            "running_time": null,
            "state": "provisioning",
            "target_arch": "arm64",
            "targets": [],
            "toolchain": "clang-nightly",
            "uid": "24KQrW2PRIbuE11mq5iqLOzTw8W",
            "user": "anders.roxell@linaro.org",
            "user_agent": "tuxsuite/0.42.3",
            "waited_by": [],
            "warnings_count": 0
        },
        "24KQrWd5SEQX9v3teSoeRfkChSQ": {
            "build_name": "",
            "client_token": "2ee641d8-2afb-490d-8005-a17f8ab8066d",
            "download_url": "https://builds.tuxbuild.com/24KQrWd5SEQX9v3teSoeRfkChSQ/",
            "environment": {},
            "errors_count": 0,
            "finished_time": null,
            "git_ref": "v5.15-rc2",
            "git_repo": "https://git.kernel.org/pub/scm/linux/kernel/git/torvalds/linux.git",
            "git_sha": "e4e737bb5c170df6135a127739a9e6148ee3da82",
            "image_sha": "",
            "kconfig": [
                "defconfig"
            ],
            "kernel_image": "",
            "kernel_patch_file": "",
            "make_variables": {
                "LLVM": "1",
                "LLVM_IAS": "1"
            },
            "no_cache": true,
            "plan": "24KQrL35ySporeIMzdaoGPUmwvx",
            "project": "linaro/anders",
            "provisioning_time": "2022-01-28T13:36:37.239972",
            "result": "unknown",
            "running_time": null,
            "state": "provisioning",
            "target_arch": "arm64",
            "targets": [],
            "toolchain": "clang-nightly",
            "uid": "24KQrWd5SEQX9v3teSoeRfkChSQ",
            "user": "anders.roxell@linaro.org",
            "user_agent": "tuxsuite/0.42.3",
            "waited_by": [],
            "warnings_count": 0
        },
        "24KQrWyBoowXc9srshQydgKYSeq": {
            "build_name": "",
            "client_token": "ff599d4c-4414-477c-93bf-aaf3cb98ef55",
            "download_url": "https://builds.tuxbuild.com/24KQrWyBoowXc9srshQydgKYSeq/",
            "environment": {},
            "errors_count": 0,
            "finished_time": null,
            "git_ref": "v5.15-rc2",
            "git_repo": "https://git.kernel.org/pub/scm/linux/kernel/git/torvalds/linux.git",
            "git_sha": "e4e737bb5c170df6135a127739a9e6148ee3da82",
            "image_sha": "",
            "kconfig": [
                "tinyconfig"
            ],
            "kernel_image": "",
            "kernel_patch_file": "",
            "make_variables": {},
            "no_cache": true,
            "plan": "24KQrL35ySporeIMzdaoGPUmwvx",
            "project": "linaro/anders",
            "provisioning_time": "2022-01-28T13:36:37.028551",
            "result": "unknown",
            "running_time": null,
            "state": "provisioning",
            "target_arch": "arm64",
            "targets": [],
            "toolchain": "gcc-11",
            "uid": "24KQrWyBoowXc9srshQydgKYSeq",
            "user": "anders.roxell@linaro.org",
            "user_agent": "tuxsuite/0.42.3",
            "waited_by": [],
            "warnings_count": 0
        },
        "24KQrXcEQYMYXk4bq5VRUow1t46": {
            "build_name": "",
            "client_token": "9ee0c0b4-dd88-4f35-b5cf-cced5d808b4b",
            "download_url": "https://builds.tuxbuild.com/24KQrXcEQYMYXk4bq5VRUow1t46/",
            "environment": {},
            "errors_count": 0,
            "finished_time": null,
            "git_ref": "v5.15-rc2",
            "git_repo": "https://git.kernel.org/pub/scm/linux/kernel/git/torvalds/linux.git",
            "git_sha": "e4e737bb5c170df6135a127739a9e6148ee3da82",
            "image_sha": "",
            "kconfig": [
                "tinyconfig"
            ],
            "kernel_image": "",
            "kernel_patch_file": "",
            "make_variables": {
                "LLVM": "1",
                "LLVM_IAS": "1"
            },
            "no_cache": true,
            "plan": "24KQrL35ySporeIMzdaoGPUmwvx",
            "project": "linaro/anders",
            "provisioning_time": "2022-01-28T13:36:37.070135",
            "result": "unknown",
            "running_time": null,
            "state": "provisioning",
            "target_arch": "arm64",
            "targets": [],
            "toolchain": "clang-nightly",
            "uid": "24KQrXcEQYMYXk4bq5VRUow1t46",
            "user": "anders.roxell@linaro.org",
            "user_agent": "tuxsuite/0.42.3",
            "waited_by": [],
            "warnings_count": 0
        },
        "24KQrXcOlWg6L2kGFXiI0I1aq85": {
            "build_name": "",
            "client_token": "e9902ec7-d9f9-4921-a0d4-d4058eb53e54",
            "download_url": "https://builds.tuxbuild.com/24KQrXcOlWg6L2kGFXiI0I1aq85/",
            "environment": {},
            "errors_count": 0,
            "finished_time": null,
            "git_ref": "v5.15-rc2",
            "git_repo": "https://git.kernel.org/pub/scm/linux/kernel/git/torvalds/linux.git",
            "git_sha": "e4e737bb5c170df6135a127739a9e6148ee3da82",
            "image_sha": "",
            "kconfig": [
                "defconfig"
            ],
            "kernel_image": "",
            "kernel_patch_file": "",
            "make_variables": {},
            "no_cache": true,
            "plan": "24KQrL35ySporeIMzdaoGPUmwvx",
            "project": "linaro/anders",
            "provisioning_time": "2022-01-28T13:36:37.302840",
            "result": "unknown",
            "running_time": null,
            "state": "provisioning",
            "target_arch": "arm64",
            "targets": [],
            "toolchain": "gcc-10",
            "uid": "24KQrXcOlWg6L2kGFXiI0I1aq85",
            "user": "anders.roxell@linaro.org",
            "user_agent": "tuxsuite/0.42.3",
            "waited_by": [],
            "warnings_count": 0
        },
        "24KQrXlETohPJts3dT6maQxICWk": {
            "build_name": "",
            "client_token": "27315ebc-602f-4873-acf6-fb2a3af684e1",
            "download_url": "https://builds.tuxbuild.com/24KQrXlETohPJts3dT6maQxICWk/",
            "environment": {},
            "errors_count": 0,
            "finished_time": null,
            "git_ref": "v5.15-rc2",
            "git_repo": "https://git.kernel.org/pub/scm/linux/kernel/git/torvalds/linux.git",
            "git_sha": "e4e737bb5c170df6135a127739a9e6148ee3da82",
            "image_sha": "",
            "kconfig": [
                "defconfig"
            ],
            "kernel_image": "",
            "kernel_patch_file": "",
            "make_variables": {
                "LLVM": "1",
                "LLVM_IAS": "1"
            },
            "no_cache": true,
            "plan": "24KQrL35ySporeIMzdaoGPUmwvx",
            "project": "linaro/anders",
            "provisioning_time": "2022-01-28T13:36:37.343975",
            "result": "unknown",
            "running_time": null,
            "state": "provisioning",
            "target_arch": "arm64",
            "targets": [],
            "toolchain": "clang-13",
            "uid": "24KQrXlETohPJts3dT6maQxICWk",
            "user": "anders.roxell@linaro.org",
            "user_agent": "tuxsuite/0.42.3",
            "waited_by": [],
            "warnings_count": 0
        },
        "24KQrXoIgUnmW4JDfiFgOXYVU1b": {
            "build_name": "",
            "client_token": "099a5a72-23a8-423b-98c2-85e0aed64ba8",
            "download_url": "https://builds.tuxbuild.com/24KQrXoIgUnmW4JDfiFgOXYVU1b/",
            "environment": {},
            "errors_count": 0,
            "finished_time": null,
            "git_ref": "v5.15-rc2",
            "git_repo": "https://git.kernel.org/pub/scm/linux/kernel/git/torvalds/linux.git",
            "git_sha": "e4e737bb5c170df6135a127739a9e6148ee3da82",
            "image_sha": "",
            "kconfig": [
                "defconfig"
            ],
            "kernel_image": "",
            "kernel_patch_file": "",
            "make_variables": {
                "LLVM": "1",
                "LLVM_IAS": "1"
            },
            "no_cache": true,
            "plan": "24KQrL35ySporeIMzdaoGPUmwvx",
            "project": "linaro/anders",
            "provisioning_time": "2022-01-28T13:36:37.134853",
            "result": "unknown",
            "running_time": null,
            "state": "provisioning",
            "target_arch": "arm64",
            "targets": [],
            "toolchain": "clang-13",
            "uid": "24KQrXoIgUnmW4JDfiFgOXYVU1b",
            "user": "anders.roxell@linaro.org",
            "user_agent": "tuxsuite/0.42.3",
            "waited_by": [],
            "warnings_count": 0
        },
        "24KQrXqKBA8KmUnLTOB6PjXNFEJ": {
            "build_name": "",
            "client_token": "5d14e51b-474f-49fe-98cf-0f5092ddfcaf",
            "download_url": "https://builds.tuxbuild.com/24KQrXqKBA8KmUnLTOB6PjXNFEJ/",
            "environment": {},
            "errors_count": 0,
            "finished_time": null,
            "git_ref": "v5.15-rc2",
            "git_repo": "https://git.kernel.org/pub/scm/linux/kernel/git/torvalds/linux.git",
            "git_sha": "e4e737bb5c170df6135a127739a9e6148ee3da82",
            "image_sha": "",
            "kconfig": [
                "defconfig"
            ],
            "kernel_image": "",
            "kernel_patch_file": "",
            "make_variables": {},
            "no_cache": true,
            "plan": "24KQrL35ySporeIMzdaoGPUmwvx",
            "project": "linaro/anders",
            "provisioning_time": "2022-01-28T13:36:37.092543",
            "result": "unknown",
            "running_time": null,
            "state": "provisioning",
            "target_arch": "arm64",
            "targets": [],
            "toolchain": "gcc-10",
            "uid": "24KQrXqKBA8KmUnLTOB6PjXNFEJ",
            "user": "anders.roxell@linaro.org",
            "user_agent": "tuxsuite/0.42.3",
            "waited_by": [],
            "warnings_count": 0
        },
        "24KQrXuPx37ahaCrWvo3wgOTJRy": {
            "build_name": "",
            "client_token": "7e60efe7-8fe5-4a6c-8932-cc2ea0900932",
            "download_url": "https://builds.tuxbuild.com/24KQrXuPx37ahaCrWvo3wgOTJRy/",
            "environment": {},
            "errors_count": 0,
            "finished_time": null,
            "git_ref": "v5.15-rc2",
            "git_repo": "https://git.kernel.org/pub/scm/linux/kernel/git/torvalds/linux.git",
            "git_sha": "e4e737bb5c170df6135a127739a9e6148ee3da82",
            "image_sha": "",
            "kconfig": [
                "tinyconfig"
            ],
            "kernel_image": "",
            "kernel_patch_file": "",
            "make_variables": {},
            "no_cache": true,
            "plan": "24KQrL35ySporeIMzdaoGPUmwvx",
            "project": "linaro/anders",
            "provisioning_time": "2022-01-28T13:36:37.007638",
            "result": "unknown",
            "running_time": null,
            "state": "provisioning",
            "target_arch": "arm64",
            "targets": [],
            "toolchain": "gcc-10",
            "uid": "24KQrXuPx37ahaCrWvo3wgOTJRy",
            "user": "anders.roxell@linaro.org",
            "user_agent": "tuxsuite/0.42.3",
            "waited_by": [],
            "warnings_count": 0
        },
        "24KQrXx1KMNgplgGNRQTR1eYWzh": {
            "build_name": "",
            "client_token": "72747b88-60f6-4f85-abaf-a38d83365ab9",
            "download_url": "https://builds.tuxbuild.com/24KQrXx1KMNgplgGNRQTR1eYWzh/",
            "environment": {},
            "errors_count": 0,
            "finished_time": null,
            "git_ref": "v5.15-rc2",
            "git_repo": "https://git.kernel.org/pub/scm/linux/kernel/git/torvalds/linux.git",
            "git_sha": "e4e737bb5c170df6135a127739a9e6148ee3da82",
            "image_sha": "",
            "kconfig": [
                "defconfig"
            ],
            "kernel_image": "",
            "kernel_patch_file": "",
            "make_variables": {},
            "no_cache": true,
            "plan": "24KQrL35ySporeIMzdaoGPUmwvx",
            "project": "linaro/anders",
            "provisioning_time": "2022-01-28T13:36:37.470563",
            "result": "unknown",
            "running_time": null,
            "state": "provisioning",
            "target_arch": "arm64",
            "targets": [],
            "toolchain": "gcc-10",
            "uid": "24KQrXx1KMNgplgGNRQTR1eYWzh",
            "user": "anders.roxell@linaro.org",
            "user_agent": "tuxsuite/0.42.3",
            "waited_by": [],
            "warnings_count": 0
        },
        "24KQrYIQ14y28HpBGBENvxXB3hR": {
            "build_name": "",
            "client_token": "43f49813-76a1-4e5e-83cd-589ab0e6def8",
            "download_url": "https://builds.tuxbuild.com/24KQrYIQ14y28HpBGBENvxXB3hR/",
            "environment": {},
            "errors_count": 0,
            "finished_time": null,
            "git_ref": "v5.15-rc2",
            "git_repo": "https://git.kernel.org/pub/scm/linux/kernel/git/torvalds/linux.git",
            "git_sha": "e4e737bb5c170df6135a127739a9e6148ee3da82",
            "image_sha": "",
            "kconfig": [
                "defconfig"
            ],
            "kernel_image": "",
            "kernel_patch_file": "",
            "make_variables": {
                "LLVM": "1",
                "LLVM_IAS": "1"
            },
            "no_cache": true,
            "plan": "24KQrL35ySporeIMzdaoGPUmwvx",
            "project": "linaro/anders",
            "provisioning_time": "2022-01-28T13:36:37.219487",
            "result": "unknown",
            "running_time": null,
            "state": "provisioning",
            "target_arch": "arm64",
            "targets": [],
            "toolchain": "clang-13",
            "uid": "24KQrYIQ14y28HpBGBENvxXB3hR",
            "user": "anders.roxell@linaro.org",
            "user_agent": "tuxsuite/0.42.3",
            "waited_by": [],
            "warnings_count": 0
        },
        "24KQrYdGD6k8D9e6hcmKCzV6DBf": {
            "build_name": "",
            "client_token": "dc664272-0660-4a84-91ff-abedb6fc8de4",
            "download_url": "https://builds.tuxbuild.com/24KQrYdGD6k8D9e6hcmKCzV6DBf/",
            "environment": {},
            "errors_count": 0,
            "finished_time": null,
            "git_ref": "v5.15-rc2",
            "git_repo": "https://git.kernel.org/pub/scm/linux/kernel/git/torvalds/linux.git",
            "git_sha": "e4e737bb5c170df6135a127739a9e6148ee3da82",
            "image_sha": "",
            "kconfig": [
                "defconfig"
            ],
            "kernel_image": "",
            "kernel_patch_file": "",
            "make_variables": {},
            "no_cache": true,
            "plan": "24KQrL35ySporeIMzdaoGPUmwvx",
            "project": "linaro/anders",
            "provisioning_time": "2022-01-28T13:36:37.178183",
            "result": "unknown",
            "running_time": null,
            "state": "provisioning",
            "target_arch": "arm64",
            "targets": [],
            "toolchain": "gcc-10",
            "uid": "24KQrYdGD6k8D9e6hcmKCzV6DBf",
            "user": "anders.roxell@linaro.org",
            "user_agent": "tuxsuite/0.42.3",
            "waited_by": [],
            "warnings_count": 0
        },
        "24KQrYuWa4osAfxpeRB9APbNg3e": {
            "build_name": "",
            "client_token": "8336b8c7-80a0-4895-a0c5-8fedea8db187",
            "download_url": "https://builds.tuxbuild.com/24KQrYuWa4osAfxpeRB9APbNg3e/",
            "environment": {},
            "errors_count": 0,
            "finished_time": null,
            "git_ref": "v5.15-rc2",
            "git_repo": "https://git.kernel.org/pub/scm/linux/kernel/git/torvalds/linux.git",
            "git_sha": "e4e737bb5c170df6135a127739a9e6148ee3da82",
            "image_sha": "",
            "kconfig": [
                "defconfig"
            ],
            "kernel_image": "",
            "kernel_patch_file": "",
            "make_variables": {},
            "no_cache": true,
            "plan": "24KQrL35ySporeIMzdaoGPUmwvx",
            "project": "linaro/anders",
            "provisioning_time": "2022-01-28T13:36:37.113254",
            "result": "unknown",
            "running_time": null,
            "state": "provisioning",
            "target_arch": "arm64",
            "targets": [],
            "toolchain": "gcc-11",
            "uid": "24KQrYuWa4osAfxpeRB9APbNg3e",
            "user": "anders.roxell@linaro.org",
            "user_agent": "tuxsuite/0.42.3",
            "waited_by": [],
            "warnings_count": 0
        },
        "24KQrYwloNMyOpClCrX2NKRwsne": {
            "build_name": "",
            "client_token": "78b7facf-f23b-48b2-8e4a-e85cebd10096",
            "download_url": "https://builds.tuxbuild.com/24KQrYwloNMyOpClCrX2NKRwsne/",
            "environment": {},
            "errors_count": 0,
            "finished_time": null,
            "git_ref": "v5.15-rc2",
            "git_repo": "https://git.kernel.org/pub/scm/linux/kernel/git/torvalds/linux.git",
            "git_sha": "e4e737bb5c170df6135a127739a9e6148ee3da82",
            "image_sha": "",
            "kconfig": [
                "defconfig"
            ],
            "kernel_image": "",
            "kernel_patch_file": "",
            "make_variables": {
                "LLVM": "1",
                "LLVM_IAS": "1"
            },
            "no_cache": true,
            "plan": "24KQrL35ySporeIMzdaoGPUmwvx",
            "project": "linaro/anders",
            "provisioning_time": "2022-01-28T13:36:37.449886",
            "result": "unknown",
            "running_time": null,
            "state": "provisioning",
            "target_arch": "arm64",
            "targets": [],
            "toolchain": "clang-nightly",
            "uid": "24KQrYwloNMyOpClCrX2NKRwsne",
            "user": "anders.roxell@linaro.org",
            "user_agent": "tuxsuite/0.42.3",
            "waited_by": [],
            "warnings_count": 0
        },
        "24KQrZ0f5YYr2yjg1pKFhwFyPYI": {
            "build_name": "",
            "client_token": "a8d1b852-a0d7-4512-98c7-e82c548e628a",
            "download_url": "https://builds.tuxbuild.com/24KQrZ0f5YYr2yjg1pKFhwFyPYI/",
            "environment": {},
            "errors_count": 0,
            "finished_time": null,
            "git_ref": "v5.15-rc2",
            "git_repo": "https://git.kernel.org/pub/scm/linux/kernel/git/torvalds/linux.git",
            "git_sha": "e4e737bb5c170df6135a127739a9e6148ee3da82",
            "image_sha": "",
            "kconfig": [
                "defconfig"
            ],
            "kernel_image": "",
            "kernel_patch_file": "",
            "make_variables": {
                "LLVM": "1",
                "LLVM_IAS": "1"
            },
            "no_cache": true,
            "plan": "24KQrL35ySporeIMzdaoGPUmwvx",
            "project": "linaro/anders",
            "provisioning_time": "2022-01-28T13:36:37.364939",
            "result": "unknown",
            "running_time": null,
            "state": "provisioning",
            "target_arch": "arm64",
            "targets": [],
            "toolchain": "clang-nightly",
            "uid": "24KQrZ0f5YYr2yjg1pKFhwFyPYI",
            "user": "anders.roxell@linaro.org",
            "user_agent": "tuxsuite/0.42.3",
            "waited_by": [],
            "warnings_count": 0
        },
        "24KQrZ2P29SmoL5E7okBn4i95j9": {
            "build_name": "",
            "client_token": "2806049c-1ed5-44e9-aa3f-d5bfc94c9cfe",
            "download_url": "https://builds.tuxbuild.com/24KQrZ2P29SmoL5E7okBn4i95j9/",
            "environment": {},
            "errors_count": 0,
            "finished_time": null,
            "git_ref": "v5.15-rc2",
            "git_repo": "https://git.kernel.org/pub/scm/linux/kernel/git/torvalds/linux.git",
            "git_sha": "e4e737bb5c170df6135a127739a9e6148ee3da82",
            "image_sha": "",
            "kconfig": [
                "defconfig"
            ],
            "kernel_image": "",
            "kernel_patch_file": "",
            "make_variables": {},
            "no_cache": true,
            "plan": "24KQrL35ySporeIMzdaoGPUmwvx",
            "project": "linaro/anders",
            "provisioning_time": "2022-01-28T13:36:37.385583",
            "result": "unknown",
            "running_time": null,
            "state": "provisioning",
            "target_arch": "arm64",
            "targets": [],
            "toolchain": "gcc-10",
            "uid": "24KQrZ2P29SmoL5E7okBn4i95j9",
            "user": "anders.roxell@linaro.org",
            "user_agent": "tuxsuite/0.42.3",
            "waited_by": [],
            "warnings_count": 0
        },
        "24KQrZT8ZM2qkR59jERICMskSNa": {
            "build_name": "",
            "client_token": "997abf43-98e2-4fc2-8434-4d45e5e40857",
            "download_url": "https://builds.tuxbuild.com/24KQrZT8ZM2qkR59jERICMskSNa/",
            "environment": {},
            "errors_count": 0,
            "finished_time": null,
            "git_ref": "v5.15-rc2",
            "git_repo": "https://git.kernel.org/pub/scm/linux/kernel/git/torvalds/linux.git",
            "git_sha": "e4e737bb5c170df6135a127739a9e6148ee3da82",
            "image_sha": "",
            "kconfig": [
                "defconfig"
            ],
            "kernel_image": "",
            "kernel_patch_file": "",
            "make_variables": {
                "LLVM": "1",
                "LLVM_IAS": "1"
            },
            "no_cache": true,
            "plan": "24KQrL35ySporeIMzdaoGPUmwvx",
            "project": "linaro/anders",
            "provisioning_time": "2022-01-28T13:36:37.155699",
            "result": "unknown",
            "running_time": null,
            "state": "provisioning",
            "target_arch": "arm64",
            "targets": [],
            "toolchain": "clang-nightly",
            "uid": "24KQrZT8ZM2qkR59jERICMskSNa",
            "user": "anders.roxell@linaro.org",
            "user_agent": "tuxsuite/0.42.3",
            "waited_by": [],
            "warnings_count": 0
        },
        "24KQrZTcGZ2aqC2dRn5H0LIwBvp": {
            "build_name": "",
            "client_token": "af743454-fd4e-411f-9e01-560f1a7e0f72",
            "download_url": "https://builds.tuxbuild.com/24KQrZTcGZ2aqC2dRn5H0LIwBvp/",
            "environment": {},
            "errors_count": 0,
            "finished_time": null,
            "git_ref": "v5.15-rc2",
            "git_repo": "https://git.kernel.org/pub/scm/linux/kernel/git/torvalds/linux.git",
            "git_sha": "e4e737bb5c170df6135a127739a9e6148ee3da82",
            "image_sha": "",
            "kconfig": [
                "defconfig"
            ],
            "kernel_image": "",
            "kernel_patch_file": "",
            "make_variables": {},
            "no_cache": true,
            "plan": "24KQrL35ySporeIMzdaoGPUmwvx",
            "project": "linaro/anders",
            "provisioning_time": "2022-01-28T13:36:37.408472",
            "result": "unknown",
            "running_time": null,
            "state": "provisioning",
            "target_arch": "arm64",
            "targets": [],
            "toolchain": "gcc-11",
            "uid": "24KQrZTcGZ2aqC2dRn5H0LIwBvp",
            "user": "anders.roxell@linaro.org",
            "user_agent": "tuxsuite/0.42.3",
            "waited_by": [],
            "warnings_count": 0
        },
        "24KQrZdpTnBERmshRk68HzSDuaM": {
            "build_name": "",
            "client_token": "03baaf78-fe12-43ae-b6a5-b6fe85eaa112",
            "download_url": "https://builds.tuxbuild.com/24KQrZdpTnBERmshRk68HzSDuaM/",
            "environment": {},
            "errors_count": 0,
            "finished_time": null,
            "git_ref": "v5.15-rc2",
            "git_repo": "https://git.kernel.org/pub/scm/linux/kernel/git/torvalds/linux.git",
            "git_sha": "e4e737bb5c170df6135a127739a9e6148ee3da82",
            "image_sha": "",
            "kconfig": [
                "defconfig"
            ],
            "kernel_image": "",
            "kernel_patch_file": "",
            "make_variables": {},
            "no_cache": true,
            "plan": "24KQrL35ySporeIMzdaoGPUmwvx",
            "project": "linaro/anders",
            "provisioning_time": "2022-01-28T13:36:37.323442",
            "result": "unknown",
            "running_time": null,
            "state": "provisioning",
            "target_arch": "arm64",
            "targets": [],
            "toolchain": "gcc-11",
            "uid": "24KQrZdpTnBERmshRk68HzSDuaM",
            "user": "anders.roxell@linaro.org",
            "user_agent": "tuxsuite/0.42.3",
            "waited_by": [],
            "warnings_count": 0
        },
        "24KQrZgHyqFrXXdIIDq9h6Z2or8": {
            "build_name": "",
            "client_token": "3998eb17-8dc8-43f1-9df1-4a9b11602570",
            "download_url": "https://builds.tuxbuild.com/24KQrZgHyqFrXXdIIDq9h6Z2or8/",
            "environment": {},
            "errors_count": 0,
            "finished_time": null,
            "git_ref": "v5.15-rc2",
            "git_repo": "https://git.kernel.org/pub/scm/linux/kernel/git/torvalds/linux.git",
            "git_sha": "e4e737bb5c170df6135a127739a9e6148ee3da82",
            "image_sha": "",
            "kconfig": [
                "defconfig"
            ],
            "kernel_image": "",
            "kernel_patch_file": "",
            "make_variables": {},
            "no_cache": true,
            "plan": "24KQrL35ySporeIMzdaoGPUmwvx",
            "project": "linaro/anders",
            "provisioning_time": "2022-01-28T13:36:37.492795",
            "result": "unknown",
            "running_time": null,
            "state": "provisioning",
            "target_arch": "arm64",
            "targets": [],
            "toolchain": "gcc-11",
            "uid": "24KQrZgHyqFrXXdIIDq9h6Z2or8",
            "user": "anders.roxell@linaro.org",
            "user_agent": "tuxsuite/0.42.3",
            "waited_by": [],
            "warnings_count": 0
        },
        "24KQraIEi5pdS7S2YZWAr4R9fxs": {
            "build_name": "",
            "client_token": "e02ef463-9232-4b5c-8ba4-4a7ceb8f64dd",
            "download_url": "https://builds.tuxbuild.com/24KQraIEi5pdS7S2YZWAr4R9fxs/",
            "environment": {},
            "errors_count": 0,
            "finished_time": null,
            "git_ref": "v5.15-rc2",
            "git_repo": "https://git.kernel.org/pub/scm/linux/kernel/git/torvalds/linux.git",
            "git_sha": "e4e737bb5c170df6135a127739a9e6148ee3da82",
            "image_sha": "",
            "kconfig": [
                "defconfig"
            ],
            "kernel_image": "",
            "kernel_patch_file": "",
            "make_variables": {
                "LLVM": "1",
                "LLVM_IAS": "1"
            },
            "no_cache": true,
            "plan": "24KQrL35ySporeIMzdaoGPUmwvx",
            "project": "linaro/anders",
            "provisioning_time": "2022-01-28T13:36:37.533879",
            "result": "unknown",
            "running_time": null,
            "state": "provisioning",
            "target_arch": "arm64",
            "targets": [],
            "toolchain": "clang-nightly",
            "uid": "24KQraIEi5pdS7S2YZWAr4R9fxs",
            "user": "anders.roxell@linaro.org",
            "user_agent": "tuxsuite/0.42.3",
            "waited_by": [],
            "warnings_count": 0
        },
        "24KQrbSTQYnZrr3CrNCiXiIItMQ": {
            "build_name": "",
            "client_token": "35eb6150-f577-45f3-89f1-2087f63bd8f5",
            "download_url": "https://builds.tuxbuild.com/24KQrbSTQYnZrr3CrNCiXiIItMQ/",
            "environment": {},
            "errors_count": 0,
            "finished_time": null,
            "git_ref": "v5.15-rc2",
            "git_repo": "https://git.kernel.org/pub/scm/linux/kernel/git/torvalds/linux.git",
            "git_sha": "e4e737bb5c170df6135a127739a9e6148ee3da82",
            "image_sha": "",
            "kconfig": [
                "tinyconfig"
            ],
            "kernel_image": "",
            "kernel_patch_file": "",
            "make_variables": {
                "LLVM": "1",
                "LLVM_IAS": "1"
            },
            "no_cache": true,
            "plan": "24KQrL35ySporeIMzdaoGPUmwvx",
            "project": "linaro/anders",
            "provisioning_time": "2022-01-28T13:36:37.049379",
            "result": "unknown",
            "running_time": null,
            "state": "provisioning",
            "target_arch": "arm64",
            "targets": [],
            "toolchain": "clang-13",
            "uid": "24KQrbSTQYnZrr3CrNCiXiIItMQ",
            "user": "anders.roxell@linaro.org",
            "user_agent": "tuxsuite/0.42.3",
            "waited_by": [],
            "warnings_count": 0
        },
        "24KQrcMQFpseOlGklkLB4O3GZwz": {
            "build_name": "",
            "client_token": "b406c38a-5561-4061-8541-9b4fbd9f333b",
            "download_url": "https://builds.tuxbuild.com/24KQrcMQFpseOlGklkLB4O3GZwz/",
            "environment": {},
            "errors_count": 0,
            "finished_time": null,
            "git_ref": "v5.15-rc2",
            "git_repo": "https://git.kernel.org/pub/scm/linux/kernel/git/torvalds/linux.git",
            "git_sha": "e4e737bb5c170df6135a127739a9e6148ee3da82",
            "image_sha": "",
            "kconfig": [
                "defconfig"
            ],
            "kernel_image": "",
            "kernel_patch_file": "",
            "make_variables": {
                "LLVM": "1",
                "LLVM_IAS": "1"
            },
            "no_cache": true,
            "plan": "24KQrL35ySporeIMzdaoGPUmwvx",
            "project": "linaro/anders",
            "provisioning_time": "2022-01-28T13:36:37.429001",
            "result": "unknown",
            "running_time": null,
            "state": "provisioning",
            "target_arch": "arm64",
            "targets": [],
            "toolchain": "clang-13",
            "uid": "24KQrcMQFpseOlGklkLB4O3GZwz",
            "user": "anders.roxell@linaro.org",
            "user_agent": "tuxsuite/0.42.3",
            "waited_by": [],
            "warnings_count": 0
        },
        "24KQrd09Dqvh2OBZsdR9Q8TqXAL": {
            "build_name": "",
            "client_token": "790c1407-d1c0-4faf-b8e3-56bc2034d547",
            "download_url": "https://builds.tuxbuild.com/24KQrd09Dqvh2OBZsdR9Q8TqXAL/",
            "environment": {},
            "errors_count": 0,
            "finished_time": null,
            "git_ref": "v5.15-rc2",
            "git_repo": "https://git.kernel.org/pub/scm/linux/kernel/git/torvalds/linux.git",
            "git_sha": "e4e737bb5c170df6135a127739a9e6148ee3da82",
            "image_sha": "",
            "kconfig": [
                "defconfig"
            ],
            "kernel_image": "",
            "kernel_patch_file": "",
            "make_variables": {},
            "no_cache": true,
            "plan": "24KQrL35ySporeIMzdaoGPUmwvx",
            "project": "linaro/anders",
            "provisioning_time": "2022-01-28T13:36:37.198828",
            "result": "unknown",
            "running_time": null,
            "state": "provisioning",
            "target_arch": "arm64",
            "targets": [],
            "toolchain": "gcc-11",
            "uid": "24KQrd09Dqvh2OBZsdR9Q8TqXAL",
            "user": "anders.roxell@linaro.org",
            "user_agent": "tuxsuite/0.42.3",
            "waited_by": [],
            "warnings_count": 0
        },
        "24KQrd44CqUG95i4PNzy49g7x2L": {
            "build_name": "",
            "client_token": "beaa8b39-53d7-4798-a256-9bd50dda812f",
            "download_url": "https://builds.tuxbuild.com/24KQrd44CqUG95i4PNzy49g7x2L/",
            "environment": {},
            "errors_count": 0,
            "finished_time": null,
            "git_ref": "v5.15-rc2",
            "git_repo": "https://git.kernel.org/pub/scm/linux/kernel/git/torvalds/linux.git",
            "git_sha": "e4e737bb5c170df6135a127739a9e6148ee3da82",
            "image_sha": "",
            "kconfig": [
                "defconfig"
            ],
            "kernel_image": "",
            "kernel_patch_file": "",
            "make_variables": {
                "LLVM": "1",
                "LLVM_IAS": "1"
            },
            "no_cache": true,
            "plan": "24KQrL35ySporeIMzdaoGPUmwvx",
            "project": "linaro/anders",
            "provisioning_time": "2022-01-28T13:36:37.513359",
            "result": "unknown",
            "running_time": null,
            "state": "provisioning",
            "target_arch": "arm64",
            "targets": [],
            "toolchain": "clang-13",
            "uid": "24KQrd44CqUG95i4PNzy49g7x2L",
            "user": "anders.roxell@linaro.org",
            "user_agent": "tuxsuite/0.42.3",
            "waited_by": [],
            "warnings_count": 0
        }
    },
    "tests": {
        "24KQreFgDw0nw8THlOHYcQWzYiv": {
            "ap_romfw": null,
            "boot_args": null,
            "device": "qemu-arm64",
            "finished_time": null,
            "fip": null,
            "kernel": null,
            "mcp_fw": null,
            "mcp_romfw": null,
            "modules": null,
            "parameters": [],
            "plan": "24KQrL35ySporeIMzdaoGPUmwvx",
            "project": "linaro/anders",
            "provisioning_time": null,
            "result": "unknown",
            "results": {},
            "retries": 0,
            "retries_messages": [],
            "rootfs": null,
            "running_time": null,
            "scp_fw": null,
            "scp_romfw": null,
            "state": "waiting",
            "tests": [
                "boot"
            ],
            "uid": "24KQreFgDw0nw8THlOHYcQWzYiv",
            "user": "anders.roxell@linaro.org",
            "user_agent": "tuxsuite/0.42.3",
            "waiting_for": "24KQrZT8ZM2qkR59jERICMskSNa"
        },
        "24KQreYYUhMQ2rQCnGudKxtEHqS": {
            "ap_romfw": null,
            "boot_args": null,
            "device": "qemu-arm64",
            "finished_time": null,
            "fip": null,
            "kernel": null,
            "mcp_fw": null,
            "mcp_romfw": null,
            "modules": null,
            "parameters": [],
            "plan": "24KQrL35ySporeIMzdaoGPUmwvx",
            "project": "linaro/anders",
            "provisioning_time": null,
            "result": "unknown",
            "results": {},
            "retries": 0,
            "retries_messages": [],
            "rootfs": null,
            "running_time": null,
            "scp_fw": null,
            "scp_romfw": null,
            "state": "waiting",
            "tests": [
                "boot"
            ],
            "uid": "24KQreYYUhMQ2rQCnGudKxtEHqS",
            "user": "anders.roxell@linaro.org",
            "user_agent": "tuxsuite/0.42.3",
            "waiting_for": "24KQrd09Dqvh2OBZsdR9Q8TqXAL"
        },
        "24KQreuL3aWwKUYOEyUWCvXPMbt": {
            "ap_romfw": null,
            "boot_args": null,
            "device": "qemu-arm64",
            "finished_time": null,
            "fip": null,
            "kernel": null,
            "mcp_fw": null,
            "mcp_romfw": null,
            "modules": null,
            "parameters": [],
            "plan": "24KQrL35ySporeIMzdaoGPUmwvx",
            "project": "linaro/anders",
            "provisioning_time": null,
            "result": "unknown",
            "results": {},
            "retries": 0,
            "retries_messages": [],
            "rootfs": null,
            "running_time": null,
            "scp_fw": null,
            "scp_romfw": null,
            "state": "waiting",
            "tests": [
                "boot"
            ],
            "uid": "24KQreuL3aWwKUYOEyUWCvXPMbt",
            "user": "anders.roxell@linaro.org",
            "user_agent": "tuxsuite/0.42.3",
            "waiting_for": "24KQrZ2P29SmoL5E7okBn4i95j9"
        },
        "24KQrfnJLzjWxKYratMwFXJTTds": {
            "ap_romfw": null,
            "boot_args": null,
            "device": "qemu-arm64",
            "finished_time": null,
            "fip": null,
            "kernel": null,
            "mcp_fw": null,
            "mcp_romfw": null,
            "modules": null,
            "parameters": [],
            "plan": "24KQrL35ySporeIMzdaoGPUmwvx",
            "project": "linaro/anders",
            "provisioning_time": null,
            "result": "unknown",
            "results": {},
            "retries": 0,
            "retries_messages": [],
            "rootfs": null,
            "running_time": null,
            "scp_fw": null,
            "scp_romfw": null,
            "state": "waiting",
            "tests": [
                "boot"
            ],
            "uid": "24KQrfnJLzjWxKYratMwFXJTTds",
            "user": "anders.roxell@linaro.org",
            "user_agent": "tuxsuite/0.42.3",
            "waiting_for": "24KQrYwloNMyOpClCrX2NKRwsne"
        },
        "24KQrg864OAjhyNMvjuY6KpXf5b": {
            "ap_romfw": null,
            "boot_args": null,
            "device": "qemu-arm64",
            "finished_time": null,
            "fip": null,
            "kernel": null,
            "mcp_fw": null,
            "mcp_romfw": null,
            "modules": null,
            "parameters": [],
            "plan": "24KQrL35ySporeIMzdaoGPUmwvx",
            "project": "linaro/anders",
            "provisioning_time": null,
            "result": "unknown",
            "results": {},
            "retries": 0,
            "retries_messages": [],
            "rootfs": null,
            "running_time": null,
            "scp_fw": null,
            "scp_romfw": null,
            "state": "waiting",
            "tests": [
                "boot"
            ],
            "uid": "24KQrg864OAjhyNMvjuY6KpXf5b",
            "user": "anders.roxell@linaro.org",
            "user_agent": "tuxsuite/0.42.3",
            "waiting_for": "24KQrXoIgUnmW4JDfiFgOXYVU1b"
        },
        "24KQrgHfmro1GUmBgJPrnxDa1pk": {
            "ap_romfw": null,
            "boot_args": null,
            "device": "qemu-arm64",
            "finished_time": null,
            "fip": null,
            "kernel": null,
            "mcp_fw": null,
            "mcp_romfw": null,
            "modules": null,
            "parameters": [],
            "plan": "24KQrL35ySporeIMzdaoGPUmwvx",
            "project": "linaro/anders",
            "provisioning_time": null,
            "result": "unknown",
            "results": {},
            "retries": 0,
            "retries_messages": [],
            "rootfs": null,
            "running_time": null,
            "scp_fw": null,
            "scp_romfw": null,
            "state": "waiting",
            "tests": [
                "boot"
            ],
            "uid": "24KQrgHfmro1GUmBgJPrnxDa1pk",
            "user": "anders.roxell@linaro.org",
            "user_agent": "tuxsuite/0.42.3",
            "waiting_for": "24KQrZTcGZ2aqC2dRn5H0LIwBvp"
        },
        "24KQrgvohTLFBcLRTINWshXDLAK": {
            "ap_romfw": null,
            "boot_args": null,
            "device": "qemu-arm64",
            "finished_time": null,
            "fip": null,
            "kernel": null,
            "mcp_fw": null,
            "mcp_romfw": null,
            "modules": null,
            "parameters": [],
            "plan": "24KQrL35ySporeIMzdaoGPUmwvx",
            "project": "linaro/anders",
            "provisioning_time": null,
            "result": "unknown",
            "results": {},
            "retries": 0,
            "retries_messages": [],
            "rootfs": null,
            "running_time": null,
            "scp_fw": null,
            "scp_romfw": null,
            "state": "waiting",
            "tests": [
                "boot"
            ],
            "uid": "24KQrgvohTLFBcLRTINWshXDLAK",
            "user": "anders.roxell@linaro.org",
            "user_agent": "tuxsuite/0.42.3",
            "waiting_for": "24KQrZgHyqFrXXdIIDq9h6Z2or8"
        },
        "24KQrh9ZmIDWbUyTrsVE3YRx1gW": {
            "ap_romfw": null,
            "boot_args": null,
            "device": "qemu-arm64",
            "finished_time": null,
            "fip": null,
            "kernel": null,
            "mcp_fw": null,
            "mcp_romfw": null,
            "modules": null,
            "parameters": [],
            "plan": "24KQrL35ySporeIMzdaoGPUmwvx",
            "project": "linaro/anders",
            "provisioning_time": null,
            "result": "unknown",
            "results": {},
            "retries": 0,
            "retries_messages": [],
            "rootfs": null,
            "running_time": null,
            "scp_fw": null,
            "scp_romfw": null,
            "state": "waiting",
            "tests": [
                "boot"
            ],
            "uid": "24KQrh9ZmIDWbUyTrsVE3YRx1gW",
            "user": "anders.roxell@linaro.org",
            "user_agent": "tuxsuite/0.42.3",
            "waiting_for": "24KQrcMQFpseOlGklkLB4O3GZwz"
        },
        "24KQrhYzv8lKSd3ZVPXIm9UwA21": {
            "ap_romfw": null,
            "boot_args": null,
            "device": "qemu-arm64",
            "finished_time": null,
            "fip": null,
            "kernel": null,
            "mcp_fw": null,
            "mcp_romfw": null,
            "modules": null,
            "parameters": [],
            "plan": "24KQrL35ySporeIMzdaoGPUmwvx",
            "project": "linaro/anders",
            "provisioning_time": null,
            "result": "unknown",
            "results": {},
            "retries": 0,
            "retries_messages": [],
            "rootfs": null,
            "running_time": null,
            "scp_fw": null,
            "scp_romfw": null,
            "state": "waiting",
            "tests": [
                "boot"
            ],
            "uid": "24KQrhYzv8lKSd3ZVPXIm9UwA21",
            "user": "anders.roxell@linaro.org",
            "user_agent": "tuxsuite/0.42.3",
            "waiting_for": "24KQrXx1KMNgplgGNRQTR1eYWzh"
        },
        "24KQri4P9WC14ORcH3CnxvVBmOT": {
            "ap_romfw": null,
            "boot_args": null,
            "device": "qemu-arm64",
            "finished_time": null,
            "fip": null,
            "kernel": null,
            "mcp_fw": null,
            "mcp_romfw": null,
            "modules": null,
            "parameters": [],
            "plan": "24KQrL35ySporeIMzdaoGPUmwvx",
            "project": "linaro/anders",
            "provisioning_time": null,
            "result": "unknown",
            "results": {},
            "retries": 0,
            "retries_messages": [],
            "rootfs": null,
            "running_time": null,
            "scp_fw": null,
            "scp_romfw": null,
            "state": "waiting",
            "tests": [
                "boot"
            ],
            "uid": "24KQri4P9WC14ORcH3CnxvVBmOT",
            "user": "anders.roxell@linaro.org",
            "user_agent": "tuxsuite/0.42.3",
            "waiting_for": "24KQrXcOlWg6L2kGFXiI0I1aq85"
        },
        "24KQri4dv4NRUSCLhtx3gT31wuj": {
            "ap_romfw": null,
            "boot_args": null,
            "device": "qemu-arm64",
            "finished_time": null,
            "fip": null,
            "kernel": null,
            "mcp_fw": null,
            "mcp_romfw": null,
            "modules": null,
            "parameters": [],
            "plan": "24KQrL35ySporeIMzdaoGPUmwvx",
            "project": "linaro/anders",
            "provisioning_time": null,
            "result": "unknown",
            "results": {},
            "retries": 0,
            "retries_messages": [],
            "rootfs": null,
            "running_time": null,
            "scp_fw": null,
            "scp_romfw": null,
            "state": "waiting",
            "tests": [
                "boot"
            ],
            "uid": "24KQri4dv4NRUSCLhtx3gT31wuj",
            "user": "anders.roxell@linaro.org",
            "user_agent": "tuxsuite/0.42.3",
            "waiting_for": "24KQrXqKBA8KmUnLTOB6PjXNFEJ"
        },
        "24KQriNMete1V8tAiCTQvO3c8GU": {
            "ap_romfw": null,
            "boot_args": null,
            "device": "qemu-arm64",
            "finished_time": null,
            "fip": null,
            "kernel": null,
            "mcp_fw": null,
            "mcp_romfw": null,
            "modules": null,
            "parameters": [],
            "plan": "24KQrL35ySporeIMzdaoGPUmwvx",
            "project": "linaro/anders",
            "provisioning_time": null,
            "result": "unknown",
            "results": {},
            "retries": 0,
            "retries_messages": [],
            "rootfs": null,
            "running_time": null,
            "scp_fw": null,
            "scp_romfw": null,
            "state": "waiting",
            "tests": [
                "boot"
            ],
            "uid": "24KQriNMete1V8tAiCTQvO3c8GU",
            "user": "anders.roxell@linaro.org",
            "user_agent": "tuxsuite/0.42.3",
            "waiting_for": "24KQrYIQ14y28HpBGBENvxXB3hR"
        },
        "24KQriQXcm8t2rsIM2qYoImEtwg": {
            "ap_romfw": null,
            "boot_args": null,
            "device": "qemu-arm64",
            "finished_time": null,
            "fip": null,
            "kernel": null,
            "mcp_fw": null,
            "mcp_romfw": null,
            "modules": null,
            "parameters": [],
            "plan": "24KQrL35ySporeIMzdaoGPUmwvx",
            "project": "linaro/anders",
            "provisioning_time": null,
            "result": "unknown",
            "results": {},
            "retries": 0,
            "retries_messages": [],
            "rootfs": null,
            "running_time": null,
            "scp_fw": null,
            "scp_romfw": null,
            "state": "waiting",
            "tests": [
                "boot"
            ],
            "uid": "24KQriQXcm8t2rsIM2qYoImEtwg",
            "user": "anders.roxell@linaro.org",
            "user_agent": "tuxsuite/0.42.3",
            "waiting_for": "24KQrXlETohPJts3dT6maQxICWk"
        },
        "24KQriU9HSPJUKwTocgWWCK47zV": {
            "ap_romfw": null,
            "boot_args": null,
            "device": "qemu-arm64",
            "finished_time": null,
            "fip": null,
            "kernel": null,
            "mcp_fw": null,
            "mcp_romfw": null,
            "modules": null,
            "parameters": [],
            "plan": "24KQrL35ySporeIMzdaoGPUmwvx",
            "project": "linaro/anders",
            "provisioning_time": null,
            "result": "unknown",
            "results": {},
            "retries": 0,
            "retries_messages": [],
            "rootfs": null,
            "running_time": null,
            "scp_fw": null,
            "scp_romfw": null,
            "state": "waiting",
            "tests": [
                "boot"
            ],
            "uid": "24KQriU9HSPJUKwTocgWWCK47zV",
            "user": "anders.roxell@linaro.org",
            "user_agent": "tuxsuite/0.42.3",
            "waiting_for": "24KQrYuWa4osAfxpeRB9APbNg3e"
        },
        "24KQriszYCYxA4KTdIBcDoAiLYY": {
            "ap_romfw": null,
            "boot_args": null,
            "device": "qemu-arm64",
            "finished_time": null,
            "fip": null,
            "kernel": null,
            "mcp_fw": null,
            "mcp_romfw": null,
            "modules": null,
            "parameters": [],
            "plan": "24KQrL35ySporeIMzdaoGPUmwvx",
            "project": "linaro/anders",
            "provisioning_time": null,
            "result": "unknown",
            "results": {},
            "retries": 0,
            "retries_messages": [],
            "rootfs": null,
            "running_time": null,
            "scp_fw": null,
            "scp_romfw": null,
            "state": "waiting",
            "tests": [
                "boot"
            ],
            "uid": "24KQriszYCYxA4KTdIBcDoAiLYY",
            "user": "anders.roxell@linaro.org",
            "user_agent": "tuxsuite/0.42.3",
            "waiting_for": "24KQrWd5SEQX9v3teSoeRfkChSQ"
        },
        "24KQrj5aJW8NgPlDi7N8EYRO6fJ": {
            "ap_romfw": null,
            "boot_args": null,
            "device": "qemu-arm64",
            "finished_time": null,
            "fip": null,
            "kernel": null,
            "mcp_fw": null,
            "mcp_romfw": null,
            "modules": null,
            "parameters": [],
            "plan": "24KQrL35ySporeIMzdaoGPUmwvx",
            "project": "linaro/anders",
            "provisioning_time": null,
            "result": "unknown",
            "results": {},
            "retries": 0,
            "retries_messages": [],
            "rootfs": null,
            "running_time": null,
            "scp_fw": null,
            "scp_romfw": null,
            "state": "waiting",
            "tests": [
                "boot"
            ],
            "uid": "24KQrj5aJW8NgPlDi7N8EYRO6fJ",
            "user": "anders.roxell@linaro.org",
            "user_agent": "tuxsuite/0.42.3",
            "waiting_for": "24KQrYdGD6k8D9e6hcmKCzV6DBf"
        },
        "24KQrjMVNJopN7iroskpksKCTlI": {
            "ap_romfw": null,
            "boot_args": null,
            "device": "qemu-arm64",
            "finished_time": null,
            "fip": null,
            "kernel": null,
            "mcp_fw": null,
            "mcp_romfw": null,
            "modules": null,
            "parameters": [],
            "plan": "24KQrL35ySporeIMzdaoGPUmwvx",
            "project": "linaro/anders",
            "provisioning_time": null,
            "result": "unknown",
            "results": {},
            "retries": 0,
            "retries_messages": [],
            "rootfs": null,
            "running_time": null,
            "scp_fw": null,
            "scp_romfw": null,
            "state": "waiting",
            "tests": [
                "boot"
            ],
            "uid": "24KQrjMVNJopN7iroskpksKCTlI",
            "user": "anders.roxell@linaro.org",
            "user_agent": "tuxsuite/0.42.3",
            "waiting_for": "24KQrd44CqUG95i4PNzy49g7x2L"
        },
        "24KQrk9wLhxYiWnS8JELR2c77iR": {
            "ap_romfw": null,
            "boot_args": null,
            "device": "qemu-arm64",
            "finished_time": null,
            "fip": null,
            "kernel": null,
            "mcp_fw": null,
            "mcp_romfw": null,
            "modules": null,
            "parameters": [],
            "plan": "24KQrL35ySporeIMzdaoGPUmwvx",
            "project": "linaro/anders",
            "provisioning_time": null,
            "result": "unknown",
            "results": {},
            "retries": 0,
            "retries_messages": [],
            "rootfs": null,
            "running_time": null,
            "scp_fw": null,
            "scp_romfw": null,
            "state": "waiting",
            "tests": [
                "boot"
            ],
            "uid": "24KQrk9wLhxYiWnS8JELR2c77iR",
            "user": "anders.roxell@linaro.org",
            "user_agent": "tuxsuite/0.42.3",
            "waiting_for": "24KQrZ0f5YYr2yjg1pKFhwFyPYI"
        },
        "24KQrkhwo4deBI5vkT1qQJyXRt1": {
            "ap_romfw": null,
            "boot_args": null,
            "device": "qemu-arm64",
            "finished_time": null,
            "fip": null,
            "kernel": null,
            "mcp_fw": null,
            "mcp_romfw": null,
            "modules": null,
            "parameters": [],
            "plan": "24KQrL35ySporeIMzdaoGPUmwvx",
            "project": "linaro/anders",
            "provisioning_time": null,
            "result": "unknown",
            "results": {},
            "retries": 0,
            "retries_messages": [],
            "rootfs": null,
            "running_time": null,
            "scp_fw": null,
            "scp_romfw": null,
            "state": "waiting",
            "tests": [
                "boot"
            ],
            "uid": "24KQrkhwo4deBI5vkT1qQJyXRt1",
            "user": "anders.roxell@linaro.org",
            "user_agent": "tuxsuite/0.42.3",
            "waiting_for": "24KQrZdpTnBERmshRk68HzSDuaM"
        },
        "24KQrlBSGGowFsC7j41nBZi5WWO": {
            "ap_romfw": null,
            "boot_args": null,
            "device": "qemu-arm64",
            "finished_time": null,
            "fip": null,
            "kernel": null,
            "mcp_fw": null,
            "mcp_romfw": null,
            "modules": null,
            "parameters": [],
            "plan": "24KQrL35ySporeIMzdaoGPUmwvx",
            "project": "linaro/anders",
            "provisioning_time": null,
            "result": "unknown",
            "results": {},
            "retries": 0,
            "retries_messages": [],
            "rootfs": null,
            "running_time": null,
            "scp_fw": null,
            "scp_romfw": null,
            "state": "waiting",
            "tests": [
                "boot"
            ],
            "uid": "24KQrlBSGGowFsC7j41nBZi5WWO",
            "user": "anders.roxell@linaro.org",
            "user_agent": "tuxsuite/0.42.3",
            "waiting_for": "24KQraIEi5pdS7S2YZWAr4R9fxs"
        }
    }
}